time_period,aggregation,error_metric_complete,model_comp,IHACRES_ah,SACSMA_ah,PRMS_ah,ALLMODELS_ah,IHACRES_ua,SACSMA_ua,PRMS_ua,ALLMODELS_ua
test,entire,MI,uncal_vs_cal,-7.67493956754355,-27.607100437395,-13.4593144532478,NA,-11.659547969861,-13.7832296980038,-9.13919370152316,NA
test,wy,RR,uncal_vs_cal,-91.3199035172403,-25.3990517366347,-68.3648141845855,NA,-81.9722512380395,19.2984694703113,-33.0458805213695,NA
test,wy,RR wet,uncal_vs_cal,-75.2116897539078,-58.3155399021775,8.78220367794388,NA,-54.0814959349095,-17.2383770601073,-17.0071291656838,NA
test,wy,RR normal,uncal_vs_cal,-80.3887408694435,-69.5079937594984,-62.9119781421959,NA,-76.8377667258075,-14.7464552841533,-29.480968108435,NA
test,wy,RR dry,uncal_vs_cal,-94.5821032403006,117.46999610319,-80.4178234562384,NA,-86.8751000953989,52.7472658462266,-38.3210875329957,NA
test,monthly,MFB,uncal_vs_cal,-64.8526666251467,-65.4606103024012,-12.4327772629363,NA,-93.3730939334199,-85.9073648179457,53.6583287058575,NA
test,monthly,MFB wet,uncal_vs_cal,-82.3330844376264,-44.8958047904418,-63.6634759649907,NA,-83.4340639281251,-6.09182661828704,-23.7133476906399,NA
test,monthly,MFB transition,uncal_vs_cal,-89.4384405326839,-86.1379833667904,23.7311212446474,NA,-98.3822501465278,-92.6319092868718,73.85034802316,NA
test,monthly,MFB dry,uncal_vs_cal,215.370663484218,3.60090990089477,-66.1060601198295,NA,782.405892519011,467.977930461351,-89.2644481267743,NA
test,entire,LOSSVAR,uncal_vs_cal,-68.4083164580038,-56.0890625202812,1.64706630749685,NA,-55.6342450372234,-46.0546442920538,10.4852607282893,NA
test,entire,NSE,uncal_vs_cal,-35.7931119715343,-39.2208095220107,-6.56619834426583,NA,-38.638142995447,-27.0922037415371,-15.3968263803151,NA
test,entire,NSEH,uncal_vs_cal,3.29886095651602,-41.0117464695298,80.0170503151716,NA,-43.7352586697254,-28.1779917873669,5.07053603080718,NA
test,entire,NSEL,uncal_vs_cal,-99.5373956949259,-64.4029035044603,-85.2691469074749,NA,-99.8165565736486,-25.94440142702,-56.0360109772074,NA
test,entire,KGE,uncal_vs_cal,-49.8980940552876,-34.4720496462888,96.9374706826684,NA,-74.0520266909775,-30.7106235604626,13.2977873636904,NA
test,entire,aKGE,uncal_vs_cal,86.1260915009475,-28.7317045843297,2238.96922867466,NA,-62.7924473933717,-27.3621253278395,73.6296107798362,NA
test,entire,bKGE,uncal_vs_cal,-80.8259839770406,-46.9781798488968,42.6691882675916,NA,-83.5507001376712,-40.1788133638427,18.2684238087642,NA
test,entire,r,uncal_vs_cal,-42.0002408464647,-47.0081417205939,-14.8546396073485,NA,-39.4626217191895,-24.5515792118903,-11.3324558820925,NA
test,entire,FLV,uncal_vs_cal,-75.2062527837194,-75.929293992282,-32.8500887398984,NA,1046.451758181,-78.254726001925,-38.1150191590033,NA
test,entire,FHV,uncal_vs_cal,22.3203284740298,-31.3070806144715,106.727967305592,NA,-48.2492844016339,-21.1336518826619,10.3234713868587,NA
test,entire,FMS,uncal_vs_cal,-13.0633074418895,-93.4919829735935,414.943636772998,NA,25017.1531677679,112.791513659188,-10.5870259230474,NA
