time_period,aggregation,error_metric_complete,model_comp,IHACRES_ah,SACSMA_ah,PRMS_ah,ALLMODELS_ah,IHACRES_ua,SACSMA_ua,PRMS_ua,ALLMODELS_ua
test,entire,MI,cal_vs_uncalHybrid,-18.0347272336039,-16.8712432496259,-44.7149282897221,NA,-7.35617945945234,-2.02372060355485,-57.6168004329514,NA
test,wy,RR,cal_vs_uncalHybrid,7.81794761415638,-39.1446247158281,6.82767534202557,NA,-37.1852096606687,-47.4924517163267,-58.0209043860373,NA
test,wy,RR wet,cal_vs_uncalHybrid,68.7791572327373,-30.3588072668406,24.9605831959761,NA,-40.8209178059153,-16.8286619430534,-65.1895353970676,NA
test,wy,RR normal,cal_vs_uncalHybrid,-74.8046939870396,-78.6956129406157,-35.0545399869981,NA,-88.1500545230434,-29.9291071740062,-99.6721389849595,NA
test,wy,RR dry,cal_vs_uncalHybrid,11.9409339496341,-35.1347525695565,0.0988433731902698,NA,-23.9245017467339,-61.1748862848693,-48.6831884196473,NA
test,monthly,MFB,cal_vs_uncalHybrid,-46.3025392660463,10.7464392068371,12.5409467417411,NA,44.7364591668039,39.1130981097183,-90.2908254788698,NA
test,monthly,MFB wet,cal_vs_uncalHybrid,-19.8649959584111,-21.1037571992142,-27.0466343500448,NA,-29.7585661888939,-50.0557363472338,-63.8436292065376,NA
test,monthly,MFB transition,cal_vs_uncalHybrid,15.2678290012145,74.7438639460805,-47.9625283964593,NA,423.591770002273,52.156322454015,-92.2359637441492,NA
test,monthly,MFB dry,cal_vs_uncalHybrid,-69.8417164425573,-11.3659673172347,459.658650950663,NA,-76.6791126991283,28.9936952957109,131.239974891514,NA
test,entire,LOSSVAR,cal_vs_uncalHybrid,-40.3355761079844,-28.6485620263786,-57.5427588058548,NA,-54.7790011690846,-23.498837145675,-81.4395059205589,NA
test,entire,NSE,cal_vs_uncalHybrid,-28.3280585841697,-42.6611408607644,-46.6755440031103,NA,-26.8311461002148,-35.6785214304915,-70.9079924151086,NA
test,entire,NSEH,cal_vs_uncalHybrid,-17.9949736540966,-47.9600949459126,-42.6125401959646,NA,33.7191686196036,-37.057949055023,-68.6520101464381,NA
test,entire,NSEL,cal_vs_uncalHybrid,139.845003084654,-10.0041700669923,-94.3512355047467,NA,344.408891640936,-81.4567567167773,-99.5946791418654,NA
test,entire,KGE,cal_vs_uncalHybrid,-17.0087008138885,-64.9107563969041,-26.2515619976627,NA,78.3211416690268,-15.6356316161145,-61.1754602281892,NA
test,entire,aKGE,cal_vs_uncalHybrid,-17.509110422485,-71.2216040152336,-27.8536880170283,NA,372.272681081641,-18.5324423666264,-47.285604796617,NA
test,entire,bKGE,cal_vs_uncalHybrid,-0.287708969603048,-83.6052266957323,-4.26229980120532,NA,23.3210655162048,8.52127151243854,-67.5347069356729,NA
test,entire,r,cal_vs_uncalHybrid,-31.9174105059558,-32.9542592412568,-55.1843968124247,NA,-49.2516580831719,-52.967418947387,-81.8796717836651,NA
test,entire,FLV,cal_vs_uncalHybrid,467.3999408737,20.2405309944312,556.475779135035,NA,-79.3882458565298,152.013257023673,-66.4092571773355,NA
test,entire,FHV,cal_vs_uncalHybrid,-29.2110878031082,-71.6758276271677,-42.6040059701541,NA,101.969719242975,-23.6018869106899,-61.6799628355358,NA
test,entire,FMS,cal_vs_uncalHybrid,-81.6212371833172,1324.46966408943,-90.5299035855034,NA,-97.693309484155,360.919276368751,-79.7044379778916,NA
