subbasin,subbasin_pretty,aggregation,aggregation_pretty,error_metric,error_metric_pretty,process_model,process_model_pretty,calibration_status,lstm_run,lstm_model,model,time_period,wet_dry,value
ua,Upper Alameda,wy,water year,RR,relative runoff ratio,IHACRES,IHACRES,calibrated,none,none,calibrated,train,normal,0.454772297442807
ua,Upper Alameda,wy,water year,RR,relative runoff ratio,IHACRES,IHACRES,uncalibrated,none,none,uncalibrated,train,normal,1.788263329687
ua,Upper Alameda,wy,water year,RR,relative runoff ratio,ALLMODELS,all,calibrated,LSTM_PT_ALLMODELS_ENSEMBLE_10,LSTM all,calibrated + LSTM all,train,normal,0.0323048338114742
ua,Upper Alameda,wy,water year,RR,relative runoff ratio,ALLMODELS,all,calibrated,LSTM_PT_ALLMODELS_FLUXES_ENSEMBLE_10,LSTM fluxes,calibrated + LSTM fluxes,train,normal,0.0481330170107457
ua,Upper Alameda,wy,water year,RR,relative runoff ratio,ALLMODELS,all,calibrated,LSTM_PT_ALLMODELS_STATES_ENSEMBLE_10,LSTM states,calibrated + LSTM states,train,normal,0.0376542578447749
ua,Upper Alameda,wy,water year,RR,relative runoff ratio,ALLMODELS,all,uncalibrated,LSTM_PT_ALLMODELS_UNC_ENSEMBLE_10,LSTM all,uncalibrated + LSTM all,train,normal,0.0336040861264011
ua,Upper Alameda,wy,water year,RR,relative runoff ratio,none,none,none,LSTM_PT_ENSEMBLE_10,LSTM,LSTM,train,normal,0.069265774852351
ua,Upper Alameda,wy,water year,RR,relative runoff ratio,IHACRES,IHACRES,calibrated,LSTM_PT_IHACRES_ENSEMBLE_10,LSTM all,calibrated + LSTM all,train,normal,0.0371123678220018
ua,Upper Alameda,wy,water year,RR,relative runoff ratio,IHACRES,IHACRES,calibrated,LSTM_PT_IHACRES_FLUXES_ENSEMBLE_10,LSTM fluxes,calibrated + LSTM fluxes,train,normal,0.0472691911175265
ua,Upper Alameda,wy,water year,RR,relative runoff ratio,IHACRES,IHACRES,calibrated,LSTM_PT_IHACRES_STATES_ENSEMBLE_10,LSTM states,calibrated + LSTM states,train,normal,0.0549556381100512
ua,Upper Alameda,wy,water year,RR,relative runoff ratio,IHACRES,IHACRES,uncalibrated,LSTM_PT_IHACRES_UNC_ENSEMBLE_10,LSTM all,uncalibrated + LSTM all,train,normal,0.0482825483362584
ua,Upper Alameda,wy,water year,RR,relative runoff ratio,PRMS,PRMS,calibrated,LSTM_PT_PRMS_ENSEMBLE_10,LSTM all,calibrated + LSTM all,train,normal,0.0640984263157409
ua,Upper Alameda,wy,water year,RR,relative runoff ratio,PRMS,PRMS,calibrated,LSTM_PT_PRMS_FLUXES_ENSEMBLE_10,LSTM fluxes,calibrated + LSTM fluxes,train,normal,0.0505158377291358
ua,Upper Alameda,wy,water year,RR,relative runoff ratio,PRMS,PRMS,calibrated,LSTM_PT_PRMS_STATES_ENSEMBLE_10,LSTM states,calibrated + LSTM states,train,normal,0.0459229555803659
ua,Upper Alameda,wy,water year,RR,relative runoff ratio,PRMS,PRMS,uncalibrated,LSTM_PT_PRMS_UNC_ENSEMBLE_10,LSTM all,uncalibrated + LSTM all,train,normal,0.0335205351542891
ua,Upper Alameda,wy,water year,RR,relative runoff ratio,SACSMA,SAC-SMA,calibrated,LSTM_PT_SACSMA_ENSEMBLE_10,LSTM all,calibrated + LSTM all,train,normal,0.0304536777838983
ua,Upper Alameda,wy,water year,RR,relative runoff ratio,SACSMA,SAC-SMA,calibrated,LSTM_PT_SACSMA_FLUXES_ENSEMBLE_10,LSTM fluxes,calibrated + LSTM fluxes,train,normal,0.0449402407113921
ua,Upper Alameda,wy,water year,RR,relative runoff ratio,SACSMA,SAC-SMA,calibrated,LSTM_PT_SACSMA_STATES_ENSEMBLE_10,LSTM states,calibrated + LSTM states,train,normal,0.0503877367421566
ua,Upper Alameda,wy,water year,RR,relative runoff ratio,SACSMA,SAC-SMA,uncalibrated,LSTM_PT_SACSMA_UNC_ENSEMBLE_10,LSTM all,uncalibrated + LSTM all,train,normal,0.0363768274100951
ua,Upper Alameda,wy,water year,RR,relative runoff ratio,PRMS,PRMS,calibrated,none,none,calibrated,train,normal,0.3686559653154
ua,Upper Alameda,wy,water year,RR,relative runoff ratio,PRMS,PRMS,uncalibrated,none,none,uncalibrated,train,normal,0.66605785094269
ua,Upper Alameda,wy,water year,RR,relative runoff ratio,SACSMA,SAC-SMA,calibrated,none,none,calibrated,train,normal,0.415415884032746
ua,Upper Alameda,wy,water year,RR,relative runoff ratio,SACSMA,SAC-SMA,uncalibrated,none,none,uncalibrated,train,normal,0.524394759689971
