subbasin,subbasin_pretty,aggregation,aggregation_pretty,error_metric,error_metric_pretty,process_model,process_model_pretty,calibration_status,lstm_run,lstm_model,model,time_period,wet_dry,value
ua,Upper Alameda,wy,water year,FHV,high flow bias from flow duration curve,IHACRES,IHACRES,calibrated,none,none,calibrated,train,wet,7.45883299126655
ua,Upper Alameda,wy,water year,FHV,high flow bias from flow duration curve,IHACRES,IHACRES,uncalibrated,none,none,uncalibrated,train,wet,1.01184124317535
ua,Upper Alameda,wy,water year,FHV,high flow bias from flow duration curve,ALLMODELS,all,calibrated,LSTM_PT_ALLMODELS_ENSEMBLE_10,LSTM all,calibrated + LSTM all,train,wet,-2.7095851684566
ua,Upper Alameda,wy,water year,FHV,high flow bias from flow duration curve,ALLMODELS,all,calibrated,LSTM_PT_ALLMODELS_FLUXES_ENSEMBLE_10,LSTM fluxes,calibrated + LSTM fluxes,train,wet,-1.81955296354071
ua,Upper Alameda,wy,water year,FHV,high flow bias from flow duration curve,ALLMODELS,all,calibrated,LSTM_PT_ALLMODELS_STATES_ENSEMBLE_10,LSTM states,calibrated + LSTM states,train,wet,-3.71894843763343
ua,Upper Alameda,wy,water year,FHV,high flow bias from flow duration curve,ALLMODELS,all,uncalibrated,LSTM_PT_ALLMODELS_UNC_ENSEMBLE_10,LSTM all,uncalibrated + LSTM all,train,wet,-3.35845780351238
ua,Upper Alameda,wy,water year,FHV,high flow bias from flow duration curve,none,none,none,LSTM_PT_ENSEMBLE_10,LSTM,LSTM,train,wet,-6.87691778933588
ua,Upper Alameda,wy,water year,FHV,high flow bias from flow duration curve,IHACRES,IHACRES,calibrated,LSTM_PT_IHACRES_ENSEMBLE_10,LSTM all,calibrated + LSTM all,train,wet,-2.46830216172232
ua,Upper Alameda,wy,water year,FHV,high flow bias from flow duration curve,IHACRES,IHACRES,calibrated,LSTM_PT_IHACRES_FLUXES_ENSEMBLE_10,LSTM fluxes,calibrated + LSTM fluxes,train,wet,-2.52589751769525
ua,Upper Alameda,wy,water year,FHV,high flow bias from flow duration curve,IHACRES,IHACRES,calibrated,LSTM_PT_IHACRES_STATES_ENSEMBLE_10,LSTM states,calibrated + LSTM states,train,wet,-3.38865582700366
ua,Upper Alameda,wy,water year,FHV,high flow bias from flow duration curve,IHACRES,IHACRES,uncalibrated,LSTM_PT_IHACRES_UNC_ENSEMBLE_10,LSTM all,uncalibrated + LSTM all,train,wet,-4.83723184193173
ua,Upper Alameda,wy,water year,FHV,high flow bias from flow duration curve,PRMS,PRMS,calibrated,LSTM_PT_PRMS_ENSEMBLE_10,LSTM all,calibrated + LSTM all,train,wet,-1.0318995733972
ua,Upper Alameda,wy,water year,FHV,high flow bias from flow duration curve,PRMS,PRMS,calibrated,LSTM_PT_PRMS_FLUXES_ENSEMBLE_10,LSTM fluxes,calibrated + LSTM fluxes,train,wet,-4.07199690032818
ua,Upper Alameda,wy,water year,FHV,high flow bias from flow duration curve,PRMS,PRMS,calibrated,LSTM_PT_PRMS_STATES_ENSEMBLE_10,LSTM states,calibrated + LSTM states,train,wet,-0.180689537992867
ua,Upper Alameda,wy,water year,FHV,high flow bias from flow duration curve,PRMS,PRMS,uncalibrated,LSTM_PT_PRMS_UNC_ENSEMBLE_10,LSTM all,uncalibrated + LSTM all,train,wet,-0.0461475329890408
ua,Upper Alameda,wy,water year,FHV,high flow bias from flow duration curve,SACSMA,SAC-SMA,calibrated,LSTM_PT_SACSMA_ENSEMBLE_10,LSTM all,calibrated + LSTM all,train,wet,-2.77527815498027
ua,Upper Alameda,wy,water year,FHV,high flow bias from flow duration curve,SACSMA,SAC-SMA,calibrated,LSTM_PT_SACSMA_FLUXES_ENSEMBLE_10,LSTM fluxes,calibrated + LSTM fluxes,train,wet,-3.51811604004296
ua,Upper Alameda,wy,water year,FHV,high flow bias from flow duration curve,SACSMA,SAC-SMA,calibrated,LSTM_PT_SACSMA_STATES_ENSEMBLE_10,LSTM states,calibrated + LSTM states,train,wet,-2.70481527529756
ua,Upper Alameda,wy,water year,FHV,high flow bias from flow duration curve,SACSMA,SAC-SMA,uncalibrated,LSTM_PT_SACSMA_UNC_ENSEMBLE_10,LSTM all,uncalibrated + LSTM all,train,wet,-2.82110009147045
ua,Upper Alameda,wy,water year,FHV,high flow bias from flow duration curve,PRMS,PRMS,calibrated,none,none,calibrated,train,wet,-51.4802856213202
ua,Upper Alameda,wy,water year,FHV,high flow bias from flow duration curve,PRMS,PRMS,uncalibrated,none,none,uncalibrated,train,wet,-23.1893304164786
ua,Upper Alameda,wy,water year,FHV,high flow bias from flow duration curve,SACSMA,SAC-SMA,calibrated,none,none,calibrated,train,wet,-40.556590862507
ua,Upper Alameda,wy,water year,FHV,high flow bias from flow duration curve,SACSMA,SAC-SMA,uncalibrated,none,none,uncalibrated,train,wet,-69.3839531197894
