subbasin,subbasin_pretty,aggregation,aggregation_pretty,error_metric,error_metric_pretty,process_model,process_model_pretty,calibration_status,lstm_run,lstm_model,model,time_period,wet_dry,value
ua,Upper Alameda,wy,water year,FMS,bias in flow duration curve midsegment slope,IHACRES,IHACRES,calibrated,none,none,calibrated,train,wet,343.289235460291
ua,Upper Alameda,wy,water year,FMS,bias in flow duration curve midsegment slope,IHACRES,IHACRES,uncalibrated,none,none,uncalibrated,train,wet,15.1911298161982
ua,Upper Alameda,wy,water year,FMS,bias in flow duration curve midsegment slope,ALLMODELS,all,calibrated,LSTM_PT_ALLMODELS_ENSEMBLE_10,LSTM all,calibrated + LSTM all,train,wet,-4.18396410265708
ua,Upper Alameda,wy,water year,FMS,bias in flow duration curve midsegment slope,ALLMODELS,all,calibrated,LSTM_PT_ALLMODELS_FLUXES_ENSEMBLE_10,LSTM fluxes,calibrated + LSTM fluxes,train,wet,8.5975525324615
ua,Upper Alameda,wy,water year,FMS,bias in flow duration curve midsegment slope,ALLMODELS,all,calibrated,LSTM_PT_ALLMODELS_STATES_ENSEMBLE_10,LSTM states,calibrated + LSTM states,train,wet,-2.1908236878099
ua,Upper Alameda,wy,water year,FMS,bias in flow duration curve midsegment slope,ALLMODELS,all,uncalibrated,LSTM_PT_ALLMODELS_UNC_ENSEMBLE_10,LSTM all,uncalibrated + LSTM all,train,wet,-2.55081019712964
ua,Upper Alameda,wy,water year,FMS,bias in flow duration curve midsegment slope,none,none,none,LSTM_PT_ENSEMBLE_10,LSTM,LSTM,train,wet,15.7722180717265
ua,Upper Alameda,wy,water year,FMS,bias in flow duration curve midsegment slope,IHACRES,IHACRES,calibrated,LSTM_PT_IHACRES_ENSEMBLE_10,LSTM all,calibrated + LSTM all,train,wet,1.47568005696902
ua,Upper Alameda,wy,water year,FMS,bias in flow duration curve midsegment slope,IHACRES,IHACRES,calibrated,LSTM_PT_IHACRES_FLUXES_ENSEMBLE_10,LSTM fluxes,calibrated + LSTM fluxes,train,wet,-2.43925920858213
ua,Upper Alameda,wy,water year,FMS,bias in flow duration curve midsegment slope,IHACRES,IHACRES,calibrated,LSTM_PT_IHACRES_STATES_ENSEMBLE_10,LSTM states,calibrated + LSTM states,train,wet,9.92499462928864
ua,Upper Alameda,wy,water year,FMS,bias in flow duration curve midsegment slope,IHACRES,IHACRES,uncalibrated,LSTM_PT_IHACRES_UNC_ENSEMBLE_10,LSTM all,uncalibrated + LSTM all,train,wet,5.59978639318731
ua,Upper Alameda,wy,water year,FMS,bias in flow duration curve midsegment slope,PRMS,PRMS,calibrated,LSTM_PT_PRMS_ENSEMBLE_10,LSTM all,calibrated + LSTM all,train,wet,4.8403087575352
ua,Upper Alameda,wy,water year,FMS,bias in flow duration curve midsegment slope,PRMS,PRMS,calibrated,LSTM_PT_PRMS_FLUXES_ENSEMBLE_10,LSTM fluxes,calibrated + LSTM fluxes,train,wet,9.29873604205044
ua,Upper Alameda,wy,water year,FMS,bias in flow duration curve midsegment slope,PRMS,PRMS,calibrated,LSTM_PT_PRMS_STATES_ENSEMBLE_10,LSTM states,calibrated + LSTM states,train,wet,7.88718492565639
ua,Upper Alameda,wy,water year,FMS,bias in flow duration curve midsegment slope,PRMS,PRMS,uncalibrated,LSTM_PT_PRMS_UNC_ENSEMBLE_10,LSTM all,uncalibrated + LSTM all,train,wet,6.51686289821342
ua,Upper Alameda,wy,water year,FMS,bias in flow duration curve midsegment slope,SACSMA,SAC-SMA,calibrated,LSTM_PT_SACSMA_ENSEMBLE_10,LSTM all,calibrated + LSTM all,train,wet,4.22642575695296
ua,Upper Alameda,wy,water year,FMS,bias in flow duration curve midsegment slope,SACSMA,SAC-SMA,calibrated,LSTM_PT_SACSMA_FLUXES_ENSEMBLE_10,LSTM fluxes,calibrated + LSTM fluxes,train,wet,2.15734752907855
ua,Upper Alameda,wy,water year,FMS,bias in flow duration curve midsegment slope,SACSMA,SAC-SMA,calibrated,LSTM_PT_SACSMA_STATES_ENSEMBLE_10,LSTM states,calibrated + LSTM states,train,wet,0.938398613632825
ua,Upper Alameda,wy,water year,FMS,bias in flow duration curve midsegment slope,SACSMA,SAC-SMA,uncalibrated,LSTM_PT_SACSMA_UNC_ENSEMBLE_10,LSTM all,uncalibrated + LSTM all,train,wet,2.41043426689187
ua,Upper Alameda,wy,water year,FMS,bias in flow duration curve midsegment slope,PRMS,PRMS,calibrated,none,none,calibrated,train,wet,40.2375702354673
ua,Upper Alameda,wy,water year,FMS,bias in flow duration curve midsegment slope,PRMS,PRMS,uncalibrated,none,none,uncalibrated,train,wet,-11.7846334225332
ua,Upper Alameda,wy,water year,FMS,bias in flow duration curve midsegment slope,SACSMA,SAC-SMA,calibrated,none,none,calibrated,train,wet,-1.39600078631167
ua,Upper Alameda,wy,water year,FMS,bias in flow duration curve midsegment slope,SACSMA,SAC-SMA,uncalibrated,none,none,uncalibrated,train,wet,20.8701716396222
