Water_Year,NSE_LSTM_PT_ALLMODELS_ENSEMBLE_10,KGE_LSTM_PT_ALLMODELS_ENSEMBLE_10,RR_LSTM_PT_ALLMODELS_ENSEMBLE_10,FHV_LSTM_PT_ALLMODELS_ENSEMBLE_10,FLV_LSTM_PT_ALLMODELS_ENSEMBLE_10,FMS_LSTM_PT_ALLMODELS_ENSEMBLE_10,FDCB_LSTM_PT_ALLMODELS_ENSEMBLE_10,FDCB_LT100_LSTM_PT_ALLMODELS_ENSEMBLE_10,FDCB_GT100_LSTM_PT_ALLMODELS_ENSEMBLE_10,MDFB_LSTM_PT_ALLMODELS_ENSEMBLE_10,NSE_PRMSuncal,KGE_PRMSuncal,RR_PRMSuncal,FHV_PRMSuncal,FLV_PRMSuncal,FMS_PRMSuncal,FDCB_PRMSuncal,FDCB_LT100_PRMSuncal,FDCB_GT100_PRMSuncal,MDFB_PRMSuncal,NSE_PRMScalib,KGE_PRMScalib,RR_PRMScalib,FHV_PRMScalib,FLV_PRMScalib,FMS_PRMScalib,FDCB_PRMScalib,FDCB_LT100_PRMScalib,FDCB_GT100_PRMScalib,MDFB_PRMScalib,NSE_SACSMAuncal,KGE_SACSMAuncal,RR_SACSMAuncal,FHV_SACSMAuncal,FLV_SACSMAuncal,FMS_SACSMAuncal,FDCB_SACSMAuncal,FDCB_LT100_SACSMAuncal,FDCB_GT100_SACSMAuncal,MDFB_SACSMAuncal,NSE_SACSMAcalib,KGE_SACSMAcalib,RR_SACSMAcalib,FHV_SACSMAcalib,FLV_SACSMAcalib,FMS_SACSMAcalib,FDCB_SACSMAcalib,FDCB_LT100_SACSMAcalib,FDCB_GT100_SACSMAcalib,MDFB_SACSMAcalib,NSE_IHACRESuncal,KGE_IHACRESuncal,RR_IHACRESuncal,FHV_IHACRESuncal,FLV_IHACRESuncal,FMS_IHACRESuncal,FDCB_IHACRESuncal,FDCB_LT100_IHACRESuncal,FDCB_GT100_IHACRESuncal,MDFB_IHACRESuncal,NSE_IHACREScalib,KGE_IHACREScalib,RR_IHACREScalib,FHV_IHACREScalib,FLV_IHACREScalib,FMS_IHACREScalib,FDCB_IHACREScalib,FDCB_LT100_IHACREScalib,FDCB_GT100_IHACREScalib,MDFB_IHACREScalib
1997,0.995200078183601,0.972989411344698,0.0108388955308408,-3.114088961637,-300.353328188408,-6.13258019391644,0.336796247136798,0.393805279207824,0.0420885389730244,0.580037093086059,0.559738923943899,0.767640905392652,0.0840194752587582,-22.5956097021829,-14.3343797436519,-23.2293915890151,0.509706519683337,0.583044585519363,0.130586009853029,1.2071286052616,0.650016506700109,0.58953936920763,0.160690793505673,-48.8441479955254,-284.801609444923,100.476204479636,0.692943277648216,0.748243240802457,0.407070586766124,1.23714360574287,0.457152616706354,0.407812882975231,0.173571284653287,-70.0883990896784,-308.367204416219,78.8384341788515,0.679480475279118,0.727279093984118,0.432385920956664,1.04210317371954,0.70166217667942,0.67145543591971,0.000727484310078806,-48.8848265247425,-47.394318841804,-15.294254811725,0.406525518792152,0.420290542243836,0.335367346711413,0.651499450475879,0.674208850617344,0.637802936985387,0.280013848200653,-38.6047972686267,-516.78287818637,47.2641143242705,0.61529880855913,0.566120404049172,0.869526153907218,1.68228196336017,0.755530544466056,0.739795369584515,0.090448184137126,-37.9639689355805,51.1723607288534,-36.7234569688262,1.10867501461863,1.28564987395376,0.193804979072623,1.34076706141626
1998,0.993107392681484,0.976742492049599,0.0227462334892216,-0.302576518543186,-458.44399036519,-4.1624223507062,0.0897679581716321,0.0977143522208631,0.0651252080863768,0.259924910085044,0.430187897834782,0.699256984088478,0.121949822319552,-19.8502482017556,-47.408186940577,0.900252227319445,0.328849947322964,0.399602967222245,0.109436087860025,1.36460343786559,0.679459190408684,0.716442274462454,0.0650631597914284,-46.6261482843392,-151.192835142638,49.4210056718503,0.571005231604919,0.677388289156899,0.241098221668443,1.29621074461822,0.618391931994973,0.634886710372032,0.0518521803767971,-60.7687082397917,-309.701273682802,2.80280981485075,0.554897549058834,0.652306373951287,0.252820743774372,1.19943820413931,0.789240311055363,0.790991257681223,0.0635205083650974,-37.7802838521105,-65.8639968248176,14.367652530025,0.25118775291764,0.237781894908521,0.292760975507717,0.566127437295404,0.650322197992365,0.490006631498189,0.481559382571639,-31.5689861282855,-276.403581267009,-4.982572090026,1.10558419366439,1.17861883791472,0.879094735090322,2.79677161728486,0.814159591007921,0.830026825922776,0.137462066622525,-23.1546916020212,29.179415140164,48.2614283494954,0.522813415528905,0.581946788237103,0.339433518141687,0.882418919250376
1999,0.972710590186917,0.966126475489215,0.0295883250776835,-2.00688396512956,-463.000561890538,21.1423787963352,0.121820692242664,0.131604072431781,0.0445081268457455,0.232065189770551,-0.632051934574472,0.225712842703409,0.352672986542837,28.973623382175,41.5281259165106,-0.645863034276602,0.354868782602019,0.340933223602861,0.464993687863654,0.776831002434242,0.32445827393438,0.533505137853265,0.150040661642509,-42.8341689717131,-152.781868322678,74.2758617199495,0.64491611208148,0.712274651562438,0.112619361061229,0.919305102519242,0.424986787870376,0.329062542446572,0.327548502534973,-65.8246347402531,-268.566389336096,13.5204846355462,0.580147008542126,0.628616704012655,0.197118195555506,0.777482146892928,0.556669094184448,0.668848999339905,0.0726633414223041,-36.7049799415217,24.6128998876633,15.760991808133,0.273701508534863,0.285327331378104,0.181829152407789,0.402943602042912,-0.367854969787771,-0.127326244710694,0.956912613985418,18.5538736267625,-284.662821668262,30.6767840048326,0.887583521385123,0.849121521208863,1.1915271325341,1.74375209031694,0.438450034345813,0.707378138371472,0.11692370894214,-11.1785013207974,70.3852200684847,58.1634739623909,0.62810910748656,0.661685982892092,0.362769896964796,0.840851829116286
2000,0.986443396020749,0.971063072378313,0.0139088223147396,-2.16391142019125,-685.13866210088,8.16110323499529,0.164089820897246,0.174809814840161,0.0687687936751052,0.241617623150646,-0.707708372990621,-0.110634735934944,0.604887843744597,14.5833383884989,-84.7839056309522,-24.896140008472,0.621439024284383,0.646171487471873,0.401520635401019,1.30346055726066,0.743160498258476,0.835486051456062,0.103696976140544,-32.4228586837803,-283.309788194136,109.444141136906,0.674223624767275,0.720306154717565,0.264462750344421,1.10861787636107,0.527765531040378,0.469509794700577,0.111617455581276,-64.453021894857,-441.327807999254,62.114100354711,0.644394922391445,0.680488861309404,0.323451519580407,0.96087223081893,0.732369325669666,0.712791799033823,0.218155093027883,-32.2244240347973,-143.340151988185,-5.53304756790368,0.521493211319157,0.523992390021897,0.499270784475875,0.814820689483044,0.272632602061774,-0.0911899709885182,1.00780619808839,1.45422325403822,-415.003767480223,24.1969208280677,1.3375849000704,1.36564565231943,1.08807172466693,2.32572783823552,0.751100693740938,0.701377807941757,0.256964194675838,-9.64848500955337,32.4958110181,-66.3195241480374,0.5515167203373,0.553494742106712,0.533928364603885,1.07463583530251
2001,0.963244279336094,0.888208462515224,0.0763804062765819,-12.6591736787435,4.29531861935,-0.796237307771191,0.14362571222573,0.144197728619314,0.132598507304975,5.0953591396635,0.478983701835649,0.652061827633545,0.133298777114575,7.24484902201047,85.977108810002,-22.0171355782034,3.74999256541524,3.93306332194007,0.220795203519861,4.41169515164894,0.555385305351431,0.363199041321938,0.392221737904406,-59.3138344622481,47.972113379344,46.1306458311726,0.612727015575302,0.617782912908782,0.515260550313222,1.18967001818498,0.447326179852488,0.247760882973513,0.377201293149286,-74.644567682654,36.7849024779874,21.1898154937732,0.580099403343396,0.583802001232652,0.508721544033862,1.12702263408814,0.60037207909415,0.29248756331031,0.455107470730631,-62.4750281817082,83.4599397291387,-15.9308412894107,1.16802611010481,1.20577470217059,0.440317140836751,1.43051787540199,0.215133543794994,-0.233800857887592,1.18232195031142,-4.86467997231123,17.531059292477,-6.87420221724083,2.01570568500493,2.09446139178397,0.497470670986717,3.62656535471969,0.811805241699978,0.703371608934263,0.218850443891556,-29.7438735014684,94.3537851220259,-54.4462896279951,5.52170272965442,5.80251353406893,0.108294444552524,5.71869115654504
2002,0.882526460101509,0.829700498574423,0.0309968226699639,-27.0311413118477,-316.955203123346,11.047045210296,0.376544768977019,0.384614335891088,0.174229198488575,0.768228092993646,-1.04450561578229,-0.164677758242422,0.713073488452643,19.5111201737649,19.6387899786394,38.5822687012191,1.26368988153753,1.28196267670021,0.805564802816148,1.93421190015469,0.32274180718431,0.632161924038941,0.0328980446062592,-46.8971988900235,-102.319939583212,65.7782690940541,0.596083729733168,0.612336808690155,0.188595821597282,1.31378065099781,0.472768511219296,0.537960415885872,0.112088247563368,-60.2681042913071,-131.490328696074,56.994430695098,0.517972638520549,0.524924470788233,0.34368027238076,1.15467580069819,0.587518211459573,0.663333411598998,0.174042020446796,-44.8603596943463,3.22663631740987,54.7076461831949,0.33138328694078,0.336879484340794,0.193585766411854,0.586402389882985,-2.10140577128171,-1.19070874911218,1.88272977329207,25.2204631045285,-171.123434312454,35.7811757121854,1.69005514822624,1.71599085999632,1.03980980313347,2.70960016764866,0.497824505992061,0.657404691454318,0.22523988611779,-40.3198013575831,78.4715592287621,64.5198781371394,0.982577193090171,1.01780449722833,0.0993783536264537,1.19612674167499
2003,0.98581571535068,0.969603544418786,0.022667534446202,-3.1226102448181,-288.438512001751,9.44179688876144,0.324085272161356,0.345784088065533,0.0726783016853672,0.704238068958434,-0.0490021561236198,0.484924286463953,0.220153092870179,-24.846694882938,10.2737349955816,-8.56531394099971,0.647001338151768,0.678605026524986,0.280834465965521,1.73407401133411,0.307543198774581,0.3680542398569,0.185500265054267,-68.6398701328022,-149.381677375177,112.127004022262,0.577273357480586,0.60943080701912,0.20469049386171,1.64117151108416,0.368072932782744,0.246813921394687,0.332265894763071,-71.3080453873529,-192.855436634328,45.0307189973962,0.403727904663428,0.416461492114491,0.25619392592008,1.66107241954232,0.53497607041057,0.390317204200674,0.335701121400647,-54.6252551033223,-34.6894719247278,8.95272374671086,0.334780959103494,0.345108808293606,0.215120361590471,0.733609625797535,-0.0078423718974252,-0.195351866770845,1.12014734561605,-17.8190213476097,-225.326454519967,53.729743220637,1.23621053216776,1.24126446444526,1.17765462715951,3.05613329818813,0.509178041764057,0.584285714384088,0.16907114675179,-42.097672211599,47.329248322635,36.4530129295062,0.55712245020709,0.585733474458464,0.225629203708411,0.962303100879441
2004,0.995751454806734,0.980429385853671,0.019394308717176,-2.02087267527279,-342.600775066197,14.6749354988928,0.265205860675378,0.277097810728918,0.0594751247491525,0.537943169106671,0.26114184242674,0.235836242684329,0.637333420548614,9.61454141980445,2.64462961102057,-8.83272873402745,1.80206476165349,1.87475810582564,0.544469907475255,2.65434543556325,0.608940893339574,0.576967665350951,0.0937232985698381,-51.3564718970403,-72.9563862466461,85.9031829577927,0.686188880310363,0.715579705079882,0.17772761179769,1.47358705244884,0.413620137353881,0.311939099225627,0.157664137760809,-71.8946740730878,-135.899091281904,69.2737034031015,0.797338353345615,0.825245151734337,0.314550741220717,1.42933213827811,0.710061254022442,0.618067548735905,0.0120844587449016,-43.6226458780837,-14.9598520497876,-6.24289589833297,0.381363693530381,0.387045191845692,0.283073772675488,0.914028868690473,0.304119833121897,-0.30276680614132,1.2685501606721,-9.64708653423417,-177.393508858244,49.1407653560564,1.83574561265264,1.87512170637672,1.15453919122594,3.12704666796554,0.768205484802264,0.719164073761526,0.0820773110328168,-32.9214706873246,64.7232683861828,-50.695182370652,0.962135927344942,0.997271601917242,0.354288757244151,1.45176104202603
2005,0.991730666314346,0.973928372244714,0.00918261617351316,-2.95421498722468,-261.030332424656,6.94954440644776,0.198233822453805,0.227833693346806,0.0349059634192096,0.381440944081142,0.502240999823612,0.753166089837587,0.0557035662024658,-33.5046634496431,17.427021653266,-25.6764448417678,1.09321663520955,1.27515061672972,0.0893309157500391,2.63472573904719,0.522651133612849,0.434185459195345,0.248203408279117,-69.7135090915077,-107.513149178772,30.1891990195088,0.536903897388021,0.590525903368322,0.24102532867529,2.04805985731196,0.366116566271636,0.179372459124082,0.407324520360663,-79.5774537084777,-166.176259388419,-8.13237442435995,0.610873102859789,0.649218167447354,0.399290514331974,1.90182805489083,0.645665603248836,0.509024908916523,0.196412715741239,-59.0720919900198,-11.2712407351734,-7.53245551665248,0.427558344497756,0.472241708413217,0.181001925749943,0.842479529906994,0.433194670054539,0.234623355246618,0.727816183689189,-35.5559537316092,-215.680213640142,-11.8974136905212,1.97400113083053,2.18548799514521,0.8070468259513,5.05190156976873,0.698448449897559,0.665437287242771,0.160739398130288,-47.022718672741,48.6681559656246,52.977545545759,0.358829853612112,0.394128928826197,0.164054599305824,1.11574171996133
2006,0.988735857977802,0.985031570765007,0.00912058708655514,-1.7571553448761,-606.304546738743,10.1645626286402,0.148635429408165,0.168839612197769,0.0536126322258076,0.322333086433296,0.285051847543779,0.57727636855091,0.263415802117353,-27.7975968859686,-57.5026017991626,13.0931472230465,1.04429249309257,1.22673880737292,0.186224671242829,1.66352990951307,0.53791017071756,0.588019763201266,0.100986828523697,-60.7538699448626,-268.451076837185,56.0365668178262,0.601407082503339,0.707555324037447,0.102178634038235,1.03155349818393,0.505500607885641,0.496978278096938,0.143992240875105,-68.2267006128776,-349.346952964207,29.1196082478819,0.595579523294189,0.68821451079284,0.159905597714596,0.910098431701685,0.690323076526942,0.718629808250776,0.0457045649041857,-49.0715089792288,-141.208739427429,7.12455206430938,0.676076210153976,0.781413223254487,0.180663070415631,1.1213028285664,0.465558757014996,0.371467506762359,0.583976473620806,-30.972629524592,-266.99495815265,61.8851906667651,0.972682274353153,1.02237176208045,0.738986402385724,2.05899992645278,0.703337311705011,0.77911407584222,0.0383417641006572,-39.9963499153874,28.7582503532257,49.3064150625378,0.728059208674268,0.853708570078132,0.137114555821721,1.18575876079902
2007,0.985753810410612,0.937365467021192,0.058898916399206,2.57907775173483,-182.617376951917,67.9088322180993,0.326145168936229,0.331032611547391,0.0761873896796743,0.50904153397324,-0.02354393856396,-0.219727079408583,0.976270736862474,71.2100437644274,43.7159970113491,22.2721615829091,1.63456118286207,1.64403056067387,1.15027014620193,2.02470379050005,0.562376754462699,0.577616244407108,0.0591609024247676,-38.9008919701283,-76.1053283397302,155.363326399194,0.690929825499332,0.701023107437438,0.174730549236181,1.19461199177861,0.47118578253253,0.43604708155686,0.167347551399967,-51.9028602540854,-126.466896112559,145.577433873153,0.786940234967114,0.796810728118325,0.282135013805195,1.0621582080439,0.743295435718084,0.697370426031495,0.0354333317510634,-23.3154201987674,27.981887233417,66.5854778223616,0.312300568982686,0.313662418170055,0.242651710542955,0.53245688296291,-1.31050597107898,-1.72668323057079,2.54252335072765,90.1067081537799,-149.66257022036,99.3985431241527,2.25727705723771,2.27042633506562,1.58478541975295,2.93287712269347,0.713259681402722,0.804369028862511,0.0584665735986848,20.2978995214833,72.9392093538064,-60.6546635863266,1.22889986097568,1.23962974528732,0.680142920465834,1.48350922226394
2008,0.988605093711768,0.964529079579974,0.0205382838293982,-6.33033836970049,-266.937980142606,-42.3536268918082,0.29127275115612,0.303276596036446,0.0836062347264849,0.499889002968005,0.308713245548154,0.349480432766528,0.540533498597344,-2.17046847364837,5.60031567997879,-3.64278063346254,1.77770527142337,1.85469520182727,0.445779475435966,3.20109449067985,0.571116054641544,0.552806383650061,0.0827785758194929,-55.8921928291916,-75.2058565191279,123.088071038141,0.783321345087968,0.815905438712887,0.219616525376863,1.75654350066985,0.368831089008767,0.272534797825576,0.22438739523008,-76.6453477871026,-102.388772141262,85.200166694548,0.799067197575208,0.821405678459856,0.412611478270798,1.65498187844945,0.59033054848046,0.546044630415343,0.0597721038829554,-60.2877784270687,-56.77227944525,8.71459993415284,0.338801387054045,0.337088027083574,0.36844251454319,1.26654748727905,0.277427352972987,-0.113079977142193,1.06311237212151,-7.3071063440161,-151.325231187361,59.7315277700566,1.6593996888369,1.70377680725925,0.891675540130242,3.99929080229136,0.628885130005497,0.697963827242847,0.00437169803515595,-46.3043168876842,46.4059797509713,-62.3384250768401,0.828658701462892,0.855543689952848,0.363548400586645,2.14923480871191
2009,0.995991381086975,0.985337327512128,0.00974017991892384,-0.409556908374963,-240.943666040649,1.827578662831,0.258870465654078,0.271130791570004,0.0677208388739543,0.588191038157484,0.319447463304451,0.560484358558539,0.269150763958129,-13.6677294116713,19.3672757363145,-32.8841914850969,2.44121710187767,2.5807419678408,0.265897600725208,3.82220156516894,0.366075417020933,0.285842311575241,0.267373142722431,-66.1272514001662,-138.667300246466,67.6036370170369,0.674909994383818,0.696884031338732,0.33231478185947,1.8968416595945,0.316096578898069,0.152262376050101,0.356586043436041,-79.767650460964,-197.634841975839,13.487828303669,0.74329773556616,0.764075061488662,0.419360335956239,1.91774656019775,0.512220295942958,0.354691713880126,0.265120978807394,-63.0677253937536,-33.7261704412066,-23.464651170301,0.432063552356159,0.43840523334693,0.333190980545516,1.23891989186812,0.4289811726423,0.0417516104451386,0.904233022093711,-29.5839094202941,-207.326814070249,14.364544160699,2.42706742772538,2.51979314207787,0.981389244866027,4.51105678753686,0.639701573662725,0.643448887202226,0.0743814849090619,-38.4105688084132,56.3418790911266,-60.4973172641553,1.0345026367632,1.06868173306992,0.501619453435743,2.3447326820184
2010,0.992902633244782,0.995451871317015,0.00149102236350047,0.0358831717746382,-318.789925146063,-10.6412740427629,0.167911365506751,0.177760038468774,0.0688277466160968,0.320446213645783,0.633348169056466,0.754660829468341,0.135000183387898,-30.6875205956187,35.6078094992186,-33.5751147455244,0.920286697770895,0.993268924807942,0.186041262125456,2.29450462057944,0.370210269641418,0.279897964899241,0.281065437055545,-72.881961580655,-123.62945983856,49.0058134513738,0.580243927525036,0.612619382900375,0.254527224961021,1.99071061727961,0.303328648212072,0.144973625350704,0.387630568137459,-80.3530225736118,-179.777464055813,-26.9186858388909,0.469213931720273,0.478149495683315,0.379316742758762,1.50330852168972,0.532447714126581,0.356840889252724,0.301161463135314,-64.3989389594913,16.4419019224422,-20.8955020776958,0.189407111828985,0.187402228774024,0.209577450442533,0.528395496750744,0.300993951994352,-0.155918311304653,1.12326103289393,-23.9852042162342,-253.054810004738,-20.4592308202825,2.24953160148879,2.37442114193496,0.993067133969747,4.69345360953568,0.694737196890362,0.656841146198452,0.0713145327827744,-43.821893368922,61.1988340032389,20.899806945517,0.470933730882182,0.487262132790164,0.30666011168673,1.10781883900015
2011,0.993898258463468,0.977106215647311,0.0225287324809931,-0.266529059160551,-451.936821657479,-0.58631130547501,0.165731283718871,0.177803834611293,0.0728876185223819,0.320579566332236,0.44495318712688,0.641221086570929,0.0526596851322018,-39.2428529491996,-5.18399217120923,-20.0039637327845,0.871715185324834,0.971031622473488,0.107924490110183,1.6346711502358,0.416525090187603,0.307822109876491,0.282173963497157,-67.7751290890797,-289.600687991853,44.6519934327092,0.608066035592545,0.650131406121043,0.284563305099572,1.35081152814269,0.28687226191631,0.14479108244794,0.364488544622196,-79.9614605032552,-352.730612083705,5.6167021194879,0.568502963264375,0.596864768530361,0.35038717514739,1.2410208812038,0.554837027318767,0.483870711239419,0.188194053907872,-53.0321892369773,-94.7958775314574,-7.41806545759497,0.414258521337207,0.436655777344773,0.242012957279026,0.780647871291026,0.493182648034021,0.36454771286256,0.492358484679681,-46.9641567438951,-444.038740304439,-2.71186236048924,1.87205437186737,2.02661310803759,0.683424091320152,3.74428262749615,0.56445486912957,0.451648737200012,0.28592876027624,-52.153461687326,47.8330765344596,38.0605972662702,0.532746085288885,0.572277962043972,0.228727128339048,0.877601823638753
2012,0.958546308814691,0.84578266850813,0.12574806289755,-11.8666722516742,-168.715905364211,20.7380137809356,0.435458883291605,0.439722033550388,0.216820177162551,0.455518432254502,0.224906028210173,0.412587931238772,0.24904498649725,-46.6902076418192,36.2882978475123,42.9318782596899,1.01075943297762,1.02609310049802,0.224361341573803,2.1175494376233,0.120331559769181,0.13495445439731,0.285819740559655,-76.2146965587497,-93.5159751919933,126.449042918135,0.637770269944968,0.642318855716026,0.404492799686421,1.31990927447506,0.269512931542168,0.250816886526785,0.0538668464824253,-74.1108297761039,-127.316640440659,123.939921315527,0.75959540464989,0.763613554090903,0.553521740460792,1.06682905998188,0.335456640536115,0.18681629553474,0.358229533285175,-73.1349398651966,33.1033507364665,28.793364629348,0.403175408765518,0.400179419765261,0.556826844635875,0.960089993826177,-2.96028347697258,-2.27722473480399,3.04111912341022,42.827378711468,-187.176257849099,119.763883022239,2.6113397056388,2.63284610150632,1.50836883186153,3.91184684723812,0.291108733347345,0.590407320969122,0.151893356721361,-28.9553780550493,81.8157265793426,-65.7536383578682,1.46149885818022,1.4827189136703,0.373213155188956,1.8024264766885
2013,0.995981039231998,0.927227866182092,0.0704245825231301,1.96986721472923,-91.2988779997682,42.2273293919541,0.495549830108167,0.505485907361865,0.142819087601872,0.711315006038522,0.0832942110665953,-0.465948232286107,1.31780074465593,57.733445701077,19.1503609892247,22.6327425930569,3.26853274750071,3.32497238828315,1.26492549972405,4.56074328014077,0.638800385067025,0.530771916740886,0.264756704590206,-34.5896823459994,-97.0619527835563,171.28874747862,1.0204289775101,1.03597894869847,0.468405000323046,2.68022550497425,0.345083966435736,0.314225870709011,0.0930681268798396,-62.4054808604807,-136.789504479615,61.1784562915783,0.898976913725485,0.911256100754605,0.463065774191776,2.60030615321338,0.573579872013715,0.545344388393405,0.10406735649977,-35.6892016159522,3.8593680888928,42.0226429633141,0.361908256317803,0.355725408411934,0.581399356976183,0.615666145578476,0.1304313883723,-0.986594491433551,1.95038570446091,15.2201591322021,-173.812810726127,69.7696027842645,2.51783621839417,2.54358921087162,1.60360498544494,3.73379005535757,0.601023567675786,0.630914243462691,0.085212046268715,-19.211587611776,71.8130639201396,-45.5260889185361,1.93501285767349,1.97856871070822,0.388780074940761,2.29433519852405
2014,0.893342775177387,0.784511670440586,0.0891013367483223,-16.6557663743461,1.81175074949905,96.938812032622,0.702633839537829,0.704995555332561,0.273982422793908,1.02522239431737,-1.05038535363101,-1.22307511752941,1.93212258603242,92.2110058999184,-5.84236205256002,32.921512936031,2.05789995812932,2.06538823193674,0.698778262083219,4.31078383575016,0.0418021556665067,0.15566449544522,0.717359824188237,-25.6834174008023,-144.269851004042,72.7808046254985,0.8693251440502,0.872706766690096,0.255560634909178,2.78391791492408,0.230074168304747,-0.104123357471904,1.01339072182248,-25.5066222495225,-202.535722921453,80.5751825943186,1.21838563963459,1.22176413421419,0.605188873437214,2.85268064994318,0.520445248975066,0.590369466872038,0.0424480214061291,-24.0767280604402,-92.772915402424,32.7944536734279,0.434254314163136,0.433685452834504,0.5375026453098,1.00118304636013,-14.152739235112,-6.80714471791026,7.12979055401653,245.875394158819,-209.43245091861,172.010579724859,4.28996906430686,4.30517478604849,1.53013056820101,6.55162357352968,-0.00797294324146947,-0.205279684014513,0.548138228979093,-77.7715391622108,55.6749916512977,-55.32142422333,0.58538636579052,0.584478385427611,0.750184801658443,1.00859004735687
2015,0.432630442276147,0.6783795377541,0.143530294047167,7.91912647123209,-128.36497612488,14.7392366341134,0.415867629076544,0.419077546144517,0.321442568660342,1.67646370350247,-2.40843484564268,-0.753469079493741,1.13163824996011,39.8077768597446,27.9148330537044,-9.68482324901288,3.15413211765104,3.22826586946276,0.97336425185634,6.57869120497971,0.349539094566923,0.587809418627745,0.145999372417789,-40.3128458072551,-120.963337577795,121.390301308511,0.580358413947328,0.596097657392884,0.117362335923874,4.43557226709196,0.476997617797321,0.525282325673998,0.0964356469562508,-52.9386072713746,-176.348024043847,59.1500350064558,0.64509646733568,0.656054412487618,0.322750247449492,4.07428277970097,0.620616255250819,0.725508244913404,0.0325104896461454,-30.9645598739136,-7.21582115669931,61.7862571955694,0.35365613664014,0.356981201913681,0.255843799843488,0.96044714855807,-0.740394461040077,-1.29671576930168,2.08653400498983,64.9036838922131,-180.807660538211,50.083326217726,2.8356334752118,2.88176101868347,1.47871490475356,9.6539164588012,0.526795898029729,0.759506395284896,0.0640601828867091,-14.7896237026378,19.7795753165649,-48.7088174867758,0.932429157385085,0.95316091584123,0.322569929466826,1.79788562826516
2016,0.917369628251208,0.926984136768558,0.0462182811156552,-3.11390612913383,-155.948053668322,9.48548137590674,0.795905068930034,0.865388510072022,0.117419702484738,2.8042419338466,0.360773747362987,0.620664507444605,0.224152342330735,-47.6408476560897,20.0349723300002,-15.6440351471944,3.18546807050178,3.49379957119366,0.174701651981065,8.68343127375652,0.529704250825286,0.509204964263819,0.121212818319868,-68.3619679627049,-19.1566197514252,52.6840806306073,0.674289461754263,0.710171341628693,0.32391345827454,6.2101615924768,0.347867591121323,0.174864272482867,0.366168741224478,-80.6139819269456,-56.2558029539841,38.8744839494625,0.623770429507689,0.644216720173308,0.424118414772821,5.59088144461846,0.651151144075795,0.532748981824841,0.111652195424934,-58.8259344597274,-36.1522155060739,-21.2061804589049,1.02873288483473,1.098952729383,0.343056755716361,1.79990875881956,0.42770672849638,0.146589485850341,0.808642557705698,-38.3412823663974,-67.340355102688,4.99938481752792,2.05144705903184,2.1762948208787,0.832345384527219,10.9849130296312,0.669095529638619,0.562645675781627,0.158584987431624,-53.7357329933697,40.8757999159825,48.2404425772565,1.44229077423082,1.56369676221116,0.256797009246369,2.48238244697928
2017,0.830889083731422,0.815875990847635,0.0213463808266889,-27.9077471741668,-317.058040899194,-1.15079881517748,0.529132721019542,0.646733561087119,0.110179728278799,1.02085381490481,0.742463915202736,0.788685677675251,0.1077135420498,-30.7466302899683,16.9124107581047,-33.2180464130815,0.622271543130226,0.746069098034956,0.181242753782124,1.44795641071815,0.638057733348382,0.422905272230381,0.312696735503486,-58.9852439188061,-95.7132991258414,32.5221454657711,0.635933907322685,0.741285957722777,0.260617227772354,1.41359020042943,0.359947216394569,0.234664364491148,0.341842973812557,-77.731774569139,-139.35674392797,3.67643416239594,0.565665862743174,0.634180582519131,0.321582173541332,1.40203031215746,0.598623729068548,0.4518944990387,0.228037534493869,-61.9774004161848,-2.72728161335728,-16.3845677892903,0.288965790965704,0.313617706741478,0.201143341014507,0.563267787334241,0.657864380079933,0.592202714471078,0.151720623335602,-51.8287449030523,-192.549814672336,-12.6082770154514,0.947850837596659,0.992877326668784,0.787443970277212,2.9397907374116,0.727147533817875,0.598950180291803,0.165477043507031,-49.1648526689674,40.4256260052099,26.2853783584031,0.557588239941936,0.669862921549631,0.15760968671452,1.15291397677193
2018,0.359447155277518,0.67287970356649,0.00338449795514679,-16.7071384126859,-223.415538155059,-23.9756512030972,0.231448605315602,0.23054820890372,0.271628795195863,1.60220549607055,0.159176533836053,0.445434613660457,0.392901885272154,-46.0345614209233,51.5074454243295,45.4322525066711,1.10291103565686,1.12160367270957,0.268752107180078,1.64719763497067,0.183259611177256,0.29542203273766,0.225394305029681,-77.6065758496275,-49.402180555579,111.093241399937,0.666534553249792,0.674670882031651,0.303450881359341,1.16993235989237,0.309905397618269,0.30658129571711,0.11074442123828,-73.7846602185774,-77.3147338556807,94.0833648255423,0.749417490187377,0.7542002230791,0.535988034894234,1.07633095487348,0.367107889858111,0.264640492159796,0.347775777192822,-70.8441935367856,44.8160244728193,18.4519990243709,0.394225130224635,0.393213288069051,0.439378586417544,0.575157663170783,-2.98835765204877,-1.75787693420608,2.44855771493225,16.2376563166292,-105.345014536517,129.486340413672,2.10816188153371,2.12638067301936,1.29514831148672,3.15203451795463,0.525553120487831,0.651569537330275,0.0262881083568694,-47.6127411397931,72.7596113211414,-53.9441221791919,1.38237822108315,1.40802793538013,0.237759720580294,1.73128019127131
2019,0.843130320397007,0.784869015816731,0.135220425681934,9.61044942850883,-189.236386539511,32.2450943844664,0.404365162848647,0.439866521746638,0.195376031222733,1.73545160832674,0.311307950394605,0.612307918904607,0.212476309800926,-28.1689880458691,7.9171355607883,-24.9946867365792,0.895179436445289,1.01011947894887,0.218551261707228,1.7181590799755,0.514683716278464,0.54746387799061,0.141912312211024,-63.3227759894055,-61.1818467504742,72.1510232742294,0.644090630086772,0.704671120886374,0.287465854058926,1.42994734807028,0.408444655704883,0.320711890868398,0.262964909034579,-77.6978801283832,-99.0128103679013,-10.2727003207455,0.603226793301538,0.654596294990143,0.300825198455412,1.30355540340498,0.684011816990626,0.687319727263587,0.0240733661000302,-49.1721532341441,-23.4743415046856,-30.2190434367412,0.391639328252899,0.408602663390463,0.291779694990262,0.59870182003993,0.514436864471099,0.341125066519851,0.619047174196151,-35.3323579008293,-109.605491559446,0.980518753478952,1.26191354440582,1.33629136009746,0.824066780334269,2.42426583494492,0.686430534054202,0.751638493757392,0.0255832694221113,-42.4615052430533,52.716551179438,31.4506798135107,0.60955570514734,0.650938762394504,0.365942236069695,1.30104293913334
2020,0.184786053288475,0.569810586271298,0.141698044240929,3.14137896587838,-437.744880411948,-18.2777307679793,0.484553386987239,0.492254078359359,0.179092629226483,3.11263028403528,0.182462873131496,0.232793916797405,0.626288558838815,-51.6608128347375,24.3280066953763,62.3433241205643,1.3215336120031,1.34845723613875,0.253563187955771,2.07320606172898,0.280525497748978,0.325329139287898,0.0956667531797162,-72.6908801859884,-119.402187059786,152.133872827615,0.723600954267141,0.734060795065959,0.308693935914058,1.37224550478574,0.255492301999343,0.224768434368852,0.0452151695468706,-78.0764466611319,-182.374821093059,135.236928064252,0.84676723277529,0.854483070107747,0.540705685254476,1.22347725614877,0.364257431219639,0.303227696619525,0.168597646841896,-72.1179860568926,3.76026640455299,51.5259237871513,0.22443163152665,0.219562871791519,0.417559101020214,0.613915496317932,-0.667145385665727,-1.08008194231982,1.98047984870229,3.04089422566214,-242.441448119052,150.123201951046,1.90940807826502,1.93345338972011,0.955610723879873,3.2423089154008,0.494328222815885,0.50072667673449,0.262658649648817,-55.6734373233446,61.0898868067616,-55.6038690124557,0.76769090332826,0.78044567737388,0.26175153285201,1.10410942126446
