"fastcoef_sq","pref_flow_den","slowcoef_sq","soil_moist_max","soil2gw_max","fastcoef_lin","gwflow_coef","jh_coef","slowcoef_lin","sat_threshold","carea_max","smidx_coef","smidx_exp"
8.61269292393565,0.100012163404307,4.88637071630721,2.68689334526729,1.03753602118345,8.98788829309949,6.07644636492804,1.4963930995208,6.77285797583388,6.92361785006075,0.846720139439602,8.96665921184811,0.414778194604611
8.60628795339208,0.100281408794163,4.88991531652042,2.67918731667112,1.04547685349475,8.9875017426715,6.0717118909224,1.49392808572206,6.77735225593088,6.92355357251845,0.848311801536221,8.95779125486937,0.41233795862544
8.62493863331371,0.10341150661159,4.87935606298223,2.70553087316067,1.02832668006325,8.97196706651126,6.07541929658666,1.50314679894,6.75500728049268,6.91905423614506,0.835313716573672,8.97863128380926,0.411055759499525
8.62702703723818,0.103951746043031,4.87747246381288,2.70544158640575,1.02700499262988,8.97729923446168,6.08350635012969,1.5009303391759,6.75888687494357,6.92243683992709,0.834865261470122,8.9753371687642,0.412732603896531
8.62698327375704,0.103905945253004,4.87751375019292,2.70535958059091,1.02697481171837,8.97741969811015,6.08354352276899,1.50089222773497,6.75896537440155,6.9224643800035,0.834933705389381,8.97536249262118,0.412766342794613
8.61232691450888,0.100470162936931,4.8864384481473,2.68673628249948,1.03829038088921,8.98729887048195,6.07631665658803,1.49627957323368,6.77288003354876,6.92360452434007,0.846576795212079,8.96541262524886,0.414414275350052
8.6063717561015,0.100290753057272,4.88987079223684,2.67928707485798,1.04539359889192,8.98747258212374,6.07177784947886,1.49395824311842,6.77728890292881,6.92355470757566,0.848261439266247,8.9578593350384,0.412338887146018
8.62800593760436,0.101910655234935,4.8792602388344,2.70495880535536,1.02211524071521,8.97922064962563,6.08838014383663,1.50106537732683,6.75950343047453,6.92387655573501,0.83356898503965,8.97673952411902,0.410600453052152
8.62750756552953,0.105098547423031,4.87633293916582,2.70669155449003,1.02833002789791,8.9759505740122,6.08259941726108,1.50113613013886,6.75802211007465,6.92210456209648,0.834455319243964,8.97457076556696,0.413133249320438
8.62823789010287,0.105138194920467,4.87568634392223,2.70714329278916,1.02846492746574,8.9763212801641,6.08294907564983,1.50113947738433,6.75820613712043,6.92244883355026,0.833962360559919,8.97451227510314,0.413377099529624
8.6135697505333,0.101008420254582,4.88563221469792,2.68856016432973,1.03753749697784,8.98588270969772,6.07675176580591,1.49683614237692,6.77139091898125,6.92337803859109,0.845407660577162,8.96594225539753,0.414060850802826
8.60635894965119,0.100287375879594,4.8898785776065,2.6792695241266,1.04540417141322,8.98748243707095,6.07177209637338,1.49395302554331,6.77730246446647,6.9235563876716,0.848271010186924,8.95784956093894,0.412340128949248
8.63040929635726,0.10669919106965,4.87438055814386,2.7105246360204,1.02715769274168,8.97353857538243,6.08517098965513,1.50192679140552,6.755692254044,6.92264443997261,0.831402189530865,8.97361083211246,0.412024171057529
8.63159367587335,0.101322253278778,4.87815151409898,2.70830544138407,1.01747996778904,8.97994769238334,6.09291400750065,1.50185919793642,6.75797042533766,6.92533763585038,0.830973717386399,8.97910432407038,0.40973318447502
8.62985786818503,0.104406128625605,4.87635329742179,2.70813294406853,1.02413380728809,8.97715012211581,6.08820964411456,1.50121132049994,6.75793731102086,6.92389289681207,0.832097888371791,8.97488192055353,0.411472833652694
8.61351820819834,0.10101431820059,4.88568687237283,2.6885356719605,1.03755168459284,8.98580845341284,6.07671862618077,1.49687234526374,6.77137023239669,6.92334469425615,0.845429637993882,8.96590638593088,0.414015982810133
8.60646618436221,0.100300146068217,4.88982036678224,2.67939812334726,1.04529929098208,8.98744340755545,6.07185265022872,1.49399089240124,6.77721944182819,6.92355673168558,0.848206070041758,8.95793790252079,0.412341955129443
8.63330739634315,0.108389982411408,4.87184837467887,2.7131189619846,1.02657053452035,8.97425700318181,6.09033511944363,1.5012508910685,6.75606194550849,6.92461444003577,0.829065345751242,8.97080565029294,0.41224603672918
8.63367053751296,0.105055623845791,4.8754373090402,2.71239170258591,1.01979440958834,8.97472780923221,6.09368425407453,1.5025333499183,6.75512618473042,6.92505741590835,0.827676900913739,8.97472288143308,0.408510131837708
8.63618735976338,0.106495921176365,4.87336593497107,2.71515856710703,1.01908296899961,8.97426203201329,6.09706483708272,1.50245256277385,6.75440522342703,6.92625413843466,0.825372707478904,8.97307549178878,0.408282377821184
8.61384563353809,0.101081556548645,4.88545917353967,2.68891833467102,1.03732987972265,8.98569845906041,6.07689614216566,1.49693156296134,6.77113288539197,6.92335834375268,0.845199163378354,8.96611956160924,0.414039857802992
8.60644001176476,0.10030535705771,4.88983454974421,2.67937460539704,1.04533226652033,8.98742924650745,6.0718276933241,1.49398856040575,6.77722851668661,6.92355198957677,0.848212300623154,8.95790184604656,0.412329453701461
8.62395002083682,0.106612626516889,4.88825661474248,2.73113687847258,0.992895871358057,8.94872695965905,6.07623188480366,1.518281686599,6.71843408568308,6.91096145224408,0.835713224564049,9.00510522032004,0.398388114428972
8.62261819429184,0.105825118733782,4.88951262547837,2.72966042865774,0.992562958222392,8.94942473251885,6.07535852814234,1.5180043547695,6.71885806420506,6.91063111977232,0.836978893328892,9.00599650996193,0.398432991298872
8.6225737061112,0.105810453994142,4.88954810284269,2.7296701892287,0.992680401741824,8.94926718067464,6.07513629797477,1.51819217342513,6.71882520065284,6.91053908004668,0.837025589758681,9.00602368758599,0.398417334391078
8.61369658031273,0.101058527515192,4.88554915803346,2.68873882034964,1.03746081205304,8.98575519125243,6.07680143005999,1.4968889188646,6.7712514025466,6.9233592978586,0.845294337853066,8.96599906269294,0.414032986994726
8.60644577296236,0.100299880845294,4.88983174660509,2.67937549211294,1.04532129240787,8.9874443285236,6.0718366155564,1.49398588663676,6.77723269123191,6.92355553427179,0.848215697383472,8.9579163620558,0.412337919566745
8.62270530097106,0.10674473722492,4.88895547562476,2.73036487915473,0.993700667703787,8.94818909268998,6.07481314661432,1.51832097761336,6.71837443141865,6.91042719695786,0.836729085424385,9.00491996985371,0.398453402059667
8.62301704885514,0.10588635706808,4.88923092164337,2.73004478569461,0.992467309986834,8.94936877063645,6.07564559944531,1.51818143963282,6.71878597837788,6.91072952548165,0.836668214983503,9.00597898967689,0.3984237350107
8.6222132595205,0.105743537154617,4.88980377974621,2.72938502868565,0.992809945329696,8.94920503039704,6.07472673002335,1.51819932340143,6.71883727339248,6.91038252967956,0.83733121581454,9.00610948130722,0.398426622276361
8.6137077276017,0.101062665238329,4.88554199188922,2.68875538932448,1.03745252071408,8.98574311149243,6.07680428561731,1.49689346991455,6.7712370805779,6.92335673456536,0.84528446463455,8.96600704471951,0.414030588125161
8.60654222320419,0.100306556874267,4.88978537772804,2.679484026585,1.0452189669367,8.98742302731519,6.0719320517878,1.49402172025456,6.77717213137842,6.92356363110224,0.848161050982043,8.95798795017388,0.412338192711054
8.6235374492322,0.107959987236134,4.8877815165994,2.73149495025667,0.994781429647158,8.94730516209752,6.0755805629368,1.51831850360403,6.71816281250855,6.91077914788281,0.8358215850508,9.00306456593609,0.398520292757848
8.62586495379703,0.107247016792741,4.88673078112104,2.73276623732392,0.992539656647443,8.9489111866007,6.07838610486762,1.51812688774239,6.71834298630752,6.91186703823737,0.834034540385299,9.00424614099775,0.398384765255135
8.62766480914319,0.107867137112623,4.88529349211017,2.73422013943627,0.992161942961735,8.94917824802369,6.08058236636111,1.51777817265196,6.71830366597578,6.91277004953439,0.832412795124209,9.00334197238937,0.398369987016213
8.61384554175466,0.101109101253994,4.885453856984,2.68894354155784,1.03735873613808,8.98562429959905,6.07686626559829,1.49694699552734,6.77109421293157,6.9233406310771,0.845169682776427,8.9660819232231,0.41400855518033
8.60640296542537,0.100279521805152,4.88985917550081,2.6793089949467,1.04534647412578,8.98750191473988,6.07182599139456,1.49396268536927,6.77728971565839,6.92356654477165,0.848257840122253,8.95789835012701,0.412353260838893
8.62881045406376,0.108678097287834,4.8841357577168,2.73545921866562,0.992396208178848,8.94889479624063,6.08180882197175,1.51773360848224,6.71811068062267,6.91326559238817,0.83140279898515,9.00229623659777,0.398466513250689
8.63087424231501,0.10947150972266,4.8823918656139,2.73749252255521,0.992332025106493,8.94844664041518,6.08336316660133,1.51793909598755,6.71762215631999,6.91392348426836,0.829495110472409,9.00152542224429,0.398392583906657
8.63503319164397,0.110556895525408,4.87926486623787,2.74081893774463,0.990782267378,8.94947972148136,6.08862092028361,1.51718952118527,6.71750735590216,6.91602941168424,0.825917947222957,9.00013728968266,0.398396015259145
8.6138423723585,0.101109065695021,4.88545546363078,2.68894020224574,1.03736217471296,8.98562435969542,6.0768631242408,1.49694615281674,6.77109592079671,6.92334023375203,0.845171306276751,8.96607921635187,0.41400820994941
8.60657155530162,0.100334647480749,4.88975067911903,2.67955211199926,1.04522070990774,8.98734318152951,6.07187679843743,1.494034226808,6.77709072601586,6.92353437791007,0.848121500340296,8.95802306993906,0.412329948432989
8.65348597054671,0.101605163933373,4.87301171184436,2.73086587930866,0.98723581944168,8.98087938821427,6.13582958472933,1.51658376470792,6.75343119404242,6.93205775220873,0.822612526260079,8.98586520121076,0.407435866459846
8.65391475419811,0.101153959825762,4.87300609936951,2.73068188447916,0.986529270873928,8.98189324948131,6.13698721333375,1.51642399071705,6.75405169604479,6.93250259890611,0.822475260315569,8.98610901230335,0.407507325907883
8.65352988936599,0.10117307577097,4.87306124407489,2.73092841845215,0.986852922485153,8.98103008146144,6.13515323432193,1.51680018836557,6.75321114928183,6.93180416357741,0.822711021713951,8.98700301552392,0.40755573233539
8.61377117189309,0.101121622059835,4.8854925473207,2.68887506347595,1.03745179649359,8.9855878202098,6.07678843228756,1.49693652233034,6.77111915669338,6.92332461488343,0.845190524139603,8.96599067562582,0.413979056695172
8.60658368964062,0.10030506293516,4.88976397498152,2.6795283092197,1.04517141915935,8.9874249377064,6.07196908633018,1.49403274204332,6.77714825864914,6.92356749267752,0.848142889159312,8.9580321730104,0.412346426790089
8.65438760111371,0.101426455528883,4.8724591507413,2.73126783418179,0.986860431591015,8.98151402894744,6.13676240247817,1.51653272151868,6.7537528662668,6.93252535477378,0.821917055092666,8.98594914095031,0.40749121297643
8.65430573746779,0.101550722291468,4.87250758713804,2.73128804890962,0.986779372122669,8.9814999763751,6.13702700779915,1.51648189320797,6.75373814025119,6.93256750974264,0.822032324937183,8.98577368112496,0.407504909232853
8.65261115618463,0.101087463602898,4.87369925834558,2.73027889293102,0.987364269639128,8.98043530382788,6.13378477709636,1.51686073529462,6.75300578490404,6.93125514645494,0.823233013785504,8.98710677231428,0.407349564190401
8.61411445439098,0.10116848892194,4.88528845126904,2.68928418031656,1.03714022935032,8.98547494000108,6.07702003449453,1.49703505368236,6.77085610339792,6.92332839310692,0.844979471419842,8.96627401657648,0.414000568075624
8.60655526118044,0.10030229259556,4.88977834267647,2.67949568442601,1.04520092808685,8.98743140038339,6.07194139483754,1.49402273314705,6.77716657329996,6.92356490565862,0.848159274160961,8.95801169479637,0.412346126477249
8.65538500772568,0.101970892492496,4.87148157470878,2.73230773619371,0.987120165270113,8.98118638553743,6.13736518970587,1.51657527441834,6.75348859776609,6.93286159649394,0.820925034081558,8.98532024758364,0.407483626491745
8.65506155741212,0.102047726020142,4.87171391448909,2.73218260278287,0.987107405169754,8.98099092753788,6.13723478044934,1.51657484818305,6.75336677190916,6.93272153792589,0.821199144869348,8.98527968561105,0.407446740108345
8.65542428926037,0.102152690728274,4.87136293134406,2.73259177446286,0.987143725799535,8.98088174353298,6.13720670251863,1.51660720333161,6.75317911048626,6.93279847907642,0.820792085373808,8.98531109635243,0.407419392598141
8.61411292645985,0.101209505077893,4.88527903969189,2.68931538968336,1.03719247433881,8.98536871664368,6.07697346389447,1.49705418166855,6.77080617058008,6.92330335842851,0.844936113648578,8.96621088516104,0.413956476839447
8.60678798548485,0.100433668347435,4.88961249915222,2.67987555946228,1.04509819025759,8.98707377218314,6.07194835350194,1.49414659117223,6.77682555782828,6.92348912690135,0.847912146382405,8.95810015194726,0.412257296035525
8.65454684554766,0.103354165860449,4.87078171479524,2.73488207489598,0.987598559778171,8.97727740420163,6.13220674346619,1.51727709371026,6.74913313413694,6.93057481942218,0.821342920390951,8.98791284075122,0.407771518883487
8.65651830252736,0.102617311795474,4.87047400438693,2.73316808008998,0.987387401173734,8.98124664957796,6.13895055874648,1.51635137691822,6.75371096068808,6.93360811709545,0.819775703972181,8.98392417312333,0.407398212017299
8.63710447357372,0.113228882620032,4.87524455571203,2.74416596609054,0.999395264160249,8.94415394141243,6.08299198887093,1.52219530214679,6.71731103412598,6.914967599119,0.824160765926174,8.99544419535662,0.399464517643858
8.61411047810597,0.101211150213183,4.88528090671172,2.6893174750879,1.03719247382006,8.98536165813303,6.07696838954715,1.49705618252036,6.77080047897166,6.92330084014558,0.844935476168758,8.96621080698911,0.41395290669247
8.60672879686797,0.100359886919556,4.88967052053894,2.67974065176361,1.04507362085247,8.98726997118033,6.07201222299648,1.49409902233448,6.77697305236666,6.92353758680815,0.848016572228446,8.95811967339008,0.412315694726212
8.65739558842134,0.103636419298913,4.86914381411126,2.73545685814782,0.987607013443535,8.9789964178742,6.13738323359589,1.51653926132837,6.75143166927091,6.93294375453132,0.818127530340056,8.9844574315814,0.406905082036856
8.65290843068029,0.118352457840173,4.86398335172459,2.75734806089773,0.989863716688184,8.94781656447953,6.10674294006044,1.51628601299024,6.71505070848614,6.92332985762532,0.809542612676707,8.99027195662494,0.398175535953396
8.72440551076212,0.117891306913022,4.82156854063251,2.82264795574611,0.935482417709759,8.94468318848311,6.15600614649648,1.5320786326133,6.68486458311466,6.92475775713745,0.775795007559469,9.05239039440717,0.416904511353829
8.61413664877071,0.101184680578107,4.88527173010474,2.68931905529166,1.03713901297204,8.98543519643199,6.07702220974207,1.49704716499618,6.7708263171282,6.92332169613685,0.844951638029707,8.96626868261678,0.413988242793265
8.60670791926895,0.100375565925295,4.8896709982099,2.6797395149642,1.04511474937195,8.98722412298075,6.07194626485898,1.49409666411561,6.7769474344936,6.92351689090716,0.848011741824021,8.95810463238364,0.412304284229533
8.72521047401794,0.116087774915673,4.82201928350359,2.82276596710502,0.931623225778345,8.94735111999799,6.15781011917093,1.53203174595195,6.68495829491254,6.92501390484987,0.776781421105786,9.05685648518847,0.41797495074538
8.72518887728774,0.115865669007615,4.82207803667795,2.82287361376245,0.931006330505147,8.94757632666067,6.15768437539483,1.53205269443474,6.68471022778331,6.92477527455292,0.777238579125325,9.05799355388568,0.418399112425844
8.72499566528878,0.116174676562749,4.8220349853868,2.82275658504595,0.931917263135513,8.94706203767362,6.15721735439772,1.53214047033556,6.68478822183692,6.92475231652153,0.777041496629727,9.05698954341928,0.418135993064725
8.61411232861804,0.101197726233107,4.88528303884446,2.68930683169334,1.03717614355306,8.98539796801866,6.07698638048078,1.49704964791936,6.77081907754361,6.92331005695796,0.844949146246694,8.96622964209038,0.413968073393403
8.60673986475818,0.10038482056467,4.88965139791145,2.6797816378421,1.04509251976416,8.98719847400103,6.07196190942369,1.4941088945567,6.77691609921403,6.92351414450621,0.84798498106811,8.9581216235189,0.412298582277816
8.72497394740516,0.1165217069216,4.82186783043878,2.82280261548418,0.932527193229361,8.94672424703462,6.15717971921746,1.53210308288624,6.68484894712852,6.92482322294841,0.776799898477601,9.05611178211661,0.417978579951918
8.72475334817776,0.116222340661793,4.82208594221248,2.82271442058547,0.932179536376484,8.94679292838581,6.15658097432719,1.53225576266115,6.68461693171865,6.92446799390766,0.777341825534461,9.05720287136948,0.418307405356904
8.72558206207562,0.114544666648036,4.82245198206693,2.82289534009277,0.928496387649187,8.94933753190778,6.1583796287657,1.53219756766642,6.68469775547115,6.92474339937515,0.778229082018514,9.06141421980179,0.419335639487736
8.61424225521339,0.101535464156211,4.88501854811564,2.68944303789438,1.03748224388589,8.98534217567293,6.07741112433472,1.49690630276905,6.77096448826375,6.92348486179046,0.844741070778883,8.96550337704163,0.413971200665147
8.60687242594694,0.100402609365616,4.88957152744878,2.67994419577697,1.04496745395154,8.98714924854956,6.07203963133626,1.49414764717317,6.77680398758401,6.9235079347638,0.84790758115506,8.95824922542278,0.412312089379706
8.72515241040739,0.115727216398104,4.82211588423023,2.82293925073009,0.930832044019541,8.94767672496375,6.15740017194899,1.53221448522434,6.68458928562772,6.92465481335322,0.777536016227512,9.05856750808904,0.418635658075841
8.72629568713079,0.115063948841762,4.82179486338545,2.82351523259477,0.928830763663976,8.94920891177391,6.15937550889721,1.53201452372932,6.68480654197101,6.92538590321274,0.777028453667516,9.05995176039635,0.418803519605532
8.72578858258898,0.114055641565687,4.82259586535501,2.82274521434326,0.92787134950218,8.95006406098904,6.15883079258361,1.53226547840079,6.68499880653221,6.92497225256173,0.778319427456894,9.06203341793487,0.419427359106687
8.61430658078999,0.101297200131329,4.88513395833389,2.68960828571914,1.03711316791624,8.98510184109134,6.07694304264619,1.49713852081253,6.77053748844647,6.92322707013085,0.844748255494672,8.96633806110566,0.413916088207909
8.60691453909276,0.100326727389585,4.88958749949865,2.67990848616652,1.0448309643445,8.98735004458248,6.07223325960127,1.49413938761942,6.77691594494624,6.92357817931671,0.847960971037996,8.95833034460027,0.412372324760689
8.64441087332836,0.119693867443327,4.86853087574338,2.75251800992115,0.997246463072247,8.94161376479311,6.09445604432807,1.517612809566,6.71358157333079,6.91882132877234,0.815720719013456,8.98837997404859,0.397949389655172
8.65820116220831,0.134434740656693,4.85481138474021,2.76845428749616,1.02265715067189,8.89394913924012,6.07625789615917,1.52556161064178,6.6948263113738,6.90446800356171,0.787763069467127,8.96855668643465,0.383979551218996
8.65985504084963,0.135138689159583,4.8530817725588,2.77005407051567,1.02387651144963,8.89316555275034,6.07601606195279,1.5261765824531,6.69450063674256,6.9046713278461,0.786297031758137,8.9678387786004,0.384247460543082
8.614395481151,0.101331214911143,4.88509494534367,2.68973351652329,1.03701739715121,8.98504612300486,6.07706650184782,1.49718240278723,6.77046273285977,6.92324887775479,0.84467266797378,8.96634198935793,0.413879027796975
8.60685853338214,0.10032957794607,4.88961975744366,2.67984818102644,1.04489310591827,8.98734634326078,6.07219506621659,1.49412829757105,6.77695177192266,6.92357605319387,0.847983867464326,8.95825996605869,0.412355564757557
8.65830063114795,0.134398084176339,4.85461954414898,2.76860551520136,1.02277029345359,8.89403370274513,6.07593252587056,1.52570343191677,6.69479400567154,6.9043948276841,0.787898968213831,8.96888371633958,0.384276626122007
8.65872639970348,0.134615120101602,4.85426858050134,2.76900090487792,1.02288553870516,8.89381223715075,6.07622064566666,1.52572861802927,6.69469205328992,6.90455745855293,0.787330834647602,8.96849504419518,0.3840949478236
8.65864358484865,0.134640781250772,4.85434791188564,2.76890656775593,1.02297494710957,8.89370418590211,6.07619304248141,1.5257311609196,6.69470642516353,6.90451527797371,0.787363609198952,8.96836001664387,0.384039156700608
8.6131118516742,0.100629938356858,4.88595828651185,2.68768381515083,1.03762189598749,8.98699135934426,6.07689955967912,1.49648975030156,6.77228012739631,6.92362692274439,0.846058154481804,8.96593396012785,0.414430275180139
8.60798003715809,0.100674355308299,4.88891137675108,2.68143847940169,1.04403482968974,8.98634132612621,6.07257889860335,1.49460057663565,6.77566953455372,6.92337851085378,0.847094921553474,8.95909439349841,0.412211213451454
8.65935945760913,0.134854628996982,4.85365740015304,2.76949671119661,1.02318225659999,8.89360245827889,6.07641084971738,1.5256929684679,6.69461152242758,6.90468976718933,0.786653349299283,8.9681550692205,0.38407877585412
8.65895307211327,0.134770390346013,4.85399949245627,2.76922020137187,1.02331891667848,8.89346547814118,6.07594270961088,1.52591052393842,6.69460653820584,6.90449362476514,0.787077220676849,8.96825959272796,0.384097352632974
8.65895510108146,0.134804124458053,4.85398763452582,2.76923845073903,1.02333164537497,8.89344111821784,6.0759728641997,1.5259027128704,6.6945970237935,6.9044993731019,0.787067803136381,8.96820919056728,0.384092238044498
8.6161560183502,0.101290473990691,4.88412189804107,2.6915582210554,1.03512918981643,8.98518495757249,6.07858273112167,1.49753409012457,6.76951181183767,6.92344277105643,0.843861146754306,8.96813496904847,0.414264800023311
8.60850022298781,0.100645269125761,4.88863240813098,2.68196497036829,1.0434548641818,8.98641828971789,6.07304901219818,1.49470950078366,6.77540987440006,6.92343995515495,0.846882325660399,8.95965200514669,0.412346457761457
8.65902128154692,0.134803271473609,4.853943227223,2.76927186135982,1.02329427026175,8.89350387591646,6.07608415594879,1.52588661997932,6.69462944109434,6.90454806760487,0.787025192199556,8.96819440862434,0.384105076830468
8.66340069574731,0.136685400524531,4.84956286945173,2.77343360295979,1.02555648834026,8.89196674664167,6.07701598409682,1.52696235685544,6.69393958857918,6.90552732444564,0.783013564363553,8.96598542153703,0.384546017226343
8.66263345748155,0.136777429738242,4.85041326381623,2.77290455027978,1.02470427350363,8.89221900451652,6.07810198413923,1.52643185108609,6.6939823415514,6.90567276415107,0.783614803595361,8.96564593531794,0.384216671666849
8.61550103035623,0.101621259111109,4.88440256167115,2.69115186694102,1.03619770866433,8.98432653625361,6.07766594615937,1.49756078692946,6.76945749491914,6.92318081016522,0.843838402939056,8.9670262647433,0.41379678071253
8.61304953551652,0.101975130217663,4.88585608245972,2.68793182848928,1.0398478647845,8.9835151869713,6.0761382662163,1.49636781320335,6.7713183249341,6.92334665562343,0.843519216414332,8.96212157974433,0.411928458819605
8.66758223831329,0.140122153232961,4.84565122083435,2.77716167857051,1.02439969538352,8.89421117842385,6.0876932345776,1.52455330988516,6.69534832936235,6.90968388923593,0.779643043149408,8.95954191895354,0.384962464383898
8.7240663336568,0.124090449935689,4.81938499378025,2.82316700021501,0.94515387588113,8.93779320095345,6.15694784299822,1.53038232304006,6.68548831312359,6.92643849943073,0.769330381979274,9.03538185012669,0.411557608647907
8.72468301555812,0.119219366792884,4.82100775349664,2.82288710462748,0.936926780746917,8.94354876617242,6.15732699329524,1.53137401045469,6.68510606972316,6.92543892619268,0.774024403248105,9.04863623424497,0.415597646420843
8.61572455320507,0.103367853273229,4.88350390844006,2.69251578694615,1.03796703011337,8.98136705524498,6.07679263511101,1.49794872273796,6.76806980544253,6.92254844109773,0.842723054059481,8.96488507474736,0.4131640421643
8.61600331202493,0.102317339071566,4.88393591139594,2.6906866094203,1.03735307634378,8.98442910785947,6.07978335836931,1.49645851693369,6.77066571316744,6.9243307628177,0.842055870429774,8.96345232448617,0.41268613860542
8.68719192209658,0.128145149893444,4.83801812981769,2.78554178666233,0.982648915450114,8.94926048332824,6.14458616924525,1.51572505201133,6.71328821178591,6.93760923345105,0.779122275537907,8.97620200873147,0.396812434739898
8.68573110644433,0.147883158006492,4.82896193466576,2.79473640315788,1.02970898925749,8.88845265150605,6.09614091210092,1.52823617758039,6.69190350436264,6.91452942947999,0.762841535314014,8.95060898340125,0.385328184989193
8.74847919060065,0.14149152048638,4.78860954448275,2.79200750310304,0.98016064790206,9.03690830950039,6.29724961696317,1.4742284245767,6.79083948435086,7.0071495169899,0.740653203493751,8.89492536922848,0.41862545108838
8.61764546390691,0.102359543930707,4.88302392898365,2.69412809375508,1.03471861293931,8.98240436522872,6.07855594794622,1.49839820147734,6.76714382736864,6.92289263762234,0.842036137716341,8.96825516045365,0.41344092955863
8.61533064236885,0.102844587144528,4.8844114988183,2.69156645594134,1.0383206060241,8.98020571843317,6.07587969785873,1.49766366530158,6.76782578165005,6.92236791984694,0.841342276622478,8.96409262563831,0.411229355844783
8.72571874444251,0.131103578393478,4.81617017243507,2.82817870568113,0.944907528207853,8.93303235806522,6.16648173916938,1.52757447847167,6.68299982138228,6.92786723028429,0.765126708178417,9.02507677879903,0.409152016372162
8.72550413816877,0.147188992508281,4.80821283454372,2.83370199626618,0.958712260340901,8.92126206530943,6.17067202495815,1.51779544088519,6.67901771750124,6.92947861011923,0.757187160187458,9.00011054998987,0.406420931577847
8.66792143775803,0.142459195816275,4.84539978412587,2.77879637864616,1.02376105862744,8.89106764510285,6.09001951982061,1.52325948618664,6.69307864238445,6.90986824439155,0.77707147146517,8.95642934106537,0.382538800745058
8.62008096223928,0.103336459743257,4.88201435605708,2.69746485304896,1.03280478408487,8.9797009704966,6.08115227723915,1.50004780610461,6.76490529655107,6.92288138418221,0.839625972791948,8.96802844780088,0.412025135351963
8.60969589350478,0.101125664177716,4.88791758944402,2.68385773490227,1.04250013412629,8.98493681729871,6.07338820545987,1.49537495697427,6.77375781455985,6.92312959530405,0.845808063331011,8.96046035843866,0.411980446598495
8.64953500812552,0.129769635366089,4.86248127566276,2.76022503648665,1.02242805685666,8.89464940206597,6.06602690451082,1.52604691345228,6.69538246916455,6.90012779095754,0.795929867238716,8.9756095640674,0.384282774409873
8.65776051915343,0.132978237434808,4.85397392672738,2.76081607271034,1.0419094624188,8.88879625840342,6.0616230114859,1.5299954378036,6.70148532579627,6.90220202366983,0.785096054198881,8.95867951814181,0.382991069752252
8.65326390695584,0.180379856876134,4.83574751041079,2.75140414166279,1.066254258163,8.90384017417595,6.16051116805577,1.4826588572609,6.74565468170227,6.93017303142097,0.76839236843752,8.84097617484743,0.377900992572626
8.62045508546691,0.108028495616751,4.87785935381426,2.69860307729522,1.03995160821486,8.97809990736972,6.08059126006661,1.4972851192002,6.76576145826438,6.92388458233913,0.837575973324967,8.95969075404473,0.413196999170422
8.66383004041455,0.131728326527522,4.85334759554713,2.74282883866236,1.01588546652462,8.97012653144336,6.16443207540866,1.4952741728477,6.75553247072731,6.95283559287092,0.795238487755335,8.91938480871378,0.397196444777093
8.74732791293291,0.189130267389052,4.75137241526666,2.8757431746309,0.988034954856855,8.94438161837155,6.19043688590153,1.45917152145064,6.67648964425741,6.96811970799418,0.708118547746761,8.94158030145765,0.409521676664193
8.69156916244532,0.169509286222581,4.82306516100774,2.80522840860823,1.01400108869672,8.91559483224825,6.17547017391728,1.51693038379994,6.70833933792659,6.94751855597992,0.761506381891243,8.89698671833022,0.384673091131129
8.69798398119995,0.148904512284111,4.82278986154641,2.76572065545286,0.991277032900534,8.97705325096577,6.23582668089998,1.4544211897682,6.75454656146403,6.9753989709237,0.735659915521485,8.88541537190942,0.376320617115689
8.6286231909595,0.107392710538002,4.87468499391485,2.70639218640309,1.03244683211876,8.97718454955485,6.08843493799139,1.50080315460022,6.76238915832037,6.92564434732455,0.831738403748343,8.9639876359109,0.411643806194916
8.61227118877687,0.146645614197412,4.86446288257309,2.72070964433978,1.07992171241733,8.9178880733259,6.05384410605782,1.50145441377213,6.73711732279809,6.90801925129483,0.825172731454397,8.91427743051051,0.402582596240978
8.66536982045766,0.171248060142349,4.83428937746355,2.77723873997755,1.03294491011967,8.92688700257619,6.16736104965962,1.50528336055482,6.72905618327468,6.93973728397654,0.799447861667678,8.89122976643761,0.406572468394578
8.70151131413627,0.227683469675181,4.78994079775587,2.86545130380562,1.0272096749946,8.83778757444752,6.15805120569791,1.50765178465453,6.63887984420869,6.91639976723128,0.764569454016156,8.90121459885961,0.407481174323111
8.7030271554466,0.195508096873851,4.76826872728841,2.78843987458683,1.05925018149504,8.89972746798238,6.15042375185666,1.38492755272276,6.70399240151374,6.92691451187909,0.675962850575457,8.8707372304207,0.373712245920044
8.60800119004736,0.163175454156896,4.85600608548001,2.71346310324648,1.13891277292016,8.89868298553409,6.04572309530037,1.53375985150308,6.76258136956841,6.90982325240279,0.832790041426083,8.85085556632087,0.409036506046359
8.52705884026145,0.229463813973469,4.91417174270889,2.71414080805534,1.25849806046408,8.79230943411911,6.01196182069502,1.6712795777981,6.76261700564468,6.90885469281399,0.944519836450977,8.69590750092258,0.4159947034567
8.1502979125624,0.392743547065983,4.51785885256151,2.84125453847998,1.50724721523901,8.5490451326466,6.13653343482866,1.4996759806405,6.27217165267006,7.08142179336339,0.841626309091637,8.63910452916058,0.672968486407093
8.11425270869758,2.17183059798063,4.6475485647892,3.61339984163544,2.20465882390253,6.65051420819402,6.62905980828051,1.56154678675716,5.52267901381464,6.57541973083854,1.10505077458594,6.53603705461739,0.404561617387431
6.98774964054814,4.27029086472869,6.26775596919643,5.09015957577119,4.641078929967,2.82436286012778,6.30990555392464,1.07205204619924,2.63894784121528,3.49547444805602,4.42133357200888,4.42817180693902,2.44126500747127
