"fastcoef_sq","pref_flow_den","slowcoef_sq","soil_moist_max","soil2gw_max","fastcoef_lin","gwflow_coef","jh_coef","slowcoef_lin","sat_threshold","carea_max","smidx_coef","smidx_exp"
5.08625730179157,0.918998284793875,8.67375874620476,1.02779356541087,4.40112568198919,6.83243203081835,5.03653696118915,7.88341036780957,8.45827382085765,6.79492436941523,6.44145297672079,4.54765535641481,0.68817502356769
5.11490952966347,1.00275127197335,8.59458016292565,1.11056688165996,4.410734612719,6.73527393175714,5.04783292828292,7.80673539425217,8.35224230539124,6.7522067009272,6.373033684459,4.504440122041,0.697397785809047
5.17550555605556,0.998596535570053,8.58142914473059,1.11892196666938,4.29091459415986,6.80686003429585,5.19729344270027,7.74092299021484,8.37036223827291,6.81095508570092,6.32022715243399,4.5317856381953,0.674549246474187
5.11776828382315,1.01320724038973,8.58627734459528,1.10353248894774,4.43304080300683,6.74158889845979,5.03435351420929,7.79485534734475,8.36648815315442,6.74902078129404,6.36536159033058,4.48755549060736,0.697409962137768
5.08564588190066,0.993037603283122,8.61505129884655,1.09825980525494,4.47465669223116,6.71639290690488,4.96807878580679,7.85871568071603,8.36289868132054,6.72174181754527,6.41626912743978,4.49141228376806,0.708631130577631
5.12051284885343,1.02370787970424,8.5777361842666,1.09659896869044,4.45549357523634,6.74801979814861,5.02082744894014,7.78300920764092,8.38059507594008,6.74561394749388,6.35747778908906,4.4704632321281,0.697537980855306
5.17319986980128,1.07836601706765,8.51545619735413,1.19809949918762,4.38509593195059,6.68347974758624,5.11235349798132,7.71186258923378,8.26343736035624,6.73328789182836,6.29024396201122,4.47865813026506,0.706230803576207
5.05035875595073,1.07676031197105,8.55080276630918,1.08431437880017,4.61895584198066,6.63381104939622,4.8343787636504,7.79768124521582,8.34764850203906,6.67479579466514,6.37239178486775,4.39821819743421,0.716291610902504
4.99670809039652,0.632747089608324,8.9130057802282,0.873831894490761,4.3266802592799,6.99777330343995,4.97224844865522,8.18522975432506,8.64707455913048,6.84140051618359,6.67145627449628,4.73411864223226,0.690603196247342
5.17360622008682,1.19531409371157,8.39535765133391,1.17966113083275,4.59570791850696,6.62833722047393,4.97683968474829,7.57046693128305,8.3100669511344,6.72545011412381,6.21368402876382,4.32087471394553,0.682945875631132
5.02384434473993,0.748161631933018,8.9280827272135,0.95754379683829,3.99158775033243,6.88334880699094,5.35659900631928,8.05226275836704,8.46436889656871,6.92589219403155,6.63725497637271,4.75415323660005,0.619330588503192
5.03598476277144,0.78446429745077,8.78149334865609,0.911689771634634,4.39835337046419,6.92844645425193,4.98010596740703,7.99713788712609,8.60107045263838,6.82920393302427,6.52828022156498,4.61117083539303,0.680464624087275
5.16505237731776,1.15941842816197,8.45834904575342,1.0996544734337,4.49081621106543,6.72693849963659,5.04826016678901,7.58558355978409,8.38575412749232,6.76519907691681,6.20863177454865,4.36992259557312,0.677634551246265
5.14244927660602,1.05325488982142,8.48423732470514,1.16572097263851,4.46976046517688,6.68277849072244,4.95346069447382,7.79176243312202,8.34123944615031,6.70155874116105,6.37139583272931,4.38295781592253,0.621799160859765
5.06866098964583,1.49524635939363,8.15824255043093,1.28311880805889,4.92097590933517,6.22921890099201,4.66065507289579,7.34940575281236,8.11053296342158,6.54538877207265,6.02808702540425,4.06255131139091,0.704235738663577
5.0678158069682,1.30331005720401,8.69487628374409,1.16697385805776,4.43032705601729,6.55542616113667,5.33105727712922,7.70044457906916,8.27041261891597,6.77790639416143,6.42514981686051,4.12127353932972,0.625862139593423
5.11676003827654,0.688794775129428,8.69017640718131,0.774552240491644,4.35248294895961,7.24412706223297,4.89354618972775,7.9221276229645,8.80475825917138,6.88525437460045,6.46227928676639,4.75004752041793,0.684939575238632
5.15375283722646,0.218998901368757,9.02200327812538,0.791113330506742,3.87381863806172,7.40802371252883,5.41694942203832,8.24754754079455,8.87670302351153,7.15828236395056,6.63093485660779,5.13746970720931,0.648874274341766
5.45234112213734,1.21834229315148,8.43762046362175,1.51382871494739,3.86280851141252,6.58585705891864,5.64564673846562,7.53813336748244,8.00961757726325,6.65636924588207,6.18323090942314,4.4504864597069,0.693570360169455
5.14359323624169,1.5349909862712,8.1910599026441,1.4595181981668,4.80075191214079,6.14613998137367,4.81899671402272,7.40797437708267,7.8693811600515,6.49807244129027,6.10910981915994,4.07375679620028,0.708568019656337
5.66360208965668,0.456122629516734,8.98508447943269,1.22579696167228,2.73667494365812,7.20409053865173,7.29406667205556,7.33959230246094,8.54978109415752,7.64525826869525,5.81543551757132,5.08937608369298,0.421904078127557
5.09230870080807,0.850362043863451,8.79015467691578,0.753071154890743,4.47260932709899,7.11190635227446,5.11068034136561,7.84373353661174,8.86244391699369,6.91761238527421,6.41101064495619,4.42522135197196,0.638017046439774
5.02612427911929,1.67821764717307,8.71433587638452,1.10033132002024,4.68746752034474,6.38722711436965,5.52508567545288,7.59935384533208,8.3094982321472,6.85764995142664,6.40441549932853,3.64147212010164,0.568229433218495
5.17282237470928,1.62196720110378,8.14640333760923,1.84308842903108,4.3096705002688,5.73287050331801,5.28597154674721,7.37498784066213,7.31168771617598,6.57099999400331,6.08134764550686,4.2368965157106,0.655779005257919
4.29954392501915,3.06949892078534,6.3531659378804,2.1375894982382,7.18617854654989,6.45660467090506,3.95919670704822,7.26853832320487,8.10470429913694,6.80495131151482,4.96924854427787,2.89384644088292,2.02535890258167
5.67792568993585,1.40325512755056,7.4014405184767,1.57016129511027,3.96558908467564,6.24061347348311,4.3821536472826,6.74776816595757,7.83375909036236,5.83143453308075,5.27292909968853,5.68852708397239,1.36527088402059
4.96447830320282,2.01076680345818,6.80277111357939,1.21669602567702,4.97915377443772,8.06809864366876,4.3294390990617,4.05500273285662,8.09149040620356,5.86452106182976,7.63043923992367,6.24266425255765,3.50867526793893
