"fastcoef_sq","pref_flow_den","slowcoef_sq","soil_moist_max","soil2gw_max","fastcoef_lin","gwflow_coef","jh_coef","slowcoef_lin","sat_threshold","carea_max","smidx_coef","smidx_exp"
8.54668123276298,0.101543928434211,4.92802335026966,2.61341722585545,1.08308729636278,9.01081113621061,6.07363933056221,1.46885542197944,6.8250536535702,6.93687214607452,0.875168769159221,8.88049206124548,0.393949054149596
8.55148768779135,0.101608515581938,4.92526895642476,2.6169428082892,1.08275692276201,9.00735469383441,6.07399020489795,1.47031229308447,6.8229631280963,6.93607500856811,0.870258001798975,8.88208616895623,0.392859227257289
8.55342811539604,0.101852097932289,4.92247698137958,2.6206211320628,1.08103387343388,9.00995401808735,6.07258190399259,1.47169870694257,6.82119736782876,6.93566990034009,0.873880948883161,8.88882403584062,0.398638665652077
8.54794253725985,0.101467847178172,4.92725445166641,2.61464873989463,1.08249921787191,9.01016912576868,6.07345729139571,1.46934294444153,6.82412329789631,6.9365459559307,0.874399432808238,8.88195340740025,0.394162976703
8.5542068991001,0.101535383861443,4.92357660661925,2.62014285264882,1.08061767415776,9.00636154346327,6.07402626003854,1.47150961098861,6.82055233571585,6.93546104579369,0.869194455386092,8.88600218907166,0.393776057055597
8.55346826124113,0.101543839055489,4.92404284919382,2.61927088145646,1.08118763548295,9.00663243548574,6.07400541781814,1.47118887451604,6.82120228519892,6.93562200557997,0.869486982100683,8.88496398511166,0.393527252026772
8.55798314124134,0.101342298217118,4.92106274750115,2.62590313945491,1.07558359044663,9.00596341086164,6.07384620098172,1.47356378345859,6.8158442272177,6.93441070355826,0.869544858190822,8.89467658145768,0.396697295771698
8.55322019591136,0.101562573187817,4.92418831724364,2.61898219776699,1.0814025842051,9.00671549091893,6.07399846006475,1.47107657206166,6.82142346268425,6.93567944164822,0.869579768743957,8.88458403198815,0.393445131645494
8.55208828678659,0.101906591486187,4.92326728498369,2.61913460139638,1.08198873022968,9.01057890575426,6.07259068179298,1.47113664968838,6.82235141165538,6.93598844741746,0.874584217138768,8.887066307638,0.398368938501321
8.55618739005655,0.101360320402519,4.92217671504446,2.62394982079959,1.0766772459518,9.00679496980028,6.07385995094095,1.4728218312288,6.81728544919419,6.93481320394912,0.870495605687925,8.89251795450975,0.396302674456406
8.56136185885089,0.101494847694252,4.9193899372034,2.62642286689027,1.07838442546533,9.00205267419804,6.0743886794717,1.47401518394642,6.81636196430451,6.93411687868496,0.863373686663507,8.89106612738663,0.393469399412829
8.56465372320629,0.101038165264075,4.9164247598265,2.63231386443763,1.07320751871691,9.00379223348331,6.07262347319441,1.47608879048267,6.81169640512964,6.93290935765095,0.866520052970713,8.90258386103079,0.399270051471564
8.56374853669881,0.100822475615555,4.9171994464808,2.6313880171326,1.07314760487677,9.0042219571733,6.0727064618956,1.47580743815103,6.81216740888669,6.93300119091328,0.867104478335878,8.90214722323922,0.399009757721879
8.57355733981177,0.101158177064711,4.9117373818114,2.64071862021531,1.06893940062281,8.99771079873526,6.07444740504432,1.47936842986275,6.80565735388565,6.9313675262784,0.858692120224841,8.90864095639778,0.397729452493206
8.53849073288288,0.101511134022951,4.93316119321239,2.60424576581487,1.08848069169646,9.01427689705227,6.07323888444288,1.46544036281412,6.83168490008544,6.93855433923972,0.87918447845394,8.87049909108549,0.391886384820153
8.54263591697414,0.101752756980071,4.93070084066464,2.60823953827582,1.08686186606941,9.01173781579234,6.07400155081974,1.46698771374305,6.82907140997109,6.93789592517813,0.875923689950062,8.87321313235296,0.39170821804579
8.52824266053086,0.10215488760623,4.9399764498742,2.59321630138157,1.09451840998277,9.01760580831119,6.07501562163617,1.46124100160133,6.83975885146154,6.94112783977395,0.88310776879176,8.85575141578215,0.387665906297379
8.54136952189125,0.100876175442793,4.93168453560291,2.60539419671816,1.08933682578552,9.01223983529299,6.07229291010711,1.46690448220487,6.83128143054522,6.93759252421619,0.876620141028092,8.87183419691261,0.391649714072437
8.57958480307981,0.100057566479648,4.90720957248132,2.6479441277928,1.06391734966448,8.99815578155015,6.07184024368411,1.48223372960003,6.8002989143849,6.92940115077495,0.859587504701249,8.92227656058936,0.403664151416616
8.52813967800962,0.102453963403823,4.93991171121895,2.59178228904177,1.09728162527803,9.01672752426598,6.07488150401154,1.46070056745149,6.84136961008578,6.94137773531251,0.88138046353433,8.85207734347425,0.386279715439919
8.58209679476406,0.100142989750459,4.90550999536193,2.65083377041831,1.06245104801802,8.99710327576367,6.07171976150772,1.48330696209072,6.79822342863303,6.92885229938788,0.858481027264886,8.92540307688433,0.404500309750627
8.58038476943325,0.101353328106136,4.90505935989328,2.65035050571074,1.0642757445069,8.99975204483123,6.07168272893764,1.48302172974894,6.79986223574241,6.9297312379746,0.862029991447093,8.92373271139484,0.407367415473168
8.58277010283652,0.100539439801325,4.90471434363473,2.6513758277649,1.06319492582673,8.99684335856107,6.0717118550827,1.48336025008397,6.79827987362152,6.92896911003812,0.857874095621759,8.92485604803248,0.404708485594764
8.58328636198341,0.100184541036384,4.90479689131791,2.65227092266745,1.06148363567378,8.9965608663445,6.07192499572518,1.48381955444678,6.79714745476068,6.92863541648373,0.85788051968946,8.92687035400534,0.404728185550201
8.5946132103728,0.100420075446874,4.89811162988355,2.66595597231329,1.05181945998398,8.99167413931996,6.07409994170999,1.48869197056498,6.78690482044071,6.9265901812048,0.852329134047002,8.94129055232935,0.406992338807662
8.58429322379981,0.101089912013156,4.90494884970244,2.65535096749094,1.05711143137158,8.99516200123301,6.07578928684351,1.48445411147152,6.79435708746332,6.92911344665557,0.85667085535229,8.9274884289771,0.403071243356177
8.52941436961811,0.137061784199332,4.85597136285053,2.67593102467139,1.11817386863633,8.94039830689459,6.07981202190798,1.48572267115972,6.73182598363806,6.94782837982874,0.855395853815219,8.890014921527,0.438274218908999
