"fastcoef_sq","pref_flow_den","slowcoef_sq","soil_moist_max","soil2gw_max","fastcoef_lin","gwflow_coef","jh_coef","slowcoef_lin","sat_threshold","carea_max","smidx_coef","smidx_exp"
8.54325727664225,0.102276056224975,4.92979928312085,2.60948925999659,1.08665070388421,9.01204624833951,6.07426788075167,1.46735316252479,6.82862472027183,6.93802625829884,0.87640925665295,8.87384905841481,0.392829134583265
8.54349012775036,0.10188168813093,4.9284924651031,2.61097603668594,1.08537969020746,9.01523399014948,6.07223411590151,1.46795575958431,6.82787694549464,6.93762907016761,0.880686675105844,8.8797580733299,0.397857791631076
8.54612455558364,0.101854047692787,4.92838683904204,2.6122467859556,1.08460334965929,9.01052131636395,6.07425882082534,1.46850058368206,6.82634476439054,6.93725253810677,0.874516209736886,8.87750744290322,0.392929225870805
8.55195471370973,0.101392092589391,4.92526757221641,2.61714209091569,1.08235013933326,9.00692699608159,6.0742222445399,1.47043913207438,6.82271896501845,6.93597617556584,0.869544562740053,8.88237866729856,0.392366669163007
8.55372467943275,0.101330473448254,4.92377633907725,2.62099135438873,1.07858382380685,9.00759025304111,6.07365551018904,1.47173203673315,6.81939481676873,6.93528688780475,0.87137533458148,8.88913155150591,0.395375423604408
8.54717893403665,0.102090540840971,4.92753265284047,2.61349518781907,1.08430351398161,9.01006970173058,6.07428777511033,1.46888578067822,6.8255971672112,6.93714063229704,0.873967559740029,8.87833224294469,0.393283274072827
8.55377436089929,0.101308039487163,4.92380420100521,2.62107484964898,1.07841485138766,9.00750741672886,6.07371432874434,1.47176495435123,6.81927390603861,6.93526549217898,0.871300631699499,8.88924624225606,0.395289746995183
8.55232202581913,0.101340162661716,4.92467003032898,2.61950376017455,1.0793263655752,9.00825099822712,6.07373826407389,1.47116273072478,6.8204778817981,6.93561018785133,0.87213345960507,8.88749982002032,0.395053565590189
8.5587828728192,0.101418777590358,4.92077273035717,2.62528479966865,1.07740330142927,9.00442884363553,6.07404995591693,1.47344943730489,6.81668959637482,6.93442469203308,0.867021351931953,8.89203251539409,0.394968248511722
8.55754566304495,0.1022667555742,4.91847949299594,2.62490726614173,1.08085678705634,9.01032751551113,6.07153848592945,1.47343881733078,6.8196079233016,6.9350926988942,0.873977443263257,8.89370991646704,0.40280481003177
8.5565831065524,0.101436245414053,4.92217855711068,2.62265805647412,1.07908808399153,9.00524578485392,6.0740521267064,1.47247056870711,6.8186582328626,6.93492447765699,0.867854842063623,8.88888559881448,0.394183479623996
8.55659726812709,0.101730306284437,4.92059638013005,2.6240470731848,1.07890434203913,9.00851495128639,6.07262285391148,1.4729989222385,6.81861111615733,6.93495439476197,0.872181949219085,8.89279446065609,0.399263024154974
8.55688325589697,0.101417734057926,4.92200341582104,2.62301379669567,1.07881781896193,9.00514375920008,6.07407310910996,1.47260597258607,6.8183852876602,6.93485770991885,0.867741493643098,8.88934214122317,0.394279113276148
8.55493033191684,0.101804546428242,4.92157885271005,2.62220317757506,1.08009026664113,9.00928657005445,6.07264283368631,1.47229959145876,6.82004302989924,6.93535260878649,0.873053380969377,8.89059707460603,0.398922600477611
8.55918273888766,0.102210345447436,4.9175544236197,2.62678315399104,1.0795155951608,9.00956801499615,6.07169177216687,1.47413200281826,6.81813993763464,6.93473288544899,0.873114487468569,8.89587725933643,0.403079965939941
8.56503593395929,0.101388760996622,4.91563921773081,2.63343331216617,1.07282532352311,9.00455705505911,6.07261319480337,1.47654581843476,6.81130717741054,6.93294907799016,0.867738842117765,8.90387732401059,0.400926340178642
8.5653729505142,0.101434967393497,4.91542585553632,2.63382405606934,1.07260849684056,9.00439926583268,6.07273778300153,1.47666806178553,6.81104983572852,6.93292543980195,0.867522246979873,8.90414197702376,0.400951652115513
8.56689260833094,0.100739636515375,4.91532800944581,2.6348238683563,1.07101787677312,9.00277196964237,6.07280587306072,1.47710063869738,6.80958087429732,6.93230833809104,0.865407467579342,8.90602818536574,0.39960862625847
8.56819593187761,0.100942619500834,4.91431506496311,2.63621760601698,1.07075324867559,9.00218029319211,6.07274044960208,1.47756177539083,6.80875204404501,6.93212266511242,0.864654836812786,8.90703144319788,0.399983168341361
8.56991217650961,0.10080907037439,4.91352385750228,2.63845795589954,1.06855876308534,9.00140362859858,6.07325193065992,1.47841592368493,6.80684096999382,6.93172810470969,0.863911061881955,8.90984900643095,0.400218075861739
8.56760842472822,0.100941048989117,4.91465473321227,2.63551437443209,1.07122652553429,9.00249389301867,6.07270371022563,1.47729464705628,6.80931194265417,6.93226442465375,0.864964204611801,8.90625982435829,0.399886723556654
8.54064745486612,0.102090238695778,4.93187481350193,2.60647787021038,1.08779951558318,9.01254962640201,6.07450706896915,1.46621417731549,6.83042204096324,6.93849386293216,0.876971913541689,8.87052132829646,0.39118346154651
8.53945076893897,0.101572853321277,4.93207635921317,2.60411458995647,1.09031074862096,9.01446007779074,6.07289656681809,1.46557813922715,6.83282020454746,6.93861340202528,0.878605336096015,8.8696837877622,0.392601762820963
8.5340981100061,0.102088399197888,4.93595745919052,2.59949715865701,1.09146221372291,9.01575055813907,6.07458023590214,1.46365839741795,6.83554661800994,6.93990077000244,0.88080267073494,8.86315662938291,0.390033380831997
8.5820157783562,0.102376912493851,4.90612178779424,2.65408885678527,1.05911723119839,8.9937102176983,6.07551731693348,1.48394195841213,6.79468981540603,6.92928192113434,0.856791828701929,8.92302986546964,0.401354721727504
8.58985540263536,0.102550714739964,4.90019823012538,2.66095697231506,1.05751953215218,8.99237024579696,6.07542608005431,1.48621780602145,6.79138399802182,6.92819534155453,0.853887080895483,8.93056439054459,0.405427405082777
8.54090159534385,0.166552548297154,4.93792214542552,2.66989815351445,1.13052739052059,8.9040564048463,6.07834567433354,1.46954313102986,6.74731387243327,6.87950141803268,0.917387296813476,8.82736431453278,0.426833832597817
