"fastcoef_sq","pref_flow_den","slowcoef_sq","soil_moist_max","soil2gw_max","fastcoef_lin","gwflow_coef","jh_coef","slowcoef_lin","sat_threshold","carea_max","smidx_coef","smidx_exp"
8.59639092078042,0.100238366985869,4.89805929598217,2.66862552531649,1.04789005991173,8.98986779339783,6.07595359271521,1.48956771820549,6.78401839837758,6.92623026583497,0.850488819072632,8.94400017004772,0.405529895699887
8.59879059198659,0.100884651746654,4.89634464634185,2.67187029074417,1.04678616101071,8.98784041974839,6.07589695820089,1.49079345832517,6.78151523664669,6.92562724921109,0.848960345356796,8.94604347246215,0.4057757348839
8.60020897328541,0.10079213152119,4.89416212744473,2.67174818170423,1.05086176985866,8.98767376402208,6.07209280609958,1.49116351530508,6.78251660665799,6.9248003832849,0.848704445351297,8.94668493233757,0.408035043845874
8.59942317583944,0.100941246924158,4.89596098914122,2.67260353133019,1.04621696010625,8.98769243524854,6.07628133584547,1.49097741044068,6.78105712318413,6.9256257167947,0.848626586504262,8.94664579540188,0.405882438079893
8.59993578462992,0.101224333677743,4.8955401233852,2.67344608650609,1.04622972488986,8.98680116294707,6.07592974007849,1.49137503852743,6.78028064200521,6.92534258677927,0.848171940198224,8.94694724839243,0.405816359134483
8.60189099505432,0.101120116272117,4.89272849163772,2.67406990067244,1.04963447142399,8.98769751338563,6.0725158328048,1.49188222710818,6.78121011036129,6.92472998045191,0.848649287693379,8.94890581911175,0.409346483699349
8.60437054512205,0.100830374159597,4.89156442478335,2.67689783192673,1.04679786167617,8.98688150287071,6.07340696014451,1.49286074086464,6.77898606938849,6.92429556685915,0.847424052266252,8.95258239164066,0.409664136363508
8.60646618436221,0.100300146068217,4.88982036678224,2.67939812334726,1.04529929098208,8.98744340755545,6.07185265022872,1.49399089240124,6.77721944182819,6.92355673168558,0.848206070041758,8.95793790252079,0.412341955129443
8.60657155530162,0.100334647480749,4.88975067911903,2.67955211199926,1.04522070990774,8.98734318152951,6.07187679843743,1.494034226808,6.77709072601586,6.92353437791007,0.848121500340296,8.95802306993906,0.412329948432989
8.60670791926895,0.100375565925295,4.8896709982099,2.6797395149642,1.04511474937195,8.98722412298075,6.07194626485898,1.49409666411561,6.7769474344936,6.92351689090716,0.848011741824021,8.95810463238364,0.412304284229533
8.60662893013612,0.102214673569598,4.89132741075989,2.68159288189152,1.04155590035191,8.98360807967564,6.07845072488432,1.49429292045335,6.77488052420231,6.92468631700072,0.844491263735262,8.95277658419182,0.40674628156599
8.60798003715809,0.100674355308299,4.88891137675108,2.68143847940169,1.04403482968974,8.98634132612621,6.07257889860335,1.49460057663565,6.77566953455372,6.92337851085378,0.847094921553474,8.95909439349841,0.412211213451454
8.6135697505333,0.101008420254582,4.88563221469792,2.68856016432973,1.03753749697784,8.98588270969772,6.07675176580591,1.49683614237692,6.77139091898125,6.92337803859109,0.845407660577162,8.96594225539753,0.414060850802826
8.61384554175466,0.101109101253994,4.885453856984,2.68894354155784,1.03735873613808,8.98562429959905,6.07686626559829,1.49694699552734,6.77109421293157,6.9233406310771,0.845169682776427,8.9660819232231,0.41400855518033
8.61411292645985,0.101209505077893,4.88527903969189,2.68931538968336,1.03719247433881,8.98536871664368,6.07697346389447,1.49705418166855,6.77080617058008,6.92330335842851,0.844936113648578,8.96621088516104,0.413956476839447
8.61430658078999,0.101297200131329,4.88513395833389,2.68960828571914,1.03711316791624,8.98510184109134,6.07694304264619,1.49713852081253,6.77053748844647,6.92322707013085,0.844748255494672,8.96633806110566,0.413916088207909
8.61550103035623,0.101621259111109,4.88440256167115,2.69115186694102,1.03619770866433,8.98432653625361,6.07766594615937,1.49756078692946,6.76945749491914,6.92318081016522,0.843838402939056,8.9670262647433,0.41379678071253
8.61897867976871,0.100352539966801,4.88356523233664,2.69401947483358,1.03381575967864,8.98010272303463,6.07563890926059,1.4992454640986,6.76553051345496,6.92120279252421,0.83982118246249,8.97215442940479,0.411878056202877
8.61922461833815,0.10038742361507,4.88343085066588,2.6943483147827,1.03352762993294,8.98002090126316,6.07583266542635,1.49933532328803,6.76530506544403,6.92120779612888,0.839685532700941,8.97239944271898,0.411890015992386
8.61986773342268,0.100517378772749,4.88304436210499,2.69516199967795,1.03294497878421,8.97974245795107,6.0762824825188,1.49954538746692,6.76476704592962,6.9212096273237,0.83927562747776,8.9728821319103,0.411903365093698
8.62055533099696,0.100657048326175,4.88264238714763,2.69604171805815,1.03228828454764,8.9794628179674,6.07681807965958,1.49977986673694,6.76419785179735,6.92123296394089,0.838838618587142,8.97337892034663,0.411903127093437
8.62190521483665,0.100635895592102,4.88187434913522,2.69728470912644,1.03113556638039,8.9795128662554,6.0779392431248,1.5000528009636,6.76366052135644,6.92135474723662,0.83817294154536,8.97448479670872,0.412193432562759
8.62009633531923,0.100088065111967,4.88401155388786,2.6979174506042,1.02553556348771,8.98179790246322,6.08067308070844,1.50020825548106,6.76222655358138,6.921895005484,0.841397145210599,8.97782673265888,0.412606113465699
8.62017139818339,0.100144638371136,4.88394320593205,2.69801956957166,1.02555742239678,8.98170449487319,6.0806952461921,1.50023404979306,6.76216384972003,6.92189540216779,0.841306182027928,8.97777495446566,0.412579290878855
8.6262574813683,0.124931384821105,4.86336370834814,2.70292365219041,1.04913194665566,8.96462132058067,6.09469573591834,1.4650153200871,6.76066427220388,6.92564194687257,0.80475158340182,8.9283291500133,0.397801664943446
8.64034665787796,0.112757904185235,4.86377851496414,2.72420939105875,1.0230088746069,8.97250724807079,6.09297929644915,1.49634673931052,6.74892617586101,6.92671476951019,0.819945471555209,8.97297835202924,0.411592429634244
8.60800119004736,0.163175454156896,4.85600608548001,2.71346310324648,1.13891277292016,8.89868298553409,6.04572309530037,1.53375985150308,6.76258136956841,6.90982325240279,0.832790041426083,8.85085556632087,0.409036506046359
