"fastcoef_sq","pref_flow_den","slowcoef_sq","soil_moist_max","soil2gw_max","fastcoef_lin","gwflow_coef","jh_coef","slowcoef_lin","sat_threshold","carea_max","smidx_coef","smidx_exp"
8.52739291478304,0.631251368099162,4.50807931661375,2.73160977320815,2.11396967543339,8.4127690038173,5.50196479321438,1.44577537798744,6.81919305757569,6.75543103360474,0.572041498908047,7.99523551335063,0.403530454718019
8.4005446172347,0.894313665208285,4.49239073349798,2.92771266252717,2.26275104224235,7.95216610008208,5.37964179928705,1.53032528566328,6.52381653804602,6.59217171581137,0.727483688809822,7.83752728184792,0.431599944623246
8.43463117215809,0.878169885588664,4.55864579163844,2.90664073913723,2.20612201998019,8.00644071316097,5.5675829816178,1.51927246282516,6.55072280620709,6.71572358183043,0.693787804558577,7.74247740931138,0.371628522845584
8.41438910020901,0.88870980141941,4.47089964507384,2.93402595094298,2.25107602122393,7.96089233180026,5.37432376798176,1.50865237680773,6.5177999959894,6.58735159034789,0.702700852329321,7.86094435720767,0.43721174094775
8.4848805395891,0.852224346022053,4.53288530211399,2.92587888097327,2.13471323579231,8.05635325199018,5.62037940077877,1.46046708895077,6.54132241392541,6.73725544432672,0.634232005295565,7.80394220151456,0.363868516772376
8.71351856389055,0.392367306806836,4.43680564679273,2.77384546034724,1.71796983991891,8.71577280620235,5.65348571983318,1.29546167277973,6.83682810457904,6.80582382336295,0.405715419661507,8.4458093166684,0.395798307542568
8.45447444903383,0.878881251110876,4.5357481568156,2.91878630137661,2.19721107883321,8.01095848292138,5.57357627631219,1.48451137940604,6.5399500222735,6.71907157766979,0.663124690313333,7.75416163104479,0.366944364065137
8.50012622329328,0.84508265022632,4.59768312895661,2.89562130857761,2.11791449997963,8.09010828162091,5.76921516551595,1.4651694578315,6.57275436104234,6.84732697608186,0.615486715107974,7.68648150764159,0.309128622605193
8.46904231247489,0.905879425723172,4.43049205008307,2.95361353583539,2.19325887363373,8.00105141322643,5.42507660989036,1.40164862403579,6.5012131092739,6.59121747950877,0.624286204551356,7.89310811602814,0.424285615649408
8.50978097965978,0.864011751118298,4.47958693028119,2.94431957955178,2.14496900274263,8.04601767823274,5.59332939784262,1.39046931668114,6.51580511998548,6.72390803729565,0.573661615275954,7.81881408593937,0.362351253886434
8.63393457264104,0.8004841272195,4.43311402357094,2.98731326151953,1.93912813486047,8.19640936992321,5.67071423901062,1.22221997823313,6.48568306231335,6.74194605523519,0.440534500728433,8.05199988005499,0.361139785379277
8.62078350076529,0.825584956210911,4.43931370344269,3.02548291433196,1.96318489648462,8.11370685105756,5.72212407564293,1.25072454357197,6.4408837801107,6.76763702218096,0.451081609019586,7.97580886639256,0.335513121290455
8.33668574425243,0.938279682155266,4.46923288090498,2.82440915193827,2.49808045594673,7.90364026727628,5.19232108190899,1.47205744224025,6.59181742680124,6.55679097015692,0.693230443774541,7.68057998079878,0.416471734864971
8.38877244432735,0.969943052401863,4.44505298571981,2.94976889567545,2.3594294587864,7.85141175855538,5.31854962737454,1.47265222093038,6.46952963753136,6.56509345352491,0.685248581364926,7.75334331001782,0.428660876890007
8.3483798404743,0.932703192236279,4.444098735382,2.82666264389494,2.49924972382113,7.91332646442121,5.19491288463069,1.46236070148968,6.59808704786217,6.55702778331354,0.675532183502788,7.67752230204414,0.419299740074669
8.28024992155799,0.964906287401197,4.44280729054272,2.71334591025039,2.72503036876549,7.87857466777104,5.01070683157932,1.41543883890261,6.67774580402242,6.52742986119533,0.655588813392716,7.53218816593975,0.400322393783356
8.62853939037519,0.801773930971766,4.26976679191385,2.93292262090681,2.09240901297451,8.18742963639347,5.457901097941,1.08751214733589,6.54681578007719,6.62560665694518,0.313918615976297,8.03968096156502,0.367318420232417
8.36755714305446,0.88052123186815,4.42757689105626,2.72394215429938,2.55348115411551,8.01856082289258,5.11007579399856,1.33755856007321,6.68214228474837,6.56909758762029,0.551783426339585,7.69376943599262,0.398042385945671
8.51564363801437,0.788545436694221,4.30699834315189,2.87316435494576,2.25349738063496,8.16083003408436,5.2074702446107,1.29103997217975,6.60983763114975,6.54432809186842,0.495787558892554,8.05922197055643,0.468477309761019
8.57796229136768,1.04107593887593,4.10584412356518,3.01193460922059,2.26339991884958,7.97896141940923,5.38548827423215,1.08583779921543,6.41670355579961,6.53686476739282,0.356266634968492,7.77825352054417,0.453285658242936
8.13998800962271,0.767974644066146,4.77578952804569,2.59577780911579,2.57116938394414,8.02833053913936,5.25432659761317,1.99391148795354,6.89089557876638,6.66688903486955,1.07127297296221,7.49682966948916,0.426431472281451
8.27419389682187,1.00454832110743,4.69215363921077,2.85199955021328,2.28483839950363,7.90392373457583,5.50911737227962,1.7081375408107,6.56889091627521,6.60662421438486,0.945350403279456,7.58870990554438,0.410757770064358
8.37691726528532,1.21261159666907,4.39255795738754,2.92536974418065,2.43835828452886,7.98378680644929,5.24466920041361,1.56414185987299,6.43617634003072,6.64362511998676,1.02363399134193,7.71520738230289,0.70144934452304
7.44031585533169,1.50314919470773,5.54579104173299,2.4879959644423,3.38214750127848,7.11014498684623,5.38448516095502,2.79202865640485,6.8670627231378,6.63710633730463,2.05896363583169,6.08653268237642,0.264175732204031
6.75595971120515,1.14121760424304,6.51029791641825,2.22479749541156,3.4601985397863,6.96183508973147,5.1883734566611,4.54909180801034,7.20494440841311,6.65528579533544,3.56876718813926,6.07265388818129,0.489515199917054
6.55093614782725,1.63505527725434,6.15300134655437,2.08912772835794,4.28550434928941,6.4875968267597,4.48250331923743,4.29228922947719,7.05998158372181,6.32298808278684,3.29126658593655,5.3973257948546,0.632891443668328
4.55713958809596,1.43129868880869,2.57180965911008,3.00526249913832,4.38625809112305,6.64987498111246,5.97073532570529,1.67071627190753,3.37392230918253,8.22380781207775,1.62268992539552,7.64532794417651,2.83160294693819
