"fastcoef_sq","pref_flow_den","slowcoef_sq","soil_moist_max","soil2gw_max","fastcoef_lin","gwflow_coef","jh_coef","slowcoef_lin","sat_threshold","carea_max","smidx_coef","smidx_exp"
8.87335699922012,0.906761876686869,4.49630623620032,3.25444137519496,1.08189907291412,8.4803022276897,7.14159421929889,1.0909487081071,6.47604342425632,7.1784832715993,0.32196595859702,7.81485654125709,0.182542271915101
8.49265446261193,0.739649986214739,4.61387114732211,2.8660546599766,2.00300915487816,8.18815755912509,5.77277403819519,1.51397723753898,6.64311812946761,6.79801280840979,0.646834449362838,7.82983351317366,0.31094907402017
8.48685863261171,0.771724679059408,4.59586627337113,2.87886076247065,2.04467048093485,8.14997703435608,5.73165381414205,1.50266877573574,6.6184371713125,6.78360414609805,0.646436651134781,7.81288058627252,0.32278005994482
8.48671860467962,0.77179164711241,4.59593548791027,2.8787953836402,2.04488722690135,8.14983062312849,5.73154073597245,1.502829251543,6.61846780564733,6.78357825711174,0.646581009785706,7.81264936827165,0.32278379359765
8.48740770314941,0.771593709373613,4.59537664850411,2.87967949643384,2.04345888745901,8.14989934697542,5.73242348547509,1.50204078200502,6.61753814725119,6.78366194659797,0.64586091270074,7.81386577978627,0.322740350108581
8.48611091588035,0.772133090246039,4.59592827891019,2.87795118501661,2.04674853874092,8.14941377380306,5.73012641636721,1.50264828127645,6.61905410838319,6.78331725437391,0.646553976736918,7.81131886834919,0.322683662972749
8.4862322870425,0.772851038188505,4.5975464463535,2.87847324404845,2.04565455447691,8.14868671411245,5.73404060994473,1.50417927122115,6.61851727560288,6.78481087963329,0.647385801476299,7.80907211155984,0.321993803088396
8.48617114170863,0.773156101099601,4.59539945665978,2.87913967824414,2.04625668988023,8.1481311947153,5.73017173001824,1.50252890311904,6.61766773201666,6.78246021343366,0.646817709000087,7.81171893264986,0.323011719710085
8.48684888967504,0.771699177796351,4.59662333851395,2.87860121368281,2.04452900973585,8.15015192551099,5.73297992034408,1.50299656902598,6.61869828597141,6.784529717025,0.64656328792377,7.81179222385553,0.322330048683027
8.49495166975112,0.772385553115252,4.5891193748149,2.88250814079867,2.03823638282956,8.1536786569438,5.73801396574201,1.48820110591236,6.61444956146713,6.7863141625133,0.633760529359604,7.81687286180403,0.320878533137059
8.48251818939795,0.801268087281293,4.57744624286835,2.89139622845532,2.08333777455624,8.11546983798707,5.69149081919257,1.48941076442607,6.5947140315872,6.77063385647961,0.64436775888515,7.79945262051159,0.334358541401479
8.48293967858281,0.822968154027713,4.57256415084702,2.90058298325589,2.08279067217276,8.09999177106752,5.70454186121096,1.47992376252591,6.58140700030028,6.76407258405361,0.641915213513433,7.7808374474992,0.333391758298121
8.47810812905995,0.805465281561108,4.57663288654488,2.88848924357382,2.09495631575402,8.1091668751726,5.68170691702619,1.49044747803304,6.59570231014548,6.7661345964556,0.646201877237141,7.79183652380643,0.334979299897813
8.4796696054799,0.806497018067236,4.57779551643117,2.89186349736563,2.08920491943931,8.10846503690464,5.6888815742284,1.49147465695684,6.59258595835083,6.76782040022168,0.64696632574392,7.79275077799098,0.334673545735026
8.48121585906369,0.804467213683358,4.5722004486802,2.89372322819455,2.08855144790458,8.10987573819449,5.68201560225651,1.48910709499978,6.59178799928228,6.76363576155328,0.644718018817385,7.8013412691366,0.337261694367484
8.46682556531588,0.814932876912943,4.57648173363068,2.88050956374641,2.12402788893301,8.09451838177944,5.66005376716489,1.49347872990574,6.59889403446709,6.75904497883367,0.650954962184504,7.76989421505124,0.335437274558601
8.4629546242619,0.830390713120095,4.57840878148076,2.89324848353035,2.12427211768143,8.07235896290325,5.66486559529401,1.496628645035,6.58083723164009,6.75571622234139,0.657338066015153,7.76081714481701,0.336190215987425
8.46784391962775,0.828128290107796,4.57469811250523,2.89342221922011,2.12089583013581,8.08119655137468,5.66927844992773,1.49455885623989,6.58606876201432,6.7600906574528,0.657274313754082,7.76573033520136,0.33772138721234
8.46244437002868,0.87811254854763,4.55189782079543,2.91686169261327,2.18054922074038,8.02268326738986,5.61280672877532,1.47934153697622,6.54295915700619,6.74191858931111,0.656359623392741,7.74175659460816,0.355962207105907
8.63754199187271,0.699220691284688,4.49063843637022,2.91689185218117,1.89704920417389,8.31216779366456,5.7815645657286,1.31922258705407,6.60088615009778,6.82674325274173,0.476766416146567,8.02026278273712,0.335293163097813
8.54501426689949,0.762211766420888,4.55948868520788,2.90097843226576,1.99898411510824,8.14258255102836,5.72886449739719,1.41032322450975,6.57471902309085,6.77382348841923,0.584138164629327,7.87180815525022,0.305141445101205
8.5345720370655,0.798521808312463,4.52852603534213,2.92764042070215,2.03006171810418,8.13789797427977,5.70800728493096,1.4057483715634,6.56016512175934,6.76746710459617,0.574911133181738,7.87129113122004,0.334741037338643
8.66653521612528,0.827465940629437,4.35035830006605,3.00457783401039,1.97684675016242,8.17925753648619,5.63655308196871,1.19861893943561,6.47015025631256,6.71991735684531,0.424251503375799,8.02927159713949,0.398188564558697
8.54189134755489,0.919443991618951,4.42171494404077,2.96725440300399,2.16725052695294,8.0201862954408,5.59691861826363,1.2793040149873,6.47812371766412,6.72517109783978,0.492294650030895,7.78724150746779,0.351112270782619
8.71825009108237,0.830712071137022,4.30435753557434,3.05446485071223,1.93315937825403,8.16055291669166,5.74837744414053,1.07263690081411,6.42038711260676,6.78558547593587,0.273465732804596,8.00774803466448,0.325382920177885
7.62811370369976,0.904857836543211,5.57845153964059,2.45822799221077,2.73063141074674,7.70973869673045,5.50609903506212,3.06623924597107,7.00267944273093,6.76879530731648,2.08377594864925,6.90942660908419,0.429957601723191
6.98774964054814,4.27029086472869,6.26775596919643,5.09015957577119,4.641078929967,2.82436286012778,6.30990555392464,1.07205204619924,2.63894784121528,3.49547444805602,4.42133357200888,4.42817180693902,2.44126500747127
