"fastcoef_sq","pref_flow_den","slowcoef_sq","soil_moist_max","soil2gw_max","fastcoef_lin","gwflow_coef","jh_coef","slowcoef_lin","sat_threshold","carea_max","smidx_coef","smidx_exp"
8.58517204457464,0.100534338897557,4.90345227574599,2.654252573384,1.06119671934335,8.99516225454099,6.07182282163987,1.48449628515538,6.79580328241125,6.92827236917217,0.856345734160132,8.92793003044106,0.404754766317168
8.59290493136256,0.100509959281725,4.89901448358076,2.66334253966127,1.05491056545941,8.99135639393957,6.07271119980964,1.48785067964084,6.78873137317333,6.92662027364054,0.852207780294905,8.93781678000902,0.405963650476954
8.59390544353752,0.100447046201643,4.89868738598625,2.66481018699873,1.05307459662412,8.99095183056897,6.07353861717653,1.48833349367149,6.78746031846271,6.92650612353113,0.851730559396603,8.93951459413356,0.405906308810085
8.59543894625408,0.100543946513424,4.89797691889473,2.66701370644303,1.05100495322107,8.9900555094793,6.07434183776785,1.4890943628132,6.78560995745307,6.92624932443931,0.850894850168501,8.94164435285948,0.405883347837724
8.59587868652168,0.100416278257007,4.89727046387431,2.66702021403075,1.05182076300727,8.99072059964926,6.07359180413289,1.48915988914116,6.78611167115059,6.92618789563836,0.851283214738841,8.94227099105118,0.407036797659477
8.59611199085224,0.100389631325831,4.89736931957596,2.66756315376306,1.05094290753491,8.99025892468915,6.07385610023846,1.48934640737509,6.78537919112323,6.92606712747868,0.850985885680709,8.94288786554425,0.406675447476687
8.59615690059128,0.100392685675084,4.89734546417873,2.66761475398063,1.05089666206711,8.99024875521404,6.07389258333393,1.48936098918414,6.78534786257901,6.92606878668594,0.850961097790338,8.94292769676974,0.406678722262117
8.59677950836039,0.100488899713983,4.89685585091393,2.66808516144326,1.05122026975346,8.98967350327624,6.07357105136292,1.48956752007571,6.78506186428437,6.92587998498483,0.850345821258697,8.94306601227977,0.406664735099124
8.59507806520373,0.100449933930739,4.89771353890097,2.66605696045623,1.05281336704618,8.99067228084576,6.07299999488218,1.48885176241632,6.78667345616271,6.92617986094558,0.851482172500919,8.94116249642883,0.40673176816208
8.59506492071608,0.1005474728902,4.89775011265486,2.66603288513662,1.05286405540451,8.99053236329843,6.07325070794213,1.48880688356817,6.78672485831752,6.92624881268628,0.851281853966261,8.94073532295292,0.406490021063741
8.59509779265002,0.10045224293713,4.89770309266155,2.66608048238646,1.05279392191032,8.99066510407727,6.07301558546143,1.48885898753065,6.78665851057534,6.92618010616474,0.851470159481825,8.94117813482714,0.406731763279743
8.59407452039985,0.100511394861315,4.89855425207386,2.66505654786171,1.05303756816758,8.99075515907897,6.07347865287513,1.4884333902339,6.78725445841365,6.92644281403614,0.851610437147701,8.93964673906548,0.405917883095847
8.59461245712421,0.100560017758526,4.89799188935607,2.66551095829653,1.05327251004473,8.99075451360804,6.07315940856578,1.48862991663689,6.78714133597404,6.92633866212623,0.851551418989609,8.94015807281995,0.406455135697309
8.5943428618351,0.10056189657843,4.89838748863531,2.66539638718345,1.05283438197418,8.99060390456518,6.07359335320479,1.48854355883789,6.7870163547178,6.9264158134748,0.851443009753981,8.93986909226829,0.405932262244972
8.59693156466396,0.100430587045993,4.89689181255538,2.66858667010366,1.04999552852249,8.99020391955926,6.07447587084366,1.48965478451941,6.78476838538527,6.9260748796144,0.850723245720814,8.94387814871068,0.406935966064548
8.60112302802007,0.100474135736006,4.89465270673221,2.67412861262734,1.0450379667121,8.98870056039534,6.07621276002978,1.49157058240517,6.78051515492148,6.92545390862302,0.849021803561173,8.94995369628684,0.407795477030901
8.6006994512567,0.101153671317026,4.89443735410533,2.67334076534566,1.04754815128049,8.98803797470823,6.07564888653391,1.49138277528743,6.78150379930715,6.92557140116655,0.848585107520864,8.94706751108153,0.407421680028837
8.60352079006664,0.100847319929916,4.89214310684275,2.67633079747646,1.04602478921572,8.98839579518578,6.07486670477586,1.49244892231851,6.77977884515077,6.9249709848887,0.848579709162306,8.9520427313129,0.409975946635109
8.60537630680025,0.10066993175502,4.89158263337119,2.67906573184108,1.04244828492046,8.9877182997588,6.07645850572143,1.49335674936239,6.77739001986141,6.92476100847779,0.847749030040025,8.95536379905821,0.409887070806235
8.60779329183623,0.100212855286478,4.89068311721613,2.68132467813913,1.04092351957568,8.98510271012976,6.07557879792047,1.4943823577487,6.77480135116337,6.92365895332104,0.845199981682991,8.95838396532226,0.408922468824565
8.60804175916611,0.100319070271858,4.89057612470292,2.6817482241726,1.04058812661465,8.98487551855703,6.07587586871863,1.49454771866737,6.77448883665634,6.92367200104322,0.845006765309303,8.95849774914895,0.408819264797145
8.60727622198466,0.101308925446052,4.89036501109318,2.68167061138311,1.04114265152879,8.98607125284295,6.07728840861171,1.4940900686204,6.77539549084974,6.92452815541262,0.846167517209019,8.95643159848042,0.409587606684054
8.60649859067611,0.100305395552967,4.89151147662576,2.68063231237086,1.04024156589244,8.98655768157075,6.07667599433445,1.49403568237788,6.7754737996862,6.92425361996062,0.846794030629102,8.95780470264716,0.409275831808161
8.63229135257691,0.104466122053536,4.87528277073135,2.71279908202785,1.01977931578779,8.97466558225971,6.0881025066493,1.50358075321602,6.7533757282115,6.92233903675044,0.831640152027716,8.98086409147158,0.412001573033438
8.60991158685064,0.101620803003478,4.88929028372638,2.68509874493581,1.03953648575159,8.98170358522003,6.07635082903012,1.4956510804867,6.77149471193556,6.92313697589756,0.842907196530701,8.95886329480691,0.407850487079189
8.61227118877687,0.146645614197412,4.86446288257309,2.72070964433978,1.07992171241733,8.9178880733259,6.05384410605782,1.50145441377213,6.73711732279809,6.90801925129483,0.825172731454397,8.91427743051051,0.402582596240978
8.37160142196248,0.246626753173854,4.70843666807114,2.75229853907062,1.28107889034921,8.77020076329308,6.10462231731915,1.49376333014067,6.5304515129217,7.00402103350197,0.846917044693271,8.7884606545848,0.539466068442024
