"fastcoef_sq","pref_flow_den","slowcoef_sq","soil_moist_max","soil2gw_max","fastcoef_lin","gwflow_coef","jh_coef","slowcoef_lin","sat_threshold","carea_max","smidx_coef","smidx_exp"
8.83174673595553,0.412112139665566,4.63885109989128,3.02181899520591,1.07051971008301,8.85292890165318,6.56131697491291,1.45851740393618,6.69250151183609,7.09130052075526,0.639119744287893,8.51151583664009,0.400566205992278
8.79486068906032,0.461872481639425,4.650938008987,3.0499336255835,1.09195716138519,8.7927099010846,6.52335976459186,1.47289159532434,6.6375882970428,7.07047320981779,0.686993376529938,8.4882522714298,0.409275429623067
8.80951941377842,0.456929994207336,4.64294955280668,3.04106412844468,1.08893998710944,8.80892442933981,6.55540444683331,1.44936769558486,6.65726243160981,7.08250216658298,0.658911379809409,8.47336550176827,0.399928772204239
8.72717590284679,0.524192450944178,4.65028473657763,2.98157011683388,1.29288942400021,8.72275517975704,6.4102338379469,1.44005065197642,6.68049715185132,7.03462053129806,0.720241412445086,8.3419972787217,0.42748805106748
8.78239513098533,0.488787329185026,4.63824164464537,3.04700284906244,1.14887322800685,8.75412246781461,6.482007293321,1.46299839727898,6.63237637691495,7.05117458776392,0.685117540055144,8.45261032319383,0.414177656244317
8.81887721320124,0.505364166359423,4.63407317619114,3.0898197625218,1.0387626336648,8.78331406151749,6.63564955759079,1.42839305034826,6.61093560285459,7.09187290346047,0.656939380893071,8.45232839584721,0.396655304818646
8.78290668505805,0.459255879472634,4.64070924411615,2.97830669721849,1.23891850153983,8.76988213530358,6.4147027544052,1.4275767853578,6.68610302865112,7.06791561242409,0.626686690874417,8.39963853733941,0.378535077438803
8.74034711044089,0.537180654887783,4.64527896150304,3.04950739711298,1.16698436648952,8.71498735824443,6.5031858611238,1.44378592377583,6.61334633882179,7.05563800349628,0.692042884284975,8.36573429789678,0.395793077853933
8.76110751365777,0.538621795170145,4.64011497262984,3.06886710669142,1.15580067141484,8.69996060291843,6.50614656510208,1.45842617907697,6.60159150792746,7.04042901292018,0.693397651899145,8.39659413875778,0.403034579355922
8.81120725062896,0.437791010862464,4.63665314271348,2.98356481755728,1.16791907543862,8.80783217614168,6.53051194105355,1.45432071046091,6.72709323148728,7.08665589160838,0.604061575216032,8.39552246151863,0.3674896580897
8.76736538428538,0.525451716940999,4.61383972225951,3.0505935638715,1.24058460258172,8.68209110130507,6.38892362891967,1.46829608440913,6.61277213463455,7.01210153330135,0.677998196463764,8.41274893223797,0.421208151480204
8.95804137403523,0.408413568423305,4.66381292237276,3.19067645438402,0.715482806898165,9.05294509677195,7.01770584997874,1.50043341406905,6.64941180732116,7.29007549095284,0.70480306393254,8.59183716183276,0.4360304205412
8.77852932965923,0.542473850111207,4.5962632627958,3.0803404861143,1.25848746029102,8.63578821255187,6.36375967899265,1.48040347008306,6.57976662587764,6.994517186938,0.66756601485005,8.41584233080126,0.425770033579266
8.78892068565458,0.535238887096557,4.57549407794837,3.10169917458011,1.237493606314,8.62253152265163,6.32278120417374,1.49502849511102,6.55587203737774,6.97477343516797,0.636069380572423,8.45462666091632,0.413279771484468
8.73188546977608,0.586571194603113,4.67506676921676,3.03577167645422,1.20773640555248,8.67152102818969,6.60390181849486,1.47087756843957,6.65398547328932,7.07179745042332,0.69585430352956,8.2208523488749,0.36215290241286
8.67869681060051,0.670471126448501,4.65856607153562,3.12159426288628,1.28581697953165,8.48775843412338,6.41604685324522,1.50951477042566,6.49418939573008,7.00103675294421,0.730583532006616,8.2239059492662,0.367551384832741
8.79325078334266,0.462154689742487,4.61454043186712,2.97874881304554,1.29660655178736,8.71682912728821,6.32701150002183,1.41844327775464,6.66446567146084,7.05260146936685,0.552491485599395,8.37743801336468,0.340213032365864
8.88700632325883,0.580338754853782,4.62699151407591,3.28034062893461,0.748308097609071,8.73821949081606,6.98584170151605,1.45519418579932,6.47661284615104,7.12364029803791,0.645315913845494,8.4718390039747,0.365067277073416
8.73581211772537,0.768689738620744,4.62277874625971,3.27184619950438,1.0238225486271,8.46557729866067,6.78275919966886,1.45645845989919,6.40101687294606,7.0222788458796,0.687036567305322,8.19558673441642,0.340511925184705
9.03176594776709,0.465640035167788,4.43618007721908,3.23441083922074,0.744902726799523,8.88031477014078,6.84113158851039,1.1027893912441,6.49903815195728,7.12719260108375,0.285277252951597,8.64599383346528,0.30135505058242
8.72947808033199,0.675733581963845,4.58728801847276,3.14162691092526,1.26776116193026,8.51009231266279,6.42198258261156,1.38057583581795,6.47221049227188,7.00801931454243,0.61969638572791,8.25236089694535,0.354164369098688
8.70348527298905,0.681999454190932,4.59860553892727,3.02401371322779,1.42833311884786,8.51862482532906,6.42402562628435,1.36880732082027,6.61388875089046,7.00813380345718,0.602458646240873,8.07698080256508,0.339878044284614
8.52611530870722,0.70881558780337,4.57937127441735,2.88558029131549,1.87503107842393,8.2464662501481,5.76832529815497,1.43241408515767,6.59630739120657,6.76447667242908,0.632927798061476,8.02903057998644,0.352660971202089
8.51032263210378,1.00326531037454,4.57739781784551,3.15947165688158,1.71808197425512,8.05425766829178,6.12142068689097,1.39982165919014,6.3264293967548,6.83667201493459,0.72565163856233,7.81254010531403,0.349111759497558
8.53090412653833,1.01827237003961,4.5631713700644,3.16385621012896,1.71545352563648,8.05656425038048,6.14954618117737,1.33699924112538,6.31480902931305,6.85362615607966,0.675355326040958,7.79089123040071,0.329656172034057
8.63396381779326,0.57669369327872,4.62525783489777,2.82715685465297,1.79681657642297,8.47334980388711,5.94442634962969,1.44632148910959,6.72720500233969,6.95363866060089,0.554145508204405,8.01522815629872,0.294697462380197
8.71093631325686,0.715380677552082,4.42451379964452,3.04362836309245,1.70449991463786,8.36295237643019,5.85492119064035,1.32782617205076,6.51052421326218,6.80094760948011,0.510168960886452,8.2363352993547,0.422791743017817
