"fastcoef_sq","pref_flow_den","slowcoef_sq","soil_moist_max","soil2gw_max","fastcoef_lin","gwflow_coef","jh_coef","slowcoef_lin","sat_threshold","carea_max","smidx_coef","smidx_exp"
8.92976779625731,0.22306014072761,4.62955375822199,2.92268831130266,0.963545867073305,9.13457395105166,6.62047301493514,1.44647379895223,6.86779259158956,7.1406145880348,0.619968397390795,8.72049380482954,0.46125488417246
8.97257146842132,0.282165484786789,4.62698484926874,3.03481321431123,0.82176468137395,9.15070541932044,6.83276319080677,1.42639092815743,6.79154569433918,7.22634759014645,0.621395077103555,8.69149882977011,0.449788423918434
8.9871015628074,0.155917401150274,4.59015677616473,2.87894997423845,0.928046555849734,9.24846574186894,6.64782053163479,1.35234844224581,6.9336795813572,7.16261968934006,0.537987090274571,8.79116049770745,0.463546427295668
8.98035704892708,0.212373919626761,4.61842232037404,3.01768117298977,0.757002873894998,9.18119056116852,6.76338588789302,1.41705165053599,6.78582673098026,7.17312615106889,0.603427180358802,8.84450997168937,0.457629053897394
8.89098112593386,0.308894941394849,4.62054739257587,2.96444179991098,1.01000185861746,9.02058782147677,6.58559014811332,1.41262001878508,6.7856339392,7.11654644957893,0.612490233402254,8.63970638456863,0.436410928459367
8.88474834689637,0.32235236516765,4.61419921040505,2.96297641165044,1.03845989192829,9.00129410484177,6.5649139124779,1.40767341976239,6.78302797913607,7.10689713855199,0.611552315164858,8.62188541045064,0.438862041769992
8.89831048829291,0.306423697678805,4.6165531644857,2.96000705134156,1.00849327147959,9.02869508560437,6.60161248923405,1.40085806891533,6.7954710064835,7.12256092796152,0.59844923504199,8.63226299973786,0.431737599749953
8.93705394303312,0.368128078002028,4.60857414512032,3.07964530158653,0.838177326729403,8.9933426163425,6.81683111657542,1.40377131402256,6.70514621375412,7.14312999368898,0.591651502060032,8.63149975084108,0.414306852184542
8.88500412393273,0.307586640311454,4.61543301014044,2.92862833572847,1.08348252869478,9.00917393858626,6.53126164302,1.3899626138018,6.80989130500416,7.11526765088208,0.582336890574494,8.59539951752343,0.421040752367235
8.87410453823258,0.347269598160209,4.61513587439728,2.97390854046494,1.04192361363229,8.97421317239368,6.57698354836844,1.40538731066139,6.76763554464233,7.10152435113012,0.615692371086858,8.59387731823261,0.433290503325795
8.90298938800432,0.330640783754849,4.61211497617793,2.98438486838012,0.983404594757269,9.01588990169322,6.64173504461279,1.39037074629704,6.77230759210589,7.12724629640026,0.597463235583821,8.62174444677733,0.430100866057157
8.85949351629174,0.371244297876693,4.63261177269074,2.95736082534633,1.06789148070111,8.95999338502931,6.62586117506483,1.41161300534269,6.79383252732326,7.11720856988169,0.616920696902065,8.50600642329118,0.412849664854264
8.88281544623332,0.34919562563074,4.59321001948027,2.97964523017637,1.09326700807038,8.9421269772104,6.50579010531372,1.41637595616443,6.75672310361742,7.07856843813903,0.602776552562311,8.60350141425436,0.444658230437467
8.89915440671818,0.296854206006369,4.6134049594391,2.93125739589786,1.04798281564418,9.02814895900531,6.58916623634417,1.40333457635336,6.83038640642224,7.12463779047422,0.571024332745302,8.59334147961304,0.415518042692684
8.83174673595553,0.412112139665566,4.63885109989128,3.02181899520591,1.07051971008301,8.85292890165318,6.56131697491291,1.45851740393618,6.69250151183609,7.09130052075526,0.639119744287893,8.51151583664009,0.400566205992278
8.72717590284679,0.524192450944178,4.65028473657763,2.98157011683388,1.29288942400021,8.72275517975704,6.4102338379469,1.44005065197642,6.68049715185132,7.03462053129806,0.720241412445086,8.3419972787217,0.42748805106748
8.86145684026639,0.462303569885509,4.60646776121222,3.07539808687141,0.975934552238419,8.8570215202648,6.71528986565183,1.4044034510725,6.66734822715163,7.09244926760983,0.612511828789946,8.49337361606193,0.402029176240187
8.74034711044089,0.537180654887783,4.64527896150304,3.04950739711298,1.16698436648952,8.71498735824443,6.5031858611238,1.44378592377583,6.61334633882179,7.05563800349628,0.692042884284975,8.36573429789678,0.395793077853933
8.76736538428538,0.525451716940999,4.61383972225951,3.0505935638715,1.24058460258172,8.68209110130507,6.38892362891967,1.46829608440913,6.61277213463455,7.01210153330135,0.677998196463764,8.41274893223797,0.421208151480204
8.78892068565458,0.535238887096557,4.57549407794837,3.10169917458011,1.237493606314,8.62253152265163,6.32278120417374,1.49502849511102,6.55587203737774,6.97477343516797,0.636069380572423,8.45462666091632,0.413279771484468
8.84171001580152,0.525566425566064,4.62110282435596,3.19680486302355,0.864991127699557,8.77427415596327,6.75324323013563,1.44564142234296,6.52311027593603,7.074118136909,0.694546856912532,8.56413825584067,0.425890157896806
8.79325078334266,0.462154689742487,4.61454043186712,2.97874881304554,1.29660655178736,8.71682912728821,6.32701150002183,1.41844327775464,6.66446567146084,7.05260146936685,0.552491485599395,8.37743801336468,0.340213032365864
9.00943375528725,0.310778718159031,4.5131684266919,3.05668040672959,0.836474641324629,9.06439025600486,6.74447606007259,1.22756891674496,6.71635886665724,7.14490614521191,0.411632171613084,8.71857716558636,0.382450738939044
8.52611530870722,0.70881558780337,4.57937127441735,2.88558029131549,1.87503107842393,8.2464662501481,5.76832529815497,1.43241408515767,6.59630739120657,6.76447667242908,0.632927798061476,8.02903057998644,0.352660971202089
8.51032263210378,1.00326531037454,4.57739781784551,3.15947165688158,1.71808197425512,8.05425766829178,6.12142068689097,1.39982165919014,6.3264293967548,6.83667201493459,0.72565163856233,7.81254010531403,0.349111759497558
8.53090412653833,1.01827237003961,4.5631713700644,3.16385621012896,1.71545352563648,8.05656425038048,6.14954618117737,1.33699924112538,6.31480902931305,6.85362615607966,0.675355326040958,7.79089123040071,0.329656172034057
8.71093631325686,0.715380677552082,4.42451379964452,3.04362836309245,1.70449991463786,8.36295237643019,5.85492119064035,1.32782617205076,6.51052421326218,6.80094760948011,0.510168960886452,8.2363352993547,0.422791743017817
