"fastcoef_sq","pref_flow_den","slowcoef_sq","soil_moist_max","soil2gw_max","fastcoef_lin","gwflow_coef","jh_coef","slowcoef_lin","sat_threshold","carea_max","smidx_coef","smidx_exp"
4.80940374212342,1.82137215344526,7.98243967071686,1.03740906267477,5.80894446161725,5.71870481093456,3.72087513038425,7.23535612889926,7.98510352480913,6.18560137228312,5.92213173868584,3.60700740972024,0.864740706844232
4.80576346662866,1.948126679311,8.00993235673215,1.03334685952204,5.8084336413852,5.67231148536589,3.81560030729995,7.18341415877961,7.97073547037071,6.16184887260323,5.93184403903738,3.48820688108422,0.856511788678696
5.00659238951246,2.13278007206203,7.62417940519696,1.3780170859447,5.77487899218696,5.45112266320699,3.92754586350363,6.87699600221543,7.63076166264602,6.13547741147104,5.6140199572493,3.47682245980764,0.863801693160431
5.00659083927904,2.13712758696581,7.61981650367537,1.38592660687442,5.77686661165482,5.43387370259515,3.91114261784556,6.87803094558041,7.62529966617226,6.1218323303554,5.62482094543232,3.47373928906203,0.863785194705522
5.0147755470266,2.12903585654354,7.61388112582775,1.39159066523606,5.76953218029035,5.45166761752894,3.9264301149891,6.8791052045026,7.6195260134399,6.13297804610516,5.61613425934577,3.47610152222338,0.868976208567997
4.81599671985937,2.31499931579473,7.87405910154892,1.31464439484081,5.87691278887879,5.27793917317505,4.02307286745662,7.01216388875715,7.6351494462274,6.11303513653836,5.84798941719681,3.16349958233438,0.827048501198475
4.87811261813719,2.32134151042795,7.78381741001571,1.43482991175084,5.83421931324809,5.21425173803126,4.08101931310236,6.95314057761793,7.53555791531259,6.13665268234599,5.79296408898029,3.18533274042704,0.815126004954466
5.00316583516212,2.1459490100002,7.62063278816527,1.41054001660226,5.76004224504725,5.40882602677539,3.94016459717492,6.87963118897799,7.58582762566705,6.13012091365308,5.62183332377904,3.47709284348376,0.860765361094671
5.00815129002647,2.13779121997949,7.6242199839303,1.41303405476014,5.73790097157145,5.41759049692817,3.96154061455802,6.88125482144781,7.58527955079803,6.13736613719489,5.62227756861649,3.49014016120516,0.859196406976138
5.05634034513333,2.36267656365459,7.50998562448659,1.3594419239108,5.97077694309946,5.43568051132256,3.93889620790048,6.65071190576093,7.6883624950775,6.10446634676707,5.45601488748151,3.1873108578451,0.857980098196191
5.08195341636183,2.2802019812148,7.53429850219706,1.54137134607299,5.67425921458894,5.32628865827988,4.1364129894751,6.72614248268961,7.45236910060276,6.14299726743456,5.50728266437487,3.40344671587946,0.83738700160518
5.09734724022674,2.003775101864,7.70479416040294,1.44248932712395,5.4078540527146,5.59228892251865,4.27931982086527,6.91065286320933,7.6048429831603,6.25868079983213,5.63058194918592,3.67893284005053,0.834358093406767
5.01758536509459,2.11751123846904,7.63391008818997,1.3869417586364,5.72968082062835,5.46771780101099,3.97048035797504,6.88055784683735,7.62776829567626,6.15040509988996,5.61582062503191,3.50146712604859,0.860785735733598
3.48906740257619,2.17929670718062,8.99326292074745,0.740210675283368,7.41551458669978,4.34106409344752,3.49894325435583,8.49421826351327,8.2670948490625,6.35955088397751,6.90510910530935,1.70186757738802,0.145527695712341
5.01789829685496,2.11779582207138,7.63307206860808,1.38803793563555,5.72950649171201,5.46432247218069,3.96741885963973,6.8812142941457,7.6260279744396,6.14699783552385,5.61861859664642,3.50100622413913,0.860299798460695
5.01777555386026,2.1175447653942,7.63305443936399,1.38802396111881,5.72957065354897,5.46454212991661,3.96758764653842,6.88134127199742,7.62615679180398,6.14738112355515,5.61869633790774,3.50118790065796,0.860142620797462
5.02895950971108,2.0990846412446,7.64519719493741,1.39209315854916,5.68267915287161,5.49095785990595,4.0199525737811,6.88513738354971,7.62569719291239,6.16935253238225,5.61497906673172,3.52775176394688,0.856655367234278
4.81039169571151,2.59068216421731,7.97058592676919,1.25729193560019,5.74055773469646,5.25536865799697,4.2439202408488,6.82595709459872,7.59745493434627,6.05144889563588,5.78973859855684,2.96600823904054,0.737581579932132
4.44926939704192,2.10259893340934,8.63300254440976,0.533892524704195,5.92874502373518,5.61450537289153,3.68371812067252,7.11498679917484,8.21573152311192,6.05284214271654,6.17718605057968,3.17534441356806,0.774745545942646
5.02504504929343,2.16767269878519,7.64047414605876,1.66249571513369,5.46978091959029,5.20095709263096,4.22127906384883,6.9148853457804,7.26366210896905,6.16784366161015,5.67396074147939,3.58230394891766,0.824883751520397
4.51401091895585,1.31595016277428,8.35703888614913,0.424290233302052,6.14453927127985,6.13471029406152,3.09093081671324,7.85185686157045,8.70866269197783,6.1370302076574,6.32568933926485,3.80685616145778,0.975822490815006
5.21895852885508,2.85487212829772,7.1856379804945,1.96772176782787,5.73861860489851,4.80783535813198,4.41190543703988,6.24003752045808,6.94188139487368,6.04219030008956,5.17115814167713,2.98154660518,0.785614885094291
5.42836775526854,3.56514990724407,6.75117961135988,2.54619577689782,5.69767075596797,4.1945646471097,4.91742737949756,5.60284274550114,6.26434874009419,5.97287762101155,4.71361592820259,2.49385691750939,0.707994768344484
5.34997421014913,3.01088531556777,7.39539229082154,1.32267804502028,6.17521005796903,5.40703960836845,3.83578171521961,6.5435843505242,8.15844102327283,5.69193874321725,5.87980039896669,3.69873833800443,1.74203481098065
4.80085121577014,3.85528268122274,6.55756788927184,3.27981359214899,5.80312156984544,4.09267712061704,3.46545603966895,7.26399236114693,5.88862832693223,6.03065950158328,5.94904806350423,4.41914012381341,2.62437175879004
4.41420962072154,2.49491055337766,7.84839249790547,1.87565290483128,5.49635605073384,5.55389532672897,4.08386389900857,6.25534365878481,6.85847374766666,5.80231047585698,6.12265806184962,3.83706058372543,1.78076055826613
6.98774964054814,4.27029086472869,6.26775596919643,5.09015957577119,4.641078929967,2.82436286012778,6.30990555392464,1.07205204619924,2.63894784121528,3.49547444805602,4.42133357200888,4.42817180693902,2.44126500747127
