"fastcoef_sq","pref_flow_den","slowcoef_sq","soil_moist_max","soil2gw_max","fastcoef_lin","gwflow_coef","jh_coef","slowcoef_lin","sat_threshold","carea_max","smidx_coef","smidx_exp"
8.71141938117119,0.158077916680131,4.8080230614535,2.81724864256222,1.03111665447296,8.88667323370396,6.12057330535723,1.52942531874831,6.69029784447204,6.9270124937265,0.738413730082576,8.93390843992089,0.383416893801054
8.74865980894691,0.135710472600448,4.78993593768651,2.84121077952857,0.96204866127188,8.97360157236824,6.19357641155177,1.51986473473857,6.70819895370176,6.969223517741,0.740765426606065,8.98403359299932,0.410453277294745
8.70920942381625,0.164949298656594,4.80760269899683,2.8202253246933,1.03473582109169,8.87990033674508,6.12288270428662,1.53008074018954,6.68739120790969,6.92629531322638,0.740122424889713,8.92495939765263,0.383163363432479
8.71152667556841,0.164378101651827,4.80659979973011,2.82058759892005,1.03104844737744,8.88267788643351,6.12921723277205,1.5265210723634,6.68838203642326,6.92854506812929,0.736331902628043,8.92443336924723,0.381551210096058
8.78530485455237,0.160947090357573,4.74002086079649,2.89842224409908,0.979948295213494,8.94041216212467,6.17261169767279,1.52796326569793,6.67753164472219,6.9629242071631,0.696288171302448,8.98553191247304,0.413960682736056
8.7844406345992,0.166175661168549,4.74019262217278,2.9009016812105,0.979617027389863,8.93647162335816,6.17969637203538,1.52703883355705,6.67579880016864,6.96382745551516,0.696451717676905,8.97771731416943,0.412462981169875
8.7783508402802,0.174591060174597,4.74001517243032,2.90009400135047,0.992317343745295,8.92462311803991,6.17256543794858,1.52572330876509,6.67291506591038,6.96010871222834,0.697942313026017,8.96393808167095,0.411217454273945
8.80933872637402,0.21539208481388,4.71494977288351,2.88004050201938,1.01605976698688,8.97730363082534,6.35663338453187,1.47824946405281,6.75785406491743,7.02538417850995,0.677087043180201,8.80254902378049,0.41673767838614
8.7045270660123,0.189674891740273,4.80135762023548,2.83142992644086,1.04828526877464,8.85778754429494,6.12963763047035,1.52347180811471,6.67606744035977,6.92441884967982,0.738637937780195,8.89436519153859,0.381183788935296
8.76725902557972,0.198832598239304,4.73768511238326,2.90503949065856,1.01788200283491,8.89573472749501,6.16647543019338,1.52551289528137,6.66399956240567,6.95408631205045,0.701992984481089,8.9278444965185,0.409203265709775
8.85944910475217,0.161773982903534,4.67155085146387,2.97783238830904,0.929860103299445,8.99520254237985,6.22139779165207,1.52596679824496,6.66607657393598,6.99779162608198,0.65302107662213,9.03944086518587,0.444630176244161
8.79608832363881,0.237832028438359,4.72111274525507,2.89475114790825,1.02407472152556,8.94021233002819,6.35573415014063,1.49096046009625,6.73522244809243,7.02148502406077,0.68397890046096,8.77495663032785,0.407163719441711
8.79821175255196,0.232832278495792,4.71172803579697,2.87293848914534,1.05729959158387,8.94792358614511,6.32591747418861,1.45969396627505,6.7500945747381,7.02114007230429,0.660375310328535,8.76465397872216,0.402228823084145
8.83367359884991,0.217738832271294,4.69861620515027,2.93563885461351,1.02671741277649,8.88297223654748,6.25579116019184,1.52542352431107,6.67902458009332,6.9833182064766,0.632749045753183,8.85722768016569,0.389320629508425
8.76195542329902,0.277168672077223,4.77052836580079,2.92222298932972,0.961065303704285,8.84902521233223,6.40790277601646,1.50999021544345,6.66902202238011,6.99404184390695,0.695012953310679,8.75220474270155,0.352203515532772
8.82847184955205,0.373626295835894,4.63991924739981,2.95212921406827,1.12821764553676,8.92866456540435,6.51535342644102,1.44326222546432,6.77414487172044,7.08761755966643,0.670104904917941,8.53124554177562,0.44437146761997
8.80008020836846,0.375683575170726,4.62830737506955,3.05152338700596,1.11341586962151,8.75695065884022,6.21978165919929,1.51688531420678,6.57577328642828,6.96029773732617,0.66550150670318,8.74162619680766,0.432454957249463
8.96506197518713,0.269821986962401,4.59077222517855,3.06179940517056,0.994276105705595,8.89234324445095,6.41344450662405,1.52244609611753,6.66476602065554,7.04578044103064,0.526956167509212,8.79964648490488,0.395884649134273
8.96110269529592,0.272477646067797,4.59015087668837,3.05742335391814,1.00748920699159,8.88714534047367,6.40269357933033,1.52197578662069,6.6670911889977,7.04310468377806,0.526596277870435,8.79118674903041,0.395424118349466
8.95689058616146,0.288758913391497,4.58734664504523,3.06344673168399,1.01698299866495,8.87192590381501,6.40839755071958,1.51871219159716,6.66079728776366,7.04194072401716,0.526496217843949,8.76903319225584,0.393683169202927
8.82297167886876,0.216735016502037,4.72854832081316,2.92252377685002,0.947423307204511,8.92968507448312,6.35815310296657,1.47185583054536,6.67629213816303,7.02602863009892,0.631769454488228,8.84235483182369,0.363500957905403
8.77532957936214,0.452142068754142,4.6936094838292,2.96177129495932,1.18100418483848,8.73765069188837,6.5110124055112,1.5065967007871,6.70384268320593,7.05896864918915,0.60040598815182,8.32819689415035,0.299573791672825
8.83383564926682,0.450634405830317,4.6796096736721,3.00582941554547,0.993812063760455,8.80437347362559,6.71033504315421,1.33079254061083,6.65254752975811,7.12708515929162,0.508023176596156,8.39704827235515,0.25826514134246
8.7072109281167,0.641109062669844,4.58694129602901,3.04977554024079,1.48315671839698,8.44036562008413,6.17820036527492,1.44413150592885,6.54936664979635,6.94438097315548,0.589782203051214,8.22007568834101,0.340775059910032
8.52611530870722,0.70881558780337,4.57937127441735,2.88558029131549,1.87503107842393,8.2464662501481,5.76832529815497,1.43241408515767,6.59630739120657,6.76447667242908,0.632927798061476,8.02903057998644,0.352660971202089
8.7699461076727,0.867113908658153,4.42333226813318,3.12950960460267,1.52937291153827,8.32977988208795,6.3890736506338,1.14478382377136,6.47309684028444,6.9492003142223,0.37310873098641,7.92206406919829,0.290365418236899
7.67981024576981,0.680355744924553,4.14469302251275,2.95444090618326,2.02153447215326,8.14886431024923,6.19986908835986,1.48101474724762,5.8253300865457,7.25309603767044,0.844638158071041,8.27134879628789,0.947521971354329
