"fastcoef_sq","pref_flow_den","slowcoef_sq","soil_moist_max","soil2gw_max","fastcoef_lin","gwflow_coef","jh_coef","slowcoef_lin","sat_threshold","carea_max","smidx_coef","smidx_exp"
8.46396876600887,0.762782516653724,4.50023502505586,2.82966121786766,2.18836035883787,8.18246755194969,5.44080329625072,1.48805033182536,6.67150479781086,6.67380137470806,0.649762593858934,7.91638139759928,0.417565199670633
8.48101204347056,0.754710626843913,4.53336255412609,2.81912525617269,2.16004584770679,8.20960485848913,5.53477388741609,1.4825239204063,6.68495793189139,6.73557730771759,0.632914651733312,7.86885646133101,0.387579488781802
8.54567337341641,0.635894961106143,4.48096598127352,2.79277273942663,2.04924630300241,8.3755507864093,5.50793476856092,1.42391620139059,6.74825355392995,6.72600937023008,0.56312481745173,8.07430617514433,0.410017739481589
8.47089100749603,0.759980584759286,4.48948948084379,2.83281786207557,2.18252284832866,8.18683066780878,5.43814428059807,1.47721387739759,6.66849652678254,6.67139131197632,0.637371175618684,7.92808993527915,0.420371097832885
8.49914196113953,0.695615976429224,4.49878439872877,2.78221381764186,2.14824626188103,8.29979983581304,5.47005453690623,1.46149462769251,6.74384479217911,6.71341117279053,0.604706337263365,7.96166272431489,0.411950776275452
8.48692867081153,0.738799819061269,4.64119218463333,2.79584092029879,2.0851991197443,8.24144608769393,5.7371391780397,1.51781781909751,6.70838453313559,6.84783975990834,0.652076050471514,7.77410299883075,0.322615310225951
8.45146516850688,0.77237305494325,4.48907278980158,2.80541366232439,2.24427395700936,8.17251765167778,5.39264360907988,1.46806514375572,6.6870008844855,6.66375115692857,0.635003573479989,7.88299884117693,0.41518609631219
8.45438869256235,0.770978932463504,4.48278925342083,2.80597703531356,2.24456627397796,8.17493920096402,5.3932915597603,1.46564095856807,6.68856828975073,6.66381036021773,0.630579008412051,7.88223442148827,0.415893097614614
8.49232528826709,0.749073796961014,4.52118535181448,2.82321670148422,2.14923246801759,8.21913465526394,5.53686712998162,1.46634314765353,6.68223511804578,6.73638515840981,0.615567641313347,7.88447422288763,0.388350318247246
8.48851386734105,0.750859220909947,4.50498589510383,2.83078109458314,2.15343215197076,8.21069589785626,5.49965818879732,1.46516755543335,6.67437713126654,6.70886727547102,0.620253963860245,7.91383939635587,0.402035291789041
8.46268272826493,0.819430917935081,4.5126188188297,2.87580208172609,2.18986696358093,8.09889457536508,5.50586027845513,1.48086262840181,6.60422327452802,6.69523144482305,0.650247932966008,7.84112578316197,0.393657730949011
8.48455431056249,0.764272990835227,4.4793875820961,2.83771475829867,2.16806856143111,8.19687043816532,5.45083249107522,1.4504629392046,6.66434980510367,6.67235778426654,0.617767513674193,7.93613087498427,0.417139566508299
8.42983172591169,0.864961818580575,4.4672712332818,2.89129337887551,2.27097615355753,8.01912121318208,5.37834695398631,1.47493304916398,6.56901308215695,6.61824238275061,0.661309878491805,7.84071662264848,0.424515987361446
8.4903359935779,0.811996167938792,4.48453820556249,2.88856872081367,2.16374592553565,8.11642417302076,5.51573683922035,1.43384159703936,6.59215082338401,6.69764967463598,0.605516395447319,7.87345201060926,0.391361175859659
8.52442858003757,0.738246617147375,4.4392062675538,2.83254202956652,2.14285609626631,8.24346499395708,5.45903861308788,1.37192882002963,6.67575047280449,6.68095507862564,0.540175616530428,7.97277408636849,0.402897767654051
8.51178430528569,0.798072119123416,4.39822560046663,2.85229502664497,2.18560382273507,8.19134793971102,5.44093540716067,1.37151023299951,6.6432224167351,6.65876960623755,0.550762621278477,7.90741722611328,0.424389577156681
8.60598286630355,0.634019871764728,4.39668534587116,2.82943788226416,2.07961956821929,8.35978393509018,5.49530838695981,1.31166801700853,6.71147649984351,6.75457439857259,0.436688873655352,8.08345005761868,0.394950680547339
8.63393457264104,0.8004841272195,4.43311402357094,2.98731326151953,1.93912813486047,8.19640936992321,5.67071423901062,1.22221997823313,6.48568306231335,6.74194605523519,0.440534500728433,8.05199988005499,0.361139785379277
8.62078350076529,0.825584956210911,4.43931370344269,3.02548291433196,1.96318489648462,8.11370685105756,5.72212407564293,1.25072454357197,6.4408837801107,6.76763702218096,0.451081609019586,7.97580886639256,0.335513121290455
8.57209145317154,0.513758291117784,4.52636674264633,2.7927003642889,1.99651376058117,8.33983243017566,5.61999398082228,1.35575775028152,6.78358695082955,6.73810203566249,0.366324100906216,8.04744401333102,0.248154034280033
8.40382141817051,0.79807882775018,4.47544330357823,2.72247784172927,2.41950002209944,8.14567183579417,5.25633581239685,1.43060710844503,6.74846943079905,6.64143044740004,0.613815156150381,7.76371183964519,0.401926424250688
8.6643264912259,0.776647838856053,4.32544504497272,2.95684316991803,1.9888548311522,8.2623178478675,5.56047222962318,1.13338169366717,6.53648021625503,6.69524878560246,0.35094893196664,8.11149910566838,0.389463486500897
8.36755714305446,0.88052123186815,4.42757689105626,2.72394215429938,2.55348115411551,8.01856082289258,5.11007579399856,1.33755856007321,6.68214228474837,6.56909758762029,0.551783426339585,7.69376943599262,0.398042385945671
7.44031585533169,1.50314919470773,5.54579104173299,2.4879959644423,3.38214750127848,7.11014498684623,5.38448516095502,2.79202865640485,6.8670627231378,6.63710633730463,2.05896363583169,6.08653268237642,0.264175732204031
8.05628366024506,0.823107535465194,4.99933904867989,2.65551074819271,2.48480347796926,7.93706635729158,5.39165670276791,2.23732373519824,6.84028262988847,6.68837486322321,1.35388775957117,7.48101731802255,0.433446962575211
6.55093614782725,1.63505527725434,6.15300134655437,2.08912772835794,4.28550434928941,6.4875968267597,4.48250331923743,4.29228922947719,7.05998158372181,6.32298808278684,3.29126658593655,5.3973257948546,0.632891443668328
4.55713958809596,1.43129868880869,2.57180965911008,3.00526249913832,4.38625809112305,6.64987498111246,5.97073532570529,1.67071627190753,3.37392230918253,8.22380781207775,1.62268992539552,7.64532794417651,2.83160294693819
