"fastcoef_sq","pref_flow_den","slowcoef_sq","soil_moist_max","soil2gw_max","fastcoef_lin","gwflow_coef","jh_coef","slowcoef_lin","sat_threshold","carea_max","smidx_coef","smidx_exp"
8.82029784383624,0.558508020295382,4.53146353439082,3.16470725496099,1.25687112441961,8.53912583827004,6.27455286438168,1.50417796057558,6.49043668934703,6.93264568965717,0.596095782790409,8.48269772920591,0.418784232144209
8.78892198956203,0.606310768271747,4.52752304435357,3.14756040561394,1.33850806127156,8.50135637163146,6.2119615080196,1.51322430550496,6.48750244980819,6.91964606150746,0.632742386298336,8.42193461112346,0.437452115839473
8.78533447450725,0.59649524975565,4.53010149453329,3.13718676443869,1.34884670930117,8.50171557526681,6.20311424086731,1.508791928414,6.49885364150978,6.91670626416274,0.620506487632523,8.41588640765469,0.428118939509511
8.78527260643259,0.596704839910733,4.52970152089255,3.13729510293424,1.34907540319899,8.50149955245914,6.2023513393404,1.50856216878543,6.49869696453848,6.91613580336267,0.620467636848366,8.41623471200826,0.428354943802
8.77749537232405,0.600039758449767,4.5285908631697,3.12679844052726,1.37170253031298,8.49736428983401,6.18144609108979,1.50713689110216,6.50583863285699,6.91143642637951,0.621516293299682,8.4037778038425,0.4289892423647
8.77692418334515,0.603511941716537,4.52770804434119,3.12855681016913,1.37410326052521,8.4947132085615,6.18035251657822,1.50838838746662,6.50412139933423,6.91092385843737,0.624598392973061,8.4016287160969,0.430511631530795
8.77295748315067,0.571334425271431,4.53831390280533,3.10887965260938,1.38213982911564,8.49580560351715,6.17696007001404,1.49647573920165,6.52852260056838,6.90703463271308,0.585673414704195,8.39319719642376,0.399595812967124
8.7862913564931,0.588230509561727,4.53043394872761,3.1317047534802,1.35248835679609,8.50162832490425,6.19961247528418,1.49676743953554,6.50430814355658,6.91480017868565,0.602654355743842,8.41415571930152,0.417507778604244
8.77700340849576,0.586950038368993,4.53166495559228,3.1191650528882,1.37287766294449,8.50140172181893,6.18001549449278,1.50355450113005,6.51632335341805,6.91005041248405,0.607799391074911,8.40392450791859,0.419450454920067
8.74022701218529,0.617095566767239,4.52478960318363,3.09096276786923,1.4701301806145,8.4595732894311,6.09178165965237,1.5041108476405,6.52748847277692,6.88181822610616,0.622145093479644,8.34602995416668,0.425692281547782
8.7777935550049,0.59335354728738,4.5253800307009,3.12354512845089,1.37521251049787,8.49462347831255,6.17819554888369,1.49793047646173,6.5100344549528,6.90663531457449,0.604427908825856,8.40053416428099,0.420227879975144
8.77145731082154,0.594279429372677,4.52919363905946,3.11773422343963,1.38882552658235,8.48968457373463,6.16669430849115,1.50171019519267,6.51367793304966,6.90486321621382,0.607691415982758,8.39272901139551,0.419646963830905
8.74309700028562,0.614097729568182,4.54240924813081,3.08673523067312,1.45723502572781,8.46694560639913,6.12882364487599,1.50783178354952,6.53209843969251,6.9035730242562,0.622434275556217,8.32824515432061,0.413823545367197
8.75164780931025,0.605966605519913,4.52263937423049,3.10724021266874,1.43963868652848,8.45803973040443,6.11527029505036,1.49794801484313,6.5161441280896,6.88137316618634,0.605265202304789,8.36695341633905,0.417227188161502
8.75841513821391,0.591190781066415,4.53764014124273,3.09676392633877,1.42109447779949,8.48384026289312,6.14747149239306,1.50110274241662,6.53210139688417,6.90305643506913,0.602913386381115,8.3645488047681,0.408549864679306
8.74570693007895,0.62542547409429,4.52822115569034,3.09996587093261,1.45404525186326,8.46269246730474,6.11527309048127,1.50890375391448,6.51772288193965,6.89331334853584,0.633253899440427,8.34610092252874,0.430507395634515
8.74449281514213,0.626200003480788,4.5281951125002,3.09825310844816,1.4579046961558,8.46179790379656,6.11242929851138,1.50833195806186,6.51887940429609,6.89283583884535,0.633105924306758,8.34328272914735,0.430183333039472
8.83241704386534,0.59549865044501,4.46342350480756,3.15198857100435,1.33334402275177,8.52673594083442,6.19304257393869,1.40680119023165,6.48065325522009,6.9132805247678,0.528399005034501,8.4557465201979,0.425456671455757
8.68913701644691,0.629929469215176,4.51769471910493,3.028444084486,1.61580377874247,8.41590811948431,5.95972387716253,1.48939504646171,6.57174036873062,6.84149263708228,0.606751904299232,8.26158855318214,0.413514421742087
8.71613090915609,0.676973482898846,4.51192868850516,3.08234173298627,1.57444998651594,8.37779624221217,6.0322853792631,1.44716469027634,6.49741221744127,6.87035737601278,0.591334787484571,8.2483676670187,0.404820052889896
8.79177816283346,0.59497318540147,4.43294881772521,3.08580275939463,1.47569437679669,8.50981920088298,6.02497104805257,1.38522874675214,6.52549222344139,6.87164489599151,0.512483620945776,8.41507078884231,0.438650909185415
8.78240702659017,0.553484609174537,4.49973923227953,3.08946333646031,1.42173976694355,8.51317509579436,6.11103742320726,1.45152730221913,6.54716376174057,6.89462768096088,0.53792075375268,8.41326737035032,0.40349190239736
8.4903359935779,0.811996167938792,4.48453820556249,2.88856872081367,2.16374592553565,8.11642417302076,5.51573683922035,1.43384159703936,6.59215082338401,6.69764967463598,0.605516395447319,7.87345201060926,0.391361175859659
8.6566752847998,0.672278692709561,4.48336465595368,2.99005121759023,1.74068207876894,8.37241068279427,5.83550006055374,1.44257656276729,6.58162646130634,6.80030057006655,0.586459001414382,8.19735434874598,0.420174941746762
8.71093631325686,0.715380677552082,4.42451379964452,3.04362836309245,1.70449991463786,8.36295237643019,5.85492119064035,1.32782617205076,6.51052421326218,6.80094760948011,0.510168960886452,8.2363352993547,0.422791743017817
7.63979200655534,1.10456861007129,5.35711864424983,2.56609231671865,2.88991470131076,7.47895056728253,5.29539022866594,2.89284107307094,6.81980512641875,6.61174384897074,1.93337307362136,6.84632230522741,0.502209267433992
6.72009457024031,0.947100606575673,3.5555770867877,3.10213172639671,2.73992767091938,7.63226987632983,6.18523545140557,1.57840077131217,4.93511373880363,7.59122637901717,1.07274625058503,8.12477595477366,1.60652570584594
