"fastcoef_sq","pref_flow_den","slowcoef_sq","soil_moist_max","soil2gw_max","fastcoef_lin","gwflow_coef","jh_coef","slowcoef_lin","sat_threshold","carea_max","smidx_coef","smidx_exp"
4.91105256728114,2.09406544395634,7.552747873489,1.4540175712685,5.80239376982688,5.27633547010507,3.91489661349394,6.93632596000489,7.62718824608796,6.09156271902001,5.84182757646984,3.47971007526488,0.788657566727987
4.91167180782212,2.10045702922636,7.55501271943236,1.45599929046539,5.80326860900097,5.271520142967,3.90874742198865,6.93692024509748,7.62508766712912,6.09386112503544,5.84484815569962,3.48128622146309,0.792199710457993
4.70351210428669,2.34366097582698,7.39643763980168,1.33089503286527,6.53070973763606,4.93001910430016,3.1710740054312,6.83239855596513,7.66928321369252,5.82630083575534,5.84328517273726,3.08493289180704,0.831148994307772
4.7238603194326,2.36770273379232,7.37598702200822,1.35016093098578,6.54597815652347,4.95709109231546,3.20261538109828,6.9088195469034,7.67456863278467,5.84121237877169,5.86260970110319,3.0743512104972,0.841728964592859
5.28987105113839,2.05558816406071,6.7728002104136,1.07608114563322,6.55750970794159,5.8818014559035,2.9646013157867,6.17016145490363,8.27079472577769,5.88308264176687,5.00140251650753,3.54080666666384,0.945143050952474
5.29827213332807,1.59677799000808,7.92950023006727,1.67782100930685,4.31900805478117,5.87539759307761,5.28647705793769,7.00112391552017,7.52268783447839,6.61786988322287,5.82395579184261,4.30758711759669,0.702046118419475
4.99412485387739,2.52671575743914,7.17771557753351,1.4065918688476,6.29823770213217,5.07901567831763,3.7871968131184,6.46520520994061,7.59253284865152,5.89797030310864,5.47127087516483,3.0409155327995,0.740152760749652
5.12635012309589,1.8647891966769,7.71591276407903,1.58048824891293,5.07478206432675,5.60883757433567,4.64158334752734,7.04588852055263,7.58053849791506,6.36472171089105,5.84799194269767,3.87971161105579,0.750607098364878
4.80588693736701,2.54963603725247,7.36330067487748,1.77888094139565,6.11058828057462,4.59588144668067,3.72156200341528,6.76900021966654,7.14345437064994,5.87987929797138,5.79846547986937,3.07256817643524,0.747974300124846
4.55969243555092,2.82854662934033,7.12522257385269,1.21312527599052,7.16341104067572,4.85388108481254,2.54542930955564,6.90420761866926,7.52710757342676,5.48413457398009,5.51549774478361,2.59189095220203,0.947450187193988
4.7687309359634,2.43322266326861,7.42691587727295,1.89433013371969,5.92733458743203,4.48593932855544,3.7910149669822,6.94645783551086,6.94386267310877,5.91246381010996,5.93153043476991,3.28987772274453,0.771438149151725
5.01394141985973,2.87955725885925,7.97203822919279,1.35154692252291,5.55465737364053,5.39670759532611,5.28788028299104,6.58812938360846,7.9027267942668,6.34697740217332,5.79703584118083,2.35412634417327,0.54097583709587
7.06501324358356,7.35534444039661,4.46265335624013,6.33378062156583,4.05017673302718,0.94900266045204,9.18576922289753,1.94333203171557,2.10277884291185,5.94812470531726,2.10416885977985,0.39600832182029,0.154053627707343
5.32744338761079,3.26966681354034,7.48891491921997,2.08754551966068,5.0963631903058,4.8735829065756,5.84083275482661,6.09890140714901,7.02847705403626,6.33402173574514,5.33941602387358,2.48660373090837,0.489716865418706
3.60042006278443,3.51904822689569,8.83931521569423,1.85847609212392,6.33996107930236,3.0468848639414,4.53703556644942,8.10623686810156,6.57004764657344,5.84387187885146,7.5784969915729,1.43953844169505,0.451823191467881
4.86273021223437,3.57078519624244,6.43351715103932,1.57678624407794,7.87025480579932,3.48988707809552,2.77330654167206,6.05738146319507,6.95492898128921,5.21742961171119,4.79416912068439,1.53403788113263,0.606824592841078
5.56358482416987,3.14603350374901,7.62854311715876,2.22008213765689,4.33732776817785,5.19549880198294,6.76001842778497,6.0156846378995,7.0071520305733,6.61659517266857,5.24833773178412,2.69769043135985,0.392894481033217
4.25361726924537,3.86169091400137,9.34273622012995,2.04798995329311,5.43087258058362,3.3997553577254,6.65846452449402,7.27477277009883,6.43339819405007,6.26125543144012,7.07399264959274,0.740782656080111,0.181660341192197
5.36388071127823,3.5595237025891,6.67630152356345,2.63069021221916,5.73320607192208,4.04525251979543,4.90949153110703,5.70563423387569,6.25711086424868,5.93272108944736,4.92687071207688,2.4854185602576,0.654832583446866
5.15534045611341,3.80728643274298,6.51911873972484,2.5077785171654,6.46101388567895,3.70029535314859,4.16443437019758,5.60213404106941,6.30027604586612,5.66867323760774,4.9289059552332,2.09166367000805,0.697578130386791
6.1450911010535,0.401214885345941,8.75694749034665,2.14173959979947,0.837892158640418,7.3227666578596,8.43922830747166,7.23592323318691,7.54298873010149,7.68826778118015,5.90350360080761,6.07137426751158,0.175510942316442
4.80962155325415,4.55686525119278,8.10044840178952,2.79947186701109,5.25736754266098,3.02970212001471,7.08316343749299,6.40351779037741,5.76553448479733,6.32573250830407,6.01837497079453,0.718316512782888,0.1659788369259
5.98101921973736,4.72362201602126,5.99693886408012,3.89164218322183,4.90572596841289,3.11069092965098,6.58127138386307,4.42817352682658,4.8376929788862,6.01272876097387,3.97361479672313,1.90968073863815,0.458974109904214
5.67260935908558,2.01403876340832,6.15373181120017,2.54731718184856,5.8596183216099,4.72477367425665,3.87978356177991,6.46439632895287,6.70578956934456,6.23991051968959,4.94514876649377,3.70079827395643,0.822891533549304
5.1535381721317,2.96540775417752,6.8021504834632,1.26176073839551,6.50230905418071,5.0504069650885,3.63120919882288,6.51165580385151,7.07701040242428,5.45573946583509,5.91598961932986,2.87096908981769,1.53304032483347
7.53196437916303,3.32150639397949,3.4300426280553,4.66635869799765,3.74730154981459,4.4309731105309,6.15664823550687,5.0103806243406,4.85337289466613,5.33728662238046,3.020184075927,5.7396047301232,1.69111483801162
6.56472365294171,2.68053328233914,4.69805135102732,2.55417960645948,6.53526106762057,5.55910913970965,2.78734680249393,5.1609581396141,4.92358667133979,4.85873221332454,5.16864386495992,3.49970691151189,2.86665143344104
