"fastcoef_sq","pref_flow_den","slowcoef_sq","soil_moist_max","soil2gw_max","fastcoef_lin","gwflow_coef","jh_coef","slowcoef_lin","sat_threshold","carea_max","smidx_coef","smidx_exp"
8.59639092078042,0.100238366985869,4.89805929598217,2.66862552531649,1.04789005991173,8.98986779339783,6.07595359271521,1.48956771820549,6.78401839837758,6.92623026583497,0.850488819072632,8.94400017004772,0.405529895699887
8.5987788214289,0.100866300177152,4.89630765637058,2.67183841998036,1.0468996305,8.98788269962638,6.07572254123468,1.49079579004134,6.78154266715767,6.92559732297995,0.849031559659891,8.94612076798781,0.405882733506964
8.59889964011724,0.100290018568716,4.89635589418651,2.67164748496502,1.04633403413659,8.98882619090122,6.07570138715558,1.49085645217039,6.78184965198383,6.92561548176513,0.849576783046867,8.94738886275671,0.406505903379313
8.59774036849309,0.100679892300401,4.89697438743666,2.67052961184956,1.04764129443184,8.98844683744797,6.07535976849729,1.49036642648409,6.78245788071905,6.92571707150591,0.849644277761074,8.9452096239372,0.405771022684192
8.6003943693937,0.10154789093312,4.89517076160933,2.67423961234378,1.04617254183229,8.98595451804131,6.0757939558169,1.491656939036,6.77954648070339,6.92514615651866,0.847655986692295,8.94705163924364,0.405635835658204
8.60353719315561,0.102205990180861,4.89298693976501,2.6783324396212,1.04452060774939,8.98373000360243,6.07591895404781,1.49321377646345,6.7765035024303,6.92444887222978,0.845844076571614,8.94997554463219,0.40612992599311
8.60356298736148,0.102207328015453,4.89297061808275,2.67836179175115,1.04449495665222,8.98372545778282,6.07593204891068,1.49321696326248,6.77648274071976,6.92444763970725,0.845830420466696,8.9500064186486,0.406135925224122
8.6035345657134,0.102204585661226,4.89298976480529,2.6783299435612,1.04451867019873,8.98373090279555,6.07591793022344,1.49321293914989,6.7765034386946,6.92444809779153,0.845846362530608,8.94997782356196,0.406129505913087
8.60366258924297,0.102215814178224,4.89291872166525,2.67851345099595,1.04436585259507,8.98367609548579,6.07597252251922,1.49327483036039,6.77636159352986,6.92443363388483,0.84578762356846,8.95015234269425,0.406147668963895
8.60363636529135,0.102203956566467,4.89292671975005,2.67843655283071,1.04444061818623,8.98372573312997,6.075967672098,1.49325001992247,6.7764482762341,6.92444761708658,0.845809475726458,8.95008456828849,0.40616554503907
8.60348064847943,0.102210300369617,4.89302095078823,2.6782666476957,1.04456938986799,8.9837345324963,6.07590588744178,1.49318235884938,6.77654288563283,6.92445490772358,0.845855061323816,8.94989432673714,0.40610282256908
8.60360170495662,0.102195572837728,4.8929523370325,2.67839169236334,1.04446489371936,8.98374339257153,6.07595810613845,1.49324260684837,6.77648148267392,6.92445114219447,0.84583218362203,8.95005278176536,0.406160414628864
8.60507210614633,0.102399309027506,4.89197774348515,2.6801994149705,1.0434882154837,8.98304107234127,6.07629850337844,1.49386598556748,6.77523373381451,6.92424619444527,0.845072662173834,8.95150924801191,0.406465712096251
8.60662893013612,0.102214673569598,4.89132741075989,2.68159288189152,1.04155590035191,8.98360807967564,6.07845072488432,1.49429292045335,6.77488052420231,6.92468631700072,0.844491263735262,8.95277658419182,0.40674628156599
8.60613204036802,0.102421953547744,4.89141770822997,2.68132465470742,1.04218809010155,8.98315145457212,6.07749561671678,1.49397841531042,6.77464902882368,6.9244450125289,0.844497148211893,8.95246207352426,0.406587227412833
8.60615100450801,0.102406111593354,4.8914099471916,2.68134075800658,1.04214628045135,8.98317842777933,6.07750913313566,1.4939812390941,6.77464168374546,6.92444475174182,0.844508115602113,8.95252456676837,0.406610743425185
8.60927179592354,0.103721482127184,4.88903966098956,2.68605189086785,1.04146002388663,8.9790408695113,6.07645066176926,1.49604255210725,6.770611223951,6.92318533369141,0.842081344792319,8.95467484288879,0.406482182955608
8.60943923940249,0.103715209167356,4.88893222714161,2.68623117951761,1.04132863036803,8.97903593009386,6.07650679953991,1.49610343442172,6.77051016309775,6.92317661296808,0.842030567360696,8.95488364027984,0.406555692838516
8.60966531349318,0.103691035800428,4.88879467411905,2.6864665029097,1.0411506133631,8.97904762165857,6.07657537761683,1.49620985993874,6.77038872381911,6.92316419811296,0.841986901501747,8.95518684791388,0.406671787908895
8.60968352094626,0.103849912301434,4.88875923705693,2.68661494152917,1.04121775456859,8.97868399905861,6.07653954535831,1.49621763599513,6.77017301190885,6.92310656866864,0.841774751403579,8.95496797129819,0.406468759898705
8.61142042486689,0.103953458994102,4.8877561751932,2.68855913861658,1.03955645152672,8.97847485539529,6.07783969874363,1.49671823864615,6.76906907044704,6.92320715876818,0.84090738576687,8.95655984327792,0.406769181835465
8.61537176802889,0.101260771216281,4.88857373286798,2.69026914863955,1.03030886648302,8.9845347674422,6.09055968055361,1.49909100741852,6.77192203478683,6.92648919863529,0.841264354022826,8.95953333686105,0.407144068065692
8.61384640049715,0.105538688747734,4.88593008621524,2.69280125866536,1.03915476186935,8.9737223858554,6.07685452283748,1.49852727574137,6.76501372135057,6.92191960351901,0.83830670780468,8.95749638785783,0.405814439962794
8.61792456984919,0.106100134191803,4.88278889103624,2.69262892226441,1.03766393296652,8.98264010766687,6.09025185704732,1.49463767454979,6.77189111515938,6.92844004225678,0.835727554799508,8.9508506757678,0.407196549243618
8.61513324043923,0.11316679150031,4.88217968847167,2.69456439941509,1.04429239057139,8.9697736066069,6.08694864465891,1.49468494911115,6.76737290667617,6.92400599787755,0.83298065957651,8.94114517951448,0.403248402731928
8.65612404195618,0.149624402656341,4.82866812071411,2.73722177906433,1.0503738333996,8.93937484776351,6.11343787912146,1.44046292196871,6.73731014603018,6.92505362791017,0.759014347731008,8.91265812997889,0.390073434187006
8.20255341282284,1.14388914864562,5.23480462356567,3.2841445950153,1.94083408263726,7.44466905828347,6.13604215342205,1.3884192817256,5.74070724426373,6.06734324276784,1.7388889582301,7.82348838685865,0.916393348908567
