"fastcoef_sq","pref_flow_den","slowcoef_sq","soil_moist_max","soil2gw_max","fastcoef_lin","gwflow_coef","jh_coef","slowcoef_lin","sat_threshold","carea_max","smidx_coef","smidx_exp"
8.77975109856414,0.490043512453726,4.56573804983199,2.87314362112736,1.57739715253536,8.63692749267098,6.11537809906036,1.28447361780213,6.71457531933719,7.04038492849941,0.401236880744536,8.2021930226155,0.273902196890457
8.58076207978991,0.578744968381634,4.67200790991907,2.79512605269432,1.84917694325513,8.44083294050487,5.90878241425986,1.51937235647895,6.75581894382765,6.94831692331784,0.627844071038329,7.96959311019224,0.300045058028651
8.53096367781377,0.666378319663259,4.61379334185542,2.81377700415052,1.9860659166209,8.34286141540632,5.71787644076716,1.51362280858776,6.68964865789707,6.84400499257148,0.637054332053858,7.90924125683675,0.329676099570979
8.63509774718836,0.469247148360314,4.58709692269983,2.70221573913835,1.83696303565949,8.61324636075307,5.82671980316821,1.38835286472881,6.8523755183186,6.94756296428383,0.480384076555985,8.08378892598878,0.30996936360599
8.72817844555294,0.508846959928269,4.5873025827613,2.83497049511606,1.65937809521196,8.60248683217704,6.0440029749215,1.33033494717369,6.73866763103273,7.01397469810186,0.449381791738717,8.14318319831845,0.283901615661053
8.65811383970817,0.606597935541891,4.56969567144605,2.85247311568496,1.81167401697704,8.44780857158043,5.91592190966521,1.35762113095865,6.69018927296298,6.94025584613738,0.493708336124882,8.03196909387852,0.30082066042205
8.65912502925683,0.605009656693904,4.56562213059445,2.85336109038279,1.81147764233216,8.44891496425469,5.9098702865765,1.3557737765324,6.68994878795589,6.93669689075449,0.492047888855057,8.03871667668008,0.302919200113188
8.65931471065779,0.606055852356984,4.56870467977372,2.85301173967273,1.81025694482209,8.44881044558938,5.91673168470444,1.35597522562728,6.68982015158192,6.94060264686999,0.492056953798784,8.0334356071874,0.300696459585669
8.65820461232608,0.606511312477726,4.56648294246098,2.85348272395527,1.81229446825564,8.44718741649435,5.91049741145133,1.3562274115492,6.68915714677796,6.93664687754091,0.492976866083749,8.03636863432359,0.30262214210541
8.49889484082113,0.768020097573379,4.5739147302684,2.83582543009665,2.11677871447352,8.18711054930741,5.66155596892269,1.45522527322783,6.6466589511045,6.80854639125286,0.615993346210702,7.803349885382,0.336110993248598
8.63826700336374,0.632625336687169,4.58534435120741,2.8561657077316,1.83743123805381,8.409942863938,5.90575405987677,1.37834339580747,6.67822054796223,6.92778637231893,0.520487562747254,8.00149084396293,0.300058923537717
8.51079998278461,0.809272969594039,4.56230516230399,2.8754314636468,2.09001849283504,8.14457762902846,5.74358435761996,1.48197960275061,6.61091530935709,6.80967434988857,0.626504060251273,7.77536610047416,0.341816279776179
8.66536309006178,0.612109115255822,4.55822302253183,2.86101598180017,1.80407605781284,8.4464881529007,5.91429649025984,1.34202090175955,6.67818587677471,6.93805658203281,0.486237247334521,8.04631526147231,0.306133608839335
8.50581900983503,0.765456885791217,4.56862703354166,2.838284912532,2.10896082058096,8.19296622387803,5.66646613184788,1.44529420327123,6.64493602373544,6.81028047742736,0.606090368074593,7.81104835740206,0.335112782692619
8.61585745872003,0.628430475599342,4.57093847521128,2.82435519557863,1.89739265214591,8.40872173103646,5.82990523551721,1.37828869780826,6.70500351358931,6.90585845674503,0.521769003820433,7.98590759805418,0.310851677616309
8.65114212780862,0.646949689719411,4.56169792422998,2.88590128115435,1.82256611225785,8.39190322879362,5.91097013027938,1.35807472936863,6.64686924570054,6.92137741294288,0.502143410199674,8.01442331574226,0.306606723262318
8.64905607707717,0.626153447819766,4.55695686916308,2.85977338912847,1.83571180257968,8.42040808469803,5.88548681030779,1.35275106193662,6.67661655253582,6.91899399960688,0.494964918319632,8.0228898308027,0.30719170647357
8.47658193935865,0.781388567480971,4.56364246476972,2.81174248120902,2.18334233008867,8.16709957109562,5.59196003606893,1.44642894295529,6.66117720399779,6.78438377606335,0.61611227055755,7.77388156646435,0.33963033680824
8.45977978232954,0.820116642651761,4.54965244601731,2.81920893709265,2.23753758972301,8.11409918841306,5.55196709772541,1.43741768386749,6.64120451412995,6.76187587317579,0.613687778313335,7.72936183501187,0.341941420469601
8.6732264006467,0.640822675193156,4.55135708284978,2.8822418404733,1.79449641350072,8.41910153856398,5.94031817114312,1.32292887405278,6.65208972674257,6.92899266424875,0.474368416164079,8.02754776432341,0.296591644707659
8.55878865572885,0.725481025818575,4.57322137037697,2.84948828760802,2.0158397173403,8.26096039953412,5.76391716995339,1.39655891451133,6.64401884075105,6.85966857663802,0.557452836722635,7.86059886264205,0.312464508043179
8.53762438382858,0.734428512428801,4.5314574301286,2.82944182438141,2.06477019471586,8.25377311908305,5.66535466318198,1.39188975613803,6.6532486522541,6.81109964351191,0.556871973346955,7.88035569307252,0.343158784571121
8.68805471312506,0.703414485714695,4.49545552625688,2.93548585485141,1.78814998829834,8.34843738311265,5.93074994268862,1.22929144840484,6.55839389140037,6.90379641288312,0.416632705587637,8.03636448856885,0.303167937541414
8.72596932216166,0.615650335499846,4.43718423712359,2.87636892451823,1.82363265484593,8.46058187411616,5.84033677666522,1.17117592261803,6.65104708344639,6.90433322471972,0.330557731022505,8.10157193118251,0.302136389163986
8.5132286748924,0.692048980921339,4.6619515687226,2.83878514980015,1.98878644544411,8.26320157122797,5.81859653201604,1.56094588053158,6.67219754630933,6.89593514426793,0.676230150861902,7.83819692203024,0.315041914224436
7.66996546601209,0.940670826336666,5.33537652632617,2.50946615558032,2.94176935948837,7.56244818844195,5.25138169250689,2.87208642785503,6.89163263059423,6.72119407390066,1.860088359615,6.89244586435071,0.451890936843689
8.14464232597074,0.841187248804194,4.85502070792057,2.6479593935549,2.30506345305749,8.30737004845379,5.64942855478499,1.72953543294066,6.844854514326,6.76925722820675,1.42698374348392,7.72130015028049,0.709811999394963
