"fastcoef_sq","pref_flow_den","slowcoef_sq","soil_moist_max","soil2gw_max","fastcoef_lin","gwflow_coef","jh_coef","slowcoef_lin","sat_threshold","carea_max","smidx_coef","smidx_exp"
8.20722833939815,1.28262442193024,4.47586709397772,2.95742326786308,2.770925312086,7.43157751997402,5.13427674925702,1.50546693964756,6.33636009230609,6.47605899649576,0.780526124632002,7.2835531732122,0.413662294756742
8.22080744005669,1.38016632565649,4.42142390185245,2.96173131801146,2.96934796382525,7.33816651741884,5.14412972419138,1.35128597303722,6.32684840361229,6.54479521813806,0.708786122545473,7.02273365922612,0.275779996133154
8.15540423010208,1.20526295084648,4.55954118059136,2.87057650981679,2.70231485893659,7.53219216570848,5.05568979053105,1.59107114077983,6.41328848477819,6.41789510278699,0.843754040382612,7.43160887454347,0.472196432892991
8.16732849831023,1.3441653988148,4.49803337706856,2.98628218256246,2.84649469173313,7.32329929178995,5.14856922452341,1.56869859701111,6.29855435851486,6.48981113501805,0.850740404514135,7.14922503301268,0.396592395648587
4.83610898238775,0.807706763064692,7.76390127554979,0.993147859478482,6.19124459092514,5.97090356564545,3.04555404838853,7.8692160213444,8.37580086179774,6.46679630283839,5.97499826674789,4.24229662795125,0.896786096406205
5.81964884782675,0.768754945576095,6.71116039628185,0.891072405028353,5.04487171915708,7.28910072459644,3.85200709269779,5.97572507992532,8.61415977332171,6.43453247703333,4.3866694590673,4.85816288791381,0.834762645089951
5.76142544150665,0.913213661902657,6.74925669938903,0.953244197008698,5.09333053931711,7.11823128271004,3.88505154929946,5.99940870770772,8.50020810897822,6.40324926747573,4.4514503430224,4.71881746955065,0.833551315525283
4.82275636225558,1.31453945825497,7.87317047313332,1.01527846107662,6.0000945262712,5.84480418829,3.38321458938639,7.55228607512183,8.18045219330343,6.32619883756076,5.94856500271686,3.92465201883574,0.880763401625219
5.607603751342,1.10168431438607,7.07724695459813,1.04208068787818,4.91441918982622,6.86879188102431,4.26951107466239,6.22742535874263,8.31595499852016,6.46151307177003,4.76338131106297,4.52311862261518,0.812922810532979
4.82440460668957,1.43794624884234,7.84607533084134,1.08458729411814,6.01708660808658,5.73461277885012,3.45876402365448,7.4964880150863,8.092963673658,6.30805727862457,5.93002942234461,3.81377506198928,0.87134035021378
5.12051284885343,1.02370787970424,8.5777361842666,1.09659896869044,4.45549357523634,6.74801979814861,5.02082744894014,7.78300920764092,8.38059507594008,6.74561394749388,6.35747778908906,4.4704632321281,0.697537980855306
5.05035875595073,1.07676031197105,8.55080276630918,1.08431437880017,4.61895584198066,6.63381104939622,4.8343787636504,7.79768124521582,8.34764850203906,6.67479579466514,6.37239178486775,4.39821819743421,0.716291610902504
4.92700363962135,1.46275129256803,7.69848667207893,1.19059289755702,5.96037554131857,5.71761301891307,3.50648645401413,7.37521515774505,8.00091441811867,6.30689706918112,5.79680843169715,3.87165142604519,0.87854294743345
5.16505237731776,1.15941842816197,8.45834904575342,1.0996544734337,4.49081621106543,6.72693849963659,5.04826016678901,7.58558355978409,8.38575412749232,6.76519907691681,6.20863177454865,4.36992259557312,0.677634551246265
4.79078131453877,1.6592550029503,8.07963873397285,0.886782215241462,5.80647037388689,5.87491483216294,3.63560924871862,7.40535274908263,8.17806238862262,6.21171678490195,6.02544357626175,3.71106560555034,0.864986804230984
4.74150109622441,1.88436517083826,7.73229758012525,1.09707891265793,6.10121401155088,5.49621962998864,3.45950277628303,7.21350667847006,8.01567009028497,6.04905536918773,6.03461264821966,3.50842576932457,0.826543592546279
4.8437581801303,2.0713568319366,7.88312854036628,1.2361194872128,5.82158188743267,5.46647827448291,3.90094722174331,7.09424835325859,7.76033072006086,6.16112702731456,5.85754791383306,3.39617007507364,0.839933355899349
4.93287204362837,2.09202435854992,7.74621264760173,1.19842549329279,5.88986070235836,5.57719266112856,3.82988566914236,6.94303401733009,7.83673300994331,6.1450338595251,5.68907331308368,3.39715913378267,0.861360402520212
4.72412967420283,2.05061579524476,7.91422438369394,1.17704641564081,5.96881336082226,5.363855048759,3.85425067695153,7.17643406583562,7.92719575133977,6.1233298140874,6.07640818126513,3.25780807859383,0.730540286488295
7.06910801573589,0.30521228716613,6.40639016098769,1.65891401082366,3.29445664249781,8.19305981680368,4.99109753706036,4.34066848657184,7.92780707066958,6.95160877738915,2.96330172498294,6.68945223996811,0.511684338633943
4.93392560966014,1.87457718375758,7.72410517210214,1.33878358078543,5.58799803793882,5.55252860216215,4.05054306190518,7.12969759951135,7.79810429410001,6.20688854003939,5.94130229545867,3.69406869019018,0.788575345455579
4.82007652401504,0.763249288209984,9.19186256700269,0.860322824021229,4.62565864558389,6.99570761082015,5.33174208264303,8.33575535594724,8.63909179448058,7.20824496411773,6.92828837047965,3.94902568255914,0.359546697681714
8.04215437709586,0.655081220714058,4.64045975355972,2.96901410646493,2.02188517466134,7.77169978414495,4.83409906421602,2.74561774100074,6.40016708204692,6.10766494192505,1.3655030902707,8.53427113546551,1.19478429620425
4.62933656958267,1.9619855434273,8.30772110756331,0.785650793689481,5.86884474267622,5.66660509191304,3.70229662552838,7.17517146403705,8.10041752396052,6.11922175749983,6.04965889463276,3.39117591164415,0.819743126393439
5.11535226632638,2.39049480966205,7.69676005255024,3.62264167813413,3.27404021494989,3.45983162086299,6.30826164138068,7.11064916406594,4.64761102930224,6.38243556268432,6.01623994974182,4.3156510341788,0.549235504964483
4.29954392501915,3.06949892078534,6.3531659378804,2.1375894982382,7.18617854654989,6.45660467090506,3.95919670704822,7.26853832320487,8.10470429913694,6.80495131151482,4.96924854427787,2.89384644088292,2.02535890258167
6.56472365294171,2.68053328233914,4.69805135102732,2.55417960645948,6.53526106762057,5.55910913970965,2.78734680249393,5.1609581396141,4.92358667133979,4.85873221332454,5.16864386495992,3.49970691151189,2.86665143344104
