"fastcoef_sq","pref_flow_den","slowcoef_sq","soil_moist_max","soil2gw_max","fastcoef_lin","gwflow_coef","jh_coef","slowcoef_lin","sat_threshold","carea_max","smidx_coef","smidx_exp"
8.70651946945964,0.16944954950957,4.8081630839142,2.82223410769189,1.03552419209774,8.87415172027532,6.12187923822693,1.53041757131816,6.68331921644965,6.92345468919833,0.743254870439378,8.92273855610461,0.383714470894029
8.70760385897584,0.159742857357008,4.80810563059841,2.81655365851222,1.03701718853558,8.88110739454182,6.11010105400622,1.53076437489646,6.68797847344244,6.92203711429187,0.741567582832094,8.93465074261162,0.38505807374279
8.71141938117119,0.158077916680131,4.8080230614535,2.81724864256222,1.03111665447296,8.88667323370396,6.12057330535723,1.52942531874831,6.69029784447204,6.9270124937265,0.738413730082576,8.93390843992089,0.383416893801054
8.713353383596,0.157424672566465,4.80486669196949,2.8189040740335,1.03138928300516,8.88698326684904,6.11896777448717,1.5300717921956,6.69071030387972,6.92556270294662,0.736735996283269,8.93647111431315,0.385006078675519
8.70798140106436,0.164182715943195,4.80733605616925,2.81867031957356,1.03652841036863,8.87888143541998,6.11799154899987,1.52904753858217,6.68736997860258,6.92383388206297,0.740000383723086,8.92692803092558,0.383424195976949
8.70828329537683,0.165863224979395,4.80608892025525,2.82088622868193,1.03755189930806,8.87691943233029,6.11663636387115,1.53005282647034,6.68547327140798,6.92310526048215,0.740641910794916,8.92685137479646,0.384565423327288
8.7069994664613,0.171820680633057,4.80718233654016,2.82320200682438,1.03835498771043,8.87312743978621,6.12519210321601,1.53073616163078,6.68448457134734,6.92557813272626,0.741831119696849,8.91601035538436,0.382909833063903
8.71772785430589,0.156169676627521,4.82170647289989,2.81749504811167,0.982462737069036,8.90780822313624,6.1983467186527,1.51060653644,6.69661707845653,6.94957946879624,0.727613592199186,8.92159134646143,0.364643733666693
8.70920337100112,0.161470745417135,4.80862190242004,2.81892439797401,1.03010673209938,8.88295965741396,6.12264735123693,1.52910445571365,6.68783554301712,6.92531100779385,0.740410590806239,8.9315783968638,0.383314325428728
8.70913437976182,0.170068984729938,4.80630848812655,2.82324738833987,1.03324643622716,8.87636700676659,6.12905852264172,1.52708788652164,6.68465221954344,6.9262951474291,0.739001990623699,8.91980585563323,0.382223080563867
8.70895380423338,0.169504324298763,4.80644347902265,2.82335897432921,1.03436128922187,8.87618132691821,6.12723377548951,1.52909532365571,6.68488551093906,6.92612590785726,0.73996916141666,8.92025271715752,0.38283558666393
8.71163396996563,0.170678286623523,4.80517653800672,2.82392655527788,1.03098024028192,8.87868253916307,6.13786116018687,1.5236168259785,6.68646622837447,6.93007764253208,0.73425007517351,8.91495829857357,0.379685526391063
8.72633567287146,0.176609779033568,4.81826736505478,2.8383245021745,0.95924632597808,8.90528990521009,6.2561779524738,1.50952423304106,6.6894596733823,6.96420455069156,0.725895319285073,8.8953954889852,0.360899223831828
8.71067341112916,0.184620630707641,4.803207586692,2.82872673372172,1.03521145634851,8.86970930417885,6.15655493038827,1.52032062879765,6.68574163590837,6.93432118025203,0.730735016401472,8.88870735065103,0.375088146366004
8.70833157714552,0.184525121144323,4.79762526139081,2.82843569466301,1.05270727304932,8.86108890066032,6.12384663148167,1.52443489248485,6.68132867770148,6.92383461756717,0.733522442808268,8.89743695552194,0.382043222222609
8.6976347508534,0.221271866800414,4.79469217901746,2.84561121031949,1.06545388307633,8.82890185488592,6.13870195558347,1.51751829748111,6.6618370362475,6.92182520563314,0.738862145477814,8.85482194315628,0.378950684069537
8.70869522190836,0.197816515217784,4.80297075645857,2.82566146278776,1.03518129411486,8.86545750288115,6.1875422638606,1.50205889920286,6.69087423575542,6.94111119977078,0.71757652742132,8.85468747153422,0.362459019565464
8.71034892529133,0.219474934810877,4.79281371569666,2.84915136961449,1.03548629062457,8.84521385410945,6.19626183602902,1.50818373655595,6.6725900491893,6.9369412122564,0.722889515252219,8.84365437305033,0.36917449598392
8.72113034796216,0.210500274300284,4.79250740803336,2.85396208479506,1.02276061278615,8.85770576257997,6.20099713170593,1.51151566396791,6.67096570525656,6.94482072071774,0.721444672104295,8.86091748117795,0.371811411072987
8.6811461049747,0.248362239051894,4.78956258467536,2.82123116792809,1.1380599218047,8.79631826752876,6.13104005258856,1.50672075004398,6.68724235132471,6.92237883091446,0.718164700897261,8.75888223786857,0.360208400695648
8.76915418090199,0.254602095244882,4.75237256667023,2.92107080114897,0.981577582745729,8.85467642549532,6.31375059639024,1.49391057637441,6.64604944205728,6.98084560009644,0.683418007325202,8.81785543190559,0.369999685320208
8.72744937119258,0.239981464910252,4.77915712244049,2.84213004395345,1.06125465105648,8.85296074710823,6.25337793337119,1.46823945631141,6.69716657901784,6.97542607954278,0.671979541297047,8.75569525370537,0.340110362466178
8.67225859278356,0.390310856404742,4.75251429892228,2.92165389506544,1.1575581805733,8.68513268053604,6.2201553887925,1.48021438898896,6.59647653616075,6.93077172122103,0.722764585024428,8.61476388305162,0.358730480265806
8.68557367597328,0.352921443029776,4.7492355339656,2.92497726555515,1.12555896054605,8.71688173340732,6.18493890815693,1.48013680311416,6.59069016100553,6.92625442110019,0.723129409090431,8.7000021412829,0.370598573126969
8.61616684936939,0.429861601579176,4.68449076078689,2.8532269010127,1.46577387148156,8.56369618463913,5.91451705571815,1.48191844988563,6.64133574265933,6.83386322587806,0.686339423541207,8.49525731339914,0.373473275194292
8.84581185420304,0.476428774283568,4.45854248948157,2.95751931523475,1.27541093084414,8.65453755171679,6.18886389624636,0.99032078762387,6.55452406261863,6.90857133319929,0.241362785935107,8.52768886203822,0.272552722263162
7.57459066319707,4.24250723613549,4.42209103020889,4.49611779879172,3.42278837693114,4.31913516690674,7.12113240322727,1.60666958279726,4.29130633158449,6.21833686277097,1.3876262888563,4.08596509693142,0.40161590886698
