"fastcoef_sq","pref_flow_den","slowcoef_sq","soil_moist_max","soil2gw_max","fastcoef_lin","gwflow_coef","jh_coef","slowcoef_lin","sat_threshold","carea_max","smidx_coef","smidx_exp"
4.96478094120991,1.6548311456203,7.20130520731374,1.05762703645419,6.21805107352431,5.84174199834256,2.92201004441421,6.92957156206246,8.20724472714601,6.00015306338287,5.56673192182014,3.98857440792251,0.932902965179825
4.74150109622441,1.88436517083826,7.73229758012525,1.09707891265793,6.10121401155088,5.49621962998864,3.45950277628303,7.21350667847006,8.01567009028497,6.04905536918773,6.03461264821966,3.50842576932457,0.826543592546279
4.82658645202327,1.99241110003231,7.6436551497788,1.27653910156166,5.95224131027593,5.38386988647782,3.68412509913584,7.07521346178377,7.82037887870704,6.07145824711159,5.93973040195964,3.49485599539383,0.809371651502136
4.77454652613941,2.05321208668247,7.60401137987113,1.24526303716163,6.1341015924347,5.29849462681111,3.49970674499648,7.04908303950068,7.83142776534789,6.00456817479156,5.93933965621905,3.39576766297982,0.819108972464581
5.0156860736814,1.96997666744948,7.25254889526942,1.08658002914558,6.32936185974623,5.68901054294607,3.21205204603486,6.69183406668684,8.14323240803133,5.9660690054773,5.5180075823636,3.5246162179942,0.885843321749377
4.60871734804852,2.16291464536834,7.32626543159043,1.25275535298815,6.87128600714661,4.9005281455735,2.59159518950051,7.02100588572633,7.7177080031133,5.72444592786019,5.86022777456675,3.2349792323013,0.904752719121452
4.73859160895546,2.17443350006081,7.53620761338389,1.21582059794294,6.29227691819461,5.2794601219392,3.34329557102759,7.06703530517671,7.79588385528145,5.91902660934775,5.85739279923064,3.27250717807856,0.848184270686135
4.72412967420283,2.05061579524476,7.91422438369394,1.17704641564081,5.96881336082226,5.363855048759,3.85425067695153,7.17643406583562,7.92719575133977,6.1233298140874,6.07640818126513,3.25780807859383,0.730540286488295
4.79085123405858,2.07560250854287,7.61163093923895,1.38612181237524,5.98325780488369,5.18747468287493,3.65469198538423,7.07759785938712,7.65007263020196,6.02610891838022,5.96140097172721,3.44700387071419,0.804181261175569
5.01988661477624,1.74057158042317,7.83089890509626,1.38744996098239,5.21011103316602,5.68580861153312,4.37298991711036,7.10731529699511,7.76917896238168,6.3334626262053,5.92928422003114,3.90800644346063,0.764294855482877
4.86434790344536,2.06577291166125,7.86224207219127,1.41912778544122,5.51052480658965,5.38473031084506,4.33458965877233,7.13563137462874,7.69740459591501,6.23557439175497,6.00512669102553,3.43642612807051,0.70038375051642
4.91105256728114,2.09406544395634,7.552747873489,1.4540175712685,5.80239376982688,5.27633547010507,3.91489661349394,6.93632596000489,7.62718824608796,6.09156271902001,5.84182757646984,3.47971007526488,0.788657566727987
4.93392560966014,1.87457718375758,7.72410517210214,1.33878358078543,5.58799803793882,5.55252860216215,4.05054306190518,7.12969759951135,7.79810429410001,6.20688854003939,5.94130229545867,3.69406869019018,0.788575345455579
4.49877351576384,2.34705889944965,7.96473077384427,1.37715830197629,6.08641442785127,4.82771106672142,3.84119713525103,7.36754261753479,7.55661887356812,6.00896093556559,6.37314261092796,2.98441905045182,0.724277521754608
4.95289833084975,2.31358639333275,7.36636414848294,1.4312955796565,6.05075315556657,5.17526791064232,3.84797211755353,6.70106272751904,7.60881025789032,5.99591571407204,5.65805951543223,3.2611008771313,0.766176235603822
4.81776606362736,2.23407988150934,7.46549987072029,1.40308011072559,6.17462338276222,5.11430561764123,3.55568140154347,6.92286989600044,7.6498281499569,5.96753675190356,5.8537289284014,3.27781871598015,0.816964337525426
4.95294200913413,2.08832228910275,7.2221685072537,1.58067329256033,6.18226404828113,5.07259937557024,3.48874887022098,6.92487180718156,7.53496302204565,6.03122581408941,5.69311959743735,3.39720351226905,0.811261124751549
4.85877937259457,2.32504653323942,7.45915669715492,1.61744011593052,5.9569284447878,4.93370079482384,3.81515471270197,6.85296023238201,7.38427101888953,5.98687021150341,5.8216568177845,3.27692719894917,0.770087005291419
4.80006237099575,2.30635036480267,7.69948711786969,1.64968021005512,5.86030254699409,4.94108628571107,4.09844885298672,6.9286875777936,7.53028431402298,6.1768399111465,5.79361042137187,3.11053322810149,0.5591263739939
4.59483952428133,2.76112708807164,7.16827575148398,1.2109478294949,7.32468074539316,4.67178340304421,2.67968963403243,6.73493128112384,7.69115418471142,5.60436701618115,5.68984110631962,2.50719952918178,0.918272929052366
4.88720101002825,2.8356211127344,6.99426493523584,1.51639276727166,6.83676170740015,4.38070361053126,3.34102698183036,6.49715085414627,7.29000832420917,5.65564536837332,5.31950863819201,2.50766205129786,0.699512151649536
5.01394141985973,2.87955725885925,7.97203822919279,1.35154692252291,5.55465737364053,5.39670759532611,5.28788028299104,6.58812938360846,7.9027267942668,6.34697740217332,5.79703584118083,2.35412634417327,0.54097583709587
5.32744338761079,3.26966681354034,7.48891491921997,2.08754551966068,5.0963631903058,4.8735829065756,5.84083275482661,6.09890140714901,7.02847705403626,6.33402173574514,5.33941602387358,2.48660373090837,0.489716865418706
4.80962155325415,4.55686525119278,8.10044840178952,2.79947186701109,5.25736754266098,3.02970212001471,7.08316343749299,6.40351779037741,5.76553448479733,6.32573250830407,6.01837497079453,0.718316512782888,0.1659788369259
5.36492181096362,3.30613295282488,6.87056530898075,2.49598443433677,5.51396834128248,4.30324051584908,5.00338054936306,5.82681640843829,6.43980167265273,6.03502414218204,5.0045605779797,2.72353652048313,0.649835130814474
3.55830898315023,2.0320275976003,9.39399073298496,0.149136282336336,7.24043446545326,5.02252048078787,2.78499172252382,7.72704239960896,8.59144978144134,6.34246966529982,7.09597986438582,1.68820907753307,0.251073431080773
6.56472365294171,2.68053328233914,4.69805135102732,2.55417960645948,6.53526106762057,5.55910913970965,2.78734680249393,5.1609581396141,4.92358667133979,4.85873221332454,5.16864386495992,3.49970691151189,2.86665143344104
