"fastcoef_sq","pref_flow_den","slowcoef_sq","soil_moist_max","soil2gw_max","fastcoef_lin","gwflow_coef","jh_coef","slowcoef_lin","sat_threshold","carea_max","smidx_coef","smidx_exp"
8.49946970837307,0.715340889068342,4.59209112968998,2.87979136413429,1.9345346240015,8.21879420539917,5.71931742791164,1.48876119566397,6.60574982496068,6.75761980699017,0.669872235093737,7.99462808563636,0.36344405500884
8.52472983976295,0.699980345801344,4.56087589097537,2.88990014351318,1.89453055442753,8.24628497473644,5.71893305743008,1.43307252487481,6.59469301187623,6.74568933746426,0.63111126425032,8.05586388418665,0.361888476645794
8.69783162528931,0.529694799939751,4.52843199223109,2.89888874799353,1.50548079232756,8.52573988252225,5.99173673947115,1.21428786688337,6.61110954432795,6.83643913429771,0.440393224225351,8.37226318154178,0.316547767144939
8.57427254602898,0.693451372178846,4.52046215087064,2.90578369517829,1.85213723100707,8.27606165505447,5.75597794921685,1.35407969403946,6.58135121016302,6.76282484374339,0.552441015082459,8.08837649349811,0.353005675843369
8.57754929138357,0.695416286547066,4.50329098382987,2.91391113830802,1.85368176740416,8.27105667349324,5.73329400773858,1.34152899101326,6.57252938738327,6.74670331954832,0.544823866863637,8.10917381281106,0.359793499010964
8.5720007371779,0.702850725517155,4.51865196611583,2.91063118570985,1.85941914714648,8.26331104607294,5.75053656168741,1.35021798929134,6.57326145245452,6.75833250270168,0.553113399058826,8.08262530205685,0.352692153356539
8.57289562928903,0.696504654418003,4.50839180038251,2.91137766921311,1.85767009908555,8.26835581824839,5.73223054269234,1.34929076277751,6.57466468981552,6.74667230164532,0.551819656690795,8.10352569270571,0.360192355068691
8.56997360546616,0.706470680849566,4.50951576260905,2.91122576415113,1.86682151217996,8.25780116813873,5.73089606814925,1.34876712488462,6.5708403619226,6.7438916705315,0.553506121811872,8.08981644618462,0.358502865871493
8.54687849612898,0.714506524155035,4.50135114463072,2.88703320554071,1.92997529256416,8.24278894858274,5.660503985262,1.34411000390588,6.58858049546532,6.72133892936544,0.557091164468829,8.06693863691725,0.363695020035347
8.54853497684828,0.71481430753443,4.49214672237734,2.88750112869927,1.93341467848376,8.24196101861527,5.65647617881007,1.33987023310827,6.58760064193039,6.71952352588795,0.549794687105581,8.06619921380018,0.366238351278446
8.45055986607095,0.862269485265698,4.49937645304157,2.92068547453029,2.20336416662908,8.01659422322766,5.49738910715146,1.48569306331105,6.54185070291396,6.6726709096841,0.662070407044106,7.82037017130426,0.396080898052747
8.45014735206922,0.865840502762278,4.4875778851949,2.92506013676041,2.20637406942063,8.01171671917811,5.47688795244838,1.47809694617689,6.53629916352588,6.65701492117233,0.659953737796597,7.83473989898768,0.402463775348988
8.45900648070541,0.864607500163407,4.5032785769443,2.92524633091571,2.19271176828745,8.01841550227983,5.52341941619645,1.47506739872586,6.53646771078778,6.68735739239323,0.651862119776173,7.81160758789654,0.387637377672576
8.54651910143888,0.725154956987431,4.48787525322338,2.90240212092828,1.92881589917652,8.22397113728039,5.64279875419109,1.3343077103001,6.5668746934268,6.70288622521549,0.553884528253752,8.08400572087041,0.371145161330797
8.57762086326015,0.700892890405196,4.48874146318185,2.9020540687692,1.88220935458583,8.27033782058351,5.70527292226065,1.31156017904534,6.57897601536461,6.73970823548646,0.523165170776388,8.09751628999516,0.356927535153451
8.44199275054594,0.902047578745976,4.48295204412235,2.93441375210543,2.23470276727896,7.96876039069446,5.4723008549198,1.46764870951155,6.51447760822378,6.64715026668282,0.661129209098119,7.79201318833074,0.398699753687567
8.40643159442936,0.891333871747189,4.4904799695042,2.86960874461859,2.33351638732308,7.9782126009397,5.3820370190655,1.47048972114872,6.57322365315705,6.63937300726929,0.663070070079774,7.74168544075157,0.395343388887131
8.4316615527239,0.932569270632372,4.49803171730085,2.92537880257281,2.23675125968771,7.95971384893979,5.49944033872074,1.47326320138953,6.51884311298356,6.64054043386951,0.677673067253342,7.74915424818384,0.392270368825725
8.63616358921125,0.677361243830968,4.45067625428492,2.93495557642873,1.80372604746823,8.31687985911612,5.75681175202518,1.25143984836855,6.5597548055417,6.75719416367192,0.457866212517829,8.17002389619206,0.352235623253072
8.47933760659265,0.880580286593403,4.44896410008118,2.95894824422753,2.18954224788946,8.00259344110945,5.462902891725,1.41675425818501,6.49974202641398,6.638846384984,0.616264257318898,7.88015828667929,0.404260767458019
8.56882789801979,0.800758018126083,4.40254770084602,2.97382746722225,2.07496868693914,8.12178690213612,5.53458144868841,1.30868897644525,6.5088392307668,6.69412247722044,0.498550788359742,8.00661982304336,0.38677455035962
8.64445075826271,0.758790236648743,4.28962630577093,2.97723602528886,2.02256097406561,8.19346288147729,5.49090196079763,1.15587116877058,6.49960304639787,6.65857636688729,0.351445842827251,8.13554391223519,0.391450287547927
8.39670808982048,0.880475135308758,4.49953224561586,2.92012299993837,2.2602169719328,7.96379258211696,5.37834121253294,1.55004980994127,6.53692877963442,6.59527977448654,0.739372631990047,7.84431212380059,0.434732434035762
8.20639918397181,0.913007277346376,4.82762483904297,2.81924650016406,2.31742356931045,7.8637634280173,5.5174846979204,1.8606865695911,6.60677656198687,6.66927692855249,1.08033726443825,7.59189964049251,0.375874183277362
7.96957675616446,0.959974155957806,4.91242208755665,2.68043699003668,2.68573360383512,7.7307368825271,5.20892228087817,2.26223717768984,6.76786456040774,6.57076971224112,1.38649971054966,7.32049544539971,0.471165291855277
8.01044841857678,1.01475049048736,4.88756584181801,2.71134904719797,2.66897848802053,7.70709948571535,5.25633550815421,2.16295775577328,6.69810787146938,6.58577386123566,1.28843709220871,7.29311730280743,0.465024494186337
7.57459066319707,4.24250723613549,4.42209103020889,4.49611779879172,3.42278837693114,4.31913516690674,7.12113240322727,1.60666958279726,4.29130633158449,6.21833686277097,1.3876262888563,4.08596509693142,0.40161590886698
