"fastcoef_sq","pref_flow_den","slowcoef_sq","soil_moist_max","soil2gw_max","fastcoef_lin","gwflow_coef","jh_coef","slowcoef_lin","sat_threshold","carea_max","smidx_coef","smidx_exp"
8.34569715148481,0.855173476851282,4.35439874677567,2.67217143872464,2.67973197302364,8.03462323513996,5.02409342845772,1.36538538753487,6.77740788539796,6.5579800374023,0.565179055931994,7.60672901842834,0.401784606963257
8.21336467875967,1.16929500850561,4.5060926451933,2.85650373950129,2.7310029647681,7.59563942146816,5.06438808508694,1.44211988861401,6.43729375811305,6.46859370713958,0.741697976210635,7.42556814399827,0.409008284768064
8.27081472147811,1.0779448830711,4.48457756777988,2.81246774039582,2.68569074869517,7.7175544922669,5.03810257928142,1.35661185227855,6.49922136615032,6.49733156547795,0.65718146899512,7.54703484777253,0.387411015897392
8.23278042352306,1.18506874120388,4.4809475052674,2.86965155596031,2.75211263776054,7.58452180649297,5.0755732997043,1.40782653978225,6.43033941642209,6.48366971087157,0.714430489200792,7.39335382356361,0.394389166674825
8.19735574131326,0.927860623695183,4.35258998631362,2.53317623945875,3.02663390121688,7.92250387546736,4.68983846175902,1.504003346663,6.87759172347968,6.46240447988096,0.648017489089271,7.41672935097037,0.483446047717966
8.54546076277345,0.62240738758903,4.45184309239172,2.66880984851681,2.16579053388383,8.44597670046001,5.34700916438551,1.2672383805727,6.81362526167106,6.6934229461608,0.373592917967669,8.04443194466916,0.408376109491713
8.2209629481531,1.29117534960336,4.44585900671594,2.91377304982585,2.84138679519131,7.48879169908711,5.11218824088219,1.38699142094381,6.38458476508527,6.48129021228547,0.720613511037397,7.22397897039869,0.386558102834025
7.88803106951765,1.077181681963,4.60226355807029,2.48246941213886,3.32314558012806,7.58183462046015,4.70127703963267,2.08425304850192,6.88402793460639,6.43439435751873,1.1755128486591,6.90085348680313,0.510602500766968
8.24049201499953,1.09591311963057,4.30727245697394,2.73615053311557,2.89660500961919,7.72287958319355,4.80119182628036,1.235875203723,6.54384238177219,6.45473799349327,0.49708846674277,7.51411433477479,0.427237131505348
8.02624014950884,0.953041870478671,4.50496928944933,2.52981117648578,3.04236105432544,7.79840579465175,4.84648627589523,1.89046091410413,6.89865025613041,6.47290463126132,0.975694073513958,7.19877866692098,0.491293752824613
8.13748953185077,1.50991104571378,4.5274458486518,3.05612539007394,2.73801035925254,7.23138446866088,5.30995491598034,1.52013804556171,6.18305832689212,6.41089525084458,0.846158342911856,7.09140507475205,0.436336062501594
7.92751380042108,1.16253015382345,4.78161711428752,2.63653978440577,3.0156982702185,7.52246568457224,4.96529727933813,1.96890738963014,6.67341240308971,6.47371114267698,1.17911615926051,7.06161648551684,0.439155884924444
8.15586086473524,0.991003630570648,4.59690798540808,2.74014969211994,2.72125455755804,7.75620111489387,5.08756879234423,1.70372647899736,6.65538562545162,6.53320271974445,0.925516255147831,7.43352578698848,0.41424202162981
8.24696124816642,1.2749070014501,4.25932773077344,3.1978868816232,2.83285147980508,7.21223749425912,5.17147486947576,1.73957767053855,6.16020716967818,6.50371624816958,0.875392165018801,7.17287254500831,0.505545470654234
7.66682960502815,1.07195209171677,5.00109004564777,2.37081675710808,3.33309091742335,7.54860063565654,4.76736248672505,2.4748186228792,6.99122937572124,6.48521085590782,1.56940299105474,6.76887328728179,0.488596571546751
7.65018498453689,1.09632419683022,5.02423406318405,2.37222315819835,3.33581364465055,7.52292575946786,4.78703405559868,2.48477363004477,6.98042772091395,6.4852259714344,1.59450563309869,6.7389671544924,0.485354039416763
5.79628838413612,0.829087616531726,6.67988745149707,0.878846527537046,5.17375779608137,7.2556023759557,3.74868888015913,5.97522723904321,8.63614924415011,6.39619267747886,4.36131000277248,4.77256390557016,0.858233129236742
7.5690578673127,1.06372995252192,5.1299302957781,2.32838968705547,3.31622460849313,7.49956042861957,4.75742463959855,2.62183862786926,6.99400077023531,6.46069345644443,1.72023292281346,6.76311546508968,0.501200667058931
7.4925224949568,1.13271255530755,5.45437568777252,2.42941570361878,3.1869000930272,7.40543663069027,5.04084218597714,2.93783526365431,6.93337138963642,6.55473661197167,2.07519282734205,6.65522100301024,0.434782961170965
8.61280907107709,0.873582218958896,4.22684226280481,2.71588537620495,2.4075332769209,8.09049016690923,5.33187277371984,0.783134931307481,6.63996124106537,6.52412255121639,0.150880022571,7.60845494628717,0.142558152384138
7.46768598719968,1.12372522928749,5.50305476388015,2.43089367964651,3.13319815254549,7.39807827069736,5.06980806185915,2.98817855468509,6.90931156068317,6.54195171789637,2.1077053458569,6.71920731650853,0.477914597252431
4.95289833084975,2.31358639333275,7.36636414848294,1.4312955796565,6.05075315556657,5.17526791064232,3.84797211755353,6.70106272751904,7.60881025789032,5.99591571407204,5.65805951543223,3.2611008771313,0.766176235603822
6.65084866697318,1.64584111635804,5.80832959304729,2.00679319509526,4.61791013464391,6.59643479522544,4.17287746845338,3.96909449181249,7.26851789406304,6.24439679062351,3.06651006050612,5.33423635928378,0.614176986889345
6.66476042806403,1.22797961382584,6.46148268697031,2.04010043471975,3.686011549674,7.05103078557167,5.03375663782038,4.54904742811626,7.3427165506051,6.58265298146251,3.51994925609499,5.81248807708478,0.556775714634934
6.5790323921839,1.35704850158788,6.07385784878926,2.01371841396953,4.44901828422761,6.64088384943146,4.28429258176907,4.35452548019451,7.2428350539287,6.41819621156373,3.24327479800319,5.51798114096548,0.611519650116791
5.74983263384126,1.04640840150471,6.75648533599929,1.49132596661422,4.71618079245608,6.51250935804752,4.25276476040846,6.10085860930693,7.76616115568368,6.40034960328639,4.58621908102732,4.84381680708608,0.767688092417444
7.57459066319707,4.24250723613549,4.42209103020889,4.49611779879172,3.42278837693114,4.31913516690674,7.12113240322727,1.60666958279726,4.29130633158449,6.21833686277097,1.3876262888563,4.08596509693142,0.40161590886698
