"fastcoef_sq","pref_flow_den","slowcoef_sq","soil_moist_max","soil2gw_max","fastcoef_lin","gwflow_coef","jh_coef","slowcoef_lin","sat_threshold","carea_max","smidx_coef","smidx_exp"
5.67037352699984,3.10108718184253,9.08759690240109,1.12471459553946,8.98228874874566,6.03616286759232,3.00174235989861,8.34654630055934,9.64003475673652,7.00190853721739,6.78952612895919,3.15492580966283,0.972170748368936
6.08096041500909,2.95573392668843,2.88325741717875,3.85328510783943,4.6669602222543,3.43341642823697,5.1266767254784,9.08614910438531,2.64627092395631,6.26791118688563,1.25187957033545,3.22577296907726,4.83591017499492
2.31069140319113,3.76306615361446,2.05862623031574,1.33593438220269,3.98382225649704,3.83571778845645,8.20750430893655,7.14266233169383,8.95087127731893,2.0865521906455,0.404118338151744,4.44254597766947,7.47726451664188
4.83717253123303,2.98770960746703,4.44916595983418,4.24922050267854,5.01968096218224,3.99052929726914,5.2086940851525,7.56743290885071,5.00063213296084,6.07396259752356,0.113033580764047,1.47231519941737,3.91223194778409
8.29394944353105,3.36529753426567,2.8599897319294,5.96418370550183,2.6260693308857,1.16199438843425,2.16591000841662,4.72523945218882,5.05921620017878,0.829659115582943,0.305091570512463,7.59414193687437,10
7.94466821587429,8.73217899170235,0.968313542378235,8.36990663654826,5.31719676150846,8.9055217852777,1.91336452473757,5.92501875884719,1.93906234970692,2.95236158180402,8.16510936637666,2.46422968348974,0.630456069553996
5.68257287905219,5.42583054183588,4.18897869603924,2.8815393504435,3.76561077522984,7.71201477168318,3.24118186026419,5.71369183542541,2.89278813041469,4.51825790962488,0.654038339853158,2.19814262001392,3.41947361536073
2.19160793448008,8.56874161257531,10,5.91583748100474,2.80652837956745,9.60640784667849,2.42774212777968,9.9280536686463,3.96435140521725,5.70128092233922,0.671597889294293,5.2186564092524,1.45408699156312
3.69519847709457,8.54895290807265,5.63918254619444,3.5100801717235,3.79106225835449,3.28490533175345,1.35709728918079,4.69896628347783,3.94943910064857,4.20082550138988,0.263852553139828,0.85488719486253,2.0894747882624
2.56357987703033,3.90853247362106,1.78946338270268,3.76816150556528,0.388547935628614,8.48811754996692,9.56186595580154,5.52772526296421,0.118669576293603,7.44937007892721,1.07284128679273,3.7931079289303,2.10901261997567
4.63747253283831,3.58921610070301,3.73495891241966,2.29537477748227,5.96832318316744,5.25068866677535,4.01951922264245,9.56421657032929,5.6582842002662,4.955293021655,5.13153287989899,1.4002353010021,1.66320347243
3.1976327713022,5.38387687429581,3.1350811506151,0.865268942634533,5.47163450524252,7.21857419119103,2.19880993300734,3.92112916377828,3.48612652274526,2.74547705068284,3.2481148345344,2.17879703630922,4.87643779237734
3.46911312063425,1.36300381088465,8.50387017093998,0.648103962166215,2.18747842503741,3.4692759842997,4.44604236594092,8.73970354196631,3.29245457879761,9.16220881230041,7.94413516062543,7.11399362186082,5.32466127713974
3.75751257302785,9.16469454704404,7.97333270043536,3.6849710899629,7.8249163298233,0.149174946714403,8.94866501496066,0.470713820800491,1.34721913758836,4.62005613052823,0.760466706056921,0.833624970679223,5.92549611959382
8.98455435286533,0.511854035939756,2.57767914354721,7.54479386655258,4.62083427134742,6.47483242191136,3.10496015009399,7.98274406487686,2.61694362063376,5.47016081056169,6.09524940945932,2.57908010492555,3.62779652283769
9.50381627797412,3.13300179166128,2.47335279660674,9.03105861594143,9.8049637214483,7.59234411475955,2.85446940326425,6.39817077058365,5.60227537368526,4.31700679938202,2.35649555122626,1.82384617938845,2.6781371096122
6.01901567523432,7.0636060406653,2.15953337349799,2.55348430859598,4.61095200888084,4.22275227060362,2.50395631978364,5.68973776533307,5.95713292724986,1.48426825095922,2.50277621390574,1.63015567683721,4.06280577156854
6.14040383934324,7.18737892570199,5.76185283007955,3.13467027531911,3.69506226021637,5.62085171747632,3.95892351560697,7.89484641264035,3.41384965104489,1.49287648513187,4.03872987248972,2.16516250887251,3.7307268306434
0.568893509685763,4.57648533547924,1.53225159227092,4.96134951122204,8.36436786909982,6.94121424000929,3.87498872026531,8.21765373055133,5.99358412812894,7.40583456623042,2.73274234043611,1.98677908859368,5.67209296727676
1,1,1,1,1,1,1,1,1,1,1,1,1
4.65491556905693,6.58113006350947,0.293068743920046,4.52290221381599,5.32168101015337,6.20263099814482,5.74198689869817,2.96722710323298,4.1177953705839,0.843453460548088,2.06873820956261,2.45618558336857,1.80165393479819
8.11660569592524,7.5149073705548,1.96254096746597,0.311988495281596,6.21489280614452,6.12706386139902,6.33049906216836,3.50684485549887,2.27913934991708,2.41772534439582,4.91858382488961,0.756561239128215,6.80523398426054
9.64966981823265,7.24255963672405,8.38371853125229,1.85790603244101,4.78358937624638,8.14970721335407,8.85562484997047,8.08483357469974,7.78791735681522,4.53786613864334,7.25682728865524,2.92677742392772,3.32740865653912
6.37410246842853,9.31104384552312,3.61426670607906,0.817268134908989,8.74038881465473,3.06620211962818,0.998188995376888,2.48997772129441,9.95036652030849,0.50028225937926,6.64207569767111,3.91347669561496,8.00981502560145
4.54149386655384,8.50540119014484,3.67220346973578,9.24996787708192,4.42258997111459,0.568458836971366,3.47567770431391,8.5604182561149,0.553886821684012,6.18998230092125,7.02348307490291,8.04554612833051,7.79165824858587
9.30105490035524,6.44572118319196,2.79364372266803,8.0686052022261,4.58200019868159,9.1733274196706,6.88661037733455,6.52861981778759,3.12760561412913,9.61534228871695,6.87835854359206,8.33317826263405,1.91250577766431
9.1050459258818,1.49580428601157,0.901401583616511,7.53671698403671,4.51667292072895,4.65115293734461,9.19262810320362,0.946194605016412,8.81811128873936,7.2577941755448,8.7933561496064,6.27932797737003,9.60514624304629
