"fastcoef_sq","pref_flow_den","slowcoef_sq","soil_moist_max","soil2gw_max","fastcoef_lin","gwflow_coef","jh_coef","slowcoef_lin","sat_threshold","carea_max","smidx_coef","smidx_exp"
8.72750124283532,0.292646732861287,4.73257911924763,2.85187983082738,1.21661342145485,8.79595223281649,6.18483488266032,1.4999466309002,6.72202122612679,6.97644227197634,0.646788768381529,8.60914145567941,0.33918082207385
8.89031390190181,0.437721682572052,4.71089106650362,3.03777420231968,0.907368000810069,8.85395571693524,6.9021322785408,1.36034144595992,6.66685192338353,7.22769405194134,0.495097499822362,8.34902686470471,0.222984096015744
8.6395259212993,0.413610883273433,4.7338089582378,2.80675008596981,1.30314127338714,8.66545874416864,6.21450272531416,1.38362872318306,6.71554643428778,6.91496569632372,0.616530065557047,8.41792163780211,0.288518236862722
8.84966705114199,0.426908258805013,4.70217617850573,3.05893804514989,0.712996816096388,8.85297971597337,6.91811682412198,1.29283156288484,6.60333573948505,7.09230710296434,0.530948610148818,8.56780757395775,0.25873747472885
8.93452397656633,0.275392116323942,4.64907358017282,3.02779891113782,0.863729959936066,8.97269691526228,6.59573290057592,1.41428634234242,6.66228643185401,7.12504476647135,0.525125178893879,8.75080122372648,0.343585022009752
8.87988395670085,0.303548282022547,4.67137471785448,2.92482678317301,0.954360917843091,8.93695116760999,6.64090707375821,1.34432016682632,6.75805746429895,7.10882263374231,0.463488551769546,8.56799976823018,0.270627325014242
8.7129086388962,0.50092069641758,4.63212145348271,2.96922741972501,1.32781481509161,8.58354353453644,6.20705760029917,1.4401980813593,6.60992728892218,6.91488293750468,0.609592210650445,8.41603867855181,0.353013007733483
8.90751686308316,0.279239097505132,4.66319685207136,2.93984694724988,0.881163528873689,8.9832168888127,6.69467030587905,1.3133368872336,6.74673616409715,7.13548623757847,0.441610577910613,8.61798231369004,0.267197380103843
8.85909080124641,0.431058581163607,4.66063410882641,3.01446689021943,0.931437510997252,8.84693949041716,6.73364473752875,1.31097072973771,6.65234204206567,7.11979440565553,0.495622063006342,8.47067346314906,0.273834600742309
8.83383564926682,0.450634405830317,4.6796096736721,3.00582941554547,0.993812063760455,8.80437347362559,6.71033504315421,1.33079254061083,6.65254752975811,7.12708515929162,0.508023176596156,8.39704827235515,0.25826514134246
8.75700937311076,0.507248944352317,4.6356187981216,2.99716157196662,1.15936727656279,8.67067433790011,6.41906072388586,1.31567322427712,6.58697622721898,6.99124708249106,0.549132374262288,8.42849508527432,0.30979950485227
8.68780927907764,0.577286089272443,4.72859077348916,2.95131420422168,1.20109957919845,8.6145039959412,6.65760093152426,1.40539975392435,6.68781497624443,7.05160529358046,0.594121788136244,8.1108619141989,0.230911888576867
8.78533447450725,0.59649524975565,4.53010149453329,3.13718676443869,1.34884670930117,8.50171557526681,6.20311424086731,1.508791928414,6.49885364150978,6.91670626416274,0.620506487632523,8.41588640765469,0.428118939509511
8.68924485534427,0.448775877952585,4.67225780456981,2.82682921339661,1.45218797774338,8.64734719452584,6.15483052588425,1.3724651342676,6.72711890636526,6.97310262695921,0.54245449120091,8.29716758595385,0.283848085865565
8.81123671651278,0.498232830135878,4.65262669138332,3.01204932660525,1.07409895238695,8.73779870533145,6.63784765768177,1.31848193059911,6.63305100157905,7.08946211089873,0.505561470800343,8.34971855922329,0.268097935133697
8.69811055955065,0.440875666874614,4.66150434184011,2.8235386518668,1.44571730797847,8.6633496867385,6.15018931041786,1.35551802208527,6.73208977997321,6.9721957436819,0.52711220147006,8.31177074675934,0.284709462729064
8.74570693007895,0.62542547409429,4.52822115569034,3.09996587093261,1.45404525186326,8.46269246730474,6.11527309048127,1.50890375391448,6.51772288193965,6.89331334853584,0.633253899440427,8.34610092252874,0.430507395634515
8.77678327549752,0.490950845509485,4.59844106733922,2.95812942888773,1.21855756698755,8.69032902019974,6.39505285108497,1.25655056925209,6.63023252302187,7.00518619481094,0.458960347326647,8.37473418005808,0.283571487055502
8.6958220351729,0.534326240158519,4.6524713543721,2.90708989613889,1.47563724257958,8.59186961164821,6.22666858095511,1.46952990287827,6.69607285218939,6.98424158647215,0.586156468587729,8.17767553899581,0.304475229707534
8.64172728515524,0.668185558061568,4.63646250838086,3.01894227801586,1.35919573486334,8.45743412704019,6.29884418087094,1.31954747867436,6.50916978058209,6.92753032082989,0.61101660985674,8.2076865969912,0.303746606200573
8.93577602419831,0.677349861693392,4.55531691084681,3.29054203254852,0.777730817345156,8.67631587467592,7.09580869299527,1.22831483901274,6.4403869552237,7.16118886357213,0.438692893817706,8.30490567180726,0.266399015569258
8.71400455954673,0.469653363367838,4.64663669129682,2.82642310503289,1.60758861894007,8.63722224544452,6.09682612706528,1.42067622921219,6.76373331371443,7.03732705287358,0.515323460778163,8.15739904657455,0.281357380842205
8.78021480694035,0.865258901698185,4.42933260065893,3.32456935826785,1.15282378576502,8.39743281846666,6.55698403703782,1.08024239655111,6.24580975402563,6.98735624175007,0.450462435655294,8.20281576796204,0.322903294745261
8.68010294444758,0.83923052724161,4.54646478735713,3.06652129443888,1.56321404132499,8.31522707660035,6.43728706982148,1.29697263856654,6.54737085511387,6.98150649431215,0.484264623260395,7.81332438255631,0.252436160299064
8.6732264006467,0.640822675193156,4.55135708284978,2.8822418404733,1.79449641350072,8.41910153856398,5.94031817114312,1.32292887405278,6.65208972674257,6.92899266424875,0.474368416164079,8.02754776432341,0.296591644707659
8.7699461076727,0.867113908658153,4.42333226813318,3.12950960460267,1.52937291153827,8.32977988208795,6.3890736506338,1.14478382377136,6.47309684028444,6.9492003142223,0.37310873098641,7.92206406919829,0.290365418236899
7.67981024576981,0.680355744924553,4.14469302251275,2.95444090618326,2.02153447215326,8.14886431024923,6.19986908835986,1.48101474724762,5.8253300865457,7.25309603767044,0.844638158071041,8.27134879628789,0.947521971354329
