"fastcoef_sq","pref_flow_den","slowcoef_sq","soil_moist_max","soil2gw_max","fastcoef_lin","gwflow_coef","jh_coef","slowcoef_lin","sat_threshold","carea_max","smidx_coef","smidx_exp"
4.91200012577743,2.10136977838426,7.47073727078379,1.38024513831834,5.62937096973029,5.39318923904594,3.93647240160462,6.74742663152619,7.46344209180674,6.06265004275388,5.51425784865085,3.438196771933,0.844967441473711
4.94481839990343,2.17591144114019,7.4496841061545,1.45235294565223,5.72920071915154,5.39138436500282,3.87863312527554,6.7655370170283,7.53134383318833,5.97758206481903,5.52652733705509,3.36946239763103,0.786161734352484
5.29821616283844,1.56524036964333,7.83016894191457,1.60827804341837,4.17960917089116,5.99255241257028,5.3548656434247,6.88912125833503,7.40970843429799,6.57504059355842,5.55962881008219,4.26072039435813,0.741984206297597
5.29976785665723,1.57145509263487,7.83097200906843,1.60987074120153,4.18002434667722,5.98898598885302,5.34808814399656,6.89043620715819,7.40828670428628,6.57729426102197,5.56170747121515,4.26272846890608,0.743096734829136
5.2973581406895,1.56491328196642,7.83079794590398,1.61048058461373,4.17779013865841,5.99279362447002,5.3543743440306,6.88723348999932,7.41093354250469,6.57336517463105,5.56001106646586,4.25975947157091,0.745586397972523
4.50278014524988,2.5758153863819,7.06569767680082,1.09353594665459,6.98671656155924,4.77712215069424,2.50130676992396,6.5099097254195,7.48002606755239,5.50143140291305,5.34214459671939,2.61619435724713,0.979128061276702
4.97892027396969,2.16527172239801,7.4660510183186,1.37518018735829,5.63958399136396,5.43519278586044,3.95158552417095,6.7727926444606,7.52232245291347,6.04580268965697,5.47436758174307,3.44830355825321,0.908412473967908
5.30849795045724,1.58443179459358,7.82393501260006,1.61795068519635,4.20607782991745,5.97732513904063,5.33734553467763,6.88265950269241,7.39824421235484,6.57489421189937,5.55953105333405,4.24906134974652,0.759046056119459
3.9075158244707,0.679117571771447,8.19415701608902,0.560480785953102,5.55717893227355,5.43406086993591,3.52545845797514,6.85081764894971,8.19611903437498,6.55553071183285,6.83930304048188,4.28712290823657,0.66372411489679
5.39257784017564,2.09124450004112,7.36482909158569,1.74034105949893,4.9024726437951,5.58500548856565,4.90756275024913,6.41985788641365,7.25592011704377,6.27306060948388,5.1709686501348,3.69205401311726,0.68286716670487
5.22874174908287,2.57427843769726,7.85757934476227,1.80669096183421,4.57243234803906,5.17790583936477,5.73931196604521,6.44460174211916,6.97002839967688,6.28432048738827,5.42022232707061,3.24185689405961,0.48855361926125
3.97277857300323,3.47080981872599,8.93212170382594,1.68951010298855,5.33807830261002,3.5421701485386,5.5307219590052,7.33150256159184,6.4311186474783,6.05349202423996,7.10114306396303,1.75977783008654,0.45203538029929
4.91264801181208,3.12283004727617,7.64387937936376,5.55455204674744,2.38884605366737,0.823443626727881,7.30359107976083,7.39988337212905,1.82511976370781,6.20158802152914,6.56998145455807,4.43119109062058,0.242318923152372
5.88551760780137,1.65659178788907,7.25317287141372,2.84368192168344,2.74043972827075,5.19239154965938,6.39700005410503,5.97421233895083,5.77547623219578,6.55452078181141,5.46373353781875,5.12696830017914,0.21171144203733
6.26325190685017,0.212337779136823,8.72522727827045,2.17261806069046,1.21901587533301,7.56772116301391,8.22799000776856,7.34198490473455,7.31724785096818,7.88213888725459,5.94886917903634,5.70842663950753,0.191560102502586
6.18088710146738,4.45943861663062,6.14428759479881,3.95713642624916,4.10199997855171,3.48076666546582,7.29744022598809,4.40014993434981,4.72742488573013,6.25359473489541,3.8439110938758,2.30017741150922,0.455581510899041
5.53924627998534,3.26674778608741,6.79239064314574,2.65942216382157,4.83911727918269,4.42529546941609,5.6154718499855,5.55100593593982,6.08531740262374,6.1443556463755,4.64158313468513,2.86820426993065,0.648324073659099
5.77973521097839,4.96747685043212,5.75385966096704,3.71120694620428,5.49835263562917,2.85759974113447,5.87646936950588,4.2130946941869,4.76049706892921,5.71472349710678,3.72245539156836,1.47576285347708,0.5534364740903
5.77731695110259,4.96466964453563,5.75184366977108,3.71226170171153,5.49602780678347,2.85940369294858,5.87582778430181,4.21374185714015,4.76292674760796,5.71658066140714,3.72293242408679,1.47724467412511,0.552863981371698
4.72242542728019,2.89922459096329,7.31279169915867,3.36235658488572,4.67546382660651,2.85128689203521,4.8794610710726,6.91758493425332,4.68267382448444,5.84485099782505,5.90552465880169,3.4948378930254,0.666266237710855
5.11535226632638,2.39049480966205,7.69676005255024,3.62264167813413,3.27404021494989,3.45983162086299,6.30826164138068,7.11064916406594,4.64761102930224,6.38243556268432,6.01623994974182,4.3156510341788,0.549235504964483
5.02099791259365,2.29529913556634,7.70775468829267,3.54321895310777,3.32330668464256,3.50246908450624,6.18186292917568,7.16582684291458,4.80186092949912,6.43206631870636,6.07657699815003,4.23526905567174,0.74626230839605
4.47196888830988,3.02736428943516,7.1759674728547,1.29737299787761,7.59139611568992,4.8528449209706,2.37793836894523,6.85301458011854,7.71349393808889,5.46371184982757,6.26650991254681,2.77678382588599,1.25444683477252
6.25779048252155,1.81432319413773,5.53713380447386,2.57656026616782,4.88967846792682,5.58982426963051,3.78850264849085,5.09875865294072,6.61211117428544,5.94596042552812,3.60209698432775,5.01052979877394,1.03423116482817
4.78702441240865,3.00782527012225,7.36686980136312,4.06838099932523,3.87025015122268,3.74191082908908,5.58020522037315,6.7648062943729,4.705502087838,6.70929416951488,5.98243125730718,5.06405713301493,1.49767307563382
0.316453855952506,2.20473009819865,0.697388854386475,3.02406675924621,7.09986746088155,4.86813679217625,5.85062158413098,2.20729137974709,0.198702284151898,9.46374507350141,2.98397632365525,7.22225960224909,5.3978051198017
6.87836660491603,7.40706958919988,4.35960449263791,6.17976785718761,4.15988600516711,0.920715841546572,9.20416222717312,1.85672731331597,2.08339129701866,5.93934216006399,2.11807110871749,0.624895346090309,0.415820801836568
