"fastcoef_sq","pref_flow_den","slowcoef_sq","soil_moist_max","soil2gw_max","fastcoef_lin","gwflow_coef","jh_coef","slowcoef_lin","sat_threshold","carea_max","smidx_coef","smidx_exp"
8.55024370721468,0.102170205836408,4.92389887282274,2.61696231943907,1.08414370348707,9.01214341991667,6.07243155159054,1.47034001357207,6.82460376749443,6.93659118240912,0.876180004196173,8.88434024773834,0.398940407134246
8.55020222055986,0.102165721473985,4.92393872988525,2.61692048847657,1.08415332344174,9.01212800784404,6.07242346916832,1.47032683421479,6.82461229623721,6.93659040177092,0.876177292225897,8.88429641693475,0.398897409054994
8.55102912758133,0.101727715677526,4.92356516694263,2.61716015405322,1.08435892867926,9.01142649016272,6.07143324753582,1.47061639589281,6.82424098321542,6.93608466695168,0.875321078627111,8.88538066225969,0.398792244915588
8.5505335150943,0.102290911553508,4.92334957950851,2.61723419180221,1.0845755455766,9.01256148017069,6.07215203155785,1.47047238097992,6.8247937359411,6.9366065400146,0.876591189247375,8.88466045300139,0.399820853201045
8.54625115861026,0.101867136688354,4.92719053948117,2.61269980714214,1.08528967586401,9.01270074116543,6.07276376206287,1.46869540668336,6.82678857518607,6.93720305218329,0.877066186544768,8.87983783739412,0.396304126797708
8.54611116715856,0.102287850107932,4.92638018704623,2.61243256000847,1.08696261679885,9.01399457006747,6.07234582541466,1.46866230322993,6.8280207895472,6.93750293771966,0.878366126795329,8.8791470285088,0.398089546286928
8.54625098583086,0.102336835728589,4.9262407402267,2.61259012191318,1.0870057821396,9.0139209068456,6.07229537681645,1.46871093744639,6.82794071493069,6.9374837039008,0.878286267884074,8.87921281228553,0.398152564242125
8.54470017436909,0.10229097277861,4.92744090161503,2.61106256091111,1.08736310500467,9.01433428776928,6.07256247783913,1.46813609191965,6.8288046235854,6.93776995816798,0.878903248200054,8.87756218035195,0.397399527729357
8.54991994967094,0.102213735767637,4.92400159041673,2.61659347027952,1.08452355261579,9.01241963885773,6.07236120417735,1.47020883101278,6.82498028869542,6.93668488644527,0.876482238593937,8.88390770872513,0.399067798838304
8.5497955652269,0.102207861001634,4.92412434017372,2.61643740532075,1.08458095244704,9.01237957821547,6.07239644117558,1.47014843680496,6.82505688725583,6.93670721574255,0.87643345859056,8.88367800465882,0.398900739419135
8.5491535095717,0.102248893894367,4.92456686229852,2.61562292004573,1.08516042713982,9.01247473218463,6.07247619311303,1.46984362505047,6.8256666130151,6.93687150913255,0.876494385110658,8.88248291776875,0.398474423318653
8.55134170822522,0.102189839179583,4.92306337686403,2.61815504970807,1.08367779570649,9.01190859629881,6.07228510333596,1.47080627571469,6.82387730509587,6.93637182442969,0.875885457452691,8.88575433175962,0.39957194041072
8.55123072758974,0.102159121860927,4.92323161923169,2.61804812784678,1.08358478040556,9.01180334983951,6.07235385876441,1.4707594360739,6.82384767262735,6.93637217578903,0.875789960869069,8.88562816873836,0.39932516149343
8.55116288318177,0.102137481405827,4.92331438831984,2.61793877164538,1.08361011663056,9.0117745550569,6.07237413613649,1.47071748433631,6.82389742888477,6.93637952852984,0.875741755296538,8.88550427266587,0.399208425592538
8.55203464369854,0.102192297729858,4.92257224618683,2.61891187240336,1.08333692694333,9.01168822718393,6.07220380708003,1.47110230919506,6.82337120612878,6.93621936216254,0.875635101788887,8.88664281604605,0.399882110443296
8.55206228041577,0.102122727091531,4.92270668233086,2.61886752202303,1.08318147614709,9.01145810008193,6.07230525324972,1.47107030663799,6.82327471885229,6.93619212647113,0.875328378079096,8.88657408479099,0.399517157061564
8.55370326047128,0.10207077228519,4.92162655455269,2.62056257176798,1.08235030280259,9.01084621899083,6.07216205265845,1.47172260509602,6.82209829570903,6.93582901440272,0.874555548083342,8.88858184373527,0.400043900415603
8.55331993310423,0.101982190254988,4.92201207295929,2.62016155152898,1.08229325050955,9.01087694626831,6.07223400784978,1.47158469724118,6.82223842616598,6.93585969324435,0.874634906663582,8.88829027307024,0.399733436134676
8.55319218023979,0.102032284054375,4.92257183877938,2.61951458572514,1.08273772765021,9.00968392128716,6.0728442644274,1.4713360803111,6.82249754442845,6.93595196585958,0.873044380232205,8.88624402593958,0.397827046862563
8.55158547364356,0.102104897372049,4.92331942409471,2.61808020722169,1.08354274177422,9.01096422718119,6.07264621604198,1.47077763705317,6.82367240108589,6.93630463134116,0.874660928360444,8.88509379082944,0.398334933404547
8.55236714186998,0.102126490180225,4.92264863562118,2.61901555100671,1.08312334045051,9.0110562130155,6.07256374851977,1.47114629550767,6.82317896398656,6.9361811511234,0.874743096732575,8.88634167087408,0.399098079376499
8.55014384042606,0.101935995475131,4.92523711675674,2.6150533619194,1.08557288628561,9.0090998240191,6.07334436760838,1.46971531427202,6.82540923756786,6.936602406957,0.871951313133848,8.87966595983783,0.394204635066931
8.55480734353878,0.102177842282769,4.92066165553295,2.62195023027397,1.081833530299,9.01079056750989,6.07198187198249,1.47227502013435,6.82130455810607,6.93562069492443,0.874584669595412,8.89022598537064,0.401033464458096
8.57407516336613,0.10282946441556,4.90710732498736,2.64363964310496,1.07063251210427,9.00576652373348,6.0731309066858,1.48034996563189,6.80758948290072,6.93241445468344,0.86801024109631,8.91379627843723,0.409596513839995
8.58167583350047,0.100138089650031,4.9058503727904,2.65039773262088,1.06252802530734,8.99724431674171,6.07191469022557,1.48312959603546,6.7985109471844,6.92897336912489,0.858613532076907,8.92485341407327,0.40424922783785
8.55728243602243,0.107775911462503,4.91684093715984,2.62913291555887,1.08420409212255,9.00077257895232,6.07008032850705,1.47393049005784,6.81434123739909,6.93320212062827,0.870257081475054,8.8871410713884,0.399363294984906
8.11425270869758,2.17183059798063,4.6475485647892,3.61339984163544,2.20465882390253,6.65051420819402,6.62905980828051,1.56154678675716,5.52267901381464,6.57541973083854,1.10505077458594,6.53603705461739,0.404561617387431
