"fastcoef_sq","pref_flow_den","slowcoef_sq","soil_moist_max","soil2gw_max","fastcoef_lin","gwflow_coef","jh_coef","slowcoef_lin","sat_threshold","carea_max","smidx_coef","smidx_exp"
8.46864296174679,0.84924256038195,4.65055740493021,2.88817779851739,2.12079818341815,8.07243932119968,5.79113211873095,1.53262088254702,6.57927132744084,6.85400581296378,0.680574652672344,7.65393092317668,0.307794241668152
8.41215989906639,0.888896694865522,4.46430002526798,2.92401476638975,2.26886995865801,7.96319105317689,5.36367828131337,1.50252600340196,6.528581779726,6.58796319605377,0.696950745560991,7.84587060280332,0.433908352486615
8.41952304565046,0.912985017909166,4.4563402446888,2.93086689927222,2.26730890905124,7.9544100948671,5.37197381159971,1.47050537760447,6.51523179519651,6.58210013198317,0.679193127998064,7.8347077612547,0.43098536926218
8.49667228854102,0.827346466915034,4.5985561505516,2.87986385774923,2.13095519790582,8.10347577832627,5.74071571428015,1.46921618710639,6.58936795044098,6.84529275936757,0.616034246844524,7.69872889852714,0.310181916960399
8.44906095276832,0.896321518940713,4.43002727122114,2.9556230083243,2.23280352688229,7.96620330502446,5.38309978408206,1.43334700278147,6.49359216277632,6.58815764250078,0.641098724052241,7.88492401117776,0.427785957466848
8.54036597989595,1.19269293053709,4.50257766267071,3.44351756226949,1.3263815810035,7.99803281480928,6.37644123789805,1.21612346775042,6.0345367743252,6.75391210572303,0.766411980807628,8.024249718434,0.397295768255979
8.39790316846803,0.822798433591999,4.67004495538729,2.88128040901931,1.97307137061614,8.05591229556972,5.741550723568,1.38120008938562,6.78670730144028,6.83938440570759,0.488913655771762,7.91923780291293,0.101335540619624
8.5729524345803,0.872029100654677,4.30934305583851,3.01973639982954,2.0825253169469,8.05936327546406,5.45155416857097,1.24371976343211,6.45267837379859,6.58488285412956,0.480916451123711,8.04680537037579,0.424341846469216
8.49888633360249,1.06178056394383,4.4394601949403,2.94023613130238,2.17975014321415,7.9527915561561,5.63976197131914,1.26144240492385,6.47617329357496,6.62667113173914,0.555756056933937,7.64936720901662,0.332153655350053
8.4438205247123,1.18535154371168,4.38572700761386,3.06614963404758,2.26617667741997,7.74434648729636,5.56363675649878,1.30515444467623,6.30558242456821,6.56400143571562,0.611049539449689,7.5804231992362,0.385427602168283
8.26726796773406,1.00214474073672,4.45702353495828,2.73548911505655,2.72863999856689,7.82984681392654,5.0213369970473,1.42239863964791,6.63985048511497,6.51814487404706,0.672760707777766,7.50855757254093,0.401178691979521
8.27352431620002,0.977911779447101,4.44921733397966,2.71843856188872,2.73143803237925,7.86005528247275,5.00655148769772,1.41852954811659,6.66530356452713,6.52264456695107,0.662516347448374,7.52452333963975,0.40126204904004
8.29760801331395,0.992887016822884,4.42874214702185,2.75741434683156,2.69006716591002,7.84033783248807,5.03595833993533,1.36899544419313,6.61275237096082,6.5212152898858,0.625790758743827,7.5559543144355,0.395485425716714
8.32244373318128,0.967737799762569,4.39072868243547,2.74887694496176,2.68254297432773,7.8807687598188,5.03219312338285,1.33732340465014,6.63519818977103,6.52510418074355,0.584122228048659,7.57761576340781,0.396429645310506
8.40774893429556,1.48173956029947,4.39239779420078,3.27576605905329,2.54029066059547,7.29693874211996,5.42500350494257,1.18947049950914,6.01625310596133,6.527138897273,0.621291839260948,7.37286800245065,0.340903791137388
8.23702567140717,1.34594504840336,4.40051495175087,2.97764421772364,2.91608343495712,7.37407723891473,5.13099058198405,1.43977406997584,6.34032434289846,6.52444892483446,0.733792217052732,7.10408006267597,0.358892675982872
8.49575358551834,1.00539553189107,4.35141664620835,2.91571990494223,2.36515902083245,7.92552062893343,5.25627145789095,1.02354250916994,6.43421088483284,6.55322647818911,0.350305321170755,7.81835315049845,0.347236545072423
8.32333715367544,0.938254374082279,4.54759537084341,2.89000998638709,2.36885339254043,7.87747862419578,5.32010131789799,1.62421693133222,6.54067867802501,6.57253516991513,0.81738692166496,7.72381254885251,0.439756364162457
8.09811344916102,1.00585069229276,4.69037980892837,2.6644631120818,2.79533305878093,7.75658621545192,5.04077551836697,1.7677936036013,6.7060638595014,6.53122978055418,0.985311533311894,7.36246327895246,0.415427007885851
8.19664011640358,1.32933253897409,4.50267311162711,2.99485162461375,2.76892563599936,7.35337814899856,5.17622802824942,1.54449256263898,6.29284971739491,6.48597404781172,0.820705669133072,7.22803485119984,0.421088666540373
8.27607938759401,1.08351473809061,4.88981391203322,2.88484567361524,2.30167232144179,7.73442053786505,5.64672054266815,1.80657518736279,6.49070808656297,6.62959089470184,1.05519242735006,7.50023959432449,0.31749466314449
7.99329444805847,1.83260725340239,4.55866260589066,3.08292667978693,3.10036880032488,6.83955107569134,5.35138924697743,1.60487699372731,6.10240670601386,6.41378531189737,0.990796933961217,6.48277477154546,0.355092300333707
5.15375283722646,0.218998901368757,9.02200327812538,0.791113330506742,3.87381863806172,7.40802371252883,5.41694942203832,8.24754754079455,8.87670302351153,7.15828236395056,6.63093485660779,5.13746970720931,0.648874274341766
7.39847309017376,1.15832324071264,5.58818225225871,2.45109627418892,3.16700285807768,7.28975432187796,5.11908175012869,3.16650130864426,6.89267456411675,6.56423923681545,2.25626414049129,6.60373889848068,0.477153920381593
6.50750256868093,1.20681673582328,6.20001183419918,1.94142332446215,4.46136948020894,6.65369330864613,4.2028808460391,4.61561395315548,7.3360874653082,6.45826419424613,3.4078536107635,5.5942879586538,0.612900450862672
8.07885506380736,1.05479941478737,4.94515686171673,2.71755737940125,2.58684276505369,7.74022265007993,5.57128103825662,2.05779542559541,6.70337608329163,6.75267171029312,1.19805861536262,7.11140568410352,0.347154234355222
7.64532424777336,0.970945379898339,5.01892040891034,2.39182898565944,3.23302530318518,7.55749658778663,4.81524794878756,2.60095218220619,6.97709409395278,6.49939384115217,1.64359836721721,6.85265277010214,0.494493313471753
