"fastcoef_sq","pref_flow_den","slowcoef_sq","soil_moist_max","soil2gw_max","fastcoef_lin","gwflow_coef","jh_coef","slowcoef_lin","sat_threshold","carea_max","smidx_coef","smidx_exp"
8.54036597989595,1.19269293053709,4.50257766267071,3.44351756226949,1.3263815810035,7.99803281480928,6.37644123789805,1.21612346775042,6.0345367743252,6.75391210572303,0.766411980807628,8.024249718434,0.397295768255979
8.38521394311387,1.14435007305792,4.52498103164065,2.934741155258,2.31550207894828,7.80177339872969,5.58142302656921,1.43339277629804,6.45460164055176,6.5906711256855,0.71735992053706,7.4937147144109,0.356431914896827
8.28749829709668,1.2196283112861,4.51641166323854,2.94924837400923,2.54863622828665,7.59589041900867,5.36138852117869,1.48037028427575,6.38612501943544,6.53867879103252,0.765380046697182,7.37340591907415,0.377678172263684
8.49888633360249,1.06178056394383,4.4394601949403,2.94023613130238,2.17975014321415,7.9527915561561,5.63976197131914,1.26144240492385,6.47617329357496,6.62667113173914,0.555756056933937,7.64936720901662,0.332153655350053
8.28858276285832,1.23750948301978,4.50224394600361,2.96225961985962,2.56883901151855,7.57217004215014,5.36317460948827,1.47188452843547,6.37236385128007,6.54031580387047,0.760423846045128,7.34335301899141,0.371381647870849
8.40929906684999,1.23222745475613,4.43882379420737,3.02645690171343,2.38275207111127,7.64678804814134,5.50948433314618,1.30610923650676,6.3137112496013,6.54837594101179,0.62300887188389,7.48006061799122,0.348240728647225
8.34650057191263,1.19042396644569,4.47812800979185,2.93655580832392,2.52676083945066,7.6465663383469,5.33319682501001,1.45516057429651,6.39520656681307,6.50408930777242,0.718321620471654,7.45522677874076,0.379658737012153
8.57245993818875,1.40672952242907,4.34204772182975,3.20073484370756,1.97175248284154,7.76211379853348,6.0517425585457,1.03737914794314,6.17139301300075,6.59678462204424,0.461232054260382,7.40995871234258,0.322580844213604
8.57796229136768,1.04107593887593,4.10584412356518,3.01193460922059,2.26339991884958,7.97896141940923,5.38548827423215,1.08583779921543,6.41670355579961,6.53686476739282,0.356266634968492,7.77825352054417,0.453285658242936
8.34453521035953,1.49124023823122,4.35576818795712,3.11017135707097,2.6314094033962,7.30893332937518,5.36912415448898,1.20559780030725,6.13770942611744,6.43698626645271,0.630484655667258,7.20952241879331,0.351527362444463
8.31264498045735,0.724952614623779,4.61308228603579,2.71131522377475,2.53669349474405,7.97288269676992,5.00404099708847,1.66647388252129,6.66161473642367,6.57918943887333,0.779941989285069,7.82657902128612,0.403185653527411
8.36844158505362,1.16931428328109,4.44156601531389,3.01832739964519,2.39786322449794,7.67963987872993,5.54194573477186,1.60985812354926,6.38929574851077,6.55327095434824,0.778463623431546,7.50873253939577,0.440597177214402
7.97189960883402,1.22638458167784,4.79846479932955,2.69989936402014,2.87839304410068,7.50128764826647,5.20894625843194,2.03013869889174,6.63649085007394,6.50715354382488,1.22600384564178,6.96840635814727,0.415724399226208
8.18027512863487,1.29778212127816,4.50804757569388,2.95757123371221,2.78508987549498,7.39201163114974,5.12654557055449,1.53570258236662,6.32203535531069,6.47179593142009,0.81892910811128,7.25728948236436,0.408945701598486
8.1691659273121,1.33159941031559,4.51149882106112,2.99734603018218,2.80394786413497,7.31689880342496,5.16162220315199,1.55245194721832,6.27014022819418,6.48795901954702,0.844207687205905,7.19312175207227,0.388198220440335
8.0912232123156,1.26971610807958,4.71570614500587,2.83630964264903,2.75120911275751,7.46927757819257,5.28002872951356,1.83236640559031,6.48731369252396,6.52303688477285,1.06910162672872,7.11928217172847,0.391572051115057
8.06795822747978,1.34016184076119,4.68819441744205,2.84257282361983,2.93136169621217,7.31335581054522,5.23553291821327,1.89983820354752,6.4503923684875,6.46162108828421,1.05612019545636,6.95287206711681,0.397969808941773
8.27607938759401,1.08351473809061,4.88981391203322,2.88484567361524,2.30167232144179,7.73442053786505,5.64672054266815,1.80657518736279,6.49070808656297,6.62959089470184,1.05519242735006,7.50023959432449,0.31749466314449
8.135071237985,1.28970612838028,4.8349041307877,2.95770576062713,2.59508218409454,7.42293285613411,5.49245624114297,1.83911688326191,6.36922754237143,6.57517216966465,1.10055871605045,7.20615918584447,0.330257798781514
5.11490952966347,1.00275127197335,8.59458016292565,1.11056688165996,4.410734612719,6.73527393175714,5.04783292828292,7.80673539425217,8.35224230539124,6.7522067009272,6.373033684459,4.504440122041,0.697397785809047
8.62333770759142,1.23384839749816,4.01098712250607,3.24495465862076,2.38164074585327,7.58758439307285,5.35493734467875,0.853662985030769,6.09067896840005,6.50804781347672,0.187288937121262,7.71626188068296,0.367694297492656
7.6071919752287,1.18821861842027,5.03361537872384,2.47727908755549,3.3532706249885,7.32957653385639,4.83432330345345,2.61846745001565,6.85607701035599,6.47471469194532,1.69444027657098,6.63037194884016,0.498479294321833
7.49904882501967,1.09201774827022,5.58482442669345,2.43623191872777,2.95278197649644,7.48050017274974,5.32107650908341,3.09781780799391,6.95698053301525,6.6243081601937,2.1941000588741,6.71292434698805,0.448063220877867
7.51200633768279,1.15310166059515,5.5361300556236,2.48938005005804,2.98195919855413,7.41562659748371,5.31896275783813,3.05896937847125,6.89055700610811,6.59826113774293,2.16361918501677,6.66795825904044,0.451956585304039
5.83942502682784,1.73710162834744,6.75055260779194,1.85198313402192,5.09864248216241,5.86553576636758,4.320148635072,5.01078302788336,7.29237162369081,6.42311867017852,3.85925463908333,4.47748235056271,0.272226062671441
6.55093614782725,1.63505527725434,6.15300134655437,2.08912772835794,4.28550434928941,6.4875968267597,4.48250331923743,4.29228922947719,7.05998158372181,6.32298808278684,3.29126658593655,5.3973257948546,0.632891443668328
6.56017983346004,1.39129814021961,6.10501500282035,2.14578869003328,4.30614156644137,6.48796888421293,4.38738528595343,4.45969923790792,7.06868994185126,6.4020032193019,3.31893983848547,5.58269870608593,0.629879676796921
