"fastcoef_sq","pref_flow_den","slowcoef_sq","soil_moist_max","soil2gw_max","fastcoef_lin","gwflow_coef","jh_coef","slowcoef_lin","sat_threshold","carea_max","smidx_coef","smidx_exp"
8.82029784383624,0.558508020295382,4.53146353439082,3.16470725496099,1.25687112441961,8.53912583827004,6.27455286438168,1.50417796057558,6.49043668934703,6.93264568965717,0.596095782790409,8.48269772920591,0.418784232144209
8.74319607506871,0.614851442183724,4.53389635503522,3.08891899156589,1.46149959024196,8.46502371953427,6.11398108304834,1.50454114207051,6.5299729770757,6.89488724397887,0.620445395143013,8.33697867916593,0.41878729421489
8.74294860277005,0.615689802804054,4.53229646047224,3.08935234554811,1.46241436583323,8.46415962830359,6.11092947694071,1.50362210355621,6.52934626919052,6.89260540077859,0.620289992006384,8.33837189658021,0.419731311384844
8.74309700028562,0.614097729568182,4.54240924813081,3.08673523067312,1.45723502572781,8.46694560639913,6.12882364487599,1.50783178354952,6.53209843969251,6.9035730242562,0.622434275556217,8.32824515432061,0.413823545367197
8.75754613528781,0.654113516248111,4.52358255431632,3.13041355626688,1.42014499812352,8.46358690499288,6.14937015165752,1.52227065043435,6.48456821026934,6.90664643335775,0.669388989806264,8.36117149304102,0.456119999534737
8.75228486914996,0.617952998828071,4.52940436306441,3.09870225199942,1.44810558917257,8.46413081153846,6.12467208618667,1.48935691849549,6.51817959776612,6.89695466771413,0.609212928697275,8.34561370939713,0.41623132506428
8.7256171224651,0.58416083024748,4.54516427121985,3.05305205025777,1.50740853381168,8.45248536876426,6.07936727564639,1.48877351782772,6.56660851178974,6.88142357576898,0.575251046617981,8.30369666364161,0.380407393790039
8.7279082868658,0.576070793861084,4.5477572381319,3.0459674470636,1.50368089432741,8.46632415415477,6.08298147676651,1.48898117932828,6.57670034396016,6.8864668086308,0.573084386463894,8.30716299841274,0.379647613519138
8.70955491042032,0.642918210027273,4.52432255426679,3.05439917448768,1.5625257951381,8.43701425271302,6.02293418589198,1.50292697828098,6.55104400837351,6.87175762107741,0.636813016505162,8.27994791293475,0.428358062300025
8.70249187059587,0.644540179916834,4.52891926702712,3.05237133625129,1.56958244245495,8.42402856297802,6.01858467294294,1.50458320232399,6.54794331407112,6.86698063556421,0.633765412582517,8.27026723393401,0.423562675429557
8.70006364072223,0.646089238689829,4.52886718064684,3.04894581128239,1.57730133104004,8.42223943596165,6.01289708900316,1.50343961061876,6.55025635878399,6.86602561618324,0.633469462315181,8.26463084717124,0.42291455023947
8.72261677780685,0.630050838449972,4.52692374372811,3.07076119191827,1.52077992874508,8.44024330919923,6.05883575260063,1.49924242980976,6.5369191767523,6.87708074277048,0.619287049175107,8.30276029358512,0.4205096955176
8.71183966633592,0.629029476960191,4.52785382958083,3.04736569592017,1.55292287428917,8.44761857780309,6.02730848393829,1.49792099282312,6.55791294246455,6.87380789284593,0.624484617811648,8.28854426391716,0.422268505635645
8.87591209816866,0.584686532618273,4.39932396526154,3.15641673639476,1.32817998423197,8.55211551003739,6.17412363985778,1.30037807495833,6.473804060632,6.90691498802814,0.424055623770666,8.48955842927233,0.413461227072042
8.71437362905846,0.60562244276808,4.51775570410742,3.06692001972354,1.5407693117854,8.41472308917741,6.01857908208111,1.4826717241813,6.54478580637102,6.84310027086521,0.577788018311242,8.31197222155464,0.397002260483531
8.70987181102276,0.576670596637096,4.54015019927117,3.01683214536392,1.55762340481523,8.46376830574274,6.02158609755025,1.48359143293467,6.5998518247088,6.8682638372641,0.569617008912564,8.28913108022153,0.384113355857112
8.7130323970593,0.602284632310644,4.51501049970563,3.0343524476147,1.56696279502874,8.43665533171724,6.01430631511386,1.46109533426142,6.5746962308478,6.85460344562586,0.556131079916342,8.27556970567112,0.387223056077419
8.71613090915609,0.676973482898846,4.51192868850516,3.08234173298627,1.57444998651594,8.37779624221217,6.0322853792631,1.44716469027634,6.49741221744127,6.87035737601278,0.591334787484571,8.2483676670187,0.404820052889896
8.79177816283346,0.59497318540147,4.43294881772521,3.08580275939463,1.47569437679669,8.50981920088298,6.02497104805257,1.38522874675214,6.52549222344139,6.87164489599151,0.512483620945776,8.41507078884231,0.438650909185415
8.56276622578085,0.69725271023008,4.51264878963656,2.90402300528806,1.94663347549528,8.29645457619142,5.66865075818858,1.48581681897648,6.64451230214427,6.75533509175256,0.626999818531497,8.05755286521388,0.409080662367973
8.55797618905759,0.70135091813497,4.50392590381904,2.89218091401101,1.97473643306532,8.29269040069858,5.64489488994337,1.47461213234784,6.65304404811421,6.75033958450739,0.617408025808055,8.04047937715838,0.408244611339964
8.74451620934411,0.548461198053691,4.46801493016823,3.01421941795963,1.5866084094675,8.48722435331869,5.94752198203283,1.39887664386267,6.60389083413412,6.85660967226459,0.479745724714952,8.34383701149474,0.38819957265051
8.4903359935779,0.811996167938792,4.48453820556249,2.88856872081367,2.16374592553565,8.11642417302076,5.51573683922035,1.43384159703936,6.59215082338401,6.69764967463598,0.605516395447319,7.87345201060926,0.391361175859659
8.52442858003757,0.738246617147375,4.4392062675538,2.83254202956652,2.14285609626631,8.24346499395708,5.45903861308788,1.37192882002963,6.67575047280449,6.68095507862564,0.540175616530428,7.97277408636849,0.402897767654051
8.71093631325686,0.715380677552082,4.42451379964452,3.04362836309245,1.70449991463786,8.36295237643019,5.85492119064035,1.32782617205076,6.51052421326218,6.80094760948011,0.510168960886452,8.2363352993547,0.422791743017817
7.63979200655534,1.10456861007129,5.35711864424983,2.56609231671865,2.88991470131076,7.47895056728253,5.29539022866594,2.89284107307094,6.81980512641875,6.61174384897074,1.93337307362136,6.84632230522741,0.502209267433992
6.72009457024031,0.947100606575673,3.5555770867877,3.10213172639671,2.73992767091938,7.63226987632983,6.18523545140557,1.57840077131217,4.93511373880363,7.59122637901717,1.07274625058503,8.12477595477366,1.60652570584594
