"fastcoef_sq","pref_flow_den","slowcoef_sq","soil_moist_max","soil2gw_max","fastcoef_lin","gwflow_coef","jh_coef","slowcoef_lin","sat_threshold","carea_max","smidx_coef","smidx_exp"
8.56189895291855,0.101225774416501,4.91869836269445,2.63032604926871,1.07263410094137,9.00445597254976,6.0741126506519,1.47521267511826,6.8125737254013,6.93359937174225,0.867745584196065,8.89986972825173,0.397733638370642
8.58207067303356,0.101157347226001,4.90580168196419,2.65198378985445,1.06159216055564,8.9951875108834,6.07314851007353,1.48347238636068,6.79684436215814,6.92902825000795,0.857159263076484,8.92363474876934,0.402624143046968
8.58513631420112,0.100711803623652,4.90484509351409,2.65546348085951,1.05804987394062,8.99255866857758,6.073729685379,1.48484825314141,6.79331011324954,6.92808424098457,0.854420337706927,8.92781248402363,0.401512540850539
8.58434141073653,0.101070747001108,4.90439930266673,2.6541275566955,1.06075343264767,8.99388404957363,6.07278858849433,1.48432157125218,6.79524468493151,6.92842657099701,0.855615583818615,8.9259774320212,0.402883366598144
8.58422400824142,0.101067173442041,4.90467276769903,2.65463675559561,1.05907269605479,8.99465317278621,6.07413614563402,1.48436128867004,6.79490416343377,6.92876752726106,0.856305591132334,8.92674906978863,0.403119281955362
8.59165359284426,0.100926346844466,4.90013428637131,2.66286827928241,1.05426382299348,8.99109779307184,6.07392721198739,1.48754039337159,6.78865471521978,6.92699012858713,0.852440141594258,8.93611283277107,0.404745164444952
8.59144334012314,0.1008853487506,4.90031349084719,2.66257806441138,1.05441723529781,8.9910948244014,6.07387433364924,1.4874505543962,6.78881802725687,6.92699892894126,0.852447036301498,8.9358352219243,0.404581234463267
8.59112422952323,0.100830276978061,4.90070472261421,2.66237104250942,1.05390347132833,8.99133208194841,6.07445302638733,1.48729706778763,6.78889122285618,6.92717728115592,0.852586643303531,8.935650207373,0.404294766744017
8.59156600136156,0.100977699373881,4.90037197450429,2.66299892371983,1.05376979682919,8.99086223466101,6.07434277334761,1.48755751478867,6.7883799607891,6.92702691010405,0.852287964587706,8.93601045224167,0.404329550741022
8.59036616575848,0.100654556993488,4.90122929932445,2.66137654100599,1.0543217462797,8.99187592148573,6.07437109060477,1.48694464472883,6.78963154165455,6.92732841841599,0.853052201445623,8.93498880103446,0.404206631149015
8.59225570837109,0.100833278051113,4.89975209969284,2.66357698106888,1.05369885773697,8.99103861927124,6.07385601599416,1.48781719799752,6.78812188073632,6.92683849239404,0.852360448360588,8.93726268443005,0.405114889511225
8.59222549150774,0.100823850568978,4.89977077076438,2.66353430711676,1.05372192543824,8.99106602984308,6.07384431416538,1.48780397653322,6.78815588165315,6.92684347249134,0.852384739387805,8.9372418431972,0.405119598373713
8.59320554106121,0.100948482326867,4.89918496970833,2.66481057741324,1.05269866005501,8.99077333403506,6.07448061321756,1.48819743008463,6.78732063748043,6.926802264797,0.85195251256942,8.93829186302031,0.405316365008522
8.59847697234588,0.10080800103923,4.89657217801277,2.67145304832773,1.04692302670575,8.98808744896042,6.07591931229887,1.49063241834582,6.78183237841904,6.92570683775911,0.849145362496112,8.94575859084111,0.405724431150543
8.59909347624559,0.101089924127551,4.89492657982536,2.67153554912667,1.04905608439287,8.98975417458634,6.07482742704631,1.49063428338976,6.78316944893154,6.92588360103705,0.850392633297521,8.94602967762215,0.408445960889237
8.60013591501381,0.100585579489981,4.89512481694623,2.67297955470102,1.04667077296022,8.98822295360603,6.0749060768886,1.49129721541596,6.7810348994217,6.92525478554181,0.84913275253163,8.94852754622777,0.407352828475169
8.60244837086675,0.100863897663642,4.89352084490718,2.67508463737682,1.04652085859766,8.98667343377052,6.07480333407695,1.49205071899456,6.77972126836443,6.92482976746895,0.847227101202879,8.94967817618391,0.40739324684579
8.60158056855432,0.100857512953126,4.8939545355626,2.67438406133545,1.04679201134344,8.98736096130955,6.0746519591727,1.4918270995949,6.78025065301759,6.92496140803512,0.848192198811524,8.94931293205141,0.407719935623704
8.60338531457234,0.100779503527477,4.89262801154647,2.67665438507293,1.04541049535022,8.9870908729373,6.07423792840212,1.49269701748041,6.7785923856002,6.92450288003243,0.848027633455135,8.95256893298028,0.408993474167677
8.60150992545827,0.101226520277734,4.89469335337103,2.67510920360401,1.04472298013182,8.98673793653673,6.07720215879977,1.49193031932942,6.77944946128995,6.92545829141785,0.847490041403947,8.94838837711977,0.406138088632938
8.60188546382173,0.10075402268344,4.89409520084095,2.67523156778364,1.04474996972775,8.98785783564808,6.07612481873072,1.49199769430819,6.77960994766305,6.92521570071206,0.848454292590847,8.95050734259239,0.407785554067628
8.60594597556833,0.100929813048489,4.89123092882666,2.67988869612876,1.04204388428803,8.98709716482572,6.07680976943729,1.49356425256747,6.77673794664836,6.9247055380001,0.847163611005844,8.95551321739551,0.409663338206208
8.62190521483665,0.100635895592102,4.88187434913522,2.69728470912644,1.03113556638039,8.9795128662554,6.0779392431248,1.5000528009636,6.76366052135644,6.92135474723662,0.83817294154536,8.97448479670872,0.412193432562759
8.62009633531923,0.100088065111967,4.88401155388786,2.6979174506042,1.02553556348771,8.98179790246322,6.08067308070844,1.50020825548106,6.76222655358138,6.921895005484,0.841397145210599,8.97782673265888,0.412606113465699
8.61252403667745,0.11290801828388,4.879854177345,2.68739697146729,1.04795905383319,8.97623087016453,6.08529634705961,1.47790438920613,6.77108975442528,6.92563459804183,0.826855964379308,8.93718631123773,0.401788699913673
8.60135510003286,0.10378444129333,4.89265910406994,2.67527250744156,1.04810144995349,8.98753578515397,6.07862751653825,1.48863940000509,6.7808584860254,6.92744954433479,0.845416364566268,8.94223334652984,0.405722264632605
8.60800119004736,0.163175454156896,4.85600608548001,2.71346310324648,1.13891277292016,8.89868298553409,6.04572309530037,1.53375985150308,6.76258136956841,6.90982325240279,0.832790041426083,8.85085556632087,0.409036506046359
