"fastcoef_sq","pref_flow_den","slowcoef_sq","soil_moist_max","soil2gw_max","fastcoef_lin","gwflow_coef","jh_coef","slowcoef_lin","sat_threshold","carea_max","smidx_coef","smidx_exp"
8.56620885763359,0.10109413050089,4.91657111492236,2.63205294560481,1.07412920527145,9.00046040436452,6.07453849115537,1.47621758595754,6.81204265717967,6.93299339944751,0.861578315603563,8.89855478394205,0.395076339054617
8.58005657113354,0.100559177786356,4.90857841715482,2.64834133854569,1.06184738420543,8.99527906093891,6.0763587202988,1.48217940868975,6.79962508763719,6.93016303703443,0.855530872947401,8.91815408718333,0.398619421483686
8.58252250084544,0.100800678480911,4.90626298405282,2.65145580480232,1.06110340588243,8.99487044960827,6.07502718892488,1.4833232548457,6.79756750379454,6.92945161843896,0.855526577260576,8.92217465663785,0.400956644330349
8.58505357975845,0.100728642168851,4.90456265970298,2.65406304852318,1.06010769502288,8.99363917939941,6.07436198763045,1.48441213433542,6.7956480043626,6.92873427551866,0.85425125896453,8.9252897801282,0.401730539177968
8.58574288874055,0.100728251529441,4.9043639208442,2.65512374412782,1.05897235107995,8.99294201407724,6.07464277566297,1.48480164947915,6.79455153550082,6.92850974300051,0.853708392656691,8.92640477311892,0.401467018937002
8.58685938990427,0.100772604452655,4.90341241550482,2.65631270337313,1.0585908266425,8.99296786270964,6.07452330501458,1.48521453267286,6.79396379094366,6.92836318747138,0.853579045407536,8.92784600381773,0.402353455082464
8.58984526912075,0.100823564291426,4.90165135253626,2.65995602376018,1.05589044286536,8.99179185964545,6.0752054422083,1.48648115307992,6.7912442737215,6.92784268628659,0.852217460736637,8.93177731066212,0.403038099977005
8.58972175507296,0.100781181907876,4.9017897645594,2.65996479336491,1.05557266925234,8.99194230068969,6.07535720016392,1.48648482656148,6.79118131921208,6.92787325404114,0.85242404005753,8.93196934781976,0.403067263847
8.58898614348691,0.10076681863679,4.90242962410638,2.65924683993084,1.05565322328916,8.99202184620352,6.07560577261493,1.48620517822854,6.79153959004799,6.92802223750272,0.852581206171891,8.93107907198195,0.402520272348188
8.58898178282561,0.10032861732007,4.90248708956618,2.65890211691664,1.05580003213136,8.99240112704965,6.0749594461469,1.48631013666926,6.79180189393036,6.92785868037484,0.852910776792531,8.93184539373716,0.402908783636678
8.58853184325424,0.100587292780495,4.90277322931577,2.6585741170651,1.05580570691709,8.99255840616737,6.07570271169511,1.48595279308472,6.79210907530582,6.92818006099324,0.85292950642834,8.93074126954883,0.402527331262272
8.58838695670621,0.100742899845709,4.9026635723544,2.65835466657605,1.05656745134622,8.99242508527743,6.0752595652419,1.48589062550914,6.79233487047042,6.9281370486453,0.8529353052205,8.93019149437974,0.402595388513918
8.58824224920442,0.100842571504149,4.90257623470762,2.65808048857622,1.05726141644598,8.99244134323184,6.07491454098162,1.48580776729942,6.79265160058987,6.92813957029099,0.852995579550098,8.92968842756794,0.402709115508648
8.58773296418319,0.100733509855675,4.90306292356904,2.65749472921099,1.05743752017821,8.99233613079239,6.07476235039495,1.48564742942112,6.79284877969946,6.92812810255118,0.853003575834837,8.92919079087688,0.402240827162827
8.5971080181148,0.101142154689241,4.89630054434565,2.66878811569146,1.05165344828962,8.98923131639956,6.07391982755977,1.48975645192948,6.78485270535922,6.92602176673526,0.850071757212937,8.94219234087376,0.406741609340239
8.5970405869672,0.101141729528876,4.896336031614,2.66871678175171,1.05173731922914,8.98922273168468,6.07384416319994,1.48974924858407,6.78488970848853,6.92600935690423,0.85010704137367,8.94212888345148,0.406732544882181
8.5971441301373,0.101014265647129,4.89619183017986,2.66868810905128,1.05183640706469,8.98948703786212,6.07357627067607,1.48976381338201,6.78499841589804,6.92596506892691,0.850291035752083,8.94254203503762,0.407098168796553
8.59781960406897,0.100892520433016,4.89583318996954,2.66950262239368,1.051031472102,8.98939944314442,6.07365890073745,1.49007445873427,6.784358301165,6.92581765405169,0.850151943838098,8.9438336367148,0.407402223823582
8.59817820788124,0.10132276547327,4.89573075065563,2.67034548438383,1.0505456658221,8.98834181249085,6.07423698453429,1.49033444207652,6.78352348970158,6.92577000266666,0.849379881921856,8.94343069831002,0.406668339088171
8.5992002769191,0.100661039162701,4.89509717820509,2.67117573847559,1.04940191983931,8.98919039134685,6.07383396605517,1.49071037660295,6.78304167598948,6.92551666528081,0.849846894039569,8.94643230818004,0.408002355141143
8.6007478773569,0.101110140226038,4.89381603716762,2.67305357628619,1.04886971669342,8.98863849701668,6.07430384265266,1.49130046191046,6.78206785530138,6.92542626130201,0.849166330773233,8.94741883714429,0.408606754181497
8.60241735516908,0.10068807947229,4.89347600253859,2.67494013352974,1.04645681781502,8.98731762942696,6.07482049095805,1.49204720113921,6.78004183139873,6.92492195057845,0.847695355946755,8.95007047382324,0.407896065627698
8.60527119083314,0.101147227071941,4.89093125176473,2.67855190946166,1.04490783901843,8.98753928276292,6.07524519807949,1.49323558979573,6.77826710847024,6.92472224832724,0.847719878786318,8.95374839226451,0.410399688804617
8.60509277748924,0.108493161830544,4.8917696205293,2.67683278859012,1.0480639209055,8.98757206971148,6.09765496941767,1.48726727903407,6.78511518988606,6.93481944262183,0.839190129950733,8.92422893775825,0.400308524319519
8.61170953089327,0.103413662325987,4.88757354525951,2.68867395339598,1.03890809682157,8.97916943716947,6.07729636979307,1.49672118609947,6.76890174901397,6.92295365441735,0.841450197798788,8.95855991091897,0.407655877864818
8.61942613777165,0.116977692416981,4.87779694018966,2.70501429879487,1.03887885729264,8.96714916072166,6.08746868224125,1.49595033339575,6.7578576819615,6.92340602808449,0.835509846332987,8.95004276257033,0.409008626289774
8.39947216680163,0.622063757815746,5.06643195977392,2.9763850601659,1.4943620712745,8.21726842584065,6.10599787306863,1.43899349996554,6.26236282132066,6.4967867543014,1.29468888865137,8.38374427845318,0.660961622304227
