"fastcoef_sq","pref_flow_den","slowcoef_sq","soil_moist_max","soil2gw_max","fastcoef_lin","gwflow_coef","jh_coef","slowcoef_lin","sat_threshold","carea_max","smidx_coef","smidx_exp"
3.67978844499702,2.42532030728999,8.19285972326937,6.73702674233734,1.45929717613762,0.382942738961524,7.71672889365722,6.78447420264101,0.296591862594222,6.57357999574172,6.1847913786021,4.51952214433822,0.220053950453225
6.23583274518792,3.83638472394652,6.97509596143054,4.45382160420511,3.32361598371239,1.25267920257793,6.72833034296136,8.12619667633843,3.59198109556288,5.78293529598588,7.13357957756679,4.43925311364223,0.190166767677049
7.73231627193315,6.68179700524412,3.71396370294792,5.77825448360098,2.23758083731199,1.79021961481705,4.35251621484659,4.89614611203629,6.00026179169997,4.53307300708329,6.72836374037744,3.06062951968993,0.526334406256673
6.28405986083033,1.86874486826327,9.31293134846777,6.70581457929572,0.48472644868364,2.34377203421595,7.17146223495843,8.80133395556559,0.459468472953585,8.50278352207797,7.18969176587198,3.63378514565217,0.911986613266349
4.22956414408639,3.16115872495002,6.26913601653047,4.23286541385056,3.19092207108746,0.949829517212505,6.50352737777,6.84793180408466,2.92313343687874,5.99325433252656,5.84839847909149,4.8217237584531,0.716121278751192
5.75821747457949,5.98426263912792,8.11303940586005,6.64698299261741,3.45824967700116,1.77508460617816,4.37470900828583,8.09446257627391,4.72385489239374,6.95294373186911,7.26022688272752,0.843202340067559,2.16496231161765
3.33739545000569,1.75968037451446,7.84320537242839,4.39332023984638,3.2036269070746,1.79331247825919,5.20739277836834,8.21579020468182,4.25592315271816,7.12284603957694,7.37882163688047,3.00395769105609,3.61385956501059
3.47626945949272,2.37204477641534,6.7116448096323,4.5785091621709,3.16027612169054,3.32632644373109,5.6942601578735,5.55158985994773,6.5239235852629,7.88600312441562,8.1088811409955,2.8397357984884,3.44461992266076
6.74552972980415,4.75122988186022,5.21326236763802,2.45128533387432,2.95134955345427,2.8072721979304,7.55023446484046,6.31112000902615,1.92046728140453,6.96820883716988,4.25845548021996,2.34014773198102,3.64623105726882
6.41237041818917,3.99327498026646,6.43689737944667,5.02127669038874,2.80087000408981,1.540309462367,6.84743140291958,7.12464351542678,3.67300594192538,5.65553508103249,5.26020811064927,3.51001080357837,1.43225675301394
5.96389927496297,4.81237005193169,6.7475416693986,4.69807296037825,3.16941021472772,2.2710576284639,7.28034303874213,6.90121553448055,2.92382645504975,5.73080898388439,5.58042832356835,3.54161555246441,1.47850418598757
4.7104165416552,4.61481518371901,5.71597339506259,5.93102404273869,2.40799802127297,1.66895776852962,7.18425361336353,5.10230492225086,2.03373450325275,7.11091447834441,5.04820256455852,2.74527568634562,2.01871904408583
7.70255645368007,8.87457373975237,8.16145330587473,2.38673821292724,1.88948163089064,6.82489177617384,2.94967793810644,4.7786408702625,0.814908029889926,9.78692613075238,3.31918263449641,3.08268458504027,2.39125908863823
4.64220549374522,6.05510585802518,6.17300721866297,4.52351313471092,5.27435011874146,5.30484294082786,4.50135484885574,6.05303106545046,2.36398939111585,5.42416910641816,6.37227824826967,2.67140894157494,2.90131923764443
6.36510499052325,5.99299594849325,7.97303829309816,4.01722135147322,3.16883860156414,3.39816416787491,7.63306262786306,6.96329757439758,3.06770383193162,6.32581960593102,5.12341360497897,2.88952332380362,2.6939652016477
5.40254235599285,6.20628425503419,4.69441167381963,8.07207780893905,1.9377407397562,4.52152861618551,5.66566042822041,4.93645723007532,3.99268755373642,5.89129521974585,3.40731899389963,2.57548458283771,4.17411575174779
5.47191564762044,3.99616930096908,7.62580252536413,5.52552114558649,3.30233911734622,2.59216477273398,6.93535415547996,7.44874941920146,2.95139326011191,6.74794200123628,5.62774741954774,3.74532130593836,1.57614264308345
6.13638669454037,4.92155382704268,6.94797895325555,5.0827832179406,2.32754310184937,1.51411455225304,6.68622584392278,7.95950368005816,3.76860517588665,5.59099781980051,5.28661593646463,4.41917667034558,1.9568853762763
6.63857786607127,5.84617652318437,7.76771095998826,6.70228941518694,1.8114038369065,2.06489050489703,5.3515025462376,7.84239833153883,3.06924963351053,3.54094193537713,7.34706974635323,3.70712182357939,3.75126982077119
5.53536224560781,6.05007449431163,7.61063320403582,5.79453447851488,5.64971177507174,4.30482422178196,6.88654981528029,4.7441643107201,2.38598949196617,6.04385656701759,3.55821184963629,4.38476389555984,2.32327771112115
6.08698866602607,4.1918233111091,7.4627636499449,7.9074103948512,3.90019801891623,2.58692629630692,8.53758144607869,3.71722903055189,4.48506507276828,6.87523481816102,3.50759692138878,4.57512861644005,4.35762372581956
8.46586542574657,6.13431909828174,4.04460093988846,6.07403046595309,0.870143345666915,5.1339948828203,7.99265691848389,9.8301739874802,5.89109295723624,4.40729592740525,4.3495653777883,4.73264793225712,8.85484419829866
3.50792101273348,9.11461534387813,4.25346723527744,8.18606073204855,8.00135419022917,3.94651230193053,1.0603910590106,4.86682024002265,3.82001814476073,8.44409569441608,6.11777248335767,9.99127808436826,8.38317311129667
6.85668927845682,4.08213731869205,6.97622874495211,4.99870877077312,3.09176016289687,4.55142981872556,7.1866250897798,8.72842311770354,6.0435585791537,3.87864464537943,4.28794984925956,6.89355385450565,3.16102265466638
6.5597654053014,4.96417386630016,3.09154372526316,2.7671229674441,4.16549505703301,8.97498847978231,0.276351718388173,5.8329059965545,5.26291258526516,5.18619346003433,8.01124138703785,8.86918737433312,6.92312928789142
0.316453855952506,2.20473009819865,0.697388854386475,3.02406675924621,7.09986746088155,4.86813679217625,5.85062158413098,2.20729137974709,0.198702284151898,9.46374507350141,2.98397632365525,7.22225960224909,5.3978051198017
2.79384476599984,4.08612340952928,5.45627303950995,8.15294915290546,0.783848235634929,3.15070807371945,8.74552297235631,3.45487004445731,3.16465979775596,5.20129648231496,6.66749898157954,7.22887201583641,2.89013470594236
