"fastcoef_sq","pref_flow_den","slowcoef_sq","soil_moist_max","soil2gw_max","fastcoef_lin","gwflow_coef","jh_coef","slowcoef_lin","sat_threshold","carea_max","smidx_coef","smidx_exp"
6.01713802209274,0.414324746521323,6.38841328515448,0.719145762705447,5.1485847666328,7.76856254530854,3.46818578722294,5.79666312891338,8.96066888162722,6.44288324255759,4.01205446269972,5.20425950507432,0.906311434801467
5.00539047313523,2.05727213045974,7.58605028648168,1.24989788990322,5.40604402855558,5.66921902402804,4.36188539088886,6.58828415933531,7.69749539006412,6.22478533504388,5.49183155051871,3.43119639033709,0.769224708015085
4.50314832248186,1.34614602715333,7.9477601591343,0.840015713720603,5.3699480098272,5.68965483947302,4.15637841907412,6.63997966804707,8.06383386134824,6.47122566958336,6.15435414643423,3.85565945848888,0.678603044726624
5.19849849166573,1.78920742608927,7.76576612204707,1.36391434245324,4.68116312913601,5.96890061079021,5.0710820117989,6.65913147273973,7.67062856130974,6.48098061044615,5.51451703123438,3.84245820154966,0.717733090427028
5.19927433857513,1.79231478758504,7.766167655624,1.36471069134482,4.68137071702904,5.96711739893158,5.06769326208483,6.65978894715131,7.66991769630389,6.48210744417792,5.51555636180086,3.84346223882363,0.718289354692797
5.19806948059126,1.78904388225082,7.76608062404178,1.36501561305092,4.68025361301963,5.96902121674008,5.07083636210185,6.65818758857188,7.6712411154131,6.48014290098247,5.51470815942622,3.84197774015605,0.719534186264491
5.02179961019823,2.0945429618377,7.57552370416704,1.28595179357017,5.4559589032662,5.66831658700648,4.33296575272432,6.59733935208637,7.73144626075492,6.18225134607646,5.49796629472084,3.3968292031861,0.739821854454471
5.09878082049303,2.01317448253522,7.70136330217958,1.1195506414881,5.18271708738086,5.94524880901014,4.7872983801731,6.42914168714443,7.9315486883215,6.38692062733388,5.46940525238658,3.42419600874118,0.693481974556459
5.19246154069299,1.75532491526055,7.79330800658647,1.31230080122737,4.51308981527826,5.84227298041963,5.26621454397922,6.45219647916623,7.5864213605113,6.50257291004936,5.38128427252769,3.67706040582261,0.522065837488061
4.56633282652576,2.44744177083152,7.65272221784357,1.19762906686315,5.94697632158246,4.89904624831953,3.98655925359726,6.59685972053661,7.4648042216029,5.95612752895824,5.73789697689139,2.94901483277301,0.772244108930711
5.24567933033434,2.05220949128817,7.53309619688263,1.42994585049352,5.04259486558798,5.76512714878789,4.84743056521111,6.42449978677904,7.59373440268264,6.32999061840888,5.32018695126069,3.55812501092922,0.688174570630664
4.9252174252993,1.38888005317316,8.17414643809388,0.78590134541548,4.88816216791796,6.30378657293001,4.72687368892806,7.00096714523896,8.25754852799684,6.5072187804517,5.9351144950561,3.88765996941045,0.651519254263401
4.50278014524988,2.5758153863819,7.06569767680082,1.09353594665459,6.98671656155924,4.77712215069424,2.50130676992396,6.5099097254195,7.48002606755239,5.50143140291305,5.34214459671939,2.61619435724713,0.979128061276702
4.97892027396969,2.16527172239801,7.4660510183186,1.37518018735829,5.63958399136396,5.43519278586044,3.95158552417095,6.7727926444606,7.52232245291347,6.04580268965697,5.47436758174307,3.44830355825321,0.908412473967908
5.30849795045724,1.58443179459358,7.82393501260006,1.61795068519635,4.20607782991745,5.97732513904063,5.33734553467763,6.88265950269241,7.39824421235484,6.57489421189937,5.55953105333405,4.24906134974652,0.759046056119459
5.31851072025308,2.23967503499984,7.42160710448316,1.06444529062482,5.42455605392356,6.11024746368817,4.76131831481813,5.99207813534173,8.06303101990603,6.32726284608681,5.06523278935362,3.19328875110401,0.585457392698933
5.4921492141472,1.83488313521214,7.47726808679665,1.98161628158577,3.9615784078258,5.56882017933476,5.59214921713907,6.20167701304763,6.85351246025864,6.47072070457265,5.46656939510266,4.27558215446016,0.452596708296895
3.78816957522749,2.27687956812161,9.6785659973164,0.779759617257641,5.02659479055817,4.86593611213002,5.70702495149104,8.15456272525189,7.60824571949613,6.56528921808803,7.53652479787807,2.27583391847829,0.289656315967785
5.22874174908287,2.57427843769726,7.85757934476227,1.80669096183421,4.57243234803906,5.17790583936477,5.73931196604521,6.44460174211916,6.97002839967688,6.28432048738827,5.42022232707061,3.24185689405961,0.48855361926125
5.25013339676425,1.9932634190284,7.61133825230435,0.684957154828504,5.45091032547211,5.78494371725845,4.6911537856973,6.22595285807803,8.11650083614457,6.01513189438416,5.2545848399802,2.61910636084615,0.224332731221315
4.58744736966113,1.34595461709307,8.36820901597773,0.501579175510503,5.34630178802908,6.10274032179818,4.17091982211071,7.33780950564176,8.3952928744559,6.32563344694307,6.23459183600956,3.64808734432532,0.646528924473257
4.91264801181208,3.12283004727617,7.64387937936376,5.55455204674744,2.38884605366737,0.823443626727881,7.30359107976083,7.39988337212905,1.82511976370781,6.20158802152914,6.56998145455807,4.43119109062058,0.242318923152372
5.53924627998534,3.26674778608741,6.79239064314574,2.65942216382157,4.83911727918269,4.42529546941609,5.6154718499855,5.55100593593982,6.08531740262374,6.1443556463755,4.64158313468513,2.86820426993065,0.648324073659099
5.77731695110259,4.96466964453563,5.75184366977108,3.71226170171153,5.49602780678347,2.85940369294858,5.87582778430181,4.21374185714015,4.76292674760796,5.71658066140714,3.72293242408679,1.47724467412511,0.552863981371698
5.11535226632638,2.39049480966205,7.69676005255024,3.62264167813413,3.27404021494989,3.45983162086299,6.30826164138068,7.11064916406594,4.64761102930224,6.38243556268432,6.01623994974182,4.3156510341788,0.549235504964483
0.316453855952506,2.20473009819865,0.697388854386475,3.02406675924621,7.09986746088155,4.86813679217625,5.85062158413098,2.20729137974709,0.198702284151898,9.46374507350141,2.98397632365525,7.22225960224909,5.3978051198017
6.87836660491603,7.40706958919988,4.35960449263791,6.17976785718761,4.15988600516711,0.920715841546572,9.20416222717312,1.85672731331597,2.08339129701866,5.93934216006399,2.11807110871749,0.624895346090309,0.415820801836568
