"fastcoef_sq","pref_flow_den","slowcoef_sq","soil_moist_max","soil2gw_max","fastcoef_lin","gwflow_coef","jh_coef","slowcoef_lin","sat_threshold","carea_max","smidx_coef","smidx_exp"
8.60711106667627,0.100150624649568,4.88953681537611,2.67994732942484,1.04442232982349,8.9878193571908,6.0726568550153,1.4941071419474,6.77707210978085,6.92372089423455,0.848051421129444,8.95871799777357,0.412581857698235
8.60788693053333,0.101076130509617,4.8889717992753,2.68165463703199,1.04451423957975,8.98528945341256,6.07239957249007,1.49488906956604,6.77531070154152,6.92321254471084,0.846680933889714,8.95815815102892,0.41161000677688
8.60872136101286,0.100803216672328,4.88852155597473,2.68240073885678,1.04335975318951,8.9858253297777,6.07299752767335,1.49495389468511,6.77495498452005,6.9232941163189,0.846567217340469,8.95967780686844,0.412117767813356
8.60870616853996,0.100878574953257,4.88852578305462,2.68243909063923,1.04342113331855,8.98569849409352,6.07302306103131,1.49498121666329,6.77491678382647,6.92329771128602,0.846507380426838,8.95950158336951,0.412030051823925
8.60964768040704,0.10103466584322,4.88796077003624,2.68360490301573,1.04258002051235,8.98528078514552,6.07358688241507,1.49527671287045,6.7741136844326,6.92326011962812,0.845911323838627,8.96029827498355,0.412068563458179
8.60977566775655,0.100996489473032,4.88788476828308,2.68369863171434,1.04243238303331,8.98538117539037,6.07369632365929,1.49527359488375,6.77409371146609,6.92328437880165,0.845891663651789,8.9604893369791,0.412152374201221
8.60987222224003,0.101008066243974,4.88782999153124,2.68381286191384,1.0423390568477,8.98535445507363,6.07377088651874,1.49530323865355,6.77402318463631,6.92328817696146,0.845835079056433,8.9605684095985,0.412158421525328
8.60978870488922,0.100994227253289,4.88788272002329,2.68371031114497,1.04241236642291,8.9853850024746,6.07372187255595,1.49528105372447,6.7740920580082,6.92328947455532,0.845886383937192,8.96049600535114,0.412150628192363
8.6105407824647,0.100980518406764,4.88760202349787,2.6844887256526,1.04147118182946,8.98541171844995,6.07476978320282,1.49559446404677,6.77378284686768,6.92345968552885,0.845518577234942,8.96098841256626,0.412136987835086
8.61181456755379,0.101831075927749,4.88659093282481,2.6867516590957,1.04110716017458,8.98297822528527,6.0742740302571,1.49629497656673,6.77153439143003,6.92281989977645,0.844027637805246,8.96158337140424,0.411590025784594
8.61306715616933,0.101858784738955,4.88588966538959,2.68820329837796,1.03970580096998,8.98286213598899,6.07519466755927,1.49661675295311,6.77062030436758,6.9228593699946,0.843436228243886,8.96299817481409,0.411832726565605
8.6130774216637,0.10238559286108,4.88573124782393,2.68858553477238,1.04042681049334,8.98160155222749,6.07467896936473,1.49685415289013,6.77008593655895,6.92260929569068,0.842862943101815,8.96208678858381,0.411289383574673
8.61308142391692,0.10185718609882,4.88586138532473,2.68815933514031,1.03977125512826,8.98292156087552,6.07522233369327,1.4965808085046,6.77070158140454,6.9228874768237,0.843428101014329,8.96293314069215,0.4118619221833
8.61434613524878,0.101884454444481,4.88516667484539,2.6896739275161,1.03831180494277,8.98274264755305,6.07610828794172,1.49695006234197,6.76970379686002,6.9228991107154,0.842825165483354,8.96442255588167,0.412080696124546
8.61442722673415,0.101865024461912,4.8851343155,2.68964845708899,1.03829097767393,8.98286034136266,6.07632646831346,1.49693571442071,6.76983846775453,6.92297316874179,0.842795338065811,8.96434055092215,0.412106577809992
8.61431391849083,0.10186763426515,4.88516218410696,2.68953791870606,1.03844341991423,8.98285031633774,6.07611541193262,1.49687468974312,6.76986287595761,6.92293178134835,0.842854278439712,8.96430751307447,0.412128056096711
8.61250145600123,0.101835404801861,4.8862123739464,2.68750961575122,1.04035906003756,8.98296430536914,6.07483154348147,1.49644648894631,6.77109424667113,6.92288248998744,0.843685676263167,8.9622903720439,0.41170700072099
8.61481640098557,0.102351402082013,4.8847931925184,2.69053736961088,1.03838098447475,8.98154422220117,6.07601077345124,1.49726201271436,6.76886010853089,6.92265604672799,0.842104655844432,8.96419204081982,0.411680151620906
8.61860007242824,0.103336882855734,4.88245785759374,2.69506267375013,1.03522744486739,8.98047596864091,6.07974831867992,1.49823752064999,6.76644524420702,6.92322659177417,0.839672255319085,8.96580508508742,0.411760985401653
8.61890263459443,0.103557838007957,4.88244416338432,2.6966821499402,1.0346015222531,8.9775569026056,6.07753650561068,1.49934103260091,6.7636949886566,6.92181742932566,0.838899850932091,8.96768088792848,0.410906974175202
8.619001510236,0.103555765051849,4.88226229950995,2.69643660576197,1.03499518672591,8.97790079578987,6.07770298827711,1.49912895680539,6.76417063106359,6.92198575748498,0.838837142081027,8.96728962099754,0.411080098160755
8.62232726304549,0.103479782005258,4.88067322672567,2.69987930730121,1.03121202505871,8.97803075257107,6.08121049248647,1.50012597259194,6.7625170413826,6.92244545744835,0.837292932169124,8.97024287192682,0.411509960394212
8.62355021806144,0.105538549639489,4.87928618226048,2.70318558245783,1.03221888222471,8.97259207967554,6.07910254070215,1.50122018865577,6.75857945351925,6.92101494545934,0.834633132115513,8.96946725350305,0.409876853991331
8.64393834271076,0.108093161118347,4.86665870521721,2.72357082111053,1.013990313684,8.97615854079319,6.10318143787976,1.50347979053391,6.7517669351468,6.92674918676121,0.824233701137078,8.9797887138047,0.413972704933244
8.72054901415284,0.163306028405477,4.81715837571814,2.80571034789987,0.987348603225751,8.95243370569591,6.25620729580202,1.496441203748,6.73399283167377,6.98195029150729,0.742425554381226,8.88005161965399,0.381811031855952
8.61825442416166,0.193009819600662,4.83901044862576,2.76223197200845,1.11436657133991,8.8482744039803,6.03597632119324,1.50898074182219,6.6968823896653,6.89248493007121,0.802033661372573,8.87076360615165,0.392827233856516
8.52705884026145,0.229463813973469,4.91417174270889,2.71414080805534,1.25849806046408,8.79230943411911,6.01196182069502,1.6712795777981,6.76261700564468,6.90885469281399,0.944519836450977,8.69590750092258,0.4159947034567
