"fastcoef_sq","pref_flow_den","slowcoef_sq","soil_moist_max","soil2gw_max","fastcoef_lin","gwflow_coef","jh_coef","slowcoef_lin","sat_threshold","carea_max","smidx_coef","smidx_exp"
8.69773320303441,0.102605842183885,4.8410900181666,2.76184050747983,0.97755615759687,8.99388412654239,6.16978613070627,1.52118422147855,6.75701402553398,6.94991892776517,0.786641368869482,8.98539428937848,0.409592206538597
8.71454688332373,0.134865447180088,4.80578123528169,2.797703901269,1.02112566701687,8.95337806091564,6.13909701384754,1.52503104443473,6.73200631232321,6.94306076019261,0.7660257273771,8.9595324616322,0.417293305001143
8.7055432933152,0.130015257375175,4.82297835506804,2.79037229075666,1.00447272030102,8.94043369669571,6.14437695259672,1.52562800683707,6.72386216470685,6.93774081535589,0.761688682576375,8.96093270184581,0.397299142607058
8.72169515916064,0.13561017760536,4.81134723310252,2.79806661073663,0.996962471473006,8.95976106795191,6.18679884014574,1.51734189873122,6.73682876591546,6.95599772486256,0.752566243795042,8.94278658203013,0.401408480125958
8.73699640159201,0.127622448417353,4.80701587735363,2.79664417154576,0.97937775371572,8.99161405434717,6.22855812443146,1.5088285087434,6.75620821042406,6.97544432138886,0.744986035037431,8.93980892853532,0.403725898293284
8.73766044822576,0.128552032075476,4.80363201223543,2.80007114737447,0.980555971163894,8.99012783686384,6.22314440629618,1.51257933990967,6.75416650794184,6.97225088381877,0.74751832380346,8.94425092803588,0.408069222093251
8.72820295240002,0.147481200717136,4.8012553642539,2.80551235254304,1.00251389416127,8.96047124684464,6.20740186766082,1.51299945808106,6.74137494665394,6.96315942485735,0.746902251434271,8.92053007681421,0.403804917086789
8.72974537551139,0.129406993970681,4.80458661226834,2.80365904194407,0.991807392245138,8.97000837281066,6.1828989667992,1.51940651341523,6.73766058581252,6.95806766542403,0.749340630160123,8.95848714319913,0.406781862898024
8.73092449093895,0.130663592368538,4.80422626294436,2.80509363897545,0.990127538691052,8.9701424287265,6.18763646641753,1.51844478154997,6.73721342231312,6.95978725819304,0.748134290555404,8.95620535405421,0.405985586086061
8.73829691275938,0.131219818481444,4.79610105507637,2.81405121756938,0.986722130238152,8.97505852575551,6.18934212346092,1.51905421257064,6.73547945283928,6.96232333443021,0.744303601316339,8.96271924348559,0.410347049587179
8.7364663867737,0.136086711447411,4.79943872197133,2.80897685250661,0.995730401198754,8.96365359137908,6.19493881851796,1.51917654118179,6.73757094439532,6.96106414808038,0.741357041837343,8.9436657766936,0.403773720504307
8.75434455279657,0.12621095442982,4.79198608124995,2.80773083902612,0.970390053465946,9.01456568418491,6.25152523512953,1.50786640572667,6.76591419207782,6.98816772314246,0.740069616622765,8.94372929887394,0.415156717464468
8.72753359782073,0.169212420271423,4.78566795802889,2.83479902433596,1.02102865218032,8.92558003345339,6.1684163032809,1.51698621110443,6.70760000156264,6.95295238311965,0.738997637439123,8.92008336458628,0.403754621218375
8.63575812194727,0.112008654696089,4.85049835958101,2.79861284342129,0.972813794398705,8.91104176857458,5.9735489794879,1.52502356157851,6.63136426392233,6.86202492917907,0.857805259460062,9.13155267659867,0.446175489493515
8.74936160980019,0.159083122262813,4.77162017394217,2.85858376259439,1.00721438711156,8.91299528235717,6.14354713938356,1.52934639142501,6.68433615814361,6.94322699978078,0.716252578218185,8.96124418064394,0.399904945452195
8.77407236479467,0.153266552620293,4.76452184607546,2.8321523485726,1.00566262280263,8.97893150400836,6.24764064607388,1.50620542388605,6.75244900802574,6.98896133208775,0.707891903247422,8.90166345161803,0.408040762552385
8.75788007948514,0.188018183793859,4.76597324864049,2.85160941937361,1.02047186663282,8.93149374630357,6.24460013156169,1.51757562579094,6.72490317049225,6.97641664698805,0.720589658109216,8.86799484510483,0.405144841789604
8.77348760016736,0.188728679038325,4.75126179211122,2.87842624051647,1.02883324881074,8.88386864910203,6.18811615503728,1.5277253415194,6.6838787566553,6.95414868259712,0.684923557701475,8.89624784048875,0.387379567821623
8.80616152284605,0.245301990870192,4.71858087917208,2.92662754582011,0.964063083976231,8.95075422628691,6.406209509986,1.48509783142289,6.71054900103981,7.02610019057834,0.697344618404737,8.80858023699991,0.418261782357706
8.89758251473992,0.211319123251768,4.65716262291355,2.95152767897628,0.994186153247278,8.97836049319659,6.3892469687358,1.50213086679203,6.74032619484068,7.04753565453445,0.603039700079993,8.82839490873137,0.413254374799323
8.78795300377179,0.225419865094775,4.76120036265601,2.88024574337459,0.987520632355124,8.92470049795025,6.37909533629393,1.47570602148191,6.71561506082868,7.03279485476586,0.661904325650119,8.77220622056348,0.356017924949008
8.6395259212993,0.413610883273433,4.7338089582378,2.80675008596981,1.30314127338714,8.66545874416864,6.21450272531416,1.38362872318306,6.71554643428778,6.91496569632372,0.616530065557047,8.41792163780211,0.288518236862722
8.77384999244477,0.32501456454585,4.67814922683207,2.90731402141835,1.15387538884586,8.82721163785206,6.29168555897988,1.4612685684679,6.71205750054696,6.98362144936678,0.644320010431009,8.64144723373736,0.392044227081367
8.71363167993594,0.247015457757131,4.75381697099826,2.86063773998144,1.11013671251554,8.83436099680964,6.14345328159525,1.52033599726679,6.68061530922184,6.9296784767532,0.735818158365665,8.81334015389971,0.408674471846807
8.72004521418055,0.613162725551077,4.60347578803375,3.04107998409212,1.34081392066421,8.59441580967172,6.37094685091305,1.42314772907118,6.59711099417218,6.9886433014847,0.672810017976562,8.26651695507178,0.405183321835009
8.84581185420304,0.476428774283568,4.45854248948157,2.95751931523475,1.27541093084414,8.65453755171679,6.18886389624636,0.99032078762387,6.55452406261863,6.90857133319929,0.241362785935107,8.52768886203822,0.272552722263162
7.57459066319707,4.24250723613549,4.42209103020889,4.49611779879172,3.42278837693114,4.31913516690674,7.12113240322727,1.60666958279726,4.29130633158449,6.21833686277097,1.3876262888563,4.08596509693142,0.40161590886698
