"fastcoef_sq","pref_flow_den","slowcoef_sq","soil_moist_max","soil2gw_max","fastcoef_lin","gwflow_coef","jh_coef","slowcoef_lin","sat_threshold","carea_max","smidx_coef","smidx_exp"
8.59147549895368,0.100068557397781,4.89999446949833,2.66205917542509,1.05420742732887,8.99360072349686,6.07337815091708,1.48726010602338,6.78984266873136,6.92724077986243,0.854146281109623,8.93796846414769,0.406676987135415
8.59645757119885,0.101085640831798,4.89673213161081,2.66832507423627,1.05151272090326,8.98968718286111,6.07389333521287,1.4894968960938,6.78502142975582,6.92611886635123,0.850699012107809,8.94214176417909,0.406821440242709
8.59661668335481,0.100888407179282,4.896941582692,2.66847194648601,1.05081679058324,8.98946693776273,6.07422949490082,1.48957311121361,6.78471032387061,6.92606867687403,0.85036750484451,8.94253998406301,0.406396890150845
8.5955880862608,0.10151262158127,4.89667557029965,2.66680738783127,1.05452153414233,8.98958688337593,6.07263149986624,1.48893413723929,6.78648662256051,6.92621447994802,0.850702208629271,8.9393854517238,0.406775880762089
8.59665961806069,0.100945724490933,4.89690303986721,2.66855891718583,1.05082941883509,8.98934771388352,6.07423304873646,1.48959623073663,6.78462875649228,6.92605344299805,0.850290441727586,8.9424898178667,0.406350226476049
8.5970556099951,0.101047313447019,4.89662172212994,2.66909040606477,1.05064142849889,8.98902441389541,6.07422858812503,1.48979714613957,6.78422145233879,6.92595615644725,0.850043274848947,8.94283433148459,0.406395417672148
8.59743991969716,0.101150146362032,4.89635731414567,2.66960821843777,1.05043512127201,8.98870898241185,6.07426743907096,1.4899849396924,6.78382580066468,6.92587231087707,0.849788799153508,8.94314621571811,0.406416621046249
8.5971194163234,0.101061895281411,4.89631217189941,2.66890162307006,1.05137229261371,8.98930458253199,6.07375442760026,1.48973361808917,6.78461357341575,6.92595260366102,0.850221162394591,8.94273551358179,0.406888143993414
8.59723691241222,0.101414093545457,4.89585938665112,2.66890419548271,1.05251535474289,8.98901238137863,6.07323844365852,1.48969934018449,6.78483456630482,6.92592271301812,0.850023816979451,8.94193848416307,0.407086648188345
8.5984421596826,0.101170658158766,4.89538148158159,2.67038759729259,1.05076975545764,8.98868817612313,6.07370795605736,1.49027594264019,6.78359289319443,6.92567979543606,0.849566195515198,8.94414215277746,0.407285367947419
8.59879830226798,0.100895047249277,4.89510738198012,2.67075958891532,1.05038717855018,8.98899833525628,6.07321708478669,1.49050965069623,6.78329904330763,6.92547663531794,0.849924664396134,8.94558118872205,0.407977137052449
8.59993095670784,0.100306561669828,4.89530882110131,2.67257126872114,1.04660858283252,8.98877868715793,6.07485770582703,1.49119571168401,6.7814069083426,6.92531443707537,0.849502637390413,8.94879592528848,0.407577748663581
8.60149634421575,0.100691927137385,4.89436971692819,2.67458533597788,1.04529600146425,8.98788904085496,6.07590518400562,1.49175101719179,6.78003010011906,6.92527881925589,0.848404404898395,8.94980128223775,0.407495539359601
8.60209375182651,0.10028537482578,4.89349648640619,2.67481026586288,1.04616550698043,8.98838500973235,6.0738797708616,1.49211690272125,6.78005307827956,6.92474325245114,0.849096926020896,8.95184123328805,0.409178046125327
8.60200355919677,0.100939135039229,4.89348251546178,2.67453797131834,1.0474585255181,8.98709099058902,6.07416248259931,1.4918437901271,6.78026735439434,6.92487001133552,0.847767668146837,8.94921515709338,0.407862547578477
8.60122330982147,0.10092109976367,4.89314766387166,2.67332778442885,1.0497073200303,8.98846661331836,6.07241328304142,1.49153121740517,6.78171919724159,6.92489526657095,0.849343038046798,8.94882270889124,0.409565722759823
8.6016581054148,0.100462776461768,4.89429298582162,2.67478708394298,1.04469923828138,8.98844904192525,6.07607097496655,1.4918812936071,6.78001336952218,6.92528197981469,0.848848185258078,8.9507706529749,0.408021671403382
8.60323528024581,0.100218834662166,4.89392242580175,2.67706083665711,1.04174967116789,8.98744419287321,6.07700099912631,1.49271700400721,6.77776259643557,6.92490778785978,0.847879700823967,8.95370632312527,0.407653676559518
8.60498609747886,0.100367177857112,4.89182302161582,2.67843639382012,1.04270121395669,8.98832293131574,6.07607207326171,1.49324582921081,6.77790702936474,6.92476369907006,0.848304798135914,8.95555357082554,0.410216087444826
8.6080878578336,0.101084615430458,4.88965412949275,2.6814389255539,1.0433841145795,8.98452934182244,6.07475672566182,1.49436326090833,6.77534115642932,6.9237311301991,0.844761875061137,8.95638489538633,0.409337378201957
8.60648796140884,0.10155438996091,4.89080954695132,2.68085148054104,1.04271632652413,8.98477635529135,6.07585359389706,1.49393787524476,6.77537990341538,6.9241453968235,0.845687538841114,8.95489357102026,0.408623627692191
8.61411232861804,0.101197726233107,4.88528303884446,2.68930683169334,1.03717614355306,8.98539796801866,6.07698638048078,1.49704964791936,6.77081907754361,6.92331005695796,0.844949146246694,8.96622964209038,0.413968073393403
8.61600331202493,0.102317339071566,4.88393591139594,2.6906866094203,1.03735307634378,8.98442910785947,6.07978335836931,1.49645851693369,6.77066571316744,6.9243307628177,0.842055870429774,8.96345232448617,0.41268613860542
8.62302377476003,0.101889430302758,4.88107759679041,2.70042044351496,1.02971328062632,8.97674001568776,6.0780852245787,1.50101414744206,6.76049151885158,6.92092097022621,0.836749286619061,8.97514263078541,0.411240459333819
8.60638926044403,0.106715492138801,4.889693641778,2.68235045227792,1.04570221879778,8.97956029937821,6.08138806729715,1.49244851714954,6.77515346592844,6.9249644358388,0.841506730318129,8.94341984795835,0.404633151135764
8.61889561828787,0.118670719125624,4.87779508985997,2.70125414795702,1.04392967019861,8.97151235201572,6.09708443564126,1.49561414005139,6.76685950239204,6.92834239834538,0.835151012957928,8.93553640687606,0.407985390315139
8.11425270869758,2.17183059798063,4.6475485647892,3.61339984163544,2.20465882390253,6.65051420819402,6.62905980828051,1.56154678675716,5.52267901381464,6.57541973083854,1.10505077458594,6.53603705461739,0.404561617387431
