"fastcoef_sq","pref_flow_den","slowcoef_sq","soil_moist_max","soil2gw_max","fastcoef_lin","gwflow_coef","jh_coef","slowcoef_lin","sat_threshold","carea_max","smidx_coef","smidx_exp"
8.45071346676865,0.857207944417941,4.5124923095102,2.91267864236306,2.19879366968658,8.02638342758668,5.52021915896255,1.49387152119555,6.55159287599808,6.68921055318907,0.664488805939568,7.80448980545443,0.3894635845418
8.45040626537326,0.867331026113455,4.48626059657294,2.92869230669752,2.20793466357158,8.00680501886863,5.47455905534036,1.47751460542655,6.53210852982983,6.65613126617913,0.659652008148644,7.83625053715408,0.402698211563695
8.44520579980884,0.869421073374569,4.46421090755766,2.93505453850232,2.22092514200049,7.99556008036236,5.42522953286449,1.47471579614776,6.52484679460809,6.62460038479677,0.662003372372909,7.86508660228484,0.418210301443085
8.45900648070541,0.864607500163407,4.5032785769443,2.92524633091571,2.19271176828745,8.01841550227983,5.52341941619645,1.47506739872586,6.53646771078778,6.68735739239323,0.651862119776173,7.81160758789654,0.387637377672576
8.44958123736979,0.874473061106614,4.46266346087959,2.93744163115777,2.21395446915469,7.99705001076953,5.4335567459342,1.46232237115823,6.52100545105368,6.62481928915558,0.655418669653626,7.86498999252092,0.415463966156175
8.463820448187,0.865067601890819,4.4438076413471,2.94518841488196,2.20497181527494,8.00636350134176,5.42948339304947,1.44366870909076,6.5163055848791,6.62472445640881,0.63402021306428,7.88767908270624,0.41661487721218
8.44616984906649,0.876006651094559,4.50887194000057,2.92237362342618,2.21335750196539,8.00088220962363,5.50933638390367,1.48614811169931,6.53541336058109,6.68022587110565,0.665833573892302,7.79298742257192,0.38883653956814
8.43351770451736,0.90928517910082,4.46870675646384,2.93444691825442,2.25753079437815,7.95334147992371,5.41989163469217,1.47262124457621,6.50954948303643,6.61347786034153,0.668749232857219,7.81024961620048,0.411452344654295
8.45741010123099,0.872090980870641,4.44905093413261,2.90521938954488,2.2589379168441,8.01493575864476,5.41880910505014,1.40883249120731,6.54684248640127,6.64297733667522,0.605937117327425,7.82276939844854,0.397307303161964
8.43327203432323,0.94688721307401,4.4534117787345,2.9561488618478,2.27061186487134,7.91113735380225,5.42438255087704,1.44142589782755,6.47736234044947,6.60508998017656,0.657769612256669,7.77953657120705,0.407935922833334
8.41260963867914,1.0079305968468,4.48357112509151,2.93807896278256,2.27470884968884,7.89304427029289,5.47866151847892,1.45265488158351,6.48609334996905,6.59187031454996,0.690857328567117,7.69381869091325,0.395077153109651
8.50796174641666,0.903952628768865,4.38543589065215,3.00521784609201,2.18029082609235,7.97880345463221,5.40558662448744,1.33963699517447,6.44789117682987,6.58848221677892,0.568039708698227,7.95582676790414,0.419057950374239
8.39592536696865,0.899318248370319,4.47427029703036,2.8751776630879,2.35446979280076,7.95983801464322,5.32927123105284,1.47393214092839,6.56605144660269,6.60623872443317,0.673789104712306,7.76161409229271,0.410842272925755
8.39923832840725,0.899933815129109,4.4558614525236,2.87611350940501,2.36134856463996,7.95818215470829,5.32121561814899,1.46545259933317,6.56409173953282,6.6026079174782,0.659196149985811,7.76013524605858,0.415928935411953
8.39520657758845,0.920615114035111,4.44731851421567,2.90591549386303,2.35215100602549,7.92220239203852,5.29386076891103,1.45432755371683,6.52263984252566,6.56933331613327,0.667375832282154,7.79574826019904,0.425742555516655
8.64445075826271,0.758790236648743,4.28962630577093,2.97723602528886,2.02256097406561,8.19346288147729,5.49090196079763,1.15587116877058,6.49960304639787,6.65857636688729,0.351445842827251,8.13554391223519,0.391450287547927
8.36214972209008,0.925459799076436,4.46846762949819,2.82653884687412,2.46823910495959,7.93004177429272,5.24385487916844,1.44710792110189,6.59485443031602,6.58953546134951,0.661651334219979,7.6788810760487,0.401223193232462
8.68694232927093,0.744308091834225,4.29260309218184,3.03497629208143,1.95114370419171,8.21719037668555,5.54894373841427,1.12350643169495,6.46608558553553,6.69903440125181,0.332612770779915,8.20874984063229,0.384085516177441
8.69827763949772,0.792847431026429,4.23334872316732,3.0293661673648,2.00514893553123,8.18965624383327,5.52355437019587,1.08331213851192,6.46520725751282,6.6666878329032,0.286189595681048,8.13107941623024,0.38638337418061
8.51068889249038,0.912140011537232,4.32230687973545,2.94631742944217,2.28402980089994,7.98568655177106,5.33397092845063,1.24408211101901,6.48821322669687,6.58701061342965,0.474039625108331,7.8752799404827,0.403828623544932
8.39670808982048,0.880475135308758,4.49953224561586,2.92012299993837,2.2602169719328,7.96379258211696,5.37834121253294,1.55004980994127,6.53692877963442,6.59527977448654,0.739372631990047,7.84431212380059,0.434732434035762
8.25254264170452,0.883323838907931,4.67414726992909,2.84914443570261,2.36836696336844,7.90727670631457,5.37203959181547,1.80984284453694,6.60496008285093,6.62066852807253,0.979169802611011,7.67443936820861,0.424994787751497
8.19030758080893,1.23624399182476,4.41614777555635,2.93592750292978,2.98782929150731,7.46159981006108,4.88797937929562,1.69745594162036,6.46022173572835,6.44804361759871,0.851839963864025,7.25256692751579,0.487127639491374
7.71496674265432,1.296319754753,5.12681768585486,2.73960425233459,3.12936634629333,7.20178697351234,5.04323265636965,2.50708527229883,6.60244357964579,6.50211472280726,1.72028130465114,6.81153609944324,0.435200599409784
7.96957675616446,0.959974155957806,4.91242208755665,2.68043699003668,2.68573360383512,7.7307368825271,5.20892228087817,2.26223717768984,6.76786456040774,6.57076971224112,1.38649971054966,7.32049544539971,0.471165291855277
7.57018337038491,1.17229303655678,5.26263937412581,2.51001945203288,3.13916330635449,7.38781554384401,4.99245185734588,2.83204399035101,6.84462286694067,6.48233716928224,1.91238537847784,6.78174480016043,0.540585403830874
7.57459066319707,4.24250723613549,4.42209103020889,4.49611779879172,3.42278837693114,4.31913516690674,7.12113240322727,1.60666958279726,4.29130633158449,6.21833686277097,1.3876262888563,4.08596509693142,0.40161590886698
