"fastcoef_sq","pref_flow_den","slowcoef_sq","soil_moist_max","soil2gw_max","fastcoef_lin","gwflow_coef","jh_coef","slowcoef_lin","sat_threshold","carea_max","smidx_coef","smidx_exp"
8.82029784383624,0.558508020295382,4.53146353439082,3.16470725496099,1.25687112441961,8.53912583827004,6.27455286438168,1.50417796057558,6.49043668934703,6.93264568965717,0.596095782790409,8.48269772920591,0.418784232144209
8.71850188156619,0.621543145931163,4.62208013548477,3.09182846933063,1.32269741079652,8.48006066907426,6.30453742861023,1.50738345968195,6.51450056532117,6.93897932963087,0.673580871906151,8.31732056251803,0.373242495425772
8.77692418334515,0.603511941716537,4.52770804434119,3.12855681016913,1.37410326052521,8.4947132085615,6.18035251657822,1.50838838746662,6.50412139933423,6.91092385843737,0.624598392973061,8.4016287160969,0.430511631530795
8.7777935550049,0.59335354728738,4.5253800307009,3.12354512845089,1.37521251049787,8.49462347831255,6.17819554888369,1.49793047646173,6.5100344549528,6.90663531457449,0.604427908825856,8.40053416428099,0.420227879975144
8.75164780931025,0.605966605519913,4.52263937423049,3.10724021266874,1.43963868652848,8.45803973040443,6.11527029505036,1.49794801484313,6.5161441280896,6.88137316618634,0.605265202304789,8.36695341633905,0.417227188161502
8.70253587917286,0.724087620087683,4.60176936630508,3.16519117752415,1.27252286370217,8.40971714679021,6.43123853279101,1.47115587322198,6.45709173037859,6.92606057097117,0.671400755075392,8.22619795427865,0.359403654252347
8.83241704386534,0.59549865044501,4.46342350480756,3.15198857100435,1.33334402275177,8.52673594083442,6.19304257393869,1.40680119023165,6.48065325522009,6.9132805247678,0.528399005034501,8.4557465201979,0.425456671455757
8.77162479020933,0.42455566706127,4.6308570104348,2.83817749634317,1.52192624858005,8.71074279908443,6.1658714257281,1.36763799707673,6.77070999722318,7.07456407993268,0.456597910677938,8.22756239283003,0.266416166993503
8.61889933227245,0.722300385046752,4.61215059835051,2.93821458661473,1.67572679310009,8.36016153516899,6.12158111557484,1.39763510653097,6.59746085718635,6.92243764372325,0.599130258527398,7.97114611310992,0.306021232500884
8.74948764303627,0.470656130466644,4.60238681518497,2.84533135679398,1.58764753548375,8.64866943570873,6.10064713886817,1.35011746026205,6.74449118025259,7.03764769487023,0.454163612370538,8.19238591571783,0.279496702892384
8.75557400940665,0.832066572149154,4.5401868197269,3.32419201061724,1.25066746715769,8.25337629619676,6.4656511749487,1.44871476394478,6.2953067297862,6.88645638760901,0.65897349357847,8.24379605838331,0.380420015450824
8.57948562482452,0.942540382151814,4.73290556757299,3.21554356786344,1.34728397073244,8.21034647742805,6.47766533291924,1.44990078185615,6.30898447973892,6.92510923100789,0.814755595749662,7.9903270101065,0.305517836635171
8.55514038524182,0.617777504098716,4.63092317645334,2.85258847163403,1.71862360891762,8.37118574375962,5.90375168292451,1.4274005136785,6.64095263881101,6.81991744901117,0.629323776659602,8.12248595657918,0.330146777450777
8.68913701644691,0.629929469215176,4.51769471910493,3.028444084486,1.61580377874247,8.41590811948431,5.95972387716253,1.48939504646171,6.57174036873062,6.84149263708228,0.606751904299232,8.26158855318214,0.413514421742087
8.47542664705407,0.736412922925962,4.61897040690461,2.85762192328186,1.92420684646852,8.20544147513649,5.75058455859278,1.49348530876631,6.61128656091289,6.74715341032944,0.698693763613212,7.95649795657044,0.354974788630923
8.68010781591591,0.839243277873138,4.54608625478572,3.0666510688328,1.56328477692449,8.31513963102289,6.43662401672047,1.29680874192142,6.54724029778441,6.98104370884867,0.484201304865901,7.81386856376481,0.25266116592996
8.67651330235001,0.856629447377052,4.53705087631575,3.0731524362803,1.58555199617672,8.29438363229717,6.41523789676365,1.29121168253197,6.53431469130358,6.97315183591049,0.48446614217047,7.80380365962404,0.258607908825063
8.52497940428168,0.713515264472524,4.57846618203995,2.88800403658127,1.87867203649363,8.24009094565733,5.76560460439025,1.43048323278361,6.59226251235232,6.76223050190823,0.633263990049659,8.02615498426581,0.352504209958674
8.71613090915609,0.676973482898846,4.51192868850516,3.08234173298627,1.57444998651594,8.37779624221217,6.0322853792631,1.44716469027634,6.49741221744127,6.87035737601278,0.591334787484571,8.2483676670187,0.404820052889896
8.51600535575105,0.963184340378983,4.58451992367649,3.09038855421676,1.79353579536021,8.07330998561919,6.08900187117434,1.37035856085048,6.41859301813833,6.88066672137333,0.641747196322646,7.76448963321492,0.290944520847259
8.50913689104745,1.00458818589604,4.56125307829255,3.13454284427969,1.77579560318807,8.04798521968818,6.07940266502959,1.37443677548339,6.34461606950673,6.83565587006382,0.69493665288247,7.77738211358643,0.341209430696846
8.52017716570934,1.00517370429449,4.56403844148018,3.15001477805699,1.74177421868296,8.05257213615977,6.09717221097358,1.36291046338746,6.32880480154952,6.83168865749704,0.691042166543435,7.80905808585338,0.341087467076098
8.65820461232608,0.606511312477726,4.56648294246098,2.85348272395527,1.81229446825564,8.44718741649435,5.91049741145133,1.3562274115492,6.68915714677796,6.93664687754091,0.492976866083749,8.03636863432359,0.30262214210541
8.47658193935865,0.781388567480971,4.56364246476972,2.81174248120902,2.18334233008867,8.16709957109562,5.59196003606893,1.44642894295529,6.66117720399779,6.78438377606335,0.61611227055755,7.77388156646435,0.33963033680824
8.66952827352767,0.613001815575719,4.49326348281072,2.9309324894975,1.645995780145,8.40632711883027,5.90287971590978,1.22970662135456,6.57160708502453,6.80905351579663,0.45200181006588,8.25428673567807,0.324642759863011
7.63979200655534,1.10456861007129,5.35711864424983,2.56609231671865,2.88991470131076,7.47895056728253,5.29539022866594,2.89284107307094,6.81980512641875,6.61174384897074,1.93337307362136,6.84632230522741,0.502209267433992
6.98774964054814,4.27029086472869,6.26775596919643,5.09015957577119,4.641078929967,2.82436286012778,6.30990555392464,1.07205204619924,2.63894784121528,3.49547444805602,4.42133357200888,4.42817180693902,2.44126500747127
