"fastcoef_sq","pref_flow_den","slowcoef_sq","soil_moist_max","soil2gw_max","fastcoef_lin","gwflow_coef","jh_coef","slowcoef_lin","sat_threshold","carea_max","smidx_coef","smidx_exp"
8.61673744656971,0.59500269446248,4.67437092044216,2.85070465237677,1.58092181598692,8.66002060364192,6.26668692719869,1.39415516137129,6.77673870172408,7.00151241836634,0.79048915722497,8.12077118977743,0.454108840713807
8.82988275647167,0.560755249278237,4.54224178901398,3.17911085539472,1.22408549658182,8.54882124534669,6.31728552003841,1.5207562881897,6.47903609990395,6.95441384257793,0.614890617255014,8.48968738288083,0.424052016091052
8.89523859841112,0.35138957078075,4.62302154884932,2.98555951828067,1.04294872687703,8.89290917252631,6.65079004416021,1.46859076894541,6.77368931112323,7.1386912519187,0.487881737986978,8.44904764431557,0.307491265111921
8.77749537232405,0.600039758449767,4.5285908631697,3.12679844052726,1.37170253031298,8.49736428983401,6.18144609108979,1.50713689110216,6.50583863285699,6.91143642637951,0.621516293299682,8.4037778038425,0.4289892423647
8.74022701218529,0.617095566767239,4.52478960318363,3.09096276786923,1.4701301806145,8.4595732894311,6.09178165965237,1.5041108476405,6.52748847277692,6.88181822610616,0.622145093479644,8.34602995416668,0.425692281547782
8.6694222769461,0.646955510236903,4.65434782014379,3.12245377349317,1.07730158594416,8.62894931759147,6.63849501990629,1.40909624856896,6.50813544960596,7.08558230715921,0.677695044584526,8.21571926647775,0.327328947859617
8.75246388981361,0.652720071366348,4.63369186465099,3.19989261180694,1.03256680564543,8.56884229628744,6.65033783581944,1.4676572697735,6.46111612602861,7.0247463448548,0.683114115041204,8.33915862992174,0.356294953867576
8.63557571428687,0.844517669098221,4.77349905099868,3.06751089085811,1.240309742196,8.4550839973725,7.04135884939053,1.5174628272239,6.67069198747605,7.15022009486738,0.692940721562864,7.63619147039024,0.192768246095326
8.88700632325883,0.580338754853782,4.62699151407591,3.28034062893461,0.748308097609071,8.73821949081606,6.98584170151605,1.45519418579932,6.47661284615104,7.12364029803791,0.645315913845494,8.4718390039747,0.365067277073416
8.83966057541474,0.335256408576305,4.63606895059622,2.83765097391522,1.36503812614541,8.84852842582808,6.2845625930319,1.34425969489682,6.79916220892325,7.13469274287047,0.416270270942292,8.35133622424826,0.258296946199099
8.73581211772537,0.768689738620744,4.62277874625971,3.27184619950438,1.0238225486271,8.46557729866067,6.78275919966886,1.45645845989919,6.40101687294606,7.0222788458796,0.687036567305322,8.19558673441642,0.340511925184705
9.03176594776709,0.465640035167788,4.43618007721908,3.23441083922074,0.744902726799523,8.88031477014078,6.84113158851039,1.1027893912441,6.49903815195728,7.12719260108375,0.285277252951597,8.64599383346528,0.30135505058242
8.74888720756146,0.470927172059098,4.60288231102114,2.84506204480009,1.58835607156123,8.64816849870425,6.10024225134856,1.35094041292773,6.74467574094312,7.03747429450392,0.454989303533587,8.19165265906339,0.279558803310575
8.51977926207715,0.887560045471126,4.69093359035814,3.13075294448156,1.5667769270498,8.19002711237459,6.27831295779532,1.53308339826977,6.40412318948159,6.93434486165863,0.81117339634803,7.88458853086642,0.334235508244328
8.6213418015401,0.898084956501816,4.54837748423241,3.17081824055952,1.53066529184702,8.23469486945342,6.29018441652802,1.27520552905436,6.36016538256519,6.94830998485508,0.589399103790617,7.94149842622473,0.307461476776223
8.58078797188171,0.623631265533451,4.6061658099782,2.89120192483299,1.67873506374313,8.36749720695954,5.91651673967291,1.40478952612235,6.60712533703962,6.80969511615355,0.610253811596506,8.17090443476354,0.337910408490867
8.68300573091603,0.823205931450804,4.55508869176122,3.06024801758578,1.54245411389614,8.3342298934074,6.45718412874704,1.30246297282304,6.55958077686197,6.98824804000454,0.484400203979929,7.82234502721538,0.246745672967636
8.67979464313131,0.839806457437687,4.54692634127691,3.0664573096217,1.56377681369551,8.31449447090108,6.43781741462181,1.29756398966413,6.5472803499296,6.98164707561629,0.48467588003666,7.81196432640847,0.252268037501749
8.67573256414004,0.856113579123989,4.5364695613726,3.07146530938439,1.58842769433407,8.29473455143115,6.41165056816254,1.29069809307007,6.5358728672009,6.97230893402745,0.484083917917081,7.80334653253176,0.258760785906457
8.52611530870722,0.70881558780337,4.57937127441735,2.88558029131549,1.87503107842393,8.2464662501481,5.76832529815497,1.43241408515767,6.59630739120657,6.76447667242908,0.632927798061476,8.02903057998644,0.352660971202089
8.51032263210378,1.00326531037454,4.57739781784551,3.15947165688158,1.71808197425512,8.05425766829178,6.12142068689097,1.39982165919014,6.3264293967548,6.83667201493459,0.72565163856233,7.81254010531403,0.349111759497558
8.5072406381987,1.00516679364066,4.56302066503858,3.13317251729375,1.77820640522913,8.04732953102809,6.07848883109908,1.37777447519931,6.34630970164137,6.8354639690739,0.697872274697091,7.77441981721802,0.341565259838272
8.53090412653833,1.01827237003961,4.5631713700644,3.16385621012896,1.71545352563648,8.05656425038048,6.14954618117737,1.33699924112538,6.31480902931305,6.85362615607966,0.675355326040958,7.79089123040071,0.329656172034057
8.63396381779326,0.57669369327872,4.62525783489777,2.82715685465297,1.79681657642297,8.47334980388711,5.94442634962969,1.44632148910959,6.72720500233969,6.95363866060089,0.554145508204405,8.01522815629872,0.294697462380197
8.48611091588035,0.772133090246039,4.59592827891019,2.87795118501661,2.04674853874092,8.14941377380306,5.73012641636721,1.50264828127645,6.61905410838319,6.78331725437391,0.646553976736918,7.81131886834919,0.322683662972749
8.50482107356924,1.00393450500495,4.57303783408983,3.13120457920207,1.77417146337114,8.04191928948231,6.05656122844155,1.38992935074277,6.34426900627202,6.81236292626501,0.711406482409052,7.8023850562211,0.346757000173191
8.71093631325686,0.715380677552082,4.42451379964452,3.04362836309245,1.70449991463786,8.36295237643019,5.85492119064035,1.32782617205076,6.51052421326218,6.80094760948011,0.510168960886452,8.2363352993547,0.422791743017817
