"fastcoef_sq","pref_flow_den","slowcoef_sq","soil_moist_max","soil2gw_max","fastcoef_lin","gwflow_coef","jh_coef","slowcoef_lin","sat_threshold","carea_max","smidx_coef","smidx_exp"
8.65348597054671,0.101605163933373,4.87301171184436,2.73086587930866,0.98723581944168,8.98087938821427,6.13582958472933,1.51658376470792,6.75343119404242,6.93205775220873,0.822612526260079,8.98586520121076,0.407435866459846
8.65391475419811,0.101153959825762,4.87300609936951,2.73068188447916,0.986529270873928,8.98189324948131,6.13698721333375,1.51642399071705,6.75405169604479,6.93250259890611,0.822475260315569,8.98610901230335,0.407507325907883
8.65352988936599,0.10117307577097,4.87306124407489,2.73092841845215,0.986852922485153,8.98103008146144,6.13515323432193,1.51680018836557,6.75321114928183,6.93180416357741,0.822711021713951,8.98700301552392,0.40755573233539
8.65481887156569,0.10144207620317,4.87233718233617,2.73101017167526,0.986565016390032,8.98258445352161,6.13882606779983,1.51612615104122,6.75475503968041,6.9333325632865,0.821794109293858,8.98494938754623,0.407606009909229
8.6541744213312,0.101245428313237,4.8727111953194,2.7310560717182,0.986635492471953,8.98161731446684,6.13667267818757,1.51655508836665,6.75376082691266,6.93241523888649,0.822204646392957,8.98627749663094,0.407527210466493
8.65438760111371,0.101426455528883,4.8724591507413,2.73126783418179,0.986860431591015,8.98151402894744,6.13676240247817,1.51653272151868,6.7537528662668,6.93252535477378,0.821917055092666,8.98594914095031,0.40749121297643
8.65430573746779,0.101550722291468,4.87250758713804,2.73128804890962,0.986779372122669,8.9814999763751,6.13702700779915,1.51648189320797,6.75373814025119,6.93256750974264,0.822032324937183,8.98577368112496,0.407504909232853
8.65261115618463,0.101087463602898,4.87369925834558,2.73027889293102,0.987364269639128,8.98043530382788,6.13378477709636,1.51686073529462,6.75300578490404,6.93125514645494,0.823233013785504,8.98710677231428,0.407349564190401
8.65552468089774,0.101893738140796,4.87142335095314,2.7322980017134,0.986922193803451,8.98158413626248,6.13780727108565,1.51648691398509,6.75371002938861,6.93307334317411,0.820914976072069,8.98532074385067,0.407572556155496
8.65494124574287,0.102097170791552,4.87175173781973,2.73225519372994,0.987109503707793,8.98076314560871,6.13692335845036,1.51661285868539,6.75314187293852,6.93257093870943,0.821226976006489,8.98541857178659,0.407397344594417
8.65538500772568,0.101970892492496,4.87148157470878,2.73230773619371,0.987120165270113,8.98118638553743,6.13736518970587,1.51657527441834,6.75348859776609,6.93286159649394,0.820925034081558,8.98532024758364,0.407483626491745
8.65506155741212,0.102047726020142,4.87171391448909,2.73218260278287,0.987107405169754,8.98099092753788,6.13723478044934,1.51657484818305,6.75336677190916,6.93272153792589,0.821199144869348,8.98527968561105,0.407446740108345
8.65542428926037,0.102152690728274,4.87136293134406,2.73259177446286,0.987143725799535,8.98088174353298,6.13720670251863,1.51660720333161,6.75317911048626,6.93279847907642,0.820792085373808,8.98531109635243,0.407419392598141
8.65507082266964,0.10232944054536,4.87149973207475,2.73272047290433,0.987199750699393,8.98036234277828,6.13659101362395,1.51676567694334,6.75271558898053,6.93246575438612,0.821071487296761,8.98551275255371,0.407415059105149
8.65582297529964,0.102158097517381,4.87112575263217,2.73270101329158,0.986961193505442,8.98133935074485,6.13807868853758,1.51649766277211,6.75351757276084,6.93315513094195,0.820597112804572,8.98504715646627,0.407526713338227
8.65454684554766,0.103354165860449,4.87078171479524,2.73488207489598,0.987598559778171,8.97727740420163,6.13220674346619,1.51727709371026,6.74913313413694,6.93057481942218,0.821342920390951,8.98791284075122,0.407771518883487
8.65651830252736,0.102617311795474,4.87047400438693,2.73316808008998,0.987387401173734,8.98124664957796,6.13895055874648,1.51635137691822,6.75371096068808,6.93360811709545,0.819775703972181,8.98392417312333,0.407398212017299
8.65755155091783,0.104820373157406,4.86876452055076,2.73591516660484,0.98821713686732,8.97871975440389,6.13919776168933,1.5166747812135,6.7517182965692,6.93354137205768,0.818399894898942,8.98218812326672,0.407204895800706
8.65724556393774,0.103932898699399,4.86923526752633,2.73532831970165,0.987689797236154,8.97940045408282,6.13833435531275,1.51669788413193,6.75188355098087,6.93332116404896,0.818770425261553,8.98366819199142,0.407286180297543
8.65739558842134,0.103636419298913,4.86914381411126,2.73545685814782,0.987607013443535,8.9789964178742,6.13738323359589,1.51653926132837,6.75143166927091,6.93294375453132,0.818127530340056,8.9844574315814,0.406905082036856
8.71597742967726,0.14601218629932,4.80989100652214,2.80665132733535,1.00868225109946,8.93222723517607,6.16348641977502,1.52213339167624,6.71861045400103,6.94411509955098,0.751230826718529,8.93964493776331,0.397330588711435
8.71615862581596,0.214155129053082,4.77333472388256,2.82109521778629,1.07120332111702,8.90389872955108,6.21527112174632,1.48890500515048,6.73269982594686,6.95885148293581,0.730929053083296,8.81224463438761,0.399662918341307
8.65326390695584,0.180379856876134,4.83574751041079,2.75140414166279,1.066254258163,8.90384017417595,6.16051116805577,1.4826588572609,6.74565468170227,6.93017303142097,0.76839236843752,8.84097617484743,0.377900992572626
8.72054901415284,0.163306028405477,4.81715837571814,2.80571034789987,0.987348603225751,8.95243370569591,6.25620729580202,1.496441203748,6.73399283167377,6.98195029150729,0.742425554381226,8.88005161965399,0.381811031855952
8.66536982045766,0.171248060142349,4.83428937746355,2.77723873997755,1.03294491011967,8.92688700257619,6.16736104965962,1.50528336055482,6.72905618327468,6.93973728397654,0.799447861667678,8.89122976643761,0.406572468394578
8.7030271554466,0.195508096873851,4.76826872728841,2.78843987458683,1.05925018149504,8.89972746798238,6.15042375185666,1.38492755272276,6.70399240151374,6.92691451187909,0.675962850575457,8.8707372304207,0.373712245920044
8.11425270869758,2.17183059798063,4.6475485647892,3.61339984163544,2.20465882390253,6.65051420819402,6.62905980828051,1.56154678675716,5.52267901381464,6.57541973083854,1.10505077458594,6.53603705461739,0.404561617387431
