"fastcoef_sq","pref_flow_den","slowcoef_sq","soil_moist_max","soil2gw_max","fastcoef_lin","gwflow_coef","jh_coef","slowcoef_lin","sat_threshold","carea_max","smidx_coef","smidx_exp"
4.95781059509247,3.13085251561826,7.58397784234996,5.59542417327122,2.39145657992501,0.817810970769729,7.22252961830929,7.45533543948972,1.94428647907855,6.1782576458638,6.65918547808445,4.47938762899022,0.205110359065137
4.86489469886186,3.14839859738902,7.56250512754498,5.62792355874914,2.36132673207975,0.796648517531281,7.14592042983984,7.32419244137632,1.83210367951394,6.31087757253867,6.667557586077,4.27422118449725,0.266166124976814
4.88404481597371,3.01622491029863,7.55698325085866,5.57315696160717,2.13009153921185,0.744490946743372,7.11940076200666,7.52125490960934,1.90361909853825,6.32982234706043,6.7944603024892,4.29716565041752,0.266104196495174
5.04481482058844,3.25777638727526,7.58757120348076,5.52416942361852,2.43819500239672,0.908852256992758,7.11443998572293,7.45719923448112,1.90709431001147,6.24244602164771,6.51299335791526,4.29363393708739,0.319827777052083
4.79805782633054,3.04266098957722,7.66008807746488,5.73812449440449,2.27493665445158,0.763452441793703,7.28430452772778,7.37147778488363,1.73832465201801,6.22767293959854,6.59988621564915,4.48440444340872,0.206978307988648
5.05134081551405,3.30869078319936,7.38015707619479,5.67820122823347,2.32357938327498,0.851407246534673,7.07404123530212,7.25345727922083,2.09480402258712,6.10014125280738,6.63385948826011,4.3932236543682,0.226120836476363
4.95397429793364,3.27934548287298,7.49415784978361,5.31605049313235,2.36479243481031,1.02269085222795,6.93516652181856,7.56790961149233,1.94999322014561,6.2642391945286,6.71952665759857,4.238887581782,0.295054384943391
4.38364353014484,2.66848240410019,7.33980158306772,6.11829147069274,2.1875614998736,0.465586932794396,6.82206952539912,7.2425500923456,1.8131116973018,6.46462141090386,6.77065035125389,4.20662481319948,0.277104055886121
5.04948082687323,3.44573932910612,7.65812517637772,5.46623146131636,2.30182318287365,1.16607425661947,6.98636384300586,7.24611320160997,1.77071941247399,6.4285070730367,6.42078566914255,4.3946020959526,0.342678629125211
5.28937291152694,2.81532560377951,8.01621621887941,5.87302177477735,1.91477404711467,1.19930123663129,7.20976277247158,7.79183506850869,1.57308197754731,6.75938911491734,6.79181205003133,4.26798700815571,0.38182942261544
4.78533788973652,3.03933126889756,7.56751214536257,5.60321714564408,2.38124783854864,0.947413923341801,7.1579002317413,7.2944225134653,2.1275328846848,6.30969938514066,6.72014182579874,4.37941779679311,0.408513681251619
5.00194501334278,3.17007507969824,7.44942819685399,5.73728794481713,2.26077008501936,0.889718535716996,7.25230488329884,7.20494714926181,1.96454269066918,6.14640759212545,6.19084261135507,4.24707705147426,0.515632855399359
4.59368736958943,3.14600562028414,6.92655692944021,4.91414479356089,2.79118932550623,0.883820243991117,6.86302849803964,7.15163362178719,2.43370995797865,6.08575598919518,6.25379197858797,4.65055569372166,0.460615818908164
4.88982722753623,3.37484884761455,7.52708926934197,5.65648701231451,2.35290513767884,1.07240557724122,7.36053279225448,7.14909015402525,1.77724781895027,6.16522606783842,6.27089766458484,4.25497823869577,0.527194713642766
4.7668313207006,3.1707986598739,7.74665448333335,5.86334905861657,2.38613736333346,1.15268236330874,7.27428557143894,7.28597362520548,1.78413952021581,6.4195093221764,6.28272743857968,4.30590467706425,0.551604327916736
5.0215227181695,3.24520816035747,7.36374864312589,5.34510713947988,2.34492327614274,1.01213509518879,7.32526763354418,7.22845085607568,1.73534725230876,6.3264168385118,6.29979496591609,4.21699945628257,0.637118395264108
5.00815373520289,3.38207649052299,7.68305471716967,5.87648264964395,2.20243006157427,0.919337383559616,7.05042614371882,7.41986064638977,1.87894504632201,5.8980084757877,6.68587174918275,4.38787121773237,0.650248240701904
4.71900295978826,4.20479147320895,8.15294956456471,6.69200486747738,2.45877342656939,1.07901367256984,6.04571895097153,7.43946838945746,2.51022337749398,6.76326186380542,6.72250913066481,2.68136224220289,1.19250813103544
4.14760302254908,2.44526644506636,7.71359160738917,4.9943722065588,2.7975417434998,1.30556172451446,6.21496119833882,7.83556282208577,3.10010481589836,6.65055184272037,7.01900355748246,3.74167266002316,1.90948496203786
4.7104165416552,4.61481518371901,5.71597339506259,5.93102404273869,2.40799802127297,1.66895776852962,7.18425361336353,5.10230492225086,2.03373450325275,7.11091447834441,5.04820256455852,2.74527568634562,2.01871904408583
5.40254235599285,6.20628425503419,4.69441167381963,8.07207780893905,1.9377407397562,4.52152861618551,5.66566042822041,4.93645723007532,3.99268755373642,5.89129521974585,3.40731899389963,2.57548458283771,4.17411575174779
4.80000804441885,4.59297918682172,6.87849253050646,5.05946865399107,3.83290334933324,3.0613269557988,5.86194223358252,6.75418325247009,2.1541379350972,5.80121337614098,6.51573186317706,3.57539828528258,1.55321479835478
6.13638669454037,4.92155382704268,6.94797895325555,5.0827832179406,2.32754310184937,1.51411455225304,6.68622584392278,7.95950368005816,3.76860517588665,5.59099781980051,5.28661593646463,4.41917667034558,1.9568853762763
6.71183801041952,4.63258580695,5.81428939111921,5.83472731961216,1.63079996279596,2.97590292679502,7.60759326839659,8.64275471348496,3.91768971815739,5.29277678663452,5.50437542793637,4.60601778062367,4.5299772786819
4.27583266197886,4.45041017060116,6.90357066081168,6.52848395523208,3.5608911315542,1.49126924560788,5.8055447973216,6.64049133041077,2.00129574137801,6.84354774547135,6.40523370453217,5.86739387167173,2.25336194497004
6.5597654053014,4.96417386630016,3.09154372526316,2.7671229674441,4.16549505703301,8.97498847978231,0.276351718388173,5.8329059965545,5.26291258526516,5.18619346003433,8.01124138703785,8.86918737433312,6.92312928789142
0.316453855952506,2.20473009819865,0.697388854386475,3.02406675924621,7.09986746088155,4.86813679217625,5.85062158413098,2.20729137974709,0.198702284151898,9.46374507350141,2.98397632365525,7.22225960224909,5.3978051198017
