"fastcoef_sq","pref_flow_den","slowcoef_sq","soil_moist_max","soil2gw_max","fastcoef_lin","gwflow_coef","jh_coef","slowcoef_lin","sat_threshold","carea_max","smidx_coef","smidx_exp"
8.56189895291855,0.101225774416501,4.91869836269445,2.63032604926871,1.07263410094137,9.00445597254976,6.0741126506519,1.47521267511826,6.8125737254013,6.93359937174225,0.867745584196065,8.89986972825173,0.397733638370642
8.58434141073653,0.101070747001108,4.90439930266673,2.6541275566955,1.06075343264767,8.99388404957363,6.07278858849433,1.48432157125218,6.79524468493151,6.92842657099701,0.855615583818615,8.9259774320212,0.402883366598144
8.5841066057463,0.101063599882974,4.90494623273134,2.65514595449572,1.05739195946191,8.99542229599879,6.07548370277372,1.48440100608791,6.79456364193604,6.92910848352512,0.856995598446053,8.92752070755607,0.40335519731258
8.58593121766572,0.100352860246196,4.90529088436145,2.65679940502353,1.05534631523357,8.99123328758152,6.07467078226366,1.48537493503063,6.79137554156758,6.92774191097213,0.853225091595238,8.92964753602607,0.400141715102934
8.59639092078042,0.100238366985869,4.89805929598217,2.66862552531649,1.04789005991173,8.98986779339783,6.07595359271521,1.48956771820549,6.78401839837758,6.92623026583497,0.850488819072632,8.94400017004772,0.405529895699887
8.59879059198659,0.100884651746654,4.89634464634185,2.67187029074417,1.04678616101071,8.98784041974839,6.07589695820089,1.49079345832517,6.78151523664669,6.92562724921109,0.848960345356796,8.94604347246215,0.4057757348839
8.59896577495198,0.100781946687824,4.8958692700759,2.67160900186932,1.04777421333928,8.98831153657006,6.07506583548045,1.490759215491,6.78206474550806,6.92555368617726,0.849264699369901,8.94624823352094,0.406606962291759
8.59847697234588,0.10080800103923,4.89657217801277,2.67145304832773,1.04692302670575,8.98808744896042,6.07591931229887,1.49063241834582,6.78183237841904,6.92570683775911,0.849145362496112,8.94575859084111,0.405724431150543
8.59854526950975,0.100699950500092,4.89622767902765,2.67102857212726,1.04808103794795,8.98830559922917,6.07496007880414,1.49057953754023,6.78239136958224,6.92557128688551,0.84927848878438,8.9456930118274,0.40627910232839
8.59790704830993,0.100589806955014,4.89701014256169,2.67061452832334,1.04705351000899,8.98878011432318,6.07611746428034,1.49027256432308,6.78253776078085,6.92592799131483,0.849557702788447,8.9453229827248,0.40570616688989
8.60013591501381,0.100585579489981,4.89512481694623,2.67297955470102,1.04667077296022,8.98822295360603,6.0749060768886,1.49129721541596,6.7810348994217,6.92525478554181,0.84913275253163,8.94852754622777,0.407352828475169
8.60017000600564,0.100595809101118,4.89510489671894,2.67302640544226,1.04664428282627,8.98819318896884,6.07492344349399,1.49131282474286,6.78099907654114,6.92525041379108,0.849105312902561,8.94854793683891,0.407346412424305
8.60010957227895,0.100576954136849,4.89514223886203,2.67294105753802,1.04669041822881,8.98824801011252,6.07490003983643,1.49128638181427,6.78106707837479,6.92526037398568,0.849153894956995,8.9485062543732,0.407355830149283
8.60158056855432,0.100857512953126,4.8939545355626,2.67438406133545,1.04679201134344,8.98736096130955,6.0746519591727,1.4918270995949,6.78025065301759,6.92496140803512,0.848192198811524,8.94931293205141,0.407719935623704
8.60338531457234,0.100779503527477,4.89262801154647,2.67665438507293,1.04541049535022,8.9870908729373,6.07423792840212,1.49269701748041,6.7785923856002,6.92450288003243,0.848027633455135,8.95256893298028,0.408993474167677
8.60150992545827,0.101226520277734,4.89469335337103,2.67510920360401,1.04472298013182,8.98673793653673,6.07720215879977,1.49193031932942,6.77944946128995,6.92545829141785,0.847490041403947,8.94838837711977,0.406138088632938
8.60188546382173,0.10075402268344,4.89409520084095,2.67523156778364,1.04474996972775,8.98785783564808,6.07612481873072,1.49199769430819,6.77960994766305,6.92521570071206,0.848454292590847,8.95050734259239,0.407785554067628
8.6020696713859,0.100826217652627,4.89397063674994,2.67549359813099,1.04464388746235,8.98766261849649,6.07617263794079,1.49207328891709,6.77939659002936,6.925177958597,0.848289441320224,8.95060629401942,0.407749363418899
8.60323769613058,0.100590052611495,4.89357845525063,2.6765963954096,1.04381953540295,8.98641283898231,6.0758466045944,1.49260002473861,6.77814484628148,6.92467188919534,0.847057673062179,8.9520603860942,0.407239855417641
8.60594597556833,0.100929813048489,4.89123092882666,2.67988869612876,1.04204388428803,8.98709716482572,6.07680976943729,1.49356425256747,6.77673794664836,6.9247055380001,0.847163611005844,8.95551321739551,0.409663338206208
8.61384554175466,0.101109101253994,4.885453856984,2.68894354155784,1.03735873613808,8.98562429959905,6.07686626559829,1.49694699552734,6.77109421293157,6.9233406310771,0.845169682776427,8.9660819232231,0.41400855518033
8.62055533099696,0.100657048326175,4.88264238714763,2.69604171805815,1.03228828454764,8.9794628179674,6.07681807965958,1.49977986673694,6.76419785179735,6.92123296394089,0.838838618587142,8.97337892034663,0.411903127093437
8.62190521483665,0.100635895592102,4.88187434913522,2.69728470912644,1.03113556638039,8.9795128662554,6.0779392431248,1.5000528009636,6.76366052135644,6.92135474723662,0.83817294154536,8.97448479670872,0.412193432562759
8.62009633531923,0.100088065111967,4.88401155388786,2.6979174506042,1.02553556348771,8.98179790246322,6.08067308070844,1.50020825548106,6.76222655358138,6.921895005484,0.841397145210599,8.97782673265888,0.412606113465699
8.61252403667745,0.11290801828388,4.879854177345,2.68739697146729,1.04795905383319,8.97623087016453,6.08529634705961,1.47790438920613,6.77108975442528,6.92563459804183,0.826855964379308,8.93718631123773,0.401788699913673
8.61836878932919,0.106498135585552,4.88091890547315,2.69641745818762,1.03544946725932,8.98118752073431,6.08446644458218,1.492957228758,6.76647228711929,6.92647251767258,0.83521714531392,8.95848926103848,0.408561162667065
8.60800119004736,0.163175454156896,4.85600608548001,2.71346310324648,1.13891277292016,8.89868298553409,6.04572309530037,1.53375985150308,6.76258136956841,6.90982325240279,0.832790041426083,8.85085556632087,0.409036506046359
