"fastcoef_sq","pref_flow_den","slowcoef_sq","soil_moist_max","soil2gw_max","fastcoef_lin","gwflow_coef","jh_coef","slowcoef_lin","sat_threshold","carea_max","smidx_coef","smidx_exp"
3.67978844499702,2.42532030728999,8.19285972326937,6.73702674233734,1.45929717613762,0.382942738961524,7.71672889365722,6.78447420264101,0.296591862594222,6.57357999574172,6.1847913786021,4.51952214433822,0.220053950453225
8.79187704537883,5.24744914060306,5.75733219959172,2.17061646607287,5.18793479128716,2.12241566619434,5.7399317922655,9.46791915003585,6.88737032853153,4.99229059623004,8.08236777653148,4.35898408294623,0.160279584900872
9.4980277373838,5.87501016588279,3.60453787165621,4.44043681080739,3.09695087279684,3.27293670535061,6.21633603209838,5.46170650638925,7.21146971398156,4.48268973641651,0.58888190886139,0.642014842690829,5.12863952624843
7.12529626698867,9.9872482027784,1.1959636243699,9.40712887554075,2.41618430337477,8.66011449340949,3.6145919627836,3.08844025750963,7.68878324487862,5.20901044374999,0.629846609197165,0.631447021337206,8.12817755304236
2.99500245501436,1.09404044173894,7.49355102158741,2.04961373735542,4.94795663801158,3.20368221755687,2.69805666307946,9.64710620672262,8.21525444284211,7.67211208341215,8.57285189515884,1.48839323777397,7.00766517956795
8.3940928427886,9.58812555298767,5.64886416689176,4.68646292101487,1.20364326383508,3.16815706489477,5.57151379611117,8.80114716491478,7.59386664982661,4.22454069148858,0.694513212122827,4.27867830975965,7.22715401929787
7.3909360462186,9.67482868133327,7.02840668480227,4.85204221469242,9.84012637400585,8.2267057046024,6.05637073690337,2.70385441879918,4.47538712133812,5.51413313829346,0.931632320670487,4.25000564678147,4.42650147178907
0.716706173797515,0.907704828884156,6.44819365783406,4.70319672013669,2.99693625966869,5.39997368488425,4.66018997278564,2.97698304355703,9.45586607496293,9.98907095284537,9.0841827044242,1.24021848333458,6.69907307764448
3.04857824230252,8.27382699210384,5.37091847589539,4.59320466521674,7.22508425377054,9.35700667907779,2.27437935475012,3.9798654545625,1.13599768666882,5.06540291685044,5.61097691897256,0.903564769507648,5.6124717076118
7.70414316447899,9.15139045254372,4.84711503146394,3.14762189076544,4.57111171534847,6.19592936973822,7.94798257538859,4.56799458260436,4.21475176647903,4.78378534782407,1.86976276053772,0.768433838234954,5.31362925814294
5.74104463831338,6.80431006014804,3.23908706685582,5.12502134314004,3.35669886640832,2.95497279809772,6.65177833306983,3.42013564186071,3.77087714391127,7.64824896094711,3.91161375051494,0.971029228353016,3.81738413771844
6.49437723585857,8.14960717303998,8.97098062476577,3.58062109874134,3.01406121941589,5.54364913317188,8.53779491276476,5.80039847245674,2.54342656830036,6.86870391587616,3.11324763239115,1.33979353396501,5.19776363561835
9.22879979867837,9.52720928654172,0.452831444465302,7.10268736299686,1.1515456909116,2.32776002705616,1.97670208673183,1.66609554773414,8.40854248783706,3.2832107181807,6.32314790318808,1.68200592573764,0.862502044836297
7.25522671442037,5.66607503977392,3.4514287738455,0.448749063543536,2.57908312319614,4.36186519328287,8.37213858671956,4.49604334171387,0.248953467246193,8.15348237835389,1.38333138287313,0.241042350319821,7.10229534686059
8.49418888705511,5.95832631492821,6.73266757662043,9.07779404736505,6.34109886169484,4.79090985365232,9.35843399850016,0.649983858462776,8.67353828294234,7.17688964058033,0.830402464175462,4.63073508854188,8.49519350118589
5.73620865510888,5.8865874486933,8.36015845532606,6.45741463159842,5.10282732582247,7.48035794681853,6.5680270423399,6.75813012148798,4.32501898672767,8.85231741723165,2.05903914445526,1.58325685213077,5.70418308652647
7.47754581172572,4.32788991343757,6.97736152847367,5.54359593734114,2.85990434208135,7.8501804348732,7.64491983659825,9.33064955906865,8.49513606274453,1.97435399477299,1.44232012095233,9.34785459536907,6.13187854165572
7.70255645368007,8.87457373975237,8.16145330587473,2.38673821292724,1.88948163089064,6.82489177617384,2.94967793810644,4.7786408702625,0.814908029889926,9.78692613075238,3.31918263449641,3.08268458504027,2.39125908863823
0.766802640972687,2.54654514461704,2.93349241999143,1.2867917046547,4.65715914078742,0.911016924732627,4.84071993150007,4.35485966102076,4.211979693795,5.83356674239279,2.94164338263028,5.88886666218973,2.26409762919745
7.04132298695462,7.85596832242222,8.56032595854598,8.95075722616878,0.299191690100615,2.87710180721613,3.97467474951384,7.55859998673923,2.54651817145817,1.29894857476839,7.56055991513967,2.97499053351655,7.31237287386533
6.6275300330075,5.56273262836157,1.76194275294557,0.766969898800207,3.76575212381394,8.03628276296382,6.81922681934638,4.06328997034613,2.98889925097823,5.75421136257755,2.26693705846084,9.58123908287794,9.04713950892749
8.46586542574657,6.13431909828174,4.04460093988846,6.07403046595309,0.870143345666915,5.1339948828203,7.99265691848389,9.8301739874802,5.89109295723624,4.40729592740525,4.3495653777883,4.73264793225712,8.85484419829866
3.50792101273348,9.11461534387813,4.25346723527744,8.18606073204855,8.00135419022917,3.94651230193053,1.0603910590106,4.86682024002265,3.82001814476073,8.44409569441608,6.11777248335767,9.99127808436826,8.38317311129667
6.5597654053014,4.96417386630016,3.09154372526316,2.7671229674441,4.16549505703301,8.97498847978231,0.276351718388173,5.8329059965545,5.26291258526516,5.18619346003433,8.01124138703785,8.86918737433312,6.92312928789142
0.316453855952506,2.20473009819865,0.697388854386475,3.02406675924621,7.09986746088155,4.86813679217625,5.85062158413098,2.20729137974709,0.198702284151898,9.46374507350141,2.98397632365525,7.22225960224909,5.3978051198017
1.61558805772859,9.87790015158872,0.167521607512446,1.68220626035252,9.12853284401269,4.40657491035302,3.29071769855032,0.546754780456939,8.37765688699394,2.76627204083998,3.12950873799478,2.08508394547598,7.7105474488305
1.90790108700266,5.74692651176857,2.71968635575054,9.56887156347357,0.108399295132235,5.91847340847738,9.7743170510554,0.125265886273608,6.03272773291771,3.82901296888821,7.15020658455699,9.9382218873346,5.5602154614315
