"fastcoef_sq","pref_flow_den","slowcoef_sq","soil_moist_max","soil2gw_max","fastcoef_lin","gwflow_coef","jh_coef","slowcoef_lin","sat_threshold","carea_max","smidx_coef","smidx_exp"
8.65391475419811,0.101153959825762,4.87300609936951,2.73068188447916,0.986529270873928,8.98189324948131,6.13698721333375,1.51642399071705,6.75405169604479,6.93250259890611,0.822475260315569,8.98610901230335,0.407507325907883
8.65219961959254,0.102958776256208,4.87302854926889,2.73141786379716,0.989355465144938,8.97783780441315,6.13235669891606,1.51706308668053,6.75156968803531,6.93072321211656,0.82302432409361,8.98513376793298,0.407221488115734
8.65314502453388,0.101192191716178,4.87311638878028,2.73117495242515,0.987176574096378,8.98016691344157,6.13331925531011,1.51717638601409,6.75237060251886,6.93110572824871,0.822946783112334,8.98789701874449,0.407604138762896
8.65130755817115,0.101020967380034,4.87439241732164,2.72987590138289,0.988199268404327,8.97897735817446,6.13058234085897,1.51729747987219,6.75195987376329,6.93000769400378,0.82399076725544,8.98810453232521,0.407191802472919
8.65495342273049,0.101519833775662,4.87182648316908,2.73217863343534,0.986954157266027,8.98078950942343,6.13572907274903,1.51694838131546,6.75288821951626,6.93215315882763,0.821392804625122,8.9867829496137,0.407586864142322
8.65753122366846,0.102306425335394,4.87033043123616,2.73199503326356,0.986672252938346,8.98465806564254,6.14434263119807,1.51523263201374,6.75686507058727,6.93582245642766,0.819750656228725,8.98147051327486,0.407902061913268
8.65685526125326,0.102787825159231,4.86995705004805,2.73393358790827,0.987711059666299,8.98047952159356,6.13774316607799,1.51672655811962,6.75292549948738,6.93322059408177,0.819374807847547,8.98453148286393,0.407459927075606
8.65620836062614,0.102941492214522,4.87042172960867,2.73368332108657,0.98768553946558,8.98008860559446,6.13748234756493,1.51672570564906,6.75268184777353,6.93294047694568,0.819923029423128,8.98445035891874,0.407386154308806
8.65713460759737,0.102633516455831,4.86984060253678,2.73391411894763,0.987315116732974,8.98127502304365,6.13862732883755,1.51654983725314,6.75336836273242,6.93364408744211,0.81935469182857,8.98453247539799,0.407637786403109
8.65773119640117,0.103162235209001,4.86924540589483,2.734720142104,0.987393116136957,8.98078545200838,6.13917016374141,1.51657133482717,6.75298344947689,6.93380766297779,0.818718965293575,8.98398530062919,0.407546100768571
8.65693382432264,0.103151421630786,4.8697197633186,2.73450166444657,0.987758180725142,8.97987023758466,6.13742619170352,1.51679041594618,6.75230652492773,6.93309435924674,0.819108910432047,8.98451318040152,0.407331459288398
8.65622689114118,0.103504921264958,4.86999336477999,2.73475906132949,0.987870230524859,8.97883143607525,6.13619481391414,1.51710736316963,6.75137948191626,6.93242890986612,0.819667714277953,8.98491649280407,0.407322792302416
8.65580614186052,0.102243942638246,4.87081830485667,2.73302568328969,0.987853913742275,8.98037636734584,6.13608796991144,1.51685891392358,6.75285637693281,6.93259362237677,0.820242439423959,8.98546952689118,0.407442874182072
8.65547868727685,0.102741009688586,4.87101205044363,2.73310654220098,0.987529675868893,8.98032015705649,6.13714639119535,1.51665560068071,6.75279747287037,6.93276224225223,0.820703518802025,8.98476768758981,0.407497659207761
8.65739558842134,0.103636419298913,4.86914381411126,2.73545685814782,0.987607013443535,8.9789964178742,6.13738323359589,1.51653926132837,6.75143166927091,6.93294375453132,0.818127530340056,8.9844574315814,0.406905082036856
8.65912185085661,0.104080663765186,4.86794190940434,2.7356542757008,0.98824553147354,8.9806000496746,6.14091390415921,1.51627876311939,6.75337022533137,6.93471363528478,0.817076147628794,8.98173933394331,0.407289098126715
8.65802072037718,0.104926803688924,4.8679886531704,2.73697512148228,0.988850202209388,8.97737283399091,6.13673179380019,1.51717946259041,6.75041240361972,6.93277595811939,0.81748212307925,8.98334725023632,0.407067400654017
8.65517893689721,0.105554371895136,4.86855733022097,2.7390822653128,0.988667848682413,8.97266155892195,6.12742627359863,1.51813019670347,6.7442145722291,6.92864703993824,0.820210580466333,8.98971666919908,0.408035711859091
8.66118834763755,0.108486786489049,4.86452294173202,2.74114844873052,0.989905002860713,8.97554625932647,6.14140831004491,1.51692557170994,6.74938489709361,6.93458014520925,0.814324529482315,8.97826723423008,0.40690246569353
8.66057637367737,0.106711837573036,4.86546443568314,2.73997475492414,0.98885032359838,8.97690765868434,6.13968149729176,1.5169717775468,6.74971540591696,6.93413972919182,0.815065590207537,8.98122737167948,0.407065034687204
8.71597742967726,0.14601218629932,4.80989100652214,2.80665132733535,1.00868225109946,8.93222723517607,6.16348641977502,1.52213339167624,6.71861045400103,6.94411509955098,0.751230826718529,8.93964493776331,0.397330588711435
8.71615862581596,0.214155129053082,4.77333472388256,2.82109521778629,1.07120332111702,8.90389872955108,6.21527112174632,1.48890500515048,6.73269982594686,6.95885148293581,0.730929053083296,8.81224463438761,0.399662918341307
8.65326390695584,0.180379856876134,4.83574751041079,2.75140414166279,1.066254258163,8.90384017417595,6.16051116805577,1.4826588572609,6.74565468170227,6.93017303142097,0.76839236843752,8.84097617484743,0.377900992572626
8.72054901415284,0.163306028405477,4.81715837571814,2.80571034789987,0.987348603225751,8.95243370569591,6.25620729580202,1.496441203748,6.73399283167377,6.98195029150729,0.742425554381226,8.88005161965399,0.381811031855952
8.66536982045766,0.171248060142349,4.83428937746355,2.77723873997755,1.03294491011967,8.92688700257619,6.16736104965962,1.50528336055482,6.72905618327468,6.93973728397654,0.799447861667678,8.89122976643761,0.406572468394578
8.7521395566951,0.289862233921941,4.66353135520731,2.84619786469449,1.13197109211616,8.81756168648345,6.16386029037956,1.25343111472847,6.65393310698269,6.92132642485206,0.529450440835345,8.75536544853804,0.339917165932205
7.57459066319707,4.24250723613549,4.42209103020889,4.49611779879172,3.42278837693114,4.31913516690674,7.12113240322727,1.60666958279726,4.29130633158449,6.21833686277097,1.3876262888563,4.08596509693142,0.40161590886698
