"fastcoef_sq","pref_flow_den","slowcoef_sq","soil_moist_max","soil2gw_max","fastcoef_lin","gwflow_coef","jh_coef","slowcoef_lin","sat_threshold","carea_max","smidx_coef","smidx_exp"
8.61269292393565,0.100012163404307,4.88637071630721,2.68689334526729,1.03753602118345,8.98788829309949,6.07644636492804,1.4963930995208,6.77285797583388,6.92361785006075,0.846720139439602,8.96665921184811,0.414778194604611
8.62539128972913,0.103092752555398,4.87893573741704,2.70345905872485,1.02740681971145,8.97765597883707,6.08202406584588,1.50083915177678,6.75960913785303,6.92187421800364,0.836205596492572,8.97578389747017,0.412646679828604
8.62493863331371,0.10341150661159,4.87935606298223,2.70553087316067,1.02832668006325,8.97196706651126,6.07541929658666,1.50314679894,6.75500728049268,6.91905423614506,0.835313716573672,8.97863128380926,0.411055759499525
8.62702703723818,0.103951746043031,4.87747246381288,2.70544158640575,1.02700499262988,8.97729923446168,6.08350635012969,1.5009303391759,6.75888687494357,6.92243683992709,0.834865261470122,8.9753371687642,0.412732603896531
8.62698327375704,0.103905945253004,4.87751375019292,2.70535958059091,1.02697481171837,8.97741969811015,6.08354352276899,1.50089222773497,6.75896537440155,6.9224643800035,0.834933705389381,8.97536249262118,0.412766342794613
8.61232691450888,0.100470162936931,4.8864384481473,2.68673628249948,1.03829038088921,8.98729887048195,6.07631665658803,1.49627957323368,6.77288003354876,6.92360452434007,0.846576795212079,8.96541262524886,0.414414275350052
8.62681497168866,0.103846880441911,4.87765268416238,2.7052447761985,1.02706091523169,8.97724501326945,6.08316399383245,1.50095735922202,6.75887059441128,6.92230010466562,0.835032378736487,8.97549720022725,0.412715650763157
8.62800593760436,0.101910655234935,4.8792602388344,2.70495880535536,1.02211524071521,8.97922064962563,6.08838014383663,1.50106537732683,6.75950343047453,6.92387655573501,0.83356898503965,8.97673952411902,0.410600453052152
8.62750756552953,0.105098547423031,4.87633293916582,2.70669155449003,1.02833002789791,8.9759505740122,6.08259941726108,1.50113613013886,6.75802211007465,6.92210456209648,0.834455319243964,8.97457076556696,0.413133249320438
8.62823789010287,0.105138194920467,4.87568634392223,2.70714329278916,1.02846492746574,8.9763212801641,6.08294907564983,1.50113947738433,6.75820613712043,6.92244883355026,0.833962360559919,8.97451227510314,0.413377099529624
8.6135697505333,0.101008420254582,4.88563221469792,2.68856016432973,1.03753749697784,8.98588270969772,6.07675176580591,1.49683614237692,6.77139091898125,6.92337803859109,0.845407660577162,8.96594225539753,0.414060850802826
8.629122927601,0.106791123550659,4.87532058869054,2.70878153934736,1.02795521160533,8.97350148224938,6.0857545481696,1.5012219569711,6.75690385452535,6.92271902743465,0.831409968299081,8.97139033051496,0.411102539478834
8.63040929635726,0.10669919106965,4.87438055814386,2.7105246360204,1.02715769274168,8.97353857538243,6.08517098965513,1.50192679140552,6.755692254044,6.92264443997261,0.831402189530865,8.97361083211246,0.412024171057529
8.63159367587335,0.101322253278778,4.87815151409898,2.70830544138407,1.01747996778904,8.97994769238334,6.09291400750065,1.50185919793642,6.75797042533766,6.92533763585038,0.830973717386399,8.97910432407038,0.40973318447502
8.62985786818503,0.104406128625605,4.87635329742179,2.70813294406853,1.02413380728809,8.97715012211581,6.08820964411456,1.50121132049994,6.75793731102086,6.92389289681207,0.832097888371791,8.97488192055353,0.411472833652694
8.61351820819834,0.10101431820059,4.88568687237283,2.6885356719605,1.03755168459284,8.98580845341284,6.07671862618077,1.49687234526374,6.77137023239669,6.92334469425615,0.845429637993882,8.96590638593088,0.414015982810133
8.63263696266764,0.106605744935134,4.87248530677332,2.7107543309662,1.0256820722207,8.97870030408935,6.09137274701197,1.50004525618427,6.75888666491494,6.92570487422135,0.83056774129383,8.97206130690025,0.413522219815485
8.63330739634315,0.108389982411408,4.87184837467887,2.7131189619846,1.02657053452035,8.97425700318181,6.09033511944363,1.5012508910685,6.75606194550849,6.92461444003577,0.829065345751242,8.97080565029294,0.41224603672918
8.63367053751296,0.105055623845791,4.8754373090402,2.71239170258591,1.01979440958834,8.97472780923221,6.09368425407453,1.5025333499183,6.75512618473042,6.92505741590835,0.827676900913739,8.97472288143308,0.408510131837708
8.63618735976338,0.106495921176365,4.87336593497107,2.71515856710703,1.01908296899961,8.97426203201329,6.09706483708272,1.50245256277385,6.75440522342703,6.92625413843466,0.825372707478904,8.97307549178878,0.408282377821184
8.61384563353809,0.101081556548645,4.88545917353967,2.68891833467102,1.03732987972265,8.98569845906041,6.07689614216566,1.49693156296134,6.77113288539197,6.92335834375268,0.845199163378354,8.96611956160924,0.414039857802992
8.62416591576402,0.106566962508869,4.88814510720881,2.73118598424511,0.992650744665694,8.94908655526585,6.07672660410736,1.51808227206024,6.71857325590989,6.91119846358095,0.835560784151343,9.00509448184037,0.398416359985021
8.62395002083682,0.106612626516889,4.88825661474248,2.73113687847258,0.992895871358057,8.94872695965905,6.07623188480366,1.518281686599,6.71843408568308,6.91096145224408,0.835713224564049,9.00510522032004,0.398388114428972
8.62261819429184,0.105825118733782,4.88951262547837,2.72966042865774,0.992562958222392,8.94942473251885,6.07535852814234,1.5180043547695,6.71885806420506,6.91063111977232,0.836978893328892,9.00599650996193,0.398432991298872
8.6225737061112,0.105810453994142,4.88954810284269,2.7296701892287,0.992680401741824,8.94926718067464,6.07513629797477,1.51819217342513,6.71882520065284,6.91053908004668,0.837025589758681,9.00602368758599,0.398417334391078
8.61369658031273,0.101058527515192,4.88554915803346,2.68873882034964,1.03746081205304,8.98575519125243,6.07680143005999,1.4968889188646,6.7712514025466,6.9233592978586,0.845294337853066,8.96599906269294,0.414032986994726
8.62248451198101,0.105915992911297,4.88953080648933,2.72969207369719,0.992861352138642,8.94909669332181,6.07492783043226,1.5182123989323,6.7187499088716,6.91046240439741,0.837075318339252,9.00593217182,0.398436121686396
8.62270530097106,0.10674473722492,4.88895547562476,2.73036487915473,0.993700667703787,8.94818909268998,6.07481314661432,1.51832097761336,6.71837443141865,6.91042719695786,0.836729085424385,9.00491996985371,0.398453402059667
8.62301704885514,0.10588635706808,4.88923092164337,2.73004478569461,0.992467309986834,8.94936877063645,6.07564559944531,1.51818143963282,6.71878597837788,6.91072952548165,0.836668214983503,9.00597898967689,0.3984237350107
8.6222132595205,0.105743537154617,4.88980377974621,2.72938502868565,0.992809945329696,8.94920503039704,6.07472673002335,1.51819932340143,6.71883727339248,6.91038252967956,0.83733121581454,9.00610948130722,0.398426622276361
8.6137077276017,0.101062665238329,4.88554199188922,2.68875538932448,1.03745252071408,8.98574311149243,6.07680428561731,1.49689346991455,6.7712370805779,6.92335673456536,0.84528446463455,8.96600704471951,0.414030588125161
8.62166790066725,0.10547340648127,4.89029367912981,2.72886039489591,0.99283385318445,8.94923210456026,6.07414918634916,1.51826673124201,6.71891708857157,6.9101346619792,0.837825441154017,9.00643468047937,0.398412449318449
8.6235374492322,0.107959987236134,4.8877815165994,2.73149495025667,0.994781429647158,8.94730516209752,6.0755805629368,1.51831850360403,6.71816281250855,6.91077914788281,0.8358215850508,9.00306456593609,0.398520292757848
8.62586495379703,0.107247016792741,4.88673078112104,2.73276623732392,0.992539656647443,8.9489111866007,6.07838610486762,1.51812688774239,6.71834298630752,6.91186703823737,0.834034540385299,9.00424614099775,0.398384765255135
8.62766480914319,0.107867137112623,4.88529349211017,2.73422013943627,0.992161942961735,8.94917824802369,6.08058236636111,1.51777817265196,6.71830366597578,6.91277004953439,0.832412795124209,9.00334197238937,0.398369987016213
8.61384554175466,0.101109101253994,4.885453856984,2.68894354155784,1.03735873613808,8.98562429959905,6.07686626559829,1.49694699552734,6.77109421293157,6.9233406310771,0.845169682776427,8.9660819232231,0.41400855518033
8.64127627230202,0.101861210734261,4.87346458248699,2.71917534747484,1.00637256129846,8.98227865295007,6.10689902405165,1.50252467766107,6.75390906981083,6.93073689141608,0.823758441114375,8.98243099432873,0.408158323570489
8.62881045406376,0.108678097287834,4.8841357577168,2.73545921866562,0.992396208178848,8.94889479624063,6.08180882197175,1.51773360848224,6.71811068062267,6.91326559238817,0.83140279898515,9.00229623659777,0.398466513250689
8.63087424231501,0.10947150972266,4.8823918656139,2.73749252255521,0.992332025106493,8.94844664041518,6.08336316660133,1.51793909598755,6.71762215631999,6.91392348426836,0.829495110472409,9.00152542224429,0.398392583906657
8.63503319164397,0.110556895525408,4.87926486623787,2.74081893774463,0.990782267378,8.94947972148136,6.08862092028361,1.51718952118527,6.71750735590216,6.91602941168424,0.825917947222957,9.00013728968266,0.398396015259145
8.6138423723585,0.101109065695021,4.88545546363078,2.68894020224574,1.03736217471296,8.98562435969542,6.0768631242408,1.49694615281674,6.77109592079671,6.92334023375203,0.845171306276751,8.96607921635187,0.41400820994941
8.63648614368372,0.108906974237267,4.8775192599463,2.74184874904204,0.993021578058296,8.94927083882153,6.08248018014769,1.52037095197408,6.71740780198627,6.91436230929422,0.826406244152627,9.00466146162837,0.400660468823345
8.65348597054671,0.101605163933373,4.87301171184436,2.73086587930866,0.98723581944168,8.98087938821427,6.13582958472933,1.51658376470792,6.75343119404242,6.93205775220873,0.822612526260079,8.98586520121076,0.407435866459846
8.65391475419811,0.101153959825762,4.87300609936951,2.73068188447916,0.986529270873928,8.98189324948131,6.13698721333375,1.51642399071705,6.75405169604479,6.93250259890611,0.822475260315569,8.98610901230335,0.407507325907883
8.65352988936599,0.10117307577097,4.87306124407489,2.73092841845215,0.986852922485153,8.98103008146144,6.13515323432193,1.51680018836557,6.75321114928183,6.93180416357741,0.822711021713951,8.98700301552392,0.40755573233539
8.61377117189309,0.101121622059835,4.8854925473207,2.68887506347595,1.03745179649359,8.9855878202098,6.07678843228756,1.49693652233034,6.77111915669338,6.92332461488343,0.845190524139603,8.96599067562582,0.413979056695172
8.6541744213312,0.101245428313237,4.8727111953194,2.7310560717182,0.986635492471953,8.98161731446684,6.13667267818757,1.51655508836665,6.75376082691266,6.93241523888649,0.822204646392957,8.98627749663094,0.407527210466493
8.65438760111371,0.101426455528883,4.8724591507413,2.73126783418179,0.986860431591015,8.98151402894744,6.13676240247817,1.51653272151868,6.7537528662668,6.93252535477378,0.821917055092666,8.98594914095031,0.40749121297643
8.65430573746779,0.101550722291468,4.87250758713804,2.73128804890962,0.986779372122669,8.9814999763751,6.13702700779915,1.51648189320797,6.75373814025119,6.93256750974264,0.822032324937183,8.98577368112496,0.407504909232853
8.65261115618463,0.101087463602898,4.87369925834558,2.73027889293102,0.987364269639128,8.98043530382788,6.13378477709636,1.51686073529462,6.75300578490404,6.93125514645494,0.823233013785504,8.98710677231428,0.407349564190401
8.61411445439098,0.10116848892194,4.88528845126904,2.68928418031656,1.03714022935032,8.98547494000108,6.07702003449453,1.49703505368236,6.77085610339792,6.92332839310692,0.844979471419842,8.96627401657648,0.414000568075624
8.65494124574287,0.102097170791552,4.87175173781973,2.73225519372994,0.987109503707793,8.98076314560871,6.13692335845036,1.51661285868539,6.75314187293852,6.93257093870943,0.821226976006489,8.98541857178659,0.407397344594417
8.65538500772568,0.101970892492496,4.87148157470878,2.73230773619371,0.987120165270113,8.98118638553743,6.13736518970587,1.51657527441834,6.75348859776609,6.93286159649394,0.820925034081558,8.98532024758364,0.407483626491745
8.65506155741212,0.102047726020142,4.87171391448909,2.73218260278287,0.987107405169754,8.98099092753788,6.13723478044934,1.51657484818305,6.75336677190916,6.93272153792589,0.821199144869348,8.98527968561105,0.407446740108345
8.65542428926037,0.102152690728274,4.87136293134406,2.73259177446286,0.987143725799535,8.98088174353298,6.13720670251863,1.51660720333161,6.75317911048626,6.93279847907642,0.820792085373808,8.98531109635243,0.407419392598141
8.61411292645985,0.101209505077893,4.88527903969189,2.68931538968336,1.03719247433881,8.98536871664368,6.07697346389447,1.49705418166855,6.77080617058008,6.92330335842851,0.844936113648578,8.96621088516104,0.413956476839447
8.65582297529964,0.102158097517381,4.87112575263217,2.73270101329158,0.986961193505442,8.98133935074485,6.13807868853758,1.51649766277211,6.75351757276084,6.93315513094195,0.820597112804572,8.98504715646627,0.407526713338227
8.65454684554766,0.103354165860449,4.87078171479524,2.73488207489598,0.987598559778171,8.97727740420163,6.13220674346619,1.51727709371026,6.74913313413694,6.93057481942218,0.821342920390951,8.98791284075122,0.407771518883487
8.65651830252736,0.102617311795474,4.87047400438693,2.73316808008998,0.987387401173734,8.98124664957796,6.13895055874648,1.51635137691822,6.75371096068808,6.93360811709545,0.819775703972181,8.98392417312333,0.407398212017299
8.63710447357372,0.113228882620032,4.87524455571203,2.74416596609054,0.999395264160249,8.94415394141243,6.08299198887093,1.52219530214679,6.71731103412598,6.914967599119,0.824160765926174,8.99544419535662,0.399464517643858
8.61411047810597,0.101211150213183,4.88528090671172,2.6893174750879,1.03719247382006,8.98536165813303,6.07696838954715,1.49705618252036,6.77080047897166,6.92330084014558,0.844935476168758,8.96621080698911,0.41395290669247
8.65724556393774,0.103932898699399,4.86923526752633,2.73532831970165,0.987689797236154,8.97940045408282,6.13833435531275,1.51669788413193,6.75188355098087,6.93332116404896,0.818770425261553,8.98366819199142,0.407286180297543
8.65739558842134,0.103636419298913,4.86914381411126,2.73545685814782,0.987607013443535,8.9789964178742,6.13738323359589,1.51653926132837,6.75143166927091,6.93294375453132,0.818127530340056,8.9844574315814,0.406905082036856
8.65290843068029,0.118352457840173,4.86398335172459,2.75734806089773,0.989863716688184,8.94781656447953,6.10674294006044,1.51628601299024,6.71505070848614,6.92332985762532,0.809542612676707,8.99027195662494,0.398175535953396
8.72440551076212,0.117891306913022,4.82156854063251,2.82264795574611,0.935482417709759,8.94468318848311,6.15600614649648,1.5320786326133,6.68486458311466,6.92475775713745,0.775795007559469,9.05239039440717,0.416904511353829
8.61413664877071,0.101184680578107,4.88527173010474,2.68931905529166,1.03713901297204,8.98543519643199,6.07702220974207,1.49704716499618,6.7708263171282,6.92332169613685,0.844951638029707,8.96626868261678,0.413988242793265
8.72526908970682,0.116139680952868,4.82195546107917,2.82283694525692,0.931654491035522,8.94731054772208,6.15785698094236,1.53203313134725,6.68493836895502,6.92503603387587,0.776711358741028,9.05677965682865,0.417963806969321
8.72521047401794,0.116087774915673,4.82201928350359,2.82276596710502,0.931623225778345,8.94735111999799,6.15781011917093,1.53203174595195,6.68495829491254,6.92501390484987,0.776781421105786,9.05685648518847,0.41797495074538
8.72518887728774,0.115865669007615,4.82207803667795,2.82287361376245,0.931006330505147,8.94757632666067,6.15768437539483,1.53205269443474,6.68471022778331,6.92477527455292,0.777238579125325,9.05799355388568,0.418399112425844
8.72499566528878,0.116174676562749,4.8220349853868,2.82275658504595,0.931917263135513,8.94706203767362,6.15721735439772,1.53214047033556,6.68478822183692,6.92475231652153,0.777041496629727,9.05698954341928,0.418135993064725
8.61411232861804,0.101197726233107,4.88528303884446,2.68930683169334,1.03717614355306,8.98539796801866,6.07698638048078,1.49704964791936,6.77081907754361,6.92331005695796,0.844949146246694,8.96622964209038,0.413968073393403
8.72498644011316,0.116205652235777,4.82202701834491,2.82275872010106,0.9319705635949,8.94701775819619,6.15719984818084,1.53213622373841,6.68478278120178,6.92475037872601,0.777019174181066,9.05691750004728,0.418114521343131
8.72497394740516,0.1165217069216,4.82186783043878,2.82280261548418,0.932527193229361,8.94672424703462,6.15717971921746,1.53210308288624,6.68484894712852,6.92482322294841,0.776799898477601,9.05611178211661,0.417978579951918
8.72475334817776,0.116222340661793,4.82208594221248,2.82271442058547,0.932179536376484,8.94679292838581,6.15658097432719,1.53225576266115,6.68461693171865,6.92446799390766,0.777341825534461,9.05720287136948,0.418307405356904
8.72558206207562,0.114544666648036,4.82245198206693,2.82289534009277,0.928496387649187,8.94933753190778,6.1583796287657,1.53219756766642,6.68469775547115,6.92474339937515,0.778229082018514,9.06141421980179,0.419335639487736
8.61424225521339,0.101535464156211,4.88501854811564,2.68944303789438,1.03748224388589,8.98534217567293,6.07741112433472,1.49690630276905,6.77096448826375,6.92348486179046,0.844741070778883,8.96550337704163,0.413971200665147
8.72535342719856,0.116548311081152,4.82169587797663,2.82301582215762,0.932285566376825,8.94687303243345,6.15784719048035,1.53201913733075,6.68492117207917,6.92512238357627,0.776337648838516,9.05584537706145,0.417767241415688
8.72515241040739,0.115727216398104,4.82211588423023,2.82293925073009,0.930832044019541,8.94767672496375,6.15740017194899,1.53221448522434,6.68458928562772,6.92465481335322,0.777536016227512,9.05856750808904,0.418635658075841
8.72629568713079,0.115063948841762,4.82179486338545,2.82351523259477,0.928830763663976,8.94920891177391,6.15937550889721,1.53201452372932,6.68480654197101,6.92538590321274,0.777028453667516,9.05995176039635,0.418803519605532
8.72578858258898,0.114055641565687,4.82259586535501,2.82274521434326,0.92787134950218,8.95006406098904,6.15883079258361,1.53226547840079,6.68499880653221,6.92497225256173,0.778319427456894,9.06203341793487,0.419427359106687
8.61430658078999,0.101297200131329,4.88513395833389,2.68960828571914,1.03711316791624,8.98510184109134,6.07694304264619,1.49713852081253,6.77053748844647,6.92322707013085,0.844748255494672,8.96633806110566,0.413916088207909
8.72676591954006,0.111798866097463,4.82315729716513,2.82295590342797,0.923067959149499,8.95331072080262,6.16086266803644,1.53229098382415,6.68500529971384,6.92521167695468,0.779611361230291,9.06776587945718,0.420799918676255
8.64441087332836,0.119693867443327,4.86853087574338,2.75251800992115,0.997246463072247,8.94161376479311,6.09445604432807,1.517612809566,6.71358157333079,6.91882132877234,0.815720719013456,8.98837997404859,0.397949389655172
8.65820116220831,0.134434740656693,4.85481138474021,2.76845428749616,1.02265715067189,8.89394913924012,6.07625789615917,1.52556161064178,6.6948263113738,6.90446800356171,0.787763069467127,8.96855668643465,0.383979551218996
8.65985504084963,0.135138689159583,4.8530817725588,2.77005407051567,1.02387651144963,8.89316555275034,6.07601606195279,1.5261765824531,6.69450063674256,6.9046713278461,0.786297031758137,8.9678387786004,0.384247460543082
8.614395481151,0.101331214911143,4.88509494534367,2.68973351652329,1.03701739715121,8.98504612300486,6.07706650184782,1.49718240278723,6.77046273285977,6.92324887775479,0.84467266797378,8.96634198935793,0.413879027796975
8.66145334701184,0.13143994709427,4.85402696890329,2.77109868477186,1.0170699778546,8.8971814773075,6.07775948685881,1.5281729711019,6.69403030185442,6.90484467623083,0.78821377908634,8.97643135563593,0.38583469140466
8.65830063114795,0.134398084176339,4.85461954414898,2.76860551520136,1.02277029345359,8.89403370274513,6.07593252587056,1.52570343191677,6.69479400567154,6.9043948276841,0.787898968213831,8.96888371633958,0.384276626122007
8.65872639970348,0.134615120101602,4.85426858050134,2.76900090487792,1.02288553870516,8.89381223715075,6.07622064566666,1.52572861802927,6.69469205328992,6.90455745855293,0.787330834647602,8.96849504419518,0.3840949478236
8.65864358484865,0.134640781250772,4.85434791188564,2.76890656775593,1.02297494710957,8.89370418590211,6.07619304248141,1.5257311609196,6.69470642516353,6.90451527797371,0.787363609198952,8.96836001664387,0.384039156700608
8.6131118516742,0.100629938356858,4.88595828651185,2.68768381515083,1.03762189598749,8.98699135934426,6.07689955967912,1.49648975030156,6.77228012739631,6.92362692274439,0.846058154481804,8.96593396012785,0.414430275180139
8.65897385135182,0.134808020721144,4.85403722249475,2.76920963410723,1.02306504710503,8.89365498852912,6.07646713102416,1.52574602938167,6.69469347910135,6.90465308896297,0.787056532638548,8.96810697592957,0.384049764311599
8.65935945760913,0.134854628996982,4.85365740015304,2.76949671119661,1.02318225659999,8.89360245827889,6.07641084971738,1.5256929684679,6.69461152242758,6.90468976718933,0.786653349299283,8.9681550692205,0.38407877585412
8.65895307211327,0.134770390346013,4.85399949245627,2.76922020137187,1.02331891667848,8.89346547814118,6.07594270961088,1.52591052393842,6.69460653820584,6.90449362476514,0.787077220676849,8.96825959272796,0.384097352632974
8.65895510108146,0.134804124458053,4.85398763452582,2.76923845073903,1.02333164537497,8.89344111821784,6.0759728641997,1.5259027128704,6.6945970237935,6.9044993731019,0.787067803136381,8.96820919056728,0.384092238044498
8.6161560183502,0.101290473990691,4.88412189804107,2.6915582210554,1.03512918981643,8.98518495757249,6.07858273112167,1.49753409012457,6.76951181183767,6.92344277105643,0.843861146754306,8.96813496904847,0.414264800023311
8.65902603108072,0.134856428847178,4.85394272714633,2.76930320957722,1.02321854059456,8.89349540998793,6.07624842177936,1.52582879202699,6.69461077349741,6.90457537068226,0.786998683419437,8.96812020049202,0.384072671296334
8.65902128154692,0.134803271473609,4.853943227223,2.76927186135982,1.02329427026175,8.89350387591646,6.07608415594879,1.52588661997932,6.69462944109434,6.90454806760487,0.787025192199556,8.96819440862434,0.384105076830468
8.66340069574731,0.136685400524531,4.84956286945173,2.77343360295979,1.02555648834026,8.89196674664167,6.07701598409682,1.52696235685544,6.69393958857918,6.90552732444564,0.783013564363553,8.96598542153703,0.384546017226343
8.66263345748155,0.136777429738242,4.85041326381623,2.77290455027978,1.02470427350363,8.89221900451652,6.07810198413923,1.52643185108609,6.6939823415514,6.90567276415107,0.783614803595361,8.96564593531794,0.384216671666849
8.61550103035623,0.101621259111109,4.88440256167115,2.69115186694102,1.03619770866433,8.98432653625361,6.07766594615937,1.49756078692946,6.76945749491914,6.92318081016522,0.843838402939056,8.9670262647433,0.41379678071253
8.66819780835748,0.13900162285247,4.84500728307534,2.77849814540176,1.02600926248168,8.89141776278056,6.08050159306153,1.52734044428695,6.69300805696443,6.90740369838741,0.778854240104565,8.96373598348554,0.384958264099037
8.66758223831329,0.140122153232961,4.84565122083435,2.77716167857051,1.02439969538352,8.89421117842385,6.0876932345776,1.52455330988516,6.69534832936235,6.90968388923593,0.779643043149408,8.95954191895354,0.384962464383898
8.7240663336568,0.124090449935689,4.81938499378025,2.82316700021501,0.94515387588113,8.93779320095345,6.15694784299822,1.53038232304006,6.68548831312359,6.92643849943073,0.769330381979274,9.03538185012669,0.411557608647907
8.72468301555812,0.119219366792884,4.82100775349664,2.82288710462748,0.936926780746917,8.94354876617242,6.15732699329524,1.53137401045469,6.68510606972316,6.92543892619268,0.774024403248105,9.04863623424497,0.415597646420843
8.61572455320507,0.103367853273229,4.88350390844006,2.69251578694615,1.03796703011337,8.98136705524498,6.07679263511101,1.49794872273796,6.76806980544253,6.92254844109773,0.842723054059481,8.96488507474736,0.4131640421643
8.72551464485358,0.12004085691117,4.82046308249161,2.82459840822326,0.934360578234435,8.94394036864229,6.16050117381956,1.53069094379028,6.68398996480664,6.92594846885376,0.774206246963368,9.04944670267769,0.416203197008872
8.68719192209658,0.128145149893444,4.83801812981769,2.78554178666233,0.982648915450114,8.94926048332824,6.14458616924525,1.51572505201133,6.71328821178591,6.93760923345105,0.779122275537907,8.97620200873147,0.396812434739898
8.68573110644433,0.147883158006492,4.82896193466576,2.79473640315788,1.02970898925749,8.88845265150605,6.09614091210092,1.52823617758039,6.69190350436264,6.91452942947999,0.762841535314014,8.95060898340125,0.385328184989193
8.74847919060065,0.14149152048638,4.78860954448275,2.79200750310304,0.98016064790206,9.03690830950039,6.29724961696317,1.4742284245767,6.79083948435086,7.0071495169899,0.740653203493751,8.89492536922848,0.41862545108838
8.61764546390691,0.102359543930707,4.88302392898365,2.69412809375508,1.03471861293931,8.98240436522872,6.07855594794622,1.49839820147734,6.76714382736864,6.92289263762234,0.842036137716341,8.96825516045365,0.41344092955863
8.72508614642246,0.127604438053685,4.81751584657648,2.8265322232375,0.943716545610714,8.93810098706991,6.163479820264,1.5295635165183,6.68457031751103,6.9284259772818,0.770317734702469,9.03199616396576,0.413333547743889
8.72571874444251,0.131103578393478,4.81617017243507,2.82817870568113,0.944907528207853,8.93303235806522,6.16648173916938,1.52757447847167,6.68299982138228,6.92786723028429,0.765126708178417,9.02507677879903,0.409152016372162
8.72550413816877,0.147188992508281,4.80821283454372,2.83370199626618,0.958712260340901,8.92126206530943,6.17067202495815,1.51779544088519,6.67901771750124,6.92947861011923,0.757187160187458,9.00011054998987,0.406420931577847
8.66792143775803,0.142459195816275,4.84539978412587,2.77879637864616,1.02376105862744,8.89106764510285,6.09001951982061,1.52325948618664,6.69307864238445,6.90986824439155,0.77707147146517,8.95642934106537,0.382538800745058
8.62008096223928,0.103336459743257,4.88201435605708,2.69746485304896,1.03280478408487,8.9797009704966,6.08115227723915,1.50004780610461,6.76490529655107,6.92288138418221,0.839625972791948,8.96802844780088,0.412025135351963
8.73613994776138,0.128978642618853,4.80862545269956,2.8309295668676,0.939709775377562,8.95133946995407,6.18538797564256,1.52486572646409,6.69331438317247,6.93768074057208,0.764626365796852,9.02593496220148,0.418080424507901
8.64953500812552,0.129769635366089,4.86248127566276,2.76022503648665,1.02242805685666,8.89464940206597,6.06602690451082,1.52604691345228,6.69538246916455,6.90012779095754,0.795929867238716,8.9756095640674,0.384282774409873
8.65776051915343,0.132978237434808,4.85397392672738,2.76081607271034,1.0419094624188,8.88879625840342,6.0616230114859,1.5299954378036,6.70148532579627,6.90220202366983,0.785096054198881,8.95867951814181,0.382991069752252
8.65326390695584,0.180379856876134,4.83574751041079,2.75140414166279,1.066254258163,8.90384017417595,6.16051116805577,1.4826588572609,6.74565468170227,6.93017303142097,0.76839236843752,8.84097617484743,0.377900992572626
8.62045508546691,0.108028495616751,4.87785935381426,2.69860307729522,1.03995160821486,8.97809990736972,6.08059126006661,1.4972851192002,6.76576145826438,6.92388458233913,0.837575973324967,8.95969075404473,0.413196999170422
8.72054901415284,0.163306028405477,4.81715837571814,2.80571034789987,0.987348603225751,8.95243370569591,6.25620729580202,1.496441203748,6.73399283167377,6.98195029150729,0.742425554381226,8.88005161965399,0.381811031855952
8.74732791293291,0.189130267389052,4.75137241526666,2.8757431746309,0.988034954856855,8.94438161837155,6.19043688590153,1.45917152145064,6.67648964425741,6.96811970799418,0.708118547746761,8.94158030145765,0.409521676664193
8.69156916244532,0.169509286222581,4.82306516100774,2.80522840860823,1.01400108869672,8.91559483224825,6.17547017391728,1.51693038379994,6.70833933792659,6.94751855597992,0.761506381891243,8.89698671833022,0.384673091131129
8.69798398119995,0.148904512284111,4.82278986154641,2.76572065545286,0.991277032900534,8.97705325096577,6.23582668089998,1.4544211897682,6.75454656146403,6.9753989709237,0.735659915521485,8.88541537190942,0.376320617115689
8.6286231909595,0.107392710538002,4.87468499391485,2.70639218640309,1.03244683211876,8.97718454955485,6.08843493799139,1.50080315460022,6.76238915832037,6.92564434732455,0.831738403748343,8.9639876359109,0.411643806194916
8.61825442416166,0.193009819600662,4.83901044862576,2.76223197200845,1.11436657133991,8.8482744039803,6.03597632119324,1.50898074182219,6.6968823896653,6.89248493007121,0.802033661372573,8.87076360615165,0.392827233856516
8.66536982045766,0.171248060142349,4.83428937746355,2.77723873997755,1.03294491011967,8.92688700257619,6.16736104965962,1.50528336055482,6.72905618327468,6.93973728397654,0.799447861667678,8.89122976643761,0.406572468394578
8.70151131413627,0.227683469675181,4.78994079775587,2.86545130380562,1.0272096749946,8.83778757444752,6.15805120569791,1.50765178465453,6.63887984420869,6.91639976723128,0.764569454016156,8.90121459885961,0.407481174323111
8.7030271554466,0.195508096873851,4.76826872728841,2.78843987458683,1.05925018149504,8.89972746798238,6.15042375185666,1.38492755272276,6.70399240151374,6.92691451187909,0.675962850575457,8.8707372304207,0.373712245920044
8.60800119004736,0.163175454156896,4.85600608548001,2.71346310324648,1.13891277292016,8.89868298553409,6.04572309530037,1.53375985150308,6.76258136956841,6.90982325240279,0.832790041426083,8.85085556632087,0.409036506046359
8.24854630484684,0.607111792907519,5.01158820001565,2.76463385756481,1.93130351064984,8.23527977161527,5.81258723879399,2.18738322213127,6.75914048354498,6.86912143892292,1.2628640766881,7.8794856142823,0.430009061024289
8.1502979125624,0.392743547065983,4.51785885256151,2.84125453847998,1.50724721523901,8.5490451326466,6.13653343482866,1.4996759806405,6.27217165267006,7.08142179336339,0.841626309091637,8.63910452916058,0.672968486407093
8.11425270869758,2.17183059798063,4.6475485647892,3.61339984163544,2.20465882390253,6.65051420819402,6.62905980828051,1.56154678675716,5.52267901381464,6.57541973083854,1.10505077458594,6.53603705461739,0.404561617387431
6.98774964054814,4.27029086472869,6.26775596919643,5.09015957577119,4.641078929967,2.82436286012778,6.30990555392464,1.07205204619924,2.63894784121528,3.49547444805602,4.42133357200888,4.42817180693902,2.44126500747127
