"fastcoef_sq","pref_flow_den","slowcoef_sq","soil_moist_max","soil2gw_max","fastcoef_lin","gwflow_coef","jh_coef","slowcoef_lin","sat_threshold","carea_max","smidx_coef","smidx_exp"
8.55404296067189,0.10241862265431,4.92054088590058,2.62102561596797,1.08336168520588,9.01195512145149,6.07156572377776,1.47196905398466,6.82262457377234,6.93592726381875,0.875813552690904,8.8890977286209,0.402098932334187
8.5536944191608,0.102246380118807,4.92115846373797,2.62064098569879,1.08301869148824,9.01144499994496,6.07166786805345,1.47180861772479,6.82242986534761,6.93585778969619,0.875338665229123,8.88876421612937,0.401116994603875
8.54608112735522,0.101987069475213,4.92687012734224,2.61216934444333,1.08675798259254,9.01295607201019,6.07191524735677,1.46857015314684,6.82751818450088,6.93718686463684,0.877351052175767,8.87914740754475,0.396862739263275
8.54652307313428,0.102162723868612,4.92625511147788,2.61273438089447,1.0867836267299,9.01344090468065,6.07204362598265,1.46876762277625,6.82755606328452,6.93727961350045,0.877766289074626,8.87963763874434,0.397784714417382
8.55299851959303,0.102269814155056,4.92156674786893,2.61986005339722,1.08353394374756,9.0117649686776,6.07164604230162,1.4715164046843,6.82303281135547,6.93601669753782,0.875701413292596,8.88785535796305,0.400979656407369
8.55292165472908,0.102273024864459,4.92161173321013,2.61977463077677,1.08358935618014,9.0118013874167,6.07164625899864,1.47148403693344,6.82309947756623,6.93603508430728,0.87574217787564,8.88775442863683,0.400964890797957
8.54955143591374,0.102351996948653,4.92394521194155,2.61592840028246,1.08577059285271,9.01264075935476,6.07191158393177,1.47001531929718,6.82575865358208,6.93677862332045,0.876685845845131,8.88284065336462,0.399261294259924
8.55144662596098,0.102178345006575,4.92288430559709,2.61819324462637,1.08395602677571,9.01190141321307,6.07190697842528,1.47085969991539,6.8238857029835,6.93628114307727,0.875931318812365,8.8859380051189,0.399810161403773
8.55210617382878,0.102115034754231,4.92251007575415,2.61860270468902,1.08399768484627,9.01139534537134,6.0717359792382,1.47105005601325,6.82360042405678,6.93610181645428,0.875235164720248,8.8862766754724,0.399671353069959
8.55396197007946,0.102161155648872,4.92131448059746,2.62094200338642,1.08238131134768,9.01081384733094,6.07196798352282,1.47188975891324,6.8218942977033,6.93575103307239,0.874646406456017,8.88896503122802,0.400407961882121
8.55256997296044,0.102028559241152,4.92256399512028,2.61946884219621,1.0826109241604,9.01086089257549,6.07218785423134,1.47131122612945,6.82254824584378,6.93595177317983,0.874797877890403,8.88737854979376,0.399259353630555
8.55278924326854,0.101527950011069,4.9237062285603,2.61824482914362,1.08319505264904,9.0078026886743,6.07242643847675,1.47106916041232,6.82253072068527,6.93553522620462,0.870961424074852,8.8846835704459,0.395120276810559
8.55811261673725,0.101982673635163,4.91966927065589,2.62422082139232,1.08062508346568,9.00685325083494,6.0729469166773,1.47316855497572,6.81913921565339,6.93493131312261,0.86945089654684,8.89062850940904,0.397966447551179
8.55726491835708,0.101733401555145,4.91973857947126,2.62421248366845,1.08000100768154,9.00865509877015,6.07177200326614,1.47312970525473,6.81895792954256,6.93480807369326,0.872081411208069,8.89309130795127,0.40013027992942
8.55758651876223,0.101731706271,4.91955699946052,2.62460527361344,1.07970083633928,9.00851541860819,6.07183566404827,1.47327250442256,6.81865425089353,6.93474451745652,0.871929242184964,8.89352927174598,0.400193103370987
8.55563811101742,0.102075250945345,4.92014455841609,2.62259330012278,1.08171521816125,9.01030979354338,6.07164787533598,1.47254172937113,6.82081188488233,6.93536709885205,0.873954263158869,8.89106998252569,0.401116123250581
8.5574542996737,0.1019816009825,4.92010130557836,2.62343834966786,1.08109653798065,9.00710348184367,6.07297413557375,1.47287864367363,6.8197238738257,6.93508494608396,0.86970110482889,8.88969801886439,0.397721904788989
8.56077865916888,0.101842994007649,4.91697165446953,2.62815923460348,1.07829688871484,9.00835315995838,6.07162141341216,1.47468441617774,6.81675238478729,6.93421996052355,0.871597609419023,8.89782004090839,0.402600843013063
8.56126122172917,0.101497111036486,4.91944928292867,2.62630824378635,1.07845102092791,9.00211293780838,6.07440069238613,1.47396898411413,6.81645621331369,6.93414631229242,0.863430504932379,8.8909339362466,0.393453450206371
8.56727244210106,0.101257785649568,4.91354308302545,2.63499678625241,1.07344026247792,9.00486885160109,6.07162587288196,1.47729523902754,6.81110614447012,6.93255708123166,0.867509368706211,8.90624495237032,0.403066162332578
8.5693157150293,0.101163755655846,4.91411676564691,2.63849426788149,1.06791802491333,9.00105753807757,6.07417018132582,1.47829888503587,6.80652528424825,6.9319562563327,0.863881179293975,8.90890490924922,0.399382616463237
8.53408321836614,0.102684439727906,4.93551710035327,2.59851143801957,1.09430894265118,9.01518751742238,6.07458671284785,1.46340672333141,6.83717306954376,6.94020203128999,0.87971729392245,8.85959456105545,0.389420830885461
8.53721172125453,0.102843342355925,4.93188172799976,2.60283105439973,1.09295810964682,9.01725315830304,6.07279575274556,1.46506238140049,6.83517662786293,6.9395628285063,0.882370595889696,8.86691478322125,0.395370871213451
8.56100194061111,0.104021258957677,4.91672038582431,2.62982249857636,1.07814119223805,9.00541694066361,6.07399169714248,1.47431114783509,6.81509290786003,6.93448258471483,0.869658919561285,8.89427055014016,0.400529410507127
8.58421922091145,0.101874918782727,4.90281791562212,2.65537956624563,1.06018954117855,8.99850062222818,6.07431611281279,1.48457572838595,6.79654365331605,6.92958807078677,0.860243110332342,8.92771985898941,0.407988980065581
8.58179319608819,0.101699219216989,4.90432824434394,2.65197436558773,1.0631852805907,8.99882177075689,6.07291168678524,1.48336731426102,6.79877302603746,6.92982970977663,0.860627812448822,8.92406593267716,0.406840502943613
8.54670615878955,0.16566955711938,4.9137329317423,2.67439670974355,1.16653844580642,8.89927611899587,6.04170394587086,1.57420635095679,6.78732651685891,6.92092280260597,0.906941296045444,8.80061048225445,0.41029150863286
