"fastcoef_sq","pref_flow_den","slowcoef_sq","soil_moist_max","soil2gw_max","fastcoef_lin","gwflow_coef","jh_coef","slowcoef_lin","sat_threshold","carea_max","smidx_coef","smidx_exp"
7.16323615646868,7.38424479368451,3.99084334836055,6.32340013980991,4.32625865567108,0.247032030138048,9.91739582374634,1.09684285919753,2.01728696202884,6.74773302375048,1.81032025186232,0.128567647763342,0.1
6.41810912412924,6.04772537016985,2.08689531088964,9.35333488148336,4.6868421614129,1.80642393502145,5.88077185676768,6.97426241038884,2.31343552929458,1.51933726436746,0.115371419525519,9.6069513461963,1.06892256065843
6.50868145918343,7.29076219777118,7.67891313711052,6.21063256293358,2.08121488423319,5.75289265603753,4.50445427397313,7.47156778973744,2.13587543643796,0.183174871962355,4.27634276394381,1.73297497515209,0.517211471056709
5.4108356988378,0.392628494444585,6.55194661498594,3.81285602621741,9.0602236263978,2.90473648321645,0.105857057066262,9.72911642059451,6.19080655516544,7.10795527521968,7.07922446625866,0.161109910754324,2.55771047535375
2.37996241217013,0.103608884400129,1.38122351461373,7.6470251148138,0.65003442725351,7.02617409213723,4.31486507594926,5.02632874484517,6.41463726123308,9.71222259348286,4.061546558449,4.54716753424176,0.378209647429085
3.97163310403985,1.7631047416953,9.22747593209198,4.78685360539463,6.63005157132917,6.85783062772614,3.76606668565036,1.99014189935256,6.27919289081797,1.3411167265626,9.40231234237197,2.84750014287713,0.939565419323818
7.52896755066752,8.21057351922932,7.59633632920457,5.28911384824904,3.16126844485667,3.66145492909739,7.19176124514512,4.64386709341533,2.83598124192091,2.72283043799055,4.20814057596103,1.08016244488669,3.52327847946396
8.72182362831904,1.79145165848439,4.39051846398986,4.62300393216754,1.42647996745952,9.30239782264721,7.7482697418184,7.10113115243291,4.60454661144174,7.27527602718556,6.67297647837238,1.77803406390467,2.46731603789681
9.2077220219738,2.48382624940092,9.79633118690525,5.4783968944291,1.83007250627539,9.46820742767157,4.11488443493525,7.90846999008775,2.43195216082092,9.53723949797996,3.38025907878794,5.39008189778702,1.16387282226603
2.9328446314709,7.09390787443742,9.85400382213401,5.6175806732404,7.00363078143166,5.61050571945598,8.07470145072614,8.63864860531198,7.04561437524015,9.83654987659412,2.18228762590207,2.43443986340407,1.57120135091069
2.25227662346153,5.29810386284645,3.55223511161131,7.34840482725341,4.020798430426,4.47880724995966,5.40734741813356,5.45907279643551,4.8816632386126,5.30758934534098,9.52416311288797,1.59879711333673,9.79091677418698
7.48592747982067,3.83890043388447,7.11643785842599,7.17681491863115,3.01150795476406,6.85628632422593,6.72848504816555,6.53358293513077,0.740479234971352,6.97176592472507,2.71375794329146,2.34646161033524,2.94516682911897
8.33640854909703,6.8190188160195,9.62516909865371,2.27839686332172,3.91355311646378,9.85012126815053,9.13253746043527,2.33479854848345,3.5413743508741,4.87295679289255,8.23682904466259,1.02042827985874,9.87782123516868
9.85064411867517,6.28370964857593,9.17387391959682,2.61513666125617,9.21036696132637,9.25273107364228,2.63788179190836,3.86856061282521,3.86836327827415,4.78836980634761,9.97918581952043,2.70994041940486,9.10026252139555
5.73728520354288,0.865876774789258,2.53920878337868,4.41904809506376,7.48888981630088,6.47762691028286,5.21865462017205,8.90817210127173,9.16475459474355,3.10151435724369,2.61070554649538,5.48135390470572,4.1818489563644
9.70858290261542,5.45839828161992,0.127960138747096,3.23386362441208,8.53345074889165,3.36254341169402,2.57399713034727,5.76193744526277,8.71142698345349,1.44996125956407,5.75867797314296,4.18148028071225,6.00140228040276
7.85364762610258,0.233737765278342,0.566291867764809,7.44907696190619,5.50801731381013,0.446360816973381,7.75054075027372,3.23253207607444,3.47055102081052,7.60843944475761,6.48160511780474,4.81429996897039,5.10180770562171
8.97941519879805,4.87188975798294,6.00162551237951,5.89234464600088,2.12653474935565,5.61081738724028,7.11300465609652,8.9950158492275,3.29946981728994,4.95760953755353,2.29539769692599,4.45374970259943,1.72319776552365
5.83416086516023,1.31674556875379,4.22335519083217,1.4543620415025,9.6837551422826,6.1957447985203,5.69825326784078,8.14882821798991,0.466079429941185,7.34637986457337,2.08046746500664,5.5217905834247,5.76660991543712
5.90875121360756,3.49972572671024,5.2429428879961,9.89923830718936,1.74850261949837,1.2374319188332,7.29784575163748,4.57175288956941,1.23050084998699,0.107077158411965,2.05497575650314,5.5818385081402,9.40514869008306
8.57319448998693,7.64186772146596,7.56281212046608,6.89306197272923,9.38903486014399,1.74877180706315,1.27954753694684,5.38575435562769,9.33709126163383,7.92106438315221,1.93163557406668,7.67586099900101,3.34661899240494
6.74042847195498,2.25453336170925,5.90890478784702,6.50169273195136,2.49714224147389,9.05457494420844,8.53498189534646,9.75199020890009,9.12826002706745,6.44012885003162,5.8871241581615,7.45116894709126,7.1663825034464
5.02741234889001,4.47555194567564,3.39497068905525,8.7794485681042,5.74867664262051,3.75257994685159,2.359149909915,6.8733966537853,4.74129363382122,7.76640885186385,7.7522969171733,7.3203767930324,9.70996589573128
9.53011877569989,4.29267619331687,9.45078668605873,8.88987449852956,3.83609743324227,5.24095197414864,4.57355917223499,9.40725295534376,9.57915814180919,3.37917023894221,1.73619673104376,5.84326481188663,9.27421104418313
5.56037940906479,2.05648355771849,0.758145238711713,0.223327815656784,0.566864851271131,8.44054898890412,0.816315965403109,0.714588072598916,8.60982885570798,8.61398623909365,0.572052044347816,9.49843065324279,1.51547441827607
0.963756038376602,8.42411998344256,1.58326738547917,1.74404396096632,8.44056321198127,0.692697330157649,7.54711898915074,0.307001291927208,3.65126658078099,6.52847670164201,2.56809941839487,9.8554532068945,9.20731402167447
6.89408246178825,1.16802226026203,8.08365986643856,3.87101495884201,5.23652967569266,4.71346111188008,3.37903297782459,0.25042061688346,3.24578516110058,1.06378564133507,6.72409407814525,8.5272250501911,4.73037858106045
