"fastcoef_sq","pref_flow_den","slowcoef_sq","soil_moist_max","soil2gw_max","fastcoef_lin","gwflow_coef","jh_coef","slowcoef_lin","sat_threshold","carea_max","smidx_coef","smidx_exp"
8.54274509871971,0.10145455090693,4.93064169796351,2.6086814710804,1.08601863020903,9.01204602390447,6.07336387749589,1.4671127863313,6.82838203819489,6.93762100396041,0.876521335014076,8.8751299117889,0.392373492809736
8.55413834031928,0.101245396521489,4.92376125413338,2.62158809052875,1.07786515425017,9.00693596686247,6.07364265210097,1.47199026253807,6.81859414965859,6.9350578249085,0.870867981494128,8.88988872740038,0.39498973990048
8.55061736680625,0.101633305961491,4.92540500257582,2.61815298063049,1.08015596251653,9.00957624851675,6.07391478362854,1.47059805762758,6.82172526894552,6.93612328818862,0.873816203304365,8.88585421070206,0.395524615489457
8.55564680051618,0.101264464754323,4.92261782321508,2.62347690548861,1.07662901577336,9.00700108494897,6.07382955010395,1.47267125988096,6.81747073381428,6.93485718854101,0.870840030371664,8.8923112537255,0.396148809255658
8.55566258479374,0.101328980937338,4.92232940816282,2.62307903678721,1.07780364855303,9.00700820674902,6.07318662696251,1.47254814747594,6.81800384624993,6.93481852761337,0.870738857900435,8.89169959532115,0.396380305703071
8.56189895291855,0.101225774416501,4.91869836269445,2.63032604926871,1.07263410094137,9.00445597254976,6.0741126506519,1.47521267511826,6.8125737254013,6.93359937174225,0.867745584196065,8.89986972825173,0.397733638370642
8.56480362307887,0.101161528067395,4.91696670404691,2.63346822821756,1.07081107256628,9.00296880955324,6.07406477999278,1.47641712237116,6.81016577388233,6.93290998039754,0.866079928384922,8.90336257272322,0.39820600118063
8.5647042601458,0.101206395989577,4.91691098019099,2.63330123769706,1.07114901740466,9.00313448217775,6.0739471428822,1.476351287135,6.81040759534258,6.9329527716491,0.866229334148883,8.90313319122292,0.39837735439908
8.56491750392419,0.101085274511819,4.91660238052348,2.63327198375913,1.07161107959937,9.00322877094732,6.0732677109499,1.47638208876297,6.81050907408818,6.93278743661209,0.86628619282461,8.90358027561523,0.39882110005553
8.56555211249413,0.101176337236696,4.91644915768442,2.6343316734238,1.07029277223974,9.00281548622459,6.07415519761883,1.47672322420193,6.80961341258316,6.93279661041896,0.865850716584498,8.90434228814189,0.398553779417314
8.56569354735012,0.101176712370828,4.91633007981925,2.63448241574373,1.07026719554082,9.00277880338995,6.07408057131968,1.47678824047817,6.80951724481818,6.93275426182373,0.86582244221663,8.90454384777402,0.398656294763215
8.56469289788465,0.101322958358186,4.91662883141269,2.63270086020319,1.07286174933715,9.00273402603407,6.07298564802016,1.4761909610667,6.81102490079751,6.93282367770618,0.865768600488641,8.90200396630986,0.39829660824211
8.56933761289998,0.101150917523492,4.91405734361367,2.63846160677213,1.0680415314544,9.00111642768028,6.07406629098577,1.47829460468159,6.80659397285592,6.93194706095347,0.863919223545613,8.90893050438157,0.39948651988922
8.5693157150293,0.101163755655846,4.91411676564691,2.63849426788149,1.06791802491333,9.00105753807757,6.07417018132582,1.47829888503587,6.80652528424825,6.9319562563327,0.863881179293975,8.90890490924922,0.399382616463237
8.56948058756585,0.101125293454621,4.91396646471193,2.63862811373072,1.06790605706559,9.00110848687309,6.07404556653027,1.478360500472,6.80646926446426,6.93191039692953,0.863905372994,8.9092127569881,0.39958012837141
8.5692850497197,0.101140668000026,4.91410214473264,2.63838905305438,1.06807988453048,9.00111568551267,6.07405307140123,1.47827214493775,6.80663480086519,6.931949261042,0.863920947222423,8.90886110166987,0.399445537393799
8.5669418829473,0.101208667618876,4.91547419251189,2.63574048441514,1.06987361584494,9.00213885713317,6.07387161550731,1.47727760292887,6.80864138459051,6.93245659130868,0.86509900391617,8.90581098338114,0.398956264539724
8.56685915487302,0.101179741733579,4.91560538430297,2.63583330077705,1.06940383974163,9.00231909614474,6.074180064217,1.47728947817784,6.80853334135334,6.93251962627886,0.865301411022997,8.90605012872669,0.398981925527275
8.53811929403854,0.101555516296116,4.93319936878389,2.60331307291868,1.09015427997919,9.01395702256888,6.07226477093577,1.46517125230903,6.83241179522941,6.93844646545493,0.87888855166063,8.8691970864686,0.391626546192363
8.54196880212622,0.1014433618232,4.93103149945384,2.60816542248206,1.08600380615142,9.01284000216017,6.07337549256789,1.4669184323868,6.82878341443103,6.93779956435197,0.877541183842161,8.87501522178686,0.392787400394371
8.53192524383812,0.101826580690616,4.93706854676813,2.5967169471986,1.09365315391531,9.01689730380942,6.07312780901833,1.46256222998882,6.83745692109252,6.94007706172746,0.882086998740929,8.86120769019081,0.390078253737881
8.57755224698988,0.101087128371684,4.90894166620139,2.64756831334098,1.06266638049819,8.99761465329241,6.07429663193473,1.48170505260145,6.79994718144087,6.93020081826963,0.859849048382742,8.91908079563602,0.401525001689582
8.60594597556833,0.100929813048489,4.89123092882666,2.67988869612876,1.04204388428803,8.98709716482572,6.07680976943729,1.49356425256747,6.77673794664836,6.9247055380001,0.847163611005844,8.95551321739551,0.409663338206208
8.62190521483665,0.100635895592102,4.88187434913522,2.69728470912644,1.03113556638039,8.9795128662554,6.0779392431248,1.5000528009636,6.76366052135644,6.92135474723662,0.83817294154536,8.97448479670872,0.412193432562759
8.57455522385827,0.104146335383346,4.90898731635709,2.64459377981835,1.06646533916433,8.99739969695345,6.07690857475383,1.47588560364023,6.8022027326573,6.93160817831715,0.857523179241875,8.90919887399823,0.3987474037564
8.5816270264757,0.102505107854916,4.9056787333822,2.65279927835513,1.06036777544743,8.99599587885187,6.07637008359508,1.48192603756168,6.79671610571335,6.93052445803852,0.856580974381166,8.92105153739078,0.401727951501624
8.60800119004736,0.163175454156896,4.85600608548001,2.71346310324648,1.13891277292016,8.89868298553409,6.04572309530037,1.53375985150308,6.76258136956841,6.90982325240279,0.832790041426083,8.85085556632087,0.409036506046359
