"fastcoef_sq","pref_flow_den","slowcoef_sq","soil_moist_max","soil2gw_max","fastcoef_lin","gwflow_coef","jh_coef","slowcoef_lin","sat_threshold","carea_max","smidx_coef","smidx_exp"
8.54036597989595,1.19269293053709,4.50257766267071,3.44351756226949,1.3263815810035,7.99803281480928,6.37644123789805,1.21612346775042,6.0345367743252,6.75391210572303,0.766411980807628,8.024249718434,0.397295768255979
8.4005446172347,0.894313665208285,4.49239073349798,2.92771266252717,2.26275104224235,7.95216610008208,5.37964179928705,1.53032528566328,6.52381653804602,6.59217171581137,0.727483688809822,7.83752728184792,0.431599944623246
8.38571480691497,0.895244632202086,4.44154741295305,2.72439574218489,2.59506631654931,7.96138463386439,4.98553156767037,1.18559577960762,6.62307658222484,6.55480728215469,0.48814845456409,7.78996825532105,0.344216478156047
8.19906142343284,1.33351529108075,4.47990774293555,2.97685106742164,2.78044372434361,7.38708132802397,5.16802618395318,1.49359182675066,6.30787456577884,6.47185214369273,0.78453342915629,7.22694565056349,0.406004161759677
8.24066308155433,1.37000224431423,4.43258390022604,3.04041104552411,2.84145686828446,7.30272676085777,5.21862267647127,1.433546214392,6.24900711042402,6.54063140350079,0.747458368792943,7.11629751628267,0.341369585763162
8.38521394311387,1.14435007305792,4.52498103164065,2.934741155258,2.31550207894828,7.80177339872969,5.58142302656921,1.43339277629804,6.45460164055176,6.5906711256855,0.71735992053706,7.4937147144109,0.356431914896827
8.44000533424441,0.871511120635682,4.44216121854238,2.94141677030712,2.2339156204294,7.98431514185609,5.37590001038863,1.47191698686898,6.51758505938634,6.59306950341441,0.664354736597174,7.8939226674156,0.433722391322475
8.28601126026497,1.3217055652666,4.36411029082516,2.92700636104494,2.90645840954159,7.50385904750481,5.13370289087191,1.24635491693814,6.39380338009475,6.52272457576972,0.615012538648643,7.14385650057336,0.342510652029313
8.38442878937906,1.29141377561633,4.1809922166114,2.93183763211901,3.2018294860652,7.47026411621792,5.0064634305057,1.21617580006099,6.48250301892999,6.66751751639488,0.521280074016032,6.92857972937841,0.230743024826628
8.12597653713074,1.20531521904282,4.6157790100871,2.86412070679053,2.69796307091606,7.51448208007345,5.10956127527719,1.66732155827434,6.42248117023644,6.44475906452787,0.91464964704949,7.38292696210307,0.46077828467954
8.28749829709668,1.2196283112861,4.51641166323854,2.94924837400923,2.54863622828665,7.59589041900867,5.36138852117869,1.48037028427575,6.38612501943544,6.53867879103252,0.765380046697182,7.37340591907415,0.377678172263684
8.41215989906639,0.888896694865522,4.46430002526798,2.92401476638975,2.26886995865801,7.96319105317689,5.36367828131337,1.50252600340196,6.528581779726,6.58796319605377,0.696950745560991,7.84587060280332,0.433908352486615
8.02581801181752,1.19958470261362,4.69110515438827,2.87407311616857,2.64617195214048,7.44358965383401,5.04764429091302,1.80890093296082,6.35692892005683,6.3569871218327,1.03741642820366,7.46434637987467,0.518700455248158
8.24671171529655,1.11641218471772,4.69934196929717,3.02448345193731,2.44595285612468,7.38785418508252,5.20680024718117,1.77650771467641,6.27733446805277,6.55538387291515,0.953334335518495,7.62185211638435,0.55304981235359
8.14706667941173,1.32373836152701,4.53176879222114,2.93807964481897,2.86074512775428,7.36302786707743,5.10039463728089,1.58157732897299,6.34279378578051,6.47526631145993,0.867563721372723,7.17383272614553,0.400685451517032
8.49888633360249,1.06178056394383,4.4394601949403,2.94023613130238,2.17975014321415,7.9527915561561,5.63976197131914,1.26144240492385,6.47617329357496,6.62667113173914,0.555756056933937,7.64936720901662,0.332153655350053
8.42823358318332,0.883105937630536,4.44940855664969,2.9403392393588,2.2394010002055,7.96961856351845,5.36900573667647,1.48697946795219,6.51178345393277,6.58253146488441,0.67791801584882,7.88436143256742,0.442823537272254
8.18114396992463,1.32577456419978,4.48994403498105,2.97925564784073,2.81504933608,7.35464873403253,5.13712600785187,1.53455414230667,6.30129418652915,6.47759515168862,0.819276532124911,7.20663181639737,0.40174751050225
8.13204067533499,1.51715638059046,4.4425964661064,3.07322314044285,3.02278988580852,7.11668303876217,5.19486687509509,1.61788182593148,6.21821587643344,6.50129564742222,0.905110442608341,6.84075278983349,0.37963454941133
8.46008200211045,1.34460050701858,4.10952539422767,3.02822997453823,3.17353613355419,7.3801275351139,5.04932962591813,1.00926663510427,6.35012988239939,6.68165994421994,0.373499272226275,6.94798363294746,0.182883741206569
8.28858276285832,1.23750948301978,4.50224394600361,2.96225961985962,2.56883901151855,7.57217004215014,5.36317460948827,1.47188452843547,6.37236385128007,6.54031580387047,0.760423846045128,7.34335301899141,0.371381647870849
8.41952304565046,0.912985017909166,4.4563402446888,2.93086689927222,2.26730890905124,7.9544100948671,5.37197381159971,1.47050537760447,6.51523179519651,6.58210013198317,0.679193127998064,7.8347077612547,0.43098536926218
8.20791123606788,1.22810843763359,4.15454517072171,3.46876740220145,2.75924455006858,6.92061594101343,5.20924684807961,2.23280042413895,5.92661095926161,6.48470792056944,1.13577179138896,7.20188858944326,0.668580289279155
5.25787726588714,0.258991893137773,8.47793107214498,1.10274963111779,4.06199914256544,7.17782562479619,4.61769118795255,8.00709800422299,8.4700872081918,6.68006831687699,6.33929520191925,5.4158359058253,0.816128575916268
5.79326952890066,0.766084068949855,6.69701125384687,0.894454553047423,5.07498333427641,7.25071749125538,3.81635113833192,5.95316336260083,8.60205260665617,6.43228290760406,4.40037193727844,4.85616285598121,0.836455381993903
8.4438205247123,1.18535154371168,4.38572700761386,3.06614963404758,2.26617667741997,7.74434648729636,5.56363675649878,1.30515444467623,6.30558242456821,6.56400143571562,0.611049539449689,7.5804231992362,0.385427602168283
8.43050114633579,0.893392089031449,4.44700997043037,2.94038359277673,2.25169513813126,7.96345822948309,5.37380767296826,1.46809610900419,6.51049111242282,6.58839506056928,0.669326299822294,7.8637695258119,0.430485147412854
5.83967771689144,0.810213035458283,6.67109475620614,0.931325186595731,5.05452376276146,7.25543451058756,3.85954189746548,5.93969587002158,8.57267139048957,6.42345571690565,4.34823648758009,4.83756695300873,0.837053602362905
5.83378011205786,0.777337777308421,6.7001784968517,0.923071248090696,5.00934479570496,7.28090619333785,3.88749832828895,5.96902483076667,8.58228316031796,6.44232946591031,4.3725277475768,4.87310860183629,0.840748417337451
5.80633283484586,0.824345814347013,6.66271410888564,0.924479478703828,5.12914740348346,7.21419271522163,3.74756126733546,5.98323247723177,8.56374489676843,6.38793222581166,4.36750906639039,4.82383927142423,0.864583340280061
8.40929906684999,1.23222745475613,4.43882379420737,3.02645690171343,2.38275207111127,7.64678804814134,5.50948433314618,1.30610923650676,6.3137112496013,6.54837594101179,0.62300887188389,7.48006061799122,0.348240728647225
8.43122747521902,0.894737585641682,4.44565926956593,2.94056469093783,2.2544731158688,7.96245158026595,5.37415694604611,1.46485864266708,6.51033734804913,6.58958882816004,0.667409829182212,7.86016531691785,0.428235446106548
5.79628838413612,0.829087616531726,6.67988745149707,0.878846527537046,5.17375779608137,7.2556023759557,3.74868888015913,5.97522723904321,8.63614924415011,6.39619267747886,4.36131000277248,4.77256390557016,0.858233129236742
5.73935503617706,0.873199967655953,6.68953726570663,0.867806186698669,5.23513497337091,7.15944358361983,3.70538806776825,5.97516728509949,8.60281898925611,6.36792720033909,4.3913013380438,4.71658710926852,0.862285911046272
4.77434205580754,1.04363122733232,7.96743976817231,0.842435603400194,6.08128209213341,6.00465985643449,3.18713901560693,7.79768169191895,8.42316782019237,6.37589698499146,6.06824885273406,4.07227840102494,0.884431315962182
8.34650057191263,1.19042396644569,4.47812800979185,2.93655580832392,2.52676083945066,7.6465663383469,5.33319682501001,1.45516057429651,6.39520656681307,6.50408930777242,0.718321620471654,7.45522677874076,0.379658737012153
8.46707462583215,0.877593764073175,4.42794034754689,2.95730167153337,2.19898614844367,7.99993285452942,5.40310495746344,1.42377683600801,6.50249495833303,6.59621640865618,0.630454014545314,7.91935712513989,0.427279630981973
5.77309923492638,0.907701455912092,6.76367082635127,0.936950790956808,5.06541467167027,7.1527350058328,3.93822817295999,5.97951589868386,8.5294647712604,6.42351617901198,4.44864705575589,4.71794242185116,0.824083473842955
5.50930441591562,1.2482178988755,6.76887317213472,0.980497727096262,5.52068108030837,6.63278912421652,3.53161934451647,6.07876772803151,8.2879440919049,6.19514854600381,4.59900074054995,4.293434071936,0.86889131299239
5.08625730179157,0.918998284793875,8.67375874620476,1.02779356541087,4.40112568198919,6.83243203081835,5.03653696118915,7.88341036780957,8.45827382085765,6.79492436941523,6.44145297672079,4.54765535641481,0.68817502356769
8.57245993818875,1.40672952242907,4.34204772182975,3.20073484370756,1.97175248284154,7.76211379853348,6.0517425585457,1.03737914794314,6.17139301300075,6.59678462204424,0.461232054260382,7.40995871234258,0.322580844213604
8.44906095276832,0.896321518940713,4.43002727122114,2.9556230083243,2.23280352688229,7.96620330502446,5.38309978408206,1.43334700278147,6.49359216277632,6.58815764250078,0.641098724052241,7.88492401117776,0.427785957466848
4.87205352410284,1.39239143790917,7.78360540675335,1.10043046689411,5.99157815891362,5.77790865135811,3.43488227266624,7.46269604345087,8.09186672776266,6.31366784735774,5.87153705735773,3.89210578135759,0.880528648204268
4.87205313654449,1.39347831663511,7.78251468137295,1.10240784712654,5.99207506378059,5.77359641120515,3.43078146125172,7.46295477929212,8.09050122864422,6.31025657707883,5.87423730440348,3.89133498867119,0.880524523590541
5.17550555605556,0.998596535570053,8.58142914473059,1.11892196666938,4.29091459415986,6.80686003429585,5.19729344270027,7.74092299021484,8.37036223827291,6.81095508570092,6.32022715243399,4.5317856381953,0.674549246474187
8.57796229136768,1.04107593887593,4.10584412356518,3.01193460922059,2.26339991884958,7.97896141940923,5.38548827423215,1.08583779921543,6.41670355579961,6.53686476739282,0.356266634968492,7.77825352054417,0.453285658242936
8.47500883473205,0.911927022492042,4.42978164511785,2.96051351155068,2.17815023766302,7.99623458511347,5.4425177149463,1.37276958695273,6.48685431095105,6.59482073828488,0.611677114842913,7.89314978930426,0.411751709027197
5.73901098510877,1.14546586515641,6.89530090714207,1.11436147540441,4.92373439574363,6.8581997586667,4.25491784492252,6.02320094108982,8.24587807987006,6.39792660613191,4.53676189260269,4.55273311202319,0.759881256499202
5.11776828382315,1.01320724038973,8.58627734459528,1.10353248894774,4.43304080300683,6.74158889845979,5.03435351420929,7.79485534734475,8.36648815315442,6.74902078129404,6.36536159033058,4.48755549060736,0.697409962137768
5.51177384386413,1.30805536014904,7.22037583435526,1.13077823799864,4.90172900420032,6.61741054755498,4.44034512190241,6.30670562026555,8.14442647909748,6.44838376534917,4.92732197332042,4.31809406018084,0.785033286725782
8.34453521035953,1.49124023823122,4.35576818795712,3.11017135707097,2.6314094033962,7.30893332937518,5.36912415448898,1.20559780030725,6.13770942611744,6.43698626645271,0.630484655667258,7.20952241879331,0.351527362444463
8.47010178846357,0.894068458503107,4.39214643128934,2.97327192762268,2.24285218745354,7.97204727171085,5.38514173761623,1.41461014188803,6.48964612884095,6.5960149151733,0.612501587172501,7.88362705356499,0.425698220654134
5.17319986980128,1.07836601706765,8.51545619735413,1.19809949918762,4.38509593195059,6.68347974758624,5.11235349798132,7.71186258923378,8.26343736035624,6.73328789182836,6.29024396201122,4.47865813026506,0.706230803576207
4.58282193987448,1.52080655082693,8.14130102535978,0.954984839318906,6.0893079407392,6.33026245144199,2.72057939454156,8.20503311836234,8.23419405054895,5.86689157521153,6.89019011002546,3.94239139940221,0.947200467913187
4.89089378081519,1.42924691519736,7.76113518100337,1.14126903192618,5.96642321451412,5.74670015012633,3.4870990541591,7.42498266356942,8.04726858725184,6.31554781134862,5.84485273413912,3.87376184537555,0.873924975315456
8.31264498045735,0.724952614623779,4.61308228603579,2.71131522377475,2.53669349474405,7.97288269676992,5.00404099708847,1.66647388252129,6.66161473642367,6.57918943887333,0.779941989285069,7.82657902128612,0.403185653527411
8.51446392775706,0.854097234700685,4.36054815370012,2.98195227582569,2.17010231352721,8.02752882577368,5.39291545112853,1.34772863864096,6.48342022047041,6.59356578986254,0.552422099362659,7.9842925891012,0.427340694398853
5.57868739025334,0.838384910005364,7.02295832494594,0.788083528823486,5.11720175574113,7.08940837927505,3.8628198089389,6.24650288197047,8.60219419856482,6.40825484602061,4.74035426983743,4.65429072458962,0.799375082802203
4.99670809039652,0.632747089608324,8.9130057802282,0.873831894490761,4.3266802592799,6.99777330343995,4.97224844865522,8.18522975432506,8.64707455913048,6.84140051618359,6.67145627449628,4.73411864223226,0.690603196247342
5.74604886016302,1.07539791173681,6.78979710395267,0.894320655658799,5.20432885082489,7.10355435033837,3.96387451637026,5.92399646275367,8.56539260632885,6.39986656542131,4.43886560543332,4.49575000481361,0.798830816254483
8.36844158505362,1.16931428328109,4.44156601531389,3.01832739964519,2.39786322449794,7.67963987872993,5.54194573477186,1.60985812354926,6.38929574851077,6.55327095434824,0.778463623431546,7.50873253939577,0.440597177214402
8.60763668348548,0.844065524509685,4.3025963815906,3.1668975661105,1.88881821862892,7.98004488508012,5.60014081872112,1.26301044094517,6.2723447986382,6.61101333663645,0.483064975430923,8.17156666466149,0.417113912904846
5.17360622008682,1.19531409371157,8.39535765133391,1.17966113083275,4.59570791850696,6.62833722047393,4.97683968474829,7.57046693128305,8.3100669511344,6.72545011412381,6.21368402876382,4.32087471394553,0.682945875631132
4.96672811130725,1.40574093246434,7.73434771797637,1.21781859330122,5.79954932181987,5.78159624408205,3.6624369346269,7.38993444227687,7.99032192247902,6.36273855133526,5.80279010796691,3.96061473400089,0.865572094906486
5.02384434473993,0.748161631933018,8.9280827272135,0.95754379683829,3.99158775033243,6.88334880699094,5.35659900631928,8.05226275836704,8.46436889656871,6.92589219403155,6.63725497637271,4.75415323660005,0.619330588503192
8.14784317640905,1.11478297700657,4.89191654492356,2.77628643789938,2.30692575676491,7.85568136906958,5.63859294527219,1.88594979595813,6.6139652945044,6.62107671295835,1.16321711774909,7.33989252924085,0.389915595505471
8.53754000771508,0.917445186238058,4.36859336666816,2.97951440914361,2.12376670502511,8.04993672637077,5.47051142049366,1.2729719624083,6.47860968050177,6.59026324320617,0.521088720292891,7.94868895020835,0.41697128667557
5.14244927660602,1.05325488982142,8.48423732470514,1.16572097263851,4.46976046517688,6.68277849072244,4.95346069447382,7.79176243312202,8.34123944615031,6.70155874116105,6.37139583272931,4.38295781592253,0.621799160859765
5.66281798627499,0.999378270557453,7.10617414887727,1.1685482239509,4.67733129827513,6.87294384217459,4.40276566095029,6.33966131580289,8.17945654699103,6.50888872722848,4.78579275801689,4.72666042741042,0.832678745460463
4.96478094120991,1.6548311456203,7.20130520731374,1.05762703645419,6.21805107352431,5.84174199834256,2.92201004441421,6.92957156206246,8.20724472714601,6.00015306338287,5.56673192182014,3.98857440792251,0.932902965179825
7.97189960883402,1.22638458167784,4.79846479932955,2.69989936402014,2.87839304410068,7.50128764826647,5.20894625843194,2.03013869889174,6.63649085007394,6.50715354382488,1.22600384564178,6.96840635814727,0.415724399226208
8.5729524345803,0.872029100654677,4.30934305583851,3.01973639982954,2.0825253169469,8.05936327546406,5.45155416857097,1.24371976343211,6.45267837379859,6.58488285412956,0.480916451123711,8.04680537037579,0.424341846469216
5.06866098964583,1.49524635939363,8.15824255043093,1.28311880805889,4.92097590933517,6.22921890099201,4.66065507289579,7.34940575281236,8.11053296342158,6.54538877207265,6.02808702540425,4.06255131139091,0.704235738663577
4.6750599506718,1.06182846291949,8.06047008084946,0.708719046390267,6.16789193110249,6.05280692985348,3.06824243255089,7.86053644145743,8.54223177688779,6.3019132552479,6.15034380300637,4.02457639470452,0.936304293610606
5.0678158069682,1.30331005720401,8.69487628374409,1.16697385805776,4.43032705601729,6.55542616113667,5.33105727712922,7.70044457906916,8.27041261891597,6.77790639416143,6.42514981686051,4.12127353932972,0.625862139593423
8.18027512863487,1.29778212127816,4.50804757569388,2.95757123371221,2.78508987549498,7.39201163114974,5.12654557055449,1.53570258236662,6.32203535531069,6.47179593142009,0.81892910811128,7.25728948236436,0.408945701598486
8.60980269953492,0.825828025928612,4.32720925665098,2.99939983646934,2.0108757725276,8.15307071637722,5.52066628739609,1.21168699787573,6.48020380046276,6.62939368890807,0.441984446906584,8.08609786047828,0.406231078329283
4.80576346662866,1.948126679311,8.00993235673215,1.03334685952204,5.8084336413852,5.67231148536589,3.81560030729995,7.18341415877961,7.97073547037071,6.16184887260323,5.93184403903738,3.48820688108422,0.856511788678696
4.82658645202327,1.99241110003231,7.6436551497788,1.27653910156166,5.95224131027593,5.38386988647782,3.68412509913584,7.07521346178377,7.82037887870704,6.07145824711159,5.93973040195964,3.49485599539383,0.809371651502136
4.77454652613941,2.05321208668247,7.60401137987113,1.24526303716163,6.1341015924347,5.29849462681111,3.49970674499648,7.04908303950068,7.83142776534789,6.00456817479156,5.93933965621905,3.39576766297982,0.819108972464581
8.1691659273121,1.33159941031559,4.51149882106112,2.99734603018218,2.80394786413497,7.31689880342496,5.16162220315199,1.55245194721832,6.27014022819418,6.48795901954702,0.844207687205905,7.19312175207227,0.388198220440335
8.57591815858891,0.936394136902047,4.32871056276193,3.06901892187689,2.12666603175529,7.97329176740833,5.43527323858626,1.20735700347995,6.3781972942734,6.58389493014343,0.471724680799281,8.01773086839269,0.404393509426003
5.0156860736814,1.96997666744948,7.25254889526942,1.08658002914558,6.32936185974623,5.68901054294607,3.21205204603486,6.69183406668684,8.14323240803133,5.9660690054773,5.5180075823636,3.5246162179942,0.885843321749377
5.15375283722646,0.218998901368757,9.02200327812538,0.791113330506742,3.87381863806172,7.40802371252883,5.41694942203832,8.24754754079455,8.87670302351153,7.15828236395056,6.63093485660779,5.13746970720931,0.648874274341766
4.60871734804852,2.16291464536834,7.32626543159043,1.25275535298815,6.87128600714661,4.9005281455735,2.59159518950051,7.02100588572633,7.7177080031133,5.72444592786019,5.86022777456675,3.2349792323013,0.904752719121452
8.0912232123156,1.26971610807958,4.71570614500587,2.83630964264903,2.75120911275751,7.46927757819257,5.28002872951356,1.83236640559031,6.48731369252396,6.52303688477285,1.06910162672872,7.11928217172847,0.391572051115057
8.48940782990392,0.797286118866824,4.39191801097215,2.93259904413783,2.19941827902874,8.07402128614515,5.33367168097913,1.43906346792926,6.56115614781038,6.59159590623882,0.609871757185989,8.01404423662727,0.449496859910655
5.45234112213734,1.21834229315148,8.43762046362175,1.51382871494739,3.86280851141252,6.58585705891864,5.64564673846562,7.53813336748244,8.00961757726325,6.65636924588207,6.18323090942314,4.4504864597069,0.693570360169455
5.14359323624169,1.5349909862712,8.1910599026441,1.4595181981668,4.80075191214079,6.14613998137367,4.81899671402272,7.40797437708267,7.8693811600515,6.49807244129027,6.10910981915994,4.07375679620028,0.708568019656337
4.67372941600076,1.14546574250804,7.99690817369083,1.00939294811156,5.98074885840742,5.76000108015664,3.43418446110995,7.69533204368499,8.06715496089314,6.45016223683166,5.93103031412626,3.72681825221795,0.60209307611698
8.06795822747978,1.34016184076119,4.68819441744205,2.84257282361983,2.93136169621217,7.31335581054522,5.23553291821327,1.89983820354752,6.4503923684875,6.46162108828421,1.05612019545636,6.95287206711681,0.397969808941773
8.38877244432735,0.969943052401863,4.44505298571981,2.94976889567545,2.3594294587864,7.85141175855538,5.31854962737454,1.47265222093038,6.46952963753136,6.56509345352491,0.685248581364926,7.75334331001782,0.428660876890007
4.79085123405858,2.07560250854287,7.61163093923895,1.38612181237524,5.98325780488369,5.18747468287493,3.65469198538423,7.07759785938712,7.65007263020196,6.02610891838022,5.96140097172721,3.44700387071419,0.804181261175569
5.01988661477624,1.74057158042317,7.83089890509626,1.38744996098239,5.21011103316602,5.68580861153312,4.37298991711036,7.10731529699511,7.76917896238168,6.3334626262053,5.92928422003114,3.90800644346063,0.764294855482877
4.86434790344536,2.06577291166125,7.86224207219127,1.41912778544122,5.51052480658965,5.38473031084506,4.33458965877233,7.13563137462874,7.69740459591501,6.23557439175497,6.00512669102553,3.43642612807051,0.70038375051642
8.27607938759401,1.08351473809061,4.88981391203322,2.88484567361524,2.30167232144179,7.73442053786505,5.64672054266815,1.80657518736279,6.49070808656297,6.62959089470184,1.05519242735006,7.50023959432449,0.31749466314449
8.35341084539655,0.889439149981835,4.55690327268933,2.89882922956963,2.2865183234362,7.94327002237782,5.38078241467725,1.62818263301357,6.55627249988251,6.59749004555867,0.814390527382921,7.79470158018558,0.435742476749049
4.91358964799184,1.96945845941973,7.80774705504042,1.21271651189679,5.76925755758311,5.59162347042558,3.84423138846134,7.05834870044834,7.80563015830656,6.16649124791914,5.77041403829679,3.5540976551891,0.862441663820847
4.49877351576384,2.34705889944965,7.96473077384427,1.37715830197629,6.08641442785127,4.82771106672142,3.84119713525103,7.36754261753479,7.55661887356812,6.00896093556559,6.37314261092796,2.98441905045182,0.724277521754608
5.09230870080807,0.850362043863451,8.79015467691578,0.753071154890743,4.47260932709899,7.11190635227446,5.11068034136561,7.84373353661174,8.86244391699369,6.91761238527421,6.41101064495619,4.42522135197196,0.638017046439774
8.135071237985,1.28970612838028,4.8349041307877,2.95770576062713,2.59508218409454,7.42293285613411,5.49245624114297,1.83911688326191,6.36922754237143,6.57517216966465,1.10055871605045,7.20615918584447,0.330257798781514
8.25254264170452,0.883323838907931,4.67414726992909,2.84914443570261,2.36836696336844,7.90727670631457,5.37203959181547,1.80984284453694,6.60496008285093,6.62066852807253,0.979169802611011,7.67443936820861,0.424994787751497
4.95289833084975,2.31358639333275,7.36636414848294,1.4312955796565,6.05075315556657,5.17526791064232,3.84797211755353,6.70106272751904,7.60881025789032,5.99591571407204,5.65805951543223,3.2611008771313,0.766176235603822
4.81776606362736,2.23407988150934,7.46549987072029,1.40308011072559,6.17462338276222,5.11430561764123,3.55568140154347,6.92286989600044,7.6498281499569,5.96753675190356,5.8537289284014,3.27781871598015,0.816964337525426
4.95294200913413,2.08832228910275,7.2221685072537,1.58067329256033,6.18226404828113,5.07259937557024,3.48874887022098,6.92487180718156,7.53496302204565,6.03122581408941,5.69311959743735,3.39720351226905,0.811261124751549
5.11490952966347,1.00275127197335,8.59458016292565,1.11056688165996,4.410734612719,6.73527393175714,5.04783292828292,7.80673539425217,8.35224230539124,6.7522067009272,6.373033684459,4.504440122041,0.697397785809047
8.08243945851157,0.985043410344177,4.75048967056925,2.76922363576537,2.63586657179075,7.72421200223279,5.17301631761853,2.0108060516431,6.65380274382458,6.53717820842434,1.17419704741786,7.45140101772416,0.466618911914055
5.17282237470928,1.62196720110378,8.14640333760923,1.84308842903108,4.3096705002688,5.73287050331801,5.28597154674721,7.37498784066213,7.31168771617598,6.57099999400331,6.08134764550686,4.2368965157106,0.655779005257919
4.80006237099575,2.30635036480267,7.69948711786969,1.64968021005512,5.86030254699409,4.94108628571107,4.09844885298672,6.9286875777936,7.53028431402298,6.1768399111465,5.79361042137187,3.11053322810149,0.5591263739939
4.88720101002825,2.8356211127344,6.99426493523584,1.51639276727166,6.83676170740015,4.38070361053126,3.34102698183036,6.49715085414627,7.29000832420917,5.65564536837332,5.31950863819201,2.50766205129786,0.699512151649536
7.6071919752287,1.18821861842027,5.03361537872384,2.47727908755549,3.3532706249885,7.32957653385639,4.83432330345345,2.61846745001565,6.85607701035599,6.47471469194532,1.69444027657098,6.63037194884016,0.498479294321833
8.32333715367544,0.938254374082279,4.54759537084341,2.89000998638709,2.36885339254043,7.87747862419578,5.32010131789799,1.62421693133222,6.54067867802501,6.57253516991513,0.81738692166496,7.72381254885251,0.439756364162457
5.02895950971108,2.0990846412446,7.64519719493741,1.39209315854916,5.68267915287161,5.49095785990595,4.0199525737811,6.88513738354971,7.62569719291239,6.16935253238225,5.61497906673172,3.52775176394688,0.856655367234278
3.78816957522749,2.27687956812161,9.6785659973164,0.779759617257641,5.02659479055817,4.86593611213002,5.70702495149104,8.15456272525189,7.60824571949613,6.56528921808803,7.53652479787807,2.27583391847829,0.289656315967785
5.01394141985973,2.87955725885925,7.97203822919279,1.35154692252291,5.55465737364053,5.39670759532611,5.28788028299104,6.58812938360846,7.9027267942668,6.34697740217332,5.79703584118083,2.35412634417327,0.54097583709587
7.51200633768279,1.15310166059515,5.5361300556236,2.48938005005804,2.98195919855413,7.41562659748371,5.31896275783813,3.05896937847125,6.89055700610811,6.59826113774293,2.16361918501677,6.66795825904044,0.451956585304039
7.38242464330164,1.42094242850161,5.29838587433553,2.54190750133788,3.46661718690553,6.97439212123786,4.85351995757831,2.92222512975504,6.71141219181359,6.40149589566807,2.0786236568075,6.40468901512311,0.514707324698482
5.74983263384126,1.04640840150471,6.75648533599929,1.49132596661422,4.71618079245608,6.51250935804752,4.25276476040846,6.10085860930693,7.76616115568368,6.40034960328639,4.58621908102732,4.84381680708608,0.767688092417444
4.80962155325415,4.55686525119278,8.10044840178952,2.79947186701109,5.25736754266098,3.02970212001471,7.08316343749299,6.40351779037741,5.76553448479733,6.32573250830407,6.01837497079453,0.718316512782888,0.1659788369259
5.36492181096362,3.30613295282488,6.87056530898075,2.49598443433677,5.51396834128248,4.30324051584908,5.00338054936306,5.82681640843829,6.43980167265273,6.03502414218204,5.0045605779797,2.72353652048313,0.649835130814474
5.83942502682784,1.73710162834744,6.75055260779194,1.85198313402192,5.09864248216241,5.86553576636758,4.320148635072,5.01078302788336,7.29237162369081,6.42311867017852,3.85925463908333,4.47748235056271,0.272226062671441
7.57018337038491,1.17229303655678,5.26263937412581,2.51001945203288,3.13916330635449,7.38781554384401,4.99245185734588,2.83204399035101,6.84462286694067,6.48233716928224,1.91238537847784,6.78174480016043,0.540585403830874
7.85241404840562,2.6231092827728,4.61302053644073,3.69902634089734,2.80434475877879,6.01670453944031,6.07294091446605,1.83970055274027,5.35842442519203,6.2090620236212,1.24405595023103,5.96744916323913,0.539916664572859
7.59686471671862,0.186232739027105,5.04623013788834,2.71088536770241,2.48125422447742,7.66231357873302,4.21066898146054,3.8550744653751,6.69434890915638,6.27030238722366,2.31823893765875,8.35531282619039,1.20794295706931
8.11702138008376,0.787042345160656,4.09518288569557,3.61144123510193,2.53933440407473,6.99810772330037,4.98541530436839,3.21678667750929,5.99541044718163,6.47128829455706,1.65282575117065,7.70773953953027,1.24436435812625
6.55093614782725,1.63505527725434,6.15300134655437,2.08912772835794,4.28550434928941,6.4875968267597,4.48250331923743,4.29228922947719,7.05998158372181,6.32298808278684,3.29126658593655,5.3973257948546,0.632891443668328
6.41870084770843,2.00222813545195,5.37421460142406,2.56730087747491,4.63680453160896,7.24294139397756,4.74027692781373,4.25577574685418,7.27491557065652,6.7033147960154,2.74782601420135,5.41713770834406,1.20747698407472
4.81848009907894,2.33149472214371,7.16073458241082,2.13648072581374,5.99718308038529,5.03179034313124,3.25550504402874,7.56660419124566,7.13221459436499,6.24872790221084,5.96202316512606,4.33071837588233,1.76057892759812
8.02822013730184,1.82994165735179,4.25438537173849,2.96550925770842,3.0680884052985,7.53709949659051,4.57104795679706,1.91967838594733,6.16671184671179,6.3746043072033,1.62102925309986,7.28658996913975,1.12692192564041
0.316453855952506,2.20473009819865,0.697388854386475,3.02406675924621,7.09986746088155,4.86813679217625,5.85062158413098,2.20729137974709,0.198702284151898,9.46374507350141,2.98397632365525,7.22225960224909,5.3978051198017
6.56017983346004,1.39129814021961,6.10501500282035,2.14578869003328,4.30614156644137,6.48796888421293,4.38738528595343,4.45969923790792,7.06868994185126,6.4020032193019,3.31893983848547,5.58269870608593,0.629879676796921
7.79012415412203,1.622431453147,4.54187241906683,2.8457565077564,3.70343294432597,6.97603725562474,4.5377208927255,2.43004026478073,5.99278278612353,6.06445681398936,1.88545904918281,6.35609857045353,1.03422634669485
6.87836660491603,7.40706958919988,4.35960449263791,6.17976785718761,4.15988600516711,0.920715841546572,9.20416222717312,1.85672731331597,2.08339129701866,5.93934216006399,2.11807110871749,0.624895346090309,0.415820801836568
4.96447830320282,2.01076680345818,6.80277111357939,1.21669602567702,4.97915377443772,8.06809864366876,4.3294390990617,4.05500273285662,8.09149040620356,5.86452106182976,7.63043923992367,6.24266425255765,3.50867526793893
6.98774964054814,4.27029086472869,6.26775596919643,5.09015957577119,4.641078929967,2.82436286012778,6.30990555392464,1.07205204619924,2.63894784121528,3.49547444805602,4.42133357200888,4.42817180693902,2.44126500747127
