"fastcoef_sq","pref_flow_den","slowcoef_sq","soil_moist_max","soil2gw_max","fastcoef_lin","gwflow_coef","jh_coef","slowcoef_lin","sat_threshold","carea_max","smidx_coef","smidx_exp"
8.65820116220831,0.134434740656693,4.85481138474021,2.76845428749616,1.02265715067189,8.89394913924012,6.07625789615917,1.52556161064178,6.6948263113738,6.90446800356171,0.787763069467127,8.96855668643465,0.383979551218996
8.66150891949096,0.135842637662472,4.85135216037738,2.77165385353518,1.02509587222738,8.89238196626057,6.0757742277464,1.52679155426443,6.69417496211133,6.90487465213048,0.784830994049148,8.96712087076614,0.384515369867168
8.66148163956275,0.135908863924357,4.85133875467138,2.7717245829508,1.02520562903132,8.89216808594548,6.07556293531765,1.52686164799195,6.69403883025596,6.90478825973435,0.784811560396842,8.96710757519339,0.384481653664884
8.6615016935988,0.135872092044246,4.85131103804661,2.77176947903898,1.02512471169065,8.89226075737496,6.07553817150375,1.52685933301173,6.69402264915515,6.9048032807072,0.784830392866416,8.96725381564839,0.384530998872254
8.66120880182814,0.135777339413973,4.85156381560447,2.771517942999,1.02530421469826,8.89201449484438,6.07499714996599,1.52695726382834,6.69394721870199,6.90457048837542,0.785019674306018,8.96736831160789,0.384450756874908
8.66121691770091,0.135912275862133,4.85151638388266,2.77159094046763,1.0253551294842,8.891917055151,6.07511776832129,1.52692601955626,6.6939091610526,6.90459348172245,0.784982004144146,8.96716670296514,0.384430298521006
8.66174054333104,0.136083065409327,4.85110360190365,2.77207252957431,1.02519952217338,8.89198951253609,6.07573906673709,1.52691801286439,6.6938672216917,6.90484619885767,0.784567387321729,8.96698332810842,0.38445639507189
8.66340069574731,0.136685400524531,4.84956286945173,2.77343360295979,1.02555648834026,8.89196674664167,6.07701598409682,1.52696235685544,6.69393958857918,6.90552732444564,0.783013564363553,8.96598542153703,0.384546017226343
8.66438267535635,0.137420981172303,4.84861808677652,2.77449706038474,1.02592032213699,8.89159593355212,6.0779317750791,1.52703696056096,6.69376365319426,6.90594868677178,0.782110774838494,8.96495900239395,0.384541255959823
8.66413861038203,0.137418598492305,4.84879238401895,2.77442250099347,1.02605106564142,8.89126344581729,6.07739709978955,1.52715489848688,6.69354778096453,6.90571437959003,0.782257629617785,8.96510054972402,0.384468727135588
8.66150063769794,0.136121493418634,4.85133675436469,2.7718499758204,1.02490271036259,8.89213422223135,6.07621999863994,1.52663033618262,6.69396415986826,6.9048974720439,0.78470552527637,8.9668107426641,0.38435203152835
8.66215010333923,0.136190877526346,4.85059918496018,2.77286500612385,1.02467104789344,8.89226882729777,6.07581153809087,1.52682217363576,6.69342565054154,6.90503765359435,0.784303707861376,8.96766655622505,0.384679169005816
8.66283434381159,0.136114294017847,4.85019544639153,2.77262398229796,1.0247575743843,8.89256241539519,6.076869710392,1.52608704194626,6.69396715558894,6.90535505807218,0.783324188795752,8.96695021757803,0.384376449759494
8.66240306216966,0.135877776215964,4.85046895082922,2.77282722655023,1.02448425493809,8.89285392252517,6.07595989221909,1.5268976697417,6.69375224670282,6.90518364349143,0.784305190910927,8.96806354851888,0.384902724055827
8.6670657527548,0.13912011881979,4.84601514289224,2.77735481306339,1.02675139633538,8.89048886979292,6.07994607211929,1.5273020915304,6.693138371729,6.90687752474041,0.779466537723595,8.96273518420124,0.384453792114702
8.66819780835748,0.13900162285247,4.84500728307534,2.77849814540176,1.02600926248168,8.89141776278056,6.08050159306153,1.52734044428695,6.69300805696443,6.90740369838741,0.778854240104565,8.96373598348554,0.384958264099037
8.67555349001811,0.148868883928367,4.83906938190118,2.78799766942546,1.01290218072835,8.89898047636023,6.11922808805421,1.51900457538768,6.69500117364678,6.91840029001126,0.775631084176828,8.94832057030086,0.386268576350566
8.67404022308704,0.142856356020463,4.83841819149607,2.78468379067862,1.02994703538252,8.88884507526762,6.08227714277696,1.52807866749105,6.69201733821389,6.90902762512385,0.772712673314276,8.95878670680628,0.385277886522571
8.68573110644433,0.147883158006492,4.82896193466576,2.79473640315788,1.02970898925749,8.88845265150605,6.09614091210092,1.52823617758039,6.69190350436264,6.91452942947999,0.762841535314014,8.95060898340125,0.385328184989193
8.69572546662823,0.157184390961767,4.81817072911676,2.80328385179357,1.02962732951842,8.89499729597506,6.1219992498329,1.52152840761531,6.696914383328,6.92533154625859,0.755282964196254,8.93249761651019,0.387911203878603
8.61952297000998,0.117787343024772,4.88500870009238,2.73184189973279,1.03129283826156,8.89434854918967,6.02654617134378,1.52481392121723,6.69849169623228,6.88517239355914,0.821512811115007,8.99182845622279,0.386068528282471
8.65976936231112,0.153911541400858,4.84323754998296,2.77209725211173,1.05151164628057,8.87693957123381,6.07713628253326,1.51719802658086,6.69612769470094,6.9074809125091,0.772726116174066,8.92757144651578,0.37804006128642
8.67764171330776,0.150483650975858,4.83598818351153,2.78913846979615,1.02486496658299,8.88818615096558,6.10378114348206,1.5209573617315,6.6913309733951,6.91526848522139,0.766379873463212,8.94430199569609,0.38109805027112
8.64953500812552,0.129769635366089,4.86248127566276,2.76022503648665,1.02242805685666,8.89464940206597,6.06602690451082,1.52604691345228,6.69538246916455,6.90012779095754,0.795929867238716,8.9756095640674,0.384282774409873
8.68374530772397,0.151085638615413,4.83248373850205,2.80825154453846,0.989640695891037,8.90040155358254,6.12707403417759,1.51772008078984,6.67908404537726,6.91908103118574,0.771602811728799,8.97029783285414,0.388276534903194
8.62953377929644,0.287731821484018,4.78171058402213,2.80797546230784,1.25106801944875,8.72055849167966,6.00213405896993,1.52119128941272,6.67098103065829,6.87311097939626,0.750906925006246,8.71300965589161,0.377927630573228
8.24854630484684,0.607111792907519,5.01158820001565,2.76463385756481,1.93130351064984,8.23527977161527,5.81258723879399,2.18738322213127,6.75914048354498,6.86912143892292,1.2628640766881,7.8794856142823,0.430009061024289
