"fastcoef_sq","pref_flow_den","slowcoef_sq","soil_moist_max","soil2gw_max","fastcoef_lin","gwflow_coef","jh_coef","slowcoef_lin","sat_threshold","carea_max","smidx_coef","smidx_exp"
8.58005657113354,0.100559177786356,4.90857841715482,2.64834133854569,1.06184738420543,8.99527906093891,6.0763587202988,1.48217940868975,6.79962508763719,6.93016303703443,0.855530872947401,8.91815408718333,0.398619421483686
8.58498843055733,0.101042179175466,4.90394755095082,2.65457027105894,1.06035942755943,8.99446183827764,6.07369565755095,1.48446710100165,6.79550991995189,6.92874019984349,0.855522281573751,8.92619522609237,0.403293867177013
8.59142920634756,0.100897325272525,4.90014942453358,2.66190614970995,1.05609731795447,8.99060496721557,6.07292683102714,1.48742389026856,6.78947798336445,6.92685644896659,0.851885912365981,8.93465545905451,0.404314616390318
8.593662208675,0.100986031118955,4.89824641385482,2.66428406820057,1.05533426907958,8.99065666448038,6.07268788973036,1.48824965665598,6.78830249425014,6.92656333790833,0.851627217867671,8.93753792045213,0.406087488681241
8.59671734227888,0.100926621905061,4.89674872755399,2.6683679946064,1.05128751848701,8.98957110961595,6.074160410185,1.48960184232854,6.78504465330366,6.92611106025617,0.850339737493599,8.94222890157615,0.406571355544149
8.59540935723284,0.100907841924995,4.89754742998326,2.66664811987629,1.053027656151,8.98939320064587,6.0731659804911,1.48911545015248,6.78607247176173,6.92609316806792,0.850476278722273,8.94022749457043,0.405862232841968
8.5964279272753,0.101125965221941,4.89657405226042,2.66781963860675,1.05267544868654,8.98960362552477,6.07347036166444,1.48943612590909,6.78567811354255,6.92611610354756,0.850460286152794,8.94122276795255,0.406798809533609
8.5971080181148,0.101142154689241,4.89630054434565,2.66878811569146,1.05165344828962,8.98923131639956,6.07391982755977,1.48975645192948,6.78485270535922,6.92602176673526,0.850071757212937,8.94219234087376,0.406741609340239
8.5970405869672,0.101141729528876,4.896336031614,2.66871678175171,1.05173731922914,8.98922273168468,6.07384416319994,1.48974924858407,6.78488970848853,6.92600935690423,0.85010704137367,8.94212888345148,0.406732544882181
8.5971441301373,0.101014265647129,4.89619183017986,2.66868810905128,1.05183640706469,8.98948703786212,6.07357627067607,1.48976381338201,6.78499841589804,6.92596506892691,0.850291035752083,8.94254203503762,0.407098168796553
8.59790699451767,0.100098056853783,4.89639576197754,2.66946289528758,1.0497526800573,8.98952319316039,6.07356017199501,1.49044086464878,6.78397870022353,6.92555432371525,0.85029068063766,8.94553670029099,0.407198145789669
8.59781960406897,0.100892520433016,4.89583318996954,2.66950262239368,1.051031472102,8.98939944314442,6.07365890073745,1.49007445873427,6.784358301165,6.92581765405169,0.850151943838098,8.9438336367148,0.407402223823582
8.59700711537495,0.100615407774635,4.89696804147671,2.6688068955845,1.04976402962875,8.98983775139583,6.07504670309142,1.4897261774797,6.78459306297446,6.92619708495205,0.850328139909279,8.94332845191434,0.406435241040858
8.59963396710796,0.101087950796496,4.8947242879177,2.67157070897467,1.04993350152529,8.98830465835199,6.07405216411781,1.49078289747008,6.78286345980581,6.92552233553875,0.848904048525872,8.94540053414091,0.407456778470323
8.59938693901238,0.101003186029396,4.89500111196398,2.67158824818413,1.04929795429925,8.98860554044047,6.07435568002904,1.49079024443322,6.78273755078697,6.92558347104786,0.84931720716766,8.9457846084562,0.407515106210313
8.59791571584028,0.100974459487225,4.89628083105794,2.67015234131598,1.04945906237289,8.98876463146813,6.07485282493106,1.49023094776734,6.7834540924588,6.92588143797101,0.849631539396382,8.94400405678056,0.406421123212689
8.59817820788124,0.10132276547327,4.89573075065563,2.67034548438383,1.0505456658221,8.98834181249085,6.07423698453429,1.49033444207652,6.78352348970158,6.92577000266666,0.849379881921856,8.94343069831002,0.406668339088171
8.5992002769191,0.100661039162701,4.89509717820509,2.67117573847559,1.04940191983931,8.98919039134685,6.07383396605517,1.49071037660295,6.78304167598948,6.92551666528081,0.849846894039569,8.94643230818004,0.408002355141143
8.6007478773569,0.101110140226038,4.89381603716762,2.67305357628619,1.04886971669342,8.98863849701668,6.07430384265266,1.49130046191046,6.78206785530138,6.92542626130201,0.849166330773233,8.94741883714429,0.408606754181497
8.60241735516908,0.10068807947229,4.89347600253859,2.67494013352974,1.04645681781502,8.98731762942696,6.07482049095805,1.49204720113921,6.78004183139873,6.92492195057845,0.847695355946755,8.95007047382324,0.407896065627698
8.60258023093444,0.100719449320743,4.89338677928034,2.67515256772477,1.04628506766412,8.98725363099007,6.07496320396353,1.49210938997318,6.77990527038112,6.92492982144913,0.847596099222384,8.95019208926272,0.407893126039964
8.60527119083314,0.101147227071941,4.89093125176473,2.67855190946166,1.04490783901843,8.98753928276292,6.07524519807949,1.49323558979573,6.77826710847024,6.92472224832724,0.847719878786318,8.95374839226451,0.410399688804617
8.60884043250404,0.100986004694408,4.88984356886973,2.68372880777002,1.03895942734285,8.98494731402876,6.07729207881754,1.49503551495455,6.77329501488483,6.92392493254454,0.845303762200255,8.95947203003628,0.409506272362721
8.63012898384493,0.116427145874732,4.87496082390378,2.70532423863456,1.03428045760558,8.97986507848406,6.11895121853655,1.49235514937839,6.77060529213493,6.93947584820924,0.822849386954065,8.93030378833316,0.401997627155351
8.61170953089327,0.103413662325987,4.88757354525951,2.68867395339598,1.03890809682157,8.97916943716947,6.07729636979307,1.49672118609947,6.76890174901397,6.92295365441735,0.841450197798788,8.95855991091897,0.407655877864818
8.61942613777165,0.116977692416981,4.87779694018966,2.70501429879487,1.03887885729264,8.96714916072166,6.08746868224125,1.49595033339575,6.7578576819615,6.92340602808449,0.835509846332987,8.95004276257033,0.409008626289774
8.39947216680163,0.622063757815746,5.06643195977392,2.9763850601659,1.4943620712745,8.21726842584065,6.10599787306863,1.43899349996554,6.26236282132066,6.4967867543014,1.29468888865137,8.38374427845318,0.660961622304227
