"fastcoef_sq","pref_flow_den","slowcoef_sq","soil_moist_max","soil2gw_max","fastcoef_lin","gwflow_coef","jh_coef","slowcoef_lin","sat_threshold","carea_max","smidx_coef","smidx_exp"
8.77975109856414,0.490043512453726,4.56573804983199,2.87314362112736,1.57739715253536,8.63692749267098,6.11537809906036,1.28447361780213,6.71457531933719,7.04038492849941,0.401236880744536,8.2021930226155,0.273902196890457
8.67660579254174,0.527650407402811,4.6088671156906,2.79679736910477,1.74135903788857,8.56804617168311,5.97262785078265,1.37619627654524,6.76275994272827,6.98756446770431,0.497526702732899,8.0841733740214,0.293901034431649
8.63509774718836,0.469247148360314,4.58709692269983,2.70221573913835,1.83696303565949,8.61324636075307,5.82671980316821,1.38835286472881,6.8523755183186,6.94756296428383,0.480384076555985,8.08378892598878,0.30996936360599
8.45196381887591,0.766817438744958,4.57613890059057,2.77556677002991,2.21738815175646,8.18051596940193,5.54443237197407,1.47210377781439,6.69543170784142,6.77133198499066,0.642301126896329,7.76962217349287,0.347801158342162
8.53887832275145,0.722068192260242,4.57167130971545,2.83287985821811,2.04311673710882,8.26069339850778,5.71808527034852,1.42747683345243,6.66506498382666,6.84082036524057,0.582877026853033,7.8646781917593,0.32749072228088
8.53647658085221,0.723152358630056,4.57365329306012,2.83180261024256,2.04595088141872,8.25868965048988,5.71646572027007,1.43076864411517,6.66580322658876,6.84012676377534,0.586179791505229,7.86174516514154,0.327739123953643
8.53665812608802,0.722979112501726,4.56722783508998,2.83382182678319,2.04719178397591,8.25744734031772,5.7056167238423,1.42798120529626,6.66373897421872,6.8329088265824,0.584716851422962,7.87054424603168,0.331342087320362
8.53849895994952,0.719975800934082,4.56550621135691,2.83357855963822,2.04555813212896,8.26090243583841,5.70436247409264,1.42707393526267,6.66532225657458,6.83300885300958,0.582858896965578,7.87524033074466,0.331936203335918
8.49889484082113,0.768020097573379,4.5739147302684,2.83582543009665,2.11677871447352,8.18711054930741,5.66155596892269,1.45522527322783,6.6466589511045,6.80854639125286,0.615993346210702,7.803349885382,0.336110993248598
8.49678290816335,0.775207160920611,4.60495065258283,2.83918779433585,2.09746532357227,8.18295823520501,5.69613002069319,1.47221317381282,6.64186577658726,6.81518781613846,0.639738244749972,7.80078866531036,0.326215650184977
8.50581900983503,0.765456885791217,4.56862703354166,2.838284912532,2.10896082058096,8.19296622387803,5.66646613184788,1.44529420327123,6.64493602373544,6.81028047742736,0.606090368074593,7.81104835740206,0.335112782692619
8.51836105559019,0.762263383185806,4.54817568849416,2.84640315712958,2.094026452624,8.20388867672509,5.65559552155522,1.42102850607112,6.63865778573446,6.79760307071435,0.588692955894728,7.84358663898991,0.340481216056683
8.5225331570531,0.803855866985095,4.55765779862797,2.89865894118135,2.06773507198034,8.14687896491626,5.7065621614984,1.43167584093514,6.57916317206389,6.80236989738635,0.603049939654812,7.82665360886902,0.339311249634179
8.55097508155943,0.734174718057917,4.55070799523167,2.84888834247298,2.03075496309031,8.25604881313043,5.71321488145933,1.39956818571697,6.64179643421222,6.83572823556621,0.571237613924506,7.89043750032912,0.338365020788214
8.47658193935865,0.781388567480971,4.56364246476972,2.81174248120902,2.18334233008867,8.16709957109562,5.59196003606893,1.44642894295529,6.66117720399779,6.78438377606335,0.61611227055755,7.77388156646435,0.33963033680824
8.45977978232954,0.820116642651761,4.54965244601731,2.81920893709265,2.23753758972301,8.11409918841306,5.55196709772541,1.43741768386749,6.64120451412995,6.76187587317579,0.613687778313335,7.72936183501187,0.341941420469601
8.55878865572885,0.725481025818575,4.57322137037697,2.84948828760802,2.0158397173403,8.26096039953412,5.76391716995339,1.39655891451133,6.64401884075105,6.85966857663802,0.557452836722635,7.86059886264205,0.312464508043179
8.53762438382858,0.734428512428801,4.5314574301286,2.82944182438141,2.06477019471586,8.25377311908305,5.66535466318198,1.39188975613803,6.6532486522541,6.81109964351191,0.556871973346955,7.88035569307252,0.343158784571121
8.56670170272926,0.791601837932585,4.53697611586757,2.89134005981925,2.01159567446607,8.20127558445697,5.76525824322589,1.36138413030344,6.58960413414795,6.81760039999809,0.547499951583623,7.85290250603133,0.319281092524861
8.68805471312506,0.703414485714695,4.49545552625688,2.93548585485141,1.78814998829834,8.34843738311265,5.93074994268862,1.22929144840484,6.55839389140037,6.90379641288312,0.416632705587637,8.03636448856885,0.303167937541414
8.73488715747463,0.678494987970609,4.46368137636724,2.90150287132711,1.81438427473122,8.36014135209456,5.99911205725371,1.10893779898531,6.63145687692562,6.96335168362397,0.312733927029411,8.02737206966471,0.284217121099879
8.7714146189391,0.664821470169284,4.3772973241063,2.93144111376711,1.79358608958836,8.45137639537696,5.85500102527685,1.07638298826421,6.58141416670088,6.88990190362283,0.261971679745407,8.12907277440394,0.313525316255262
8.5132286748924,0.692048980921339,4.6619515687226,2.83878514980015,1.98878644544411,8.26320157122797,5.81859653201604,1.56094588053158,6.67219754630933,6.89593514426793,0.676230150861902,7.83819692203024,0.315041914224436
8.42304320074132,1.00984283815402,4.53039961328661,2.95374992364011,2.26597791050706,7.8769365216592,5.65241889723765,1.55614214240199,6.48361544146709,6.69937820010568,0.714956231238998,7.58668533840692,0.376325310765371
8.39487932721395,0.736370634457422,4.81401983553276,2.78937442804339,2.05817011293199,8.19858887379264,5.8294930206771,1.77222978743159,6.72304656541105,6.88752182064053,0.895434449215008,7.70257542736453,0.329227085785707
6.56017983346004,1.39129814021961,6.10501500282035,2.14578869003328,4.30614156644137,6.48796888421293,4.38738528595343,4.45969923790792,7.06868994185126,6.4020032193019,3.31893983848547,5.58269870608593,0.629879676796921
8.14464232597074,0.841187248804194,4.85502070792057,2.6479593935549,2.30506345305749,8.30737004845379,5.64942855478499,1.72953543294066,6.844854514326,6.76925722820675,1.42698374348392,7.72130015028049,0.709811999394963
