"fastcoef_sq","pref_flow_den","slowcoef_sq","soil_moist_max","soil2gw_max","fastcoef_lin","gwflow_coef","jh_coef","slowcoef_lin","sat_threshold","carea_max","smidx_coef","smidx_exp"
8.88304955238466,0.462902524342654,4.53934451446531,3.1990009536551,1.0935972507157,8.6146647715472,6.39973557710585,1.48608527071681,6.49630516842472,6.95864494595659,0.522802575774553,8.6042239653708,0.381448464753682
8.72864786528342,0.574081942888253,4.5612359419453,3.04305690507936,1.4943250533321,8.47030430780537,6.10827713809446,1.49339291666469,6.57962866911568,6.90049961515464,0.57547956130617,8.29531881560021,0.371527091199657
8.7653993407408,0.589503019927811,4.5092164016797,3.09092499038455,1.45780730711114,8.45904512836269,6.09167090333719,1.41949345644859,6.52395330141012,6.87402618898636,0.522594173870399,8.36479303590627,0.381158209987988
8.72258637964677,0.594239717606706,4.52909260049439,3.06304719543619,1.52049201429126,8.43466642972315,6.05045741319832,1.48415411899076,6.55358835446379,6.86234753638332,0.575022531929793,8.31207451168302,0.389287696380422
8.71437362905846,0.60562244276808,4.51775570410742,3.06692001972354,1.5407693117854,8.41472308917741,6.01857908208111,1.4826717241813,6.54478580637102,6.84310027086521,0.577788018311242,8.31197222155464,0.397002260483531
8.72716870844818,0.578059644833914,4.53427853431849,3.04887798904784,1.51303673532272,8.46234400050417,6.05768581543856,1.48456944199188,6.57377201880463,6.87243400210695,0.570689211621619,8.31900718122527,0.38776813583862
8.7290441644158,0.577096793350423,4.52718436956292,3.05179194865045,1.51138331138871,8.46261676034595,6.04890689078387,1.48023035074864,6.57112681864842,6.86575649404531,0.567524039653352,8.33025291498149,0.391382086590429
8.72805427522116,0.580450235831743,4.52078479131099,3.05352536457933,1.5150424137538,8.45916039542321,6.03670046635334,1.47655419669146,6.5686199871077,6.85662912124419,0.566902427106839,8.33582578463859,0.395158155270244
8.68768742032588,0.605988160651834,4.5302649331399,3.01110882756966,1.62141485936664,8.41689971340557,5.96830135354374,1.47621420918517,6.58927014323525,6.8475150521832,0.56918510854395,8.24434909412922,0.384899391500464
8.6910957567621,0.579259250385939,4.51906445659704,2.99060738564848,1.62092175629836,8.45723230368012,5.93489505700604,1.47378994920466,6.62007498030192,6.83602805937356,0.563754456518959,8.28294334484285,0.396699620514567
8.66156368555283,0.631722903806436,4.52506255421725,2.97838479270847,1.70490659215268,8.41044160043315,5.89649822012644,1.48358330612761,6.61751980647769,6.83686880879706,0.604237043204059,8.19872433282848,0.400596125065313
8.56276622578085,0.69725271023008,4.51264878963656,2.90402300528806,1.94663347549528,8.29645457619142,5.66865075818858,1.48581681897648,6.64451230214427,6.75533509175256,0.626999818531497,8.05755286521388,0.409080662367973
8.60361852948462,0.633808932456289,4.50301426774538,2.88557876606755,1.87707644757754,8.39299619342122,5.70221649434368,1.4537497537591,6.68288668020382,6.78143908951357,0.583680930327895,8.13651525398641,0.405306932273451
8.56622734652443,0.695851744282861,4.50727601753052,2.90560132739202,1.94371472024067,8.29863613412097,5.66732125036226,1.4803985917626,6.64300816663011,6.75413006038669,0.620804109411372,8.06340713405382,0.410483611449099
8.55651442702986,0.702047979374843,4.50706767200941,2.89189922751643,1.97459027458102,8.29147962605547,5.64457091460316,1.47582422494166,6.6522603454816,6.75030998286282,0.619620308342024,8.04086158700271,0.407891110688752
8.55797618905759,0.70135091813497,4.50392590381904,2.89218091401101,1.97473643306532,8.29269040069858,5.64489488994337,1.47461213234784,6.65304404811421,6.75033958450739,0.617408025808055,8.04047937715838,0.408244611339964
8.69741692883518,0.630487321733035,4.46878505746597,3.02564799015003,1.63960053672539,8.40300635562911,5.92033549213326,1.42879775185816,6.56976379257991,6.80870727609707,0.536782598526515,8.25582059574204,0.402919020955182
8.74451620934411,0.548461198053691,4.46801493016823,3.01421941795963,1.5866084094675,8.48722435331869,5.94752198203283,1.39887664386267,6.60389083413412,6.85660967226459,0.479745724714952,8.34383701149474,0.38819957265051
8.4903359935779,0.811996167938792,4.48453820556249,2.88856872081367,2.16374592553565,8.11642417302076,5.51573683922035,1.43384159703936,6.59215082338401,6.69764967463598,0.605516395447319,7.87345201060926,0.391361175859659
8.52442858003757,0.738246617147375,4.4392062675538,2.83254202956652,2.14285609626631,8.24346499395708,5.45903861308788,1.37192882002963,6.67575047280449,6.68095507862564,0.540175616530428,7.97277408636849,0.402897767654051
8.62078350076529,0.825584956210911,4.43931370344269,3.02548291433196,1.96318489648462,8.11370685105756,5.72212407564293,1.25072454357197,6.4408837801107,6.76763702218096,0.451081609019586,7.97580886639256,0.335513121290455
8.57209145317154,0.513758291117784,4.52636674264633,2.7927003642889,1.99651376058117,8.33983243017566,5.61999398082228,1.35575775028152,6.78358695082955,6.73810203566249,0.366324100906216,8.04744401333102,0.248154034280033
8.99427806104949,0.515259548988435,4.27506537620676,3.18241991652263,1.23621497034043,8.64064411508189,6.19887712805804,1.07848549948231,6.46303991099466,6.90718354269853,0.178722257735068,8.61794536550364,0.370802454609347
8.6643264912259,0.776647838856053,4.32544504497272,2.95684316991803,1.9888548311522,8.2623178478675,5.56047222962318,1.13338169366717,6.53648021625503,6.69524878560246,0.35094893196664,8.11149910566838,0.389463486500897
8.46699466141346,0.765169286799868,4.78738565622021,2.96609566611524,1.81856214871564,8.18747903259344,6.02011363382329,1.81194562599152,6.61929821661623,6.84781625950372,0.927201457646214,7.87342623648663,0.356917196694177
6.55093614782725,1.63505527725434,6.15300134655437,2.08912772835794,4.28550434928941,6.4875968267597,4.48250331923743,4.29228922947719,7.05998158372181,6.32298808278684,3.29126658593655,5.3973257948546,0.632891443668328
6.72009457024031,0.947100606575673,3.5555770867877,3.10213172639671,2.73992767091938,7.63226987632983,6.18523545140557,1.57840077131217,4.93511373880363,7.59122637901717,1.07274625058503,8.12477595477366,1.60652570584594
