"fastcoef_sq","pref_flow_den","slowcoef_sq","soil_moist_max","soil2gw_max","fastcoef_lin","gwflow_coef","jh_coef","slowcoef_lin","sat_threshold","carea_max","smidx_coef","smidx_exp"
4.74150109622441,1.88436517083826,7.73229758012525,1.09707891265793,6.10121401155088,5.49621962998864,3.45950277628303,7.21350667847006,8.01567009028497,6.04905536918773,6.03461264821966,3.50842576932457,0.826543592546279
4.80759195605441,2.22205900252667,7.47572517961702,1.39344716166533,6.16698917331851,5.10076962363358,3.53991071370993,6.8846594005313,7.64718544041082,5.96008098039539,5.84406666421844,3.28310955663507,0.811674352382883
4.86434790344536,2.06577291166125,7.86224207219127,1.41912778544122,5.51052480658965,5.38473031084506,4.33458965877233,7.13563137462874,7.69740459591501,6.23557439175497,6.00512669102553,3.43642612807051,0.70038375051642
4.91105256728114,2.09406544395634,7.552747873489,1.4540175712685,5.80239376982688,5.27633547010507,3.91489661349394,6.93632596000489,7.62718824608796,6.09156271902001,5.84182757646984,3.47971007526488,0.788657566727987
4.91167180782212,2.10045702922636,7.55501271943236,1.45599929046539,5.80326860900097,5.271520142967,3.90874742198865,6.93692024509748,7.62508766712912,6.09386112503544,5.84484815569962,3.48128622146309,0.792199710457993
5.28987105113839,2.05558816406071,6.7728002104136,1.07608114563322,6.55750970794159,5.8818014559035,2.9646013157867,6.17016145490363,8.27079472577769,5.88308264176687,5.00140251650753,3.54080666666384,0.945143050952474
4.95289833084975,2.31358639333275,7.36636414848294,1.4312955796565,6.05075315556657,5.17526791064232,3.84797211755353,6.70106272751904,7.60881025789032,5.99591571407204,5.65805951543223,3.2611008771313,0.766176235603822
4.81776606362736,2.23407988150934,7.46549987072029,1.40308011072559,6.17462338276222,5.11430561764123,3.55568140154347,6.92286989600044,7.6498281499569,5.96753675190356,5.8537289284014,3.27781871598015,0.816964337525426
5.29827213332807,1.59677799000808,7.92950023006727,1.67782100930685,4.31900805478117,5.87539759307761,5.28647705793769,7.00112391552017,7.52268783447839,6.61786988322287,5.82395579184261,4.30758711759669,0.702046118419475
4.70675825218126,2.21686641965125,8.09615118726264,1.25701391862368,5.83641271009364,5.23149046752936,4.24899857762004,7.13936145320119,7.83872141239457,6.19760425898707,6.11820371431059,3.00719038786309,0.634536980430311
4.73568212168652,2.46450182928335,7.34011764664253,1.33456228322796,6.48333982483835,5.06270061388977,3.22708836577215,6.92056393188337,7.57609762027794,5.78899784950776,5.68017295024161,3.03658858683256,0.869824948825991
4.85877937259457,2.32504653323942,7.45915669715492,1.61744011593052,5.9569284447878,4.93370079482384,3.81515471270197,6.85296023238201,7.38427101888953,5.98687021150341,5.8216568177845,3.27692719894917,0.770087005291419
4.84020137189276,2.26683984624748,7.49096429835266,1.67516471209254,5.8653015982165,4.87872973576122,3.84988119448543,6.94168904030417,7.28447517011895,6.0031624675727,5.88818929523477,3.38558197210381,0.781818929804859
5.12635012309589,1.8647891966769,7.71591276407903,1.58048824891293,5.07478206432675,5.60883757433567,4.64158334752734,7.04588852055263,7.58053849791506,6.36472171089105,5.84799194269767,3.87971161105579,0.750607098364878
4.80006237099575,2.30635036480267,7.69948711786969,1.64968021005512,5.86030254699409,4.94108628571107,4.09844885298672,6.9286875777936,7.53028431402298,6.1768399111465,5.79361042137187,3.11053322810149,0.5591263739939
4.88720101002825,2.8356211127344,6.99426493523584,1.51639276727166,6.83676170740015,4.38070361053126,3.34102698183036,6.49715085414627,7.29000832420917,5.65564536837332,5.31950863819201,2.50766205129786,0.699512151649536
4.25604593530328,2.80975262806103,8.1971639675633,1.65723769129466,6.07161484415167,4.1592025034542,4.22289149421904,7.52157855659952,7.09756765685128,5.96886650194345,6.71167257363626,2.46041233157907,0.622011450962937
4.47593359987263,2.44146411989841,6.92023328305562,1.40843179331838,7.64135800274235,4.30483666115836,1.723687602718,6.82850509298261,7.41974591594163,5.39983648653264,5.68584290091383,2.96153269527803,0.982961845696626
5.01394141985973,2.87955725885925,7.97203822919279,1.35154692252291,5.55465737364053,5.39670759532611,5.28788028299104,6.58812938360846,7.9027267942668,6.34697740217332,5.79703584118083,2.35412634417327,0.54097583709587
5.32744338761079,3.26966681354034,7.48891491921997,2.08754551966068,5.0963631903058,4.8735829065756,5.84083275482661,6.09890140714901,7.02847705403626,6.33402173574514,5.33941602387358,2.48660373090837,0.489716865418706
4.44817795233826,3.63788900530501,6.60425392284271,1.32481674633188,8.54814747923544,3.84734717609979,1.89987649178184,6.25635588377762,7.36663827913787,5.15967866317457,5.34506956441958,1.505973289039,1.01000226555845
4.58264453853375,2.98107397161387,8.44887446978115,1.75199462187925,5.6170705947923,4.3356377503462,5.28360597324134,7.10584650759815,7.0292429305896,6.17755827823778,6.45942040264618,2.1110344387716,0.486930025825095
4.80962155325415,4.55686525119278,8.10044840178952,2.79947186701109,5.25736754266098,3.02970212001471,7.08316343749299,6.40351779037741,5.76553448479733,6.32573250830407,6.01837497079453,0.718316512782888,0.1659788369259
5.98834252570284,4.72790073481149,6.00883303783625,3.89488995601561,4.92672267101408,3.11026140170952,6.54725832244309,4.44012613840652,4.86393325502049,6.02099291517635,3.97450850773973,1.93864727164169,0.473126669082668
5.67260935908558,2.01403876340832,6.15373181120017,2.54731718184856,5.8596183216099,4.72477367425665,3.87978356177991,6.46439632895287,6.70578956934456,6.23991051968959,4.94514876649377,3.70079827395643,0.822891533549304
3.55830898315023,2.0320275976003,9.39399073298496,0.149136282336336,7.24043446545326,5.02252048078787,2.78499172252382,7.72704239960896,8.59144978144134,6.34246966529982,7.09597986438582,1.68820907753307,0.251073431080773
6.56472365294171,2.68053328233914,4.69805135102732,2.55417960645948,6.53526106762057,5.55910913970965,2.78734680249393,5.1609581396141,4.92358667133979,4.85873221332454,5.16864386495992,3.49970691151189,2.86665143344104
