"fastcoef_sq","pref_flow_den","slowcoef_sq","soil_moist_max","soil2gw_max","fastcoef_lin","gwflow_coef","jh_coef","slowcoef_lin","sat_threshold","carea_max","smidx_coef","smidx_exp"
8.1897826510795,1.29490654951427,4.50784229483643,2.96375559276047,2.78177037762503,7.39000743928765,5.14135401578817,1.52734779225345,6.31764839831912,6.48668645637953,0.813400172857305,7.2530971237374,0.398924429630541
4.96478094120991,1.6548311456203,7.20130520731374,1.05762703645419,6.21805107352431,5.84174199834256,2.92201004441421,6.92957156206246,8.20724472714601,6.00015306338287,5.56673192182014,3.98857440792251,0.932902965179825
5.79326952890066,0.766084068949855,6.69701125384687,0.894454553047423,5.07498333427641,7.25071749125538,3.81635113833192,5.95316336260083,8.60205260665617,6.43228290760406,4.40037193727844,4.85616285598121,0.836455381993903
5.25787726588714,0.258991893137773,8.47793107214498,1.10274963111779,4.06199914256544,7.17782562479619,4.61769118795255,8.00709800422299,8.4700872081918,6.68006831687699,6.33929520191925,5.4158359058253,0.816128575916268
4.64872931796862,2.64147436081448,7.31843508000085,1.0974332777652,7.23616308495755,4.9345022403065,2.56386121867079,6.73948929731198,7.75002715370041,5.68899104470109,5.52306728824937,2.68353578879909,0.978258397163231
8.20722833939815,1.28262442193024,4.47586709397772,2.95742326786308,2.770925312086,7.43157751997402,5.13427674925702,1.50546693964756,6.33636009230609,6.47605899649576,0.780526124632002,7.2835531732122,0.413662294756742
5.00097394524763,1.4389130792905,8.0490898075934,1.38661049169984,4.81270681388598,5.87374302418805,4.57569113192106,7.34039596133502,7.85025272622996,6.44471650250926,6.1440938523431,4.22736224729134,0.682371560457716
5.85508208462974,0.796630138203531,6.66760549932577,0.965804588538997,4.98696023415132,7.24316532499674,3.90608681321098,5.92576944666337,8.52640751908807,6.43225134729089,4.35738539032021,4.88240802447941,0.822329985967045
5.08625730179157,0.918998284793875,8.67375874620476,1.02779356541087,4.40112568198919,6.83243203081835,5.03653696118915,7.88341036780957,8.45827382085765,6.79492436941523,6.44145297672079,4.54765535641481,0.68817502356769
4.64870451423381,2.711034599275,7.24862865565541,1.22398561264081,7.26796499644338,4.65851887051705,2.30140928814156,6.75604839115172,7.66263521012024,5.47066974685092,5.69588309917766,2.63420505686931,0.977994421884692
8.38571480691497,0.895244632202086,4.44154741295305,2.72439574218489,2.59506631654931,7.96138463386439,4.98553156767037,1.18559577960762,6.62307658222484,6.55480728215469,0.48814845456409,7.78996825532105,0.344216478156047
4.74150109622441,1.88436517083826,7.73229758012525,1.09707891265793,6.10121401155088,5.49621962998864,3.45950277628303,7.21350667847006,8.01567009028497,6.04905536918773,6.03461264821966,3.50842576932457,0.826543592546279
5.81964884782675,0.768754945576095,6.71116039628185,0.891072405028353,5.04487171915708,7.28910072459644,3.85200709269779,5.97572507992532,8.61415977332171,6.43453247703333,4.3866694590673,4.85816288791381,0.834762645089951
5.11490952966347,1.00275127197335,8.59458016292565,1.11056688165996,4.410734612719,6.73527393175714,5.04783292828292,7.80673539425217,8.35224230539124,6.7522067009272,6.373033684459,4.504440122041,0.697397785809047
6.08022396195613,0.552234630410615,8.59405230207111,2.1252086303008,1.3730919163234,7.20416071871663,8.21411330818235,7.26256564172759,7.33538757308033,7.64930878716817,5.77601239067296,5.90097368149983,0.510425085260313
8.19906142343284,1.33351529108075,4.47990774293555,2.97685106742164,2.78044372434361,7.38708132802397,5.16802618395318,1.49359182675066,6.30787456577884,6.47185214369273,0.78453342915629,7.22694565056349,0.406004161759677
4.82658645202327,1.99241110003231,7.6436551497788,1.27653910156166,5.95224131027593,5.38386988647782,3.68412509913584,7.07521346178377,7.82037887870704,6.07145824711159,5.93973040195964,3.49485599539383,0.809371651502136
5.83967771689144,0.810213035458283,6.67109475620614,0.931325186595731,5.05452376276146,7.25543451058756,3.85954189746548,5.93969587002158,8.57267139048957,6.42345571690565,4.34823648758009,4.83756695300873,0.837053602362905
5.17550555605556,0.998596535570053,8.58142914473059,1.11892196666938,4.29091459415986,6.80686003429585,5.19729344270027,7.74092299021484,8.37036223827291,6.81095508570092,6.32022715243399,4.5317856381953,0.674549246474187
6.10080692939707,0.577394837645952,8.60827116329654,2.12898913663323,1.36376405339986,7.19316238929298,8.19224453645701,7.27799907321451,7.33532828192896,7.66024525847865,5.78805915923529,5.91730187268531,0.507160801104613
8.24066308155433,1.37000224431423,4.43258390022604,3.04041104552411,2.84145686828446,7.30272676085777,5.21862267647127,1.433546214392,6.24900711042402,6.54063140350079,0.747458368792943,7.11629751628267,0.341369585763162
4.77454652613941,2.05321208668247,7.60401137987113,1.24526303716163,6.1341015924347,5.29849462681111,3.49970674499648,7.04908303950068,7.83142776534789,6.00456817479156,5.93933965621905,3.39576766297982,0.819108972464581
5.83378011205786,0.777337777308421,6.7001784968517,0.923071248090696,5.00934479570496,7.28090619333785,3.88749832828895,5.96902483076667,8.58228316031796,6.44232946591031,4.3725277475768,4.87310860183629,0.840748417337451
5.11776828382315,1.01320724038973,8.58627734459528,1.10353248894774,4.43304080300683,6.74158889845979,5.03435351420929,7.79485534734475,8.36648815315442,6.74902078129404,6.36536159033058,4.48755549060736,0.697409962137768
6.09593506527723,0.584369885089596,8.59630884531452,2.12699736844313,1.36487920119226,7.17604452851843,8.19250858514946,7.24631247670801,7.31889895043938,7.60024791916155,5.76606150922386,5.87771908708917,0.530543826154104
8.19845837717262,1.43795592338376,4.39450055695699,3.06784555956355,2.94339264348018,7.20024442441937,5.15564272226476,1.45946174553121,6.20755905307619,6.49978255908314,0.773750567640873,7.01267392307548,0.348552234487865
5.0156860736814,1.96997666744948,7.25254889526942,1.08658002914558,6.32936185974623,5.68901054294607,3.21205204603486,6.69183406668684,8.14323240803133,5.9660690054773,5.5180075823636,3.5246162179942,0.885843321749377
5.80633283484586,0.824345814347013,6.66271410888564,0.924479478703828,5.12914740348346,7.21419271522163,3.74756126733546,5.98323247723177,8.56374489676843,6.38793222581166,4.36750906639039,4.82383927142423,0.864583340280061
5.08564588190066,0.993037603283122,8.61505129884655,1.09825980525494,4.47465669223116,6.71639290690488,4.96807878580679,7.85871568071603,8.36289868132054,6.72174181754527,6.41626912743978,4.49141228376806,0.708631130577631
6.08020020694511,0.554527026959292,8.59376719904437,2.12485425932648,1.36717528026082,7.20797145925056,8.21543874589909,7.27709679654595,7.33850914716798,7.6386774851685,5.75726610605287,5.89368052178064,0.520629562610934
8.22080744005669,1.38016632565649,4.42142390185245,2.96173131801146,2.96934796382525,7.33816651741884,5.14412972419138,1.35128597303722,6.32684840361229,6.54479521813806,0.708786122545473,7.02273365922612,0.275779996133154
4.60871734804852,2.16291464536834,7.32626543159043,1.25275535298815,6.87128600714661,4.9005281455735,2.59159518950051,7.02100588572633,7.7177080031133,5.72444592786019,5.86022777456675,3.2349792323013,0.904752719121452
5.92070568562294,0.619060339617179,6.5314986491205,0.807995773678956,5.1353360290022,7.51813312074346,3.64059138447146,5.87514271114658,8.78980207175915,6.42877166453901,4.17557102376985,4.99849269330618,0.879044326780116
5.12051284885343,1.02370787970424,8.5777361842666,1.09659896869044,4.45549357523634,6.74801979814861,5.02082744894014,7.78300920764092,8.38059507594008,6.74561394749388,6.35747778908906,4.4704632321281,0.697537980855306
7.0515569240806,7.35356512403772,4.43792455504475,6.3313156579367,4.00476195454041,0.941511021718305,9.25075657231217,1.91788968026174,2.0458444813843,5.93156461640304,2.10335651006239,0.338246961623176,0.126117289893844
8.28601126026497,1.3217055652666,4.36411029082516,2.92700636104494,2.90645840954159,7.50385904750481,5.13370289087191,1.24635491693814,6.39380338009475,6.52272457576972,0.615012538648643,7.14385650057336,0.342510652029313
4.73859160895546,2.17443350006081,7.53620761338389,1.21582059794294,6.29227691819461,5.2794601219392,3.34329557102759,7.06703530517671,7.79588385528145,5.91902660934775,5.85739279923064,3.27250717807856,0.848184270686135
5.76142544150665,0.913213661902657,6.74925669938903,0.953244197008698,5.09333053931711,7.11823128271004,3.88505154929946,5.99940870770772,8.50020810897822,6.40324926747573,4.4514503430224,4.71881746955065,0.833551315525283
5.17319986980128,1.07836601706765,8.51545619735413,1.19809949918762,4.38509593195059,6.68347974758624,5.11235349798132,7.71186258923378,8.26343736035624,6.73328789182836,6.29024396201122,4.47865813026506,0.706230803576207
7.05185890714479,7.3535095823173,4.43798896198838,6.33096396491468,4.00538211453154,0.941691764763989,9.25029469924424,1.91757208555828,2.04582092431494,5.93174073743218,2.10373248861229,0.338306323084293,0.12661483518186
8.38442878937906,1.29141377561633,4.1809922166114,2.93183763211901,3.2018294860652,7.47026411621792,5.0064634305057,1.21617580006099,6.48250301892999,6.66751751639488,0.521280074016032,6.92857972937841,0.230743024826628
4.72412967420283,2.05061579524476,7.91422438369394,1.17704641564081,5.96881336082226,5.363855048759,3.85425067695153,7.17643406583562,7.92719575133977,6.1233298140874,6.07640818126513,3.25780807859383,0.730540286488295
5.79628838413612,0.829087616531726,6.67988745149707,0.878846527537046,5.17375779608137,7.2556023759557,3.74868888015913,5.97522723904321,8.63614924415011,6.39619267747886,4.36131000277248,4.77256390557016,0.858233129236742
4.58282193987448,1.52080655082693,8.14130102535978,0.954984839318906,6.0893079407392,6.33026245144199,2.72057939454156,8.20503311836234,8.23419405054895,5.86689157521153,6.89019011002546,3.94239139940221,0.947200467913187
7.06339387719782,7.37473714377237,4.4477697419029,6.32878122361119,4.01158608430162,0.924938409178407,9.26452657057493,1.91262519287023,2.03322600825551,5.917537373883,2.0972721725738,0.326401318268689,0.123949515357962
8.12597653713074,1.20531521904282,4.6157790100871,2.86412070679053,2.69796307091606,7.51448208007345,5.10956127527719,1.66732155827434,6.42248117023644,6.44475906452787,0.91464964704949,7.38292696210307,0.46077828467954
4.79085123405858,2.07560250854287,7.61163093923895,1.38612181237524,5.98325780488369,5.18747468287493,3.65469198538423,7.07759785938712,7.65007263020196,6.02610891838022,5.96140097172721,3.44700387071419,0.804181261175569
5.73935503617706,0.873199967655953,6.68953726570663,0.867806186698669,5.23513497337091,7.15944358361983,3.70538806776825,5.97516728509949,8.60281898925611,6.36792720033909,4.3913013380438,4.71658710926852,0.862285911046272
5.05035875595073,1.07676031197105,8.55080276630918,1.08431437880017,4.61895584198066,6.63381104939622,4.8343787636504,7.79768124521582,8.34764850203906,6.67479579466514,6.37239178486775,4.39821819743421,0.716291610902504
7.06028217714824,7.35897545370294,4.44224618400382,6.32476960187068,4.016330201821,0.939814082639029,9.24760924975769,1.91217667248595,2.04146516831615,5.92962643553376,2.10747391626763,0.335511983097301,0.132988267395205
8.1050467454294,1.17486174975585,4.62282627957544,2.8101907535713,2.6467040947295,7.59580398905264,5.0085977474421,1.66207215988103,6.46283339949462,6.3544661540004,0.897281260105535,7.52705919341502,0.529466800516777
5.01988661477624,1.74057158042317,7.83089890509626,1.38744996098239,5.21011103316602,5.68580861153312,4.37298991711036,7.10731529699511,7.76917896238168,6.3334626262053,5.92928422003114,3.90800644346063,0.764294855482877
5.78480932495137,0.875470260002758,6.77516391440213,0.961044560924216,4.98171126265744,7.13986302725899,3.99809269343575,5.98239774768658,8.48632385528412,6.43797271435142,4.43763193327352,4.74955047148634,0.802656456709405
4.99670809039652,0.632747089608324,8.9130057802282,0.873831894490761,4.3266802592799,6.99777330343995,4.97224844865522,8.18522975432506,8.64707455913048,6.84140051618359,6.67145627449628,4.73411864223226,0.690603196247342
7.05235587529564,7.13641521564718,4.59580666517321,6.08580945072281,4.17790582072593,1.46411368591996,8.922613823752,2.05351721858019,2.23380465572837,6.10511697758146,2.4693040098533,0.444780616827765,0.151723602109639
8.15540423010208,1.20526295084648,4.55954118059136,2.87057650981679,2.70231485893659,7.53219216570848,5.05568979053105,1.59107114077983,6.41328848477819,6.41789510278699,0.843754040382612,7.43160887454347,0.472196432892991
4.86434790344536,2.06577291166125,7.86224207219127,1.41912778544122,5.51052480658965,5.38473031084506,4.33458965877233,7.13563137462874,7.69740459591501,6.23557439175497,6.00512669102553,3.43642612807051,0.70038375051642
5.77309923492638,0.907701455912092,6.76367082635127,0.936950790956808,5.06541467167027,7.1527350058328,3.93822817295999,5.97951589868386,8.5294647712604,6.42351617901198,4.44864705575589,4.71794242185116,0.824083473842955
5.17360622008682,1.19531409371157,8.39535765133391,1.17966113083275,4.59570791850696,6.62833722047393,4.97683968474829,7.57046693128305,8.3100669511344,6.72545011412381,6.21368402876382,4.32087471394553,0.682945875631132
4.92589060934753,3.21406451151165,7.57194058381137,5.6475265578387,2.37076363724046,0.93325075632246,7.26729982273916,7.32903785869773,1.88010336070675,6.19652384208676,6.46746180202966,4.3725479977631,0.361057450748411
8.02581801181752,1.19958470261362,4.69110515438827,2.87407311616857,2.64617195214048,7.44358965383401,5.04764429091302,1.80890093296082,6.35692892005683,6.3569871218327,1.03741642820366,7.46434637987467,0.518700455248158
4.91105256728114,2.09406544395634,7.552747873489,1.4540175712685,5.80239376982688,5.27633547010507,3.91489661349394,6.93632596000489,7.62718824608796,6.09156271902001,5.84182757646984,3.47971007526488,0.788657566727987
5.50930441591562,1.2482178988755,6.76887317213472,0.980497727096262,5.52068108030837,6.63278912421652,3.53161934451647,6.07876772803151,8.2879440919049,6.19514854600381,4.59900074054995,4.293434071936,0.86889131299239
5.02384434473993,0.748161631933018,8.9280827272135,0.95754379683829,3.99158775033243,6.88334880699094,5.35659900631928,8.05226275836704,8.46436889656871,6.92589219403155,6.63725497637271,4.75415323660005,0.619330588503192
4.94397187446408,3.19975638838501,7.57915093378956,5.64909134478908,2.35459392341081,0.931853111089974,7.263592424194,7.34571879435153,1.87643429486897,6.2068510469269,6.48211983593081,4.37123961455937,0.355571330922692
8.24671171529655,1.11641218471772,4.69934196929717,3.02448345193731,2.44595285612468,7.38785418508252,5.20680024718117,1.77650771467641,6.27733446805277,6.55538387291515,0.953334335518495,7.62185211638435,0.55304981235359
4.93392560966014,1.87457718375758,7.72410517210214,1.33878358078543,5.58799803793882,5.55252860216215,4.05054306190518,7.12969759951135,7.79810429410001,6.20688854003939,5.94130229545867,3.69406869019018,0.788575345455579
5.607603751342,1.10168431438607,7.07724695459813,1.04208068787818,4.91441918982622,6.86879188102431,4.26951107466239,6.22742535874263,8.31595499852016,6.46151307177003,4.76338131106297,4.52311862261518,0.812922810532979
5.03598476277144,0.78446429745077,8.78149334865609,0.911689771634634,4.39835337046419,6.92844645425193,4.98010596740703,7.99713788712609,8.60107045263838,6.82920393302427,6.52828022156498,4.61117083539303,0.680464624087275
4.93201957048261,3.21266450760635,7.5604312490746,5.63281246409699,2.3692129727871,0.910998640961369,7.25927700138921,7.33142653470841,1.88310112066289,6.1897343577344,6.49151368624824,4.37056777947766,0.343217563064666
8.14706667941173,1.32373836152701,4.53176879222114,2.93807964481897,2.86074512775428,7.36302786707743,5.10039463728089,1.58157732897299,6.34279378578051,6.47526631145993,0.867563721372723,7.17383272614553,0.400685451517032
4.49877351576384,2.34705889944965,7.96473077384427,1.37715830197629,6.08641442785127,4.82771106672142,3.84119713525103,7.36754261753479,7.55661887356812,6.00896093556559,6.37314261092796,2.98441905045182,0.724277521754608
5.73901098510877,1.14546586515641,6.89530090714207,1.11436147540441,4.92373439574363,6.8581997586667,4.25491784492252,6.02320094108982,8.24587807987006,6.39792660613191,4.53676189260269,4.55273311202319,0.759881256499202
5.16505237731776,1.15941842816197,8.45834904575342,1.0996544734337,4.49081621106543,6.72693849963659,5.04826016678901,7.58558355978409,8.38575412749232,6.76519907691681,6.20863177454865,4.36992259557312,0.677634551246265
4.84829338749603,3.21334105578857,7.39343558221403,5.45305295126629,2.47117453468678,0.918368326406621,7.1776412841616,7.26805906521719,2.0157087807379,6.14906923520507,6.40722573232111,4.43753229961132,0.389045740852292
8.10297789296337,1.37015330578478,4.57913926867489,3.04607235904577,2.78966919073721,7.19245440327102,5.21528241200514,1.66170743547405,6.18266039044084,6.48522865769766,0.956455032859922,7.13340723740784,0.381205690441053
4.95289833084975,2.31358639333275,7.36636414848294,1.4312955796565,6.05075315556657,5.17526791064232,3.84797211755353,6.70106272751904,7.60881025789032,5.99591571407204,5.65805951543223,3.2611008771313,0.766176235603822
5.51177384386413,1.30805536014904,7.22037583435526,1.13077823799864,4.90172900420032,6.61741054755498,4.44034512190241,6.30670562026555,8.14442647909748,6.44838376534917,4.92732197332042,4.31809406018084,0.785033286725782
5.14244927660602,1.05325488982142,8.48423732470514,1.16572097263851,4.46976046517688,6.68277849072244,4.95346069447382,7.79176243312202,8.34123944615031,6.70155874116105,6.37139583272931,4.38295781592253,0.621799160859765
6.05583019248091,0.687063660911436,8.56396250310557,2.23979138230337,1.45079712545591,7.05867987921823,8.05947651101044,7.19540540891873,7.3668761815716,7.59973516232386,5.75355276442415,5.83805306764087,0.592215846528612
8.16732849831023,1.3441653988148,4.49803337706856,2.98628218256246,2.84649469173313,7.32329929178995,5.14856922452341,1.56869859701111,6.29855435851486,6.48981113501805,0.850740404514135,7.14922503301268,0.396592395648587
4.81776606362736,2.23407988150934,7.46549987072029,1.40308011072559,6.17462338276222,5.11430561764123,3.55568140154347,6.92286989600044,7.6498281499569,5.96753675190356,5.8537289284014,3.27781871598015,0.816964337525426
5.75301553476894,1.03227231873002,6.77206866051016,1.06346573752497,5.03008133548743,6.97555621327325,4.01872692134548,5.99850866637033,8.34902437147585,6.39992752491376,4.47079074755582,4.64701086696501,0.828296149237524
5.06866098964583,1.49524635939363,8.15824255043093,1.28311880805889,4.92097590933517,6.22921890099201,4.66065507289579,7.34940575281236,8.11053296342158,6.54538877207265,6.02808702540425,4.06255131139091,0.704235738663577
7.23136672152927,7.25490301969306,4.178483656692,6.13284281325707,4.29841641610266,1.07860728632137,8.84367745190574,2.15060253586994,2.4503863788097,5.63940356216314,2.3286200357713,0.567585760764782,0.494564256292792
8.18114396992463,1.32577456419978,4.48994403498105,2.97925564784073,2.81504933608,7.35464873403253,5.13712600785187,1.53455414230667,6.30129418652915,6.47759515168862,0.819276532124911,7.20663181639737,0.40174751050225
4.95294200913413,2.08832228910275,7.2221685072537,1.58067329256033,6.18226404828113,5.07259937557024,3.48874887022098,6.92487180718156,7.53496302204565,6.03122581408941,5.69311959743735,3.39720351226905,0.811261124751549
5.57868739025334,0.838384910005364,7.02295832494594,0.788083528823486,5.11720175574113,7.08940837927505,3.8628198089389,6.24650288197047,8.60219419856482,6.40825484602061,4.74035426983743,4.65429072458962,0.799375082802203
5.0678158069682,1.30331005720401,8.69487628374409,1.16697385805776,4.43032705601729,6.55542616113667,5.33105727712922,7.70044457906916,8.27041261891597,6.77790639416143,6.42514981686051,4.12127353932972,0.625862139593423
8.17811359321089,1.073331658052,3.53609010382418,4.3376850374573,3.11694430732045,5.99090239619605,5.02103148991264,3.94251517539217,5.20306424129362,6.62424240700427,1.8143751349885,7.02943421779402,1.03200262038855
8.13204067533499,1.51715638059046,4.4425964661064,3.07322314044285,3.02278988580852,7.11668303876217,5.19486687509509,1.61788182593148,6.21821587643344,6.50129564742222,0.905110442608341,6.84075278983349,0.37963454941133
4.85877937259457,2.32504653323942,7.45915669715492,1.61744011593052,5.9569284447878,4.93370079482384,3.81515471270197,6.85296023238201,7.38427101888953,5.98687021150341,5.8216568177845,3.27692719894917,0.770087005291419
5.74604886016302,1.07539791173681,6.78979710395267,0.894320655658799,5.20432885082489,7.10355435033837,3.96387451637026,5.92399646275367,8.56539260632885,6.39986656542131,4.43886560543332,4.49575000481361,0.798830816254483
5.11676003827654,0.688794775129428,8.69017640718131,0.774552240491644,4.35248294895961,7.24412706223297,4.89354618972775,7.9221276229645,8.80475825917138,6.88525437460045,6.46227928676639,4.75004752041793,0.684939575238632
7.67307924694757,4.0340653393175,1.96250304314612,7.39583268349112,5.20197640846683,2.58102729534194,6.62094564357863,6.19951333897111,2.99258507002153,6.41134437808683,3.23235573938436,3.19567284683425,1.12891207345517
8.46008200211045,1.34460050701858,4.10952539422767,3.02822997453823,3.17353613355419,7.3801275351139,5.04932962591813,1.00926663510427,6.35012988239939,6.68165994421994,0.373499272226275,6.94798363294746,0.182883741206569
4.80006237099575,2.30635036480267,7.69948711786969,1.64968021005512,5.86030254699409,4.94108628571107,4.09844885298672,6.9286875777936,7.53028431402298,6.1768399111465,5.79361042137187,3.11053322810149,0.5591263739939
5.66281798627499,0.999378270557453,7.10617414887727,1.1685482239509,4.67733129827513,6.87294384217459,4.40276566095029,6.33966131580289,8.17945654699103,6.50888872722848,4.78579275801689,4.72666042741042,0.832678745460463
5.15375283722646,0.218998901368757,9.02200327812538,0.791113330506742,3.87381863806172,7.40802371252883,5.41694942203832,8.24754754079455,8.87670302351153,7.15828236395056,6.63093485660779,5.13746970720931,0.648874274341766
8.00836194511651,1.13244403833264,4.00067964968923,3.61758734995278,2.52946080541981,6.61698484514414,5.0417899327746,3.9594733409095,5.42844414049454,6.29699064515235,1.73774192368634,7.58784550188764,1.16803328078432
8.20791123606788,1.22810843763359,4.15454517072171,3.46876740220145,2.75924455006858,6.92061594101343,5.20924684807961,2.23280042413895,5.92661095926161,6.48470792056944,1.13577179138896,7.20188858944326,0.668580289279155
4.88720101002825,2.8356211127344,6.99426493523584,1.51639276727166,6.83676170740015,4.38070361053126,3.34102698183036,6.49715085414627,7.29000832420917,5.65564536837332,5.31950863819201,2.50766205129786,0.699512151649536
5.6606552819316,1.27743202571347,6.82093825250427,0.916918529446223,5.3390137712097,6.72806678078418,3.91467156057587,5.95943813254251,8.37561971604861,6.22793642736661,4.51821536702231,4.13331223665335,0.728480342902073
5.45234112213734,1.21834229315148,8.43762046362175,1.51382871494739,3.86280851141252,6.58585705891864,5.64564673846562,7.53813336748244,8.00961757726325,6.65636924588207,6.18323090942314,4.4504864597069,0.693570360169455
6.7436672490576,1.54383471116083,4.82168841017401,4.31916490660359,5.80377541645333,5.6259772863028,2.80313346000897,7.24632689514818,5.04848484409308,5.48579610673737,5.71869700308936,2.59763723108634,2.3034622920572
8.04215437709586,0.655081220714058,4.64045975355972,2.96901410646493,2.02188517466134,7.77169978414495,4.83409906421602,2.74561774100074,6.40016708204692,6.10766494192505,1.3655030902707,8.53427113546551,1.19478429620425
5.01394141985973,2.87955725885925,7.97203822919279,1.35154692252291,5.55465737364053,5.39670759532611,5.28788028299104,6.58812938360846,7.9027267942668,6.34697740217332,5.79703584118083,2.35412634417327,0.54097583709587
3.78816957522749,2.27687956812161,9.6785659973164,0.779759617257641,5.02659479055817,4.86593611213002,5.70702495149104,8.15456272525189,7.60824571949613,6.56528921808803,7.53652479787807,2.27583391847829,0.289656315967785
5.14359323624169,1.5349909862712,8.1910599026441,1.4595181981668,4.80075191214079,6.14613998137367,4.81899671402272,7.40797437708267,7.8693811600515,6.49807244129027,6.10910981915994,4.07375679620028,0.708568019656337
8.04482945741113,1.19378926339873,3.16364556759306,5.33567671039235,4.1859175551887,4.8381375622935,5.31365815557089,4.50369483770503,4.70419577766048,6.95183141335119,2.28733279581738,6.17423105208708,1.43784613881285
7.85241404840562,2.6231092827728,4.61302053644073,3.69902634089734,2.80434475877879,6.01670453944031,6.07294091446605,1.83970055274027,5.35842442519203,6.2090620236212,1.24405595023103,5.96744916323913,0.539916664572859
5.32744338761079,3.26966681354034,7.48891491921997,2.08754551966068,5.0963631903058,4.8735829065756,5.84083275482661,6.09890140714901,7.02847705403626,6.33402173574514,5.33941602387358,2.48660373090837,0.489716865418706
5.74983263384126,1.04640840150471,6.75648533599929,1.49132596661422,4.71618079245608,6.51250935804752,4.25276476040846,6.10085860930693,7.76616115568368,6.40034960328639,4.58621908102732,4.84381680708608,0.767688092417444
5.09230870080807,0.850362043863451,8.79015467691578,0.753071154890743,4.47260932709899,7.11190635227446,5.11068034136561,7.84373353661174,8.86244391699369,6.91761238527421,6.41101064495619,4.42522135197196,0.638017046439774
6.02223799771418,6.20606551368283,6.35093180424007,0.970991365224223,8.86133878170019,4.55118249361025,1.99996567763775,5.41826201092687,9.79520063852251,3.75109539829833,6.71580091331515,3.5342012526389,4.49099288698519
7.59686471671862,0.186232739027105,5.04623013788834,2.71088536770241,2.48125422447742,7.66231357873302,4.21066898146054,3.8550744653751,6.69434890915638,6.27030238722366,2.31823893765875,8.35531282619039,1.20794295706931
4.80962155325415,4.55686525119278,8.10044840178952,2.79947186701109,5.25736754266098,3.02970212001471,7.08316343749299,6.40351779037741,5.76553448479733,6.32573250830407,6.01837497079453,0.718316512782888,0.1659788369259
5.89722748659766,2.68949719552848,6.07012847746278,2.21570373220849,5.32230628670813,5.31398311912856,4.67200678576237,5.00520249302676,6.86179781461759,6.07973195198237,3.86749344339326,3.34075208959972,0.729587708086582
4.82007652401504,0.763249288209984,9.19186256700269,0.860322824021229,4.62565864558389,6.99570761082015,5.33174208264303,8.33575535594724,8.63909179448058,7.20824496411773,6.92828837047965,3.94902568255914,0.359546697681714
4.54149386655384,8.50540119014484,3.67220346973578,9.24996787708192,4.42258997111459,0.568458836971366,3.47567770431391,8.5604182561149,0.553886821684012,6.18998230092125,7.02348307490291,8.04554612833051,7.79165824858587
8.11702138008376,0.787042345160656,4.09518288569557,3.61144123510193,2.53933440407473,6.99810772330037,4.98541530436839,3.21678667750929,5.99541044718163,6.47128829455706,1.65282575117065,7.70773953953027,1.24436435812625
5.36492181096362,3.30613295282488,6.87056530898075,2.49598443433677,5.51396834128248,4.30324051584908,5.00338054936306,5.82681640843829,6.43980167265273,6.03502414218204,5.0045605779797,2.72353652048313,0.649835130814474
5.11535226632638,2.39049480966205,7.69676005255024,3.62264167813413,3.27404021494989,3.45983162086299,6.30826164138068,7.11064916406594,4.64761102930224,6.38243556268432,6.01623994974182,4.3156510341788,0.549235504964483
5.17282237470928,1.62196720110378,8.14640333760923,1.84308842903108,4.3096705002688,5.73287050331801,5.28597154674721,7.37498784066213,7.31168771617598,6.57099999400331,6.08134764550686,4.2368965157106,0.655779005257919
8.08533467612418,2.56843438640172,4.82305743011215,2.99210170539203,2.40115144443378,7.2378430191174,5.32863976819415,3.32414148640847,5.94669139779839,5.69244651029457,2.90060619894563,6.55002584604558,2.2028905676374
8.02822013730184,1.82994165735179,4.25438537173849,2.96550925770842,3.0680884052985,7.53709949659051,4.57104795679706,1.91967838594733,6.16671184671179,6.3746043072033,1.62102925309986,7.28658996913975,1.12692192564041
3.55830898315023,2.0320275976003,9.39399073298496,0.149136282336336,7.24043446545326,5.02252048078787,2.78499172252382,7.72704239960896,8.59144978144134,6.34246966529982,7.09597986438582,1.68820907753307,0.251073431080773
0.316453855952506,2.20473009819865,0.697388854386475,3.02406675924621,7.09986746088155,4.86813679217625,5.85062158413098,2.20729137974709,0.198702284151898,9.46374507350141,2.98397632365525,7.22225960224909,5.3978051198017
4.29954392501915,3.06949892078534,6.3531659378804,2.1375894982382,7.18617854654989,6.45660467090506,3.95919670704822,7.26853832320487,8.10470429913694,6.80495131151482,4.96924854427787,2.89384644088292,2.02535890258167
0.267528688951629,5.03417143749081,9.41352124534342,5.36701315796712,3.54868308002984,6.25605501077093,5.16168690188503,1.90481219813546,1.4469963463374,3.45649684544294,9.69392578223487,6.35564428040436,8.19945611555109
5.57637121812983,1.3399880997734,7.74168747365808,3.07382618640343,1.32088791868192,7.25937641896357,7.31437572584066,6.6093235128902,6.75248813199383,7.25484511355741,6.16756265249541,6.21882337978722,1.05584831288075
6.56472365294171,2.68053328233914,4.69805135102732,2.55417960645948,6.53526106762057,5.55910913970965,2.78734680249393,5.1609581396141,4.92358667133979,4.85873221332454,5.16864386495992,3.49970691151189,2.86665143344104
6.87836660491603,7.40706958919988,4.35960449263791,6.17976785718761,4.15988600516711,0.920715841546572,9.20416222717312,1.85672731331597,2.08339129701866,5.93934216006399,2.11807110871749,0.624895346090309,0.415820801836568
4.96447830320282,2.01076680345818,6.80277111357939,1.21669602567702,4.97915377443772,8.06809864366876,4.3294390990617,4.05500273285662,8.09149040620356,5.86452106182976,7.63043923992367,6.24266425255765,3.50867526793893
6.98774964054814,4.27029086472869,6.26775596919643,5.09015957577119,4.641078929967,2.82436286012778,6.30990555392464,1.07205204619924,2.63894784121528,3.49547444805602,4.42133357200888,4.42817180693902,2.44126500747127
