"fastcoef_sq","pref_flow_den","slowcoef_sq","soil_moist_max","soil2gw_max","fastcoef_lin","gwflow_coef","jh_coef","slowcoef_lin","sat_threshold","carea_max","smidx_coef","smidx_exp"
7.97673216093211,0.549383562386924,4.99804857522891,2.53937416415908,1.64540691149341,8.34415614372365,4.76108928938192,2.38805639848951,6.75269222325168,5.9303278289739,1.24379414627495,9.02499050893734,1.23272094912397
9.01620833176772,1.57801745895977,0.408934899039289,7.83645443579169,6.29577794312678,1.58650722318712,5.4763384106344,6.55041799274462,2.63373589877195,8.50480223656547,2.4598940593593,3.38831611035273,0.697466312338975
7.48029381748353,1.39365215178546,3.26129799352585,6.08156132583838,4.06167736761552,3.53371348318703,5.33459238040247,5.53695659152663,3.40945039482543,5.92197845080583,2.84520631112936,4.8128462181443,0.734788741612823
7.53736873749867,3.97374891733829,1.69991831921485,6.58183988872087,4.17225066207046,2.53313452596487,5.48566492184299,7.46105025887459,1.77771163826794,6.74341282526156,3.90727814849993,3.8549317357757,0.660178444008426
6.97379783340737,6.79336302061202,1.6557019945839,8.71820427658704,5.82929277559304,1.39933357236264,7.97980166439397,7.14256443406588,2.12776653613781,5.60721106794598,4.21251433473799,1.23772845672173,1.41721356805664
6.42949691992457,3.56934447762086,2.3223401404687,5.45162344109198,4.85295371496376,2.8878394928637,4.49733981737879,5.55851613070074,4.25944351654759,6.69861039413851,3.2166187820247,4.62202756443205,1.01003839585878
5.9318405336517,4.67437231537595,4.67048189618874,7.42931293193346,3.63375876528706,2.36146948335998,7.07558663741694,7.54489033424608,6.31686794938597,5.57783989107607,5.88616585274599,4.22515369729876,1.04223017508091
5.11902408537364,5.51875192900697,2.68527614792863,4.38164094967262,4.69824960890158,1.63433040896824,4.84665066284083,7.76646083338822,3.98271812696674,4.42772555447191,3.58840558996201,4.73243121287337,0.999909468767146
8.50228765551769,2.35522951963356,2.20556927486279,5.30582222352413,4.72226117158525,3.54798747336973,5.99921530273384,5.47363574915077,4.01015031249208,6.99035480564921,2.56735474481143,4.37779249187187,1.44372591691288
7.08719659739394,6.09362922557205,1.8620366808817,6.79334323183622,5.84919618813578,0.517790077338145,7.55220718163181,7.63270485019169,2.95405356608057,4.74424541578701,4.79657400557906,2.45421895130906,2.14950872689926
5.52178195004861,2.41545898968614,1.14288843321275,8.75934676299885,3.89929634354236,4.65095314099897,3.19762087374866,5.35896807879416,2.71285866494374,8.80170353686678,4.71580003011914,3.29556789191002,4.69281670349936
6.59806027461182,1.96966266262037,1.53555735047892,5.41610464871296,5.46319016839707,3.89500490845815,4.72233716343193,4.69254152959817,4.2089334795693,7.78098536219736,1.86045687118634,5.16436496372441,1.42892385956496
8.66368900685491,6.86452420146924,5.65311421771098,10,0.250685588631827,2.48251046912746,9.85511538421544,9.02757991118233,1.01635893796376,1.68188013910087,7.59607358925117,1.27311169722491,5.01502084956773
6.47681870156446,1.45728375411931,2.59129211263772,6.04970706241531,6.177189793653,2.44550678126492,4.08138314233531,7.02911603715268,3.37638395254648,7.08492029622564,4.151561079558,3.57523881603368,1.92654080727012
7.40592418740515,2.43603688515648,1.06915209268639,6.34624104371678,3.3959269175758,2.6340741400764,5.95546366346569,5.37078687893956,3.55237698095404,6.00563731062515,4.33406106209678,3.76398800498734,2.00872147659734
5.40460111923428,4.94588172758857,2.67523343926856,7.21746385307182,5.96851941922399,1.41018161618714,6.98710083586842,8.06277664235172,3.07596815572098,6.18881170192446,6.06353067017564,3.09289090308838,2.37724551503694
8.05182676581189,5.28203950111999,3.02201780277223,6.36523559992047,5.73781546585545,2.9852521115302,6.82345020899876,7.7830464951306,3.26247765799532,6.28574847367215,4.15755383750643,2.52915187893962,3.13953132203311
8.98368624396376,3.01937476326288,3.53233834100335,4.81345769137714,5.61530133044458,4.70690313927809,4.37572652461628,4.30798626704663,3.15401016495707,7.95309686698429,1.6056682088996,5.80483393922351,1.80416100742652
8.62738062172317,3.38739117549404,2.8309056590332,3.90097162982372,3.44438663024862,4.46645307431459,6.74629764623166,5.20700771228284,6.30385575310248,6.30504254083335,5.75431010542917,4.47014073183925,3.46462844238897
4.51465146460814,4.90642858315627,5.53140800487498,5.42716808120099,3.818070718062,4.92343671035363,5.63887927918658,2.21567220257169,7.8084678787393,3.57969714483385,4.9548152123083,5.64041728784889,2.01223652433935
8.19393719131626,4.58748521041652,4.6480662849954,3.44482924662499,3.15689597737416,6.13152989451114,5.89619024700638,4.26022657432743,5.14069057234509,5.45456519161524,4.55741825161631,4.07506118315381,3.17306018615083
7.17236662552635,1.29299111649088,2.57650453863991,4.65058105074755,3.89928462017151,4.25603194301578,4.04631078204937,5.6264668928667,5.43149503822348,5.90237911035213,3.95296304986763,6.13141908832525,2.46257215380851
8.05956974330971,1.42201992800393,2.36423673515185,5.8188304600693,4.14645582051062,4.33341770087398,5.84044828802119,4.85553703639266,4.81339433917098,7.6835371460476,3.29994707235622,4.12365715226539,1.86112285792719
3.82230856647983,2.99953422034159,6.65578367359922,8.41335895073718,9.55881010857359,2.4146376851337,8.16369023884941,4.96630147433305,5.3769706975233,6.84423748979729,7.44098873073899,5.65717417242687,8.72211621987835
6.93157522736895,4.86651047529731,2.40575288478899,3.57328984488156,3.37842763300866,1.05031595488501,0.350750823273395,4.39240547068779,5.54923813264972,0.244332426660556,2.39165618803258,9.42226631493996,5.47857155359484
0.267528688951629,5.03417143749081,9.41352124534342,5.36701315796712,3.54868308002984,6.25605501077093,5.16168690188503,1.90481219813546,1.4469963463374,3.45649684544294,9.69392578223487,6.35564428040436,8.19945611555109
8.73180494752728,4.06851839221563,2.20625144251987,1.57358516155454,6.92618546715188,9.0897341594045,0.780463787138863,1.31906008322314,0.37190336612249,0.978080915958348,6.5782965508722,3.54955244288107,8.79407454885467
