"fastcoef_sq","pref_flow_den","slowcoef_sq","soil_moist_max","soil2gw_max","fastcoef_lin","gwflow_coef","jh_coef","slowcoef_lin","sat_threshold","carea_max","smidx_coef","smidx_exp"
8.60206818894125,0.100782202817959,4.89722360402632,2.68765063287891,1.0323918151872,8.96567824026379,6.05703918131151,1.50266259584149,6.75461605242068,6.90795535293244,0.855134610039119,8.98190481048701,0.410195709828717
8.70859238603274,0.162826730680165,4.80797897929464,2.81879735877379,1.033317571234,8.88092054641697,6.1203194501184,1.52907599714791,6.68760276080985,6.92457244492841,0.740205487264663,8.92925321389469,0.383369260702839
8.70828689354855,0.16350472331168,4.80765751773195,2.81873383917368,1.03492299080132,8.87990099091848,6.11915549955913,1.52906176786504,6.68748636970622,6.92420316349569,0.740102935493875,8.92809062241013,0.383396728339894
8.82282049919222,0.127893189019073,4.69941441835705,2.83827476588503,1.07867518869047,9.04916272774404,6.1669421999201,1.51164677768837,6.79647499483568,7.00736689841701,0.697917698389688,8.94385440786178,0.473713016120089
8.71828019347187,0.205922634852,4.75646407261251,2.85669887146261,1.09085212528413,8.87349810725581,6.08817510549929,1.51768085178459,6.67624885092258,6.923998081559,0.751367815341587,8.90534455886028,0.429889405709071
8.74623143815423,0.162427170465176,4.77390675316934,2.85836310085238,1.00766445251582,8.90960630022034,6.14510325994121,1.52828462606767,6.68230476673307,6.94283601419527,0.718472041031775,8.95698461788769,0.39873705187552
8.77430884125682,0.16143411635815,4.76615692355727,2.85296580013521,0.98824443370529,8.94412349249605,6.23600016382512,1.51085071783008,6.71690331718207,6.97519022055841,0.6938503855855,8.91592232433741,0.390995425916926
8.83348529234627,0.166378326648825,4.7272843180761,2.84925512142529,0.956303558386543,9.07056085205428,6.43727895172094,1.45842119680306,6.81380915401774,7.06189483223255,0.671116898172343,8.83582848650354,0.419305542200976
8.7174640294521,0.169718254856867,4.81312317217471,2.82856093047415,0.996281948606042,8.89310522581353,6.1882487012961,1.51930011509449,6.68853121709608,6.94438849780999,0.733050403274868,8.91232435143995,0.372134242267333
8.78289890573796,0.165884206039358,4.73894179976533,2.89941554538695,0.985221938605053,8.93389921482109,6.17003887284476,1.52740659442197,6.67535150097944,6.96034617026509,0.696837556972497,8.97935473088858,0.413893015248419
8.75586916535569,0.199064968745583,4.75996179481106,2.85406802211568,1.02791420607906,8.91735440346457,6.24006073461768,1.49701440044833,6.71451162667645,6.97388492497033,0.7047151483236,8.85442436461321,0.395475079283145
8.70864380397055,0.180321622948974,4.80547486787661,2.82222941078077,1.03424943267443,8.87318902464906,6.1539308569895,1.51556744817538,6.68923849828264,6.93284182234959,0.728891007342991,8.89197034271445,0.372914140134151
8.69456375301953,0.206272477497545,4.79844932042231,2.81995074375083,1.08729416608666,8.83759985147437,6.12451580079421,1.51788414431308,6.68730616496365,6.92310635648871,0.729082542310174,8.84290513439707,0.371816298336299
8.72358008850796,0.186109568137102,4.79391664535719,2.84433395956753,1.02118528389559,8.87384973843731,6.16809526140673,1.5202775273131,6.67715623556989,6.93845609300406,0.725957341394403,8.90082247265514,0.380040600675709
8.76734005254654,0.1936191133528,4.75296844467946,2.87441622383225,1.03983832229947,8.87713331780499,6.18094558098336,1.52660709719786,6.68427116057919,6.95199752682988,0.686756446133731,8.88523495733316,0.38590347856032
8.81248548908178,0.219838596460697,4.7144066732473,2.88616697430759,1.00339640107465,8.9780762363947,6.37571173994618,1.47374913488627,6.75382642632879,7.02925144357297,0.674460651875985,8.80018616984906,0.414523567908823
8.9550624225922,0.217717030177186,4.62398803929802,2.97018474214622,0.860274370484151,9.15788225611009,6.69192945141408,1.43176272474411,6.82680966128491,7.15687036955185,0.611697788874799,8.78250188825946,0.459441969034927
8.83676328343841,0.216860723526199,4.69882955745113,2.94033924350105,1.01532802216209,8.88575009139737,6.26565719780349,1.52572249888021,6.6761109888129,6.98477320902671,0.633245860944425,8.86358513112802,0.389733102501838
8.69011999692396,0.277246786173969,4.77992517754577,2.8701621073195,1.09704329547097,8.78200705797801,6.16907346889619,1.50463096378557,6.64192325738166,6.927302801642,0.731382484373757,8.7708459569886,0.371077338121377
8.79021320256145,0.308648987735829,4.66561720082643,2.9502040512014,1.14082172981276,8.77623043113292,6.17901118811343,1.49531701807048,6.63595966214051,6.94317251667173,0.633673249779831,8.74912896104753,0.395447722954443
8.8270729579358,0.168720128757543,4.74139454420489,2.90631162928762,0.897784514888169,8.96369957799562,6.32334011811122,1.47239119661015,6.67339222943841,7.00341848434886,0.645266211478071,8.95131578434886,0.376105836193064
8.95105647892805,0.296496336333735,4.59014668871143,3.06753834280768,1.01124022624716,8.8643203428494,6.4159992184719,1.51881452455267,6.6544483349746,7.03854729178884,0.533144627085609,8.76485331199895,0.393299032653705
8.85962932187183,0.268931437436196,4.63127450409636,3.03445395757743,0.951000132115015,8.9201155829287,6.29218085092584,1.41478200258428,6.60186774847734,7.01315515636449,0.589935995076372,8.9106943487225,0.409251072730828
8.90751686308316,0.279239097505132,4.66319685207136,2.93984694724988,0.881163528873689,8.9832168888127,6.69467030587905,1.3133368872336,6.74673616409715,7.13548623757847,0.441610577910613,8.61798231369004,0.267197380103843
8.61616684936939,0.429861601579176,4.68449076078689,2.8532269010127,1.46577387148156,8.56369618463913,5.91451705571815,1.48191844988563,6.64133574265933,6.83386322587806,0.686339423541207,8.49525731339914,0.373473275194292
8.70945885716061,0.439781696747638,4.61592492790689,2.93114934133301,1.37051416250325,8.62091690592509,5.98645636982011,1.42843685531646,6.59894709593238,6.86239074577154,0.625084672304769,8.58163166514014,0.403107969497383
6.98774964054814,4.27029086472869,6.26775596919643,5.09015957577119,4.641078929967,2.82436286012778,6.30990555392464,1.07205204619924,2.63894784121528,3.49547444805602,4.42133357200888,4.42817180693902,2.44126500747127
