"fastcoef_sq","pref_flow_den","slowcoef_sq","soil_moist_max","soil2gw_max","fastcoef_lin","gwflow_coef","jh_coef","slowcoef_lin","sat_threshold","carea_max","smidx_coef","smidx_exp"
8.19906142343284,1.33351529108075,4.47990774293555,2.97685106742164,2.78044372434361,7.38708132802397,5.16802618395318,1.49359182675066,6.30787456577884,6.47185214369273,0.78453342915629,7.22694565056349,0.406004161759677
8.18230623640838,1.37942556345818,4.47057992372826,3.00094408567694,2.84103026470984,7.31948175570852,5.17473635673866,1.52466432654586,6.28545989344249,6.4792130196251,0.814677682519303,7.13039743538099,0.39941175867259
8.29174510640595,1.31246453334854,4.33044997977347,2.95434434977033,2.99113660520441,7.42867272212094,5.08724480722944,1.35488381340582,6.39518879235442,6.56968483004381,0.652906751586161,7.07776268997095,0.318373593293153
8.21097399639877,1.27923951448999,4.53476629952596,2.98875916355056,2.69682100728888,7.38727454228861,5.17771969976018,1.5643207987321,6.30023954134732,6.49273507599834,0.826733655746841,7.3256722670187,0.442765574408155
8.19830892520948,1.09306242019134,4.36171562738444,2.87091092018262,3.13462831830478,7.60371786441365,4.60122240185258,1.87024755669485,6.6349835780142,6.41687421557231,0.889002245208748,7.37473641965059,0.574843520310158
7.80428265970855,2.2857889433466,4.64674528805306,3.16490927389691,3.35970733593992,6.35962039567416,5.5280421372162,1.68508966090876,5.91935351858522,6.34835760416964,1.16691618540313,5.83515210770993,0.310772841994823
5.25787726588714,0.258991893137773,8.47793107214498,1.10274963111779,4.06199914256544,7.17782562479619,4.61769118795255,8.00709800422299,8.4700872081918,6.68006831687699,6.33929520191925,5.4158359058253,0.816128575916268
5.15375283722646,0.218998901368757,9.02200327812538,0.791113330506742,3.87381863806172,7.40802371252883,5.41694942203832,8.24754754079455,8.87670302351153,7.15828236395056,6.63093485660779,5.13746970720931,0.648874274341766
7.57997146314645,1.14589059030442,5.32728473963862,2.44482521780508,3.0935139495135,7.49675144859708,5.12410934887469,2.82802413518292,6.97361858071819,6.54585915355226,1.97848936534566,6.69659298847404,0.467726160866116
4.81776606362736,2.23407988150934,7.46549987072029,1.40308011072559,6.17462338276222,5.11430561764123,3.55568140154347,6.92286989600044,7.6498281499569,5.96753675190356,5.8537289284014,3.27781871598015,0.816964337525426
4.6083419403638,1.03173398913161,8.70697982017869,0.944252713809552,5.59760292299439,5.5847982352118,4.41447791242798,7.96766022359129,8.5217081390471,6.41819860441682,6.08352937044593,3.37075476272259,0.139669177168839
7.30342813372533,1.33654362169951,5.50016176543496,2.44997920725784,3.67819069868902,7.00092353171279,4.83953989079797,3.18528319357306,6.95271126925747,6.44523742926874,2.21166238085039,6.13809243173656,0.388366214488473
7.39847309017376,1.15832324071264,5.58818225225871,2.45109627418892,3.16700285807768,7.28975432187796,5.11908175012869,3.16650130864426,6.89267456411675,6.56423923681545,2.25626414049129,6.60373889848068,0.477153920381593
6.55829102192462,1.22536326192418,6.32320469459948,1.89749764922536,4.0411875540523,6.97000210454013,4.70798909234678,4.63319775015243,7.51870306347193,6.50387033872124,3.5529346324071,5.60021377935204,0.583493993453681
6.658414853628,1.17336126573524,6.53309254376542,2.04019177818469,3.60674226367522,7.06433511324188,5.10118984908124,4.6442235870477,7.33718135946663,6.61043646249338,3.57494750974343,5.85725057058542,0.551707061948723
6.75595971120515,1.14121760424304,6.51029791641825,2.22479749541156,3.4601985397863,6.96183508973147,5.1883734566611,4.54909180801034,7.20494440841311,6.65528579533544,3.56876718813926,6.07265388818129,0.489515199917054
6.4995618972143,1.81993282794171,6.08969743040262,2.31326563873838,4.32037313566885,6.16408380686752,4.63323751846995,4.21113970227213,6.91907943990091,6.32434602741962,3.28907192526408,5.16873943933249,0.482565267876788
7.24762724890026,1.21321394604782,5.78305544798145,2.47826441899224,3.41770242787682,7.08409219131617,4.91172895600065,3.48950621805179,6.91942726584909,6.52501642598942,2.62588492678298,6.4926747635055,0.470989440146978
6.51282393772806,1.66296319555653,6.06178144635718,2.12669508449165,4.36634251730977,6.38547560725089,4.42607564154451,4.28440264426721,7.06412672224294,6.27165519540216,3.36213191555797,5.36090082297866,0.607687906630907
6.96920822980495,1.10335762936835,5.58472250432109,1.92232862706016,4.00778934885726,7.2732624558219,4.43670712586072,3.73437955592507,7.45534677751748,6.41988967201591,2.58791738360005,5.971766379916,0.634145036402975
6.82396265693853,1.44943527192757,6.11300828696786,2.24643948701783,3.69840117577237,6.77755493134789,5.1784931185856,4.03122764195626,7.11158557098709,6.5198166418644,3.08987115127164,5.62041467692453,0.407331962760204
7.01642076774535,1.05542653419459,5.59004311989362,1.94996115775617,3.89489426002429,7.33399376068091,4.52776225612107,3.73130832875866,7.4450788630484,6.45709080480152,2.57853058836655,6.05002712619989,0.623376289548564
7.27398944651559,1.58690119317298,5.35111350066273,2.5769278760603,3.60693640022053,6.74723876269833,4.83631892177764,2.96207952444669,6.62006064272616,6.35612934166095,2.18168572459921,6.16631400053557,0.48557250175841
6.67132732983727,1.43425313867598,6.33548382278982,2.21818463279422,3.7905978182422,6.76661065469882,4.99351144898795,4.45078310191667,7.08862786291517,6.4849622924915,3.44682162415812,5.65035122338188,0.557286090708007
6.39094168165366,1.42716092095384,6.31060438414767,1.96591795337027,4.43487583254141,6.85867188973298,3.94430278924737,4.8493124725565,7.2710343081639,6.16937185945213,3.83736176959088,5.58466852498285,0.676602314836432
7.59686471671862,0.186232739027105,5.04623013788834,2.71088536770241,2.48125422447742,7.66231357873302,4.21066898146054,3.8550744653751,6.69434890915638,6.27030238722366,2.31823893765875,8.35531282619039,1.20794295706931
4.96447830320282,2.01076680345818,6.80277111357939,1.21669602567702,4.97915377443772,8.06809864366876,4.3294390990617,4.05500273285662,8.09149040620356,5.86452106182976,7.63043923992367,6.24266425255765,3.50867526793893
