"fastcoef_sq","pref_flow_den","slowcoef_sq","soil_moist_max","soil2gw_max","fastcoef_lin","gwflow_coef","jh_coef","slowcoef_lin","sat_threshold","carea_max","smidx_coef","smidx_exp"
7.97673216093211,0.549383562386924,4.99804857522891,2.53937416415908,1.64540691149341,8.34415614372365,4.76108928938192,2.38805639848951,6.75269222325168,5.9303278289739,1.24379414627495,9.02499050893734,1.23272094912397
9.01620833176772,1.57801745895977,0.408934899039289,7.83645443579169,6.29577794312678,1.58650722318712,5.4763384106344,6.55041799274462,2.63373589877195,8.50480223656547,2.4598940593593,3.38831611035273,0.697466312338975
3.91202644546656,1.86919012683538,7.22927360079592,6.11396226761106,2.00974667271512,2.61768334265022,5.62460341095914,6.65893398212777,1.61763755850616,0.747981501118494,5.21724297952388,3.44976214293442,0.311501392649372
4.41670792287093,4.09377535334395,3.8845363870374,7.98323157136618,8.66931451818081,1.88384126007242,7.93722210339576,3.73604804266752,9.76108597138126,5.62418613723655,5.50808822667381,0.349259558115412,7.38272874935428
0.383092273979729,4.17323217017502,0.326311028608192,3.45213555910937,7.61579787584132,4.0628490437347,3.17558254307699,3.28127373441392,4.81556989748162,8.18400914668458,1.27824521975183,4.85583712525483,3.08804186445793
2.68031767763784,1.46654598565703,4.49009978125217,0.390041167247763,1.36017568293906,5.50695718196525,0.47147701754675,7.01697518748806,9.70581613209834,0.669584139303681,9.64826993447698,8.7240536236582,7.22263504143213
10,5.3632933643412,7.31527788811725,0.670532442434323,8.16149821444075,7.06940600426086,3.08764481491877,3.13172338042152,5.85303322819412,6.94335765272933,3.96663167541672,0.410145623240343,3.66910432489703
9.92559615138748,8.37208057274505,8.31343499070593,1.04154772976612,8.22424252403135,7.31044196701448,1.78913998781442,1.74305268420778,0.595876639032717,8.87245516583232,0.259090570604849,7.41771302725124,4.58899045590417
6.11009480983901,1.23690169340724,3.82705070076741,8.49683942292471,3.66382766137275,4.28442931574791,6.25378186986327,7.66693760299478,4.41769769431155,6.04818698341739,8.44469465758881,2.77195558419686,7.60871480298041
1.22183983897956,9.45948639905417,4.96161739681797,0.926827463553549,3.10072127467638,1.68215359474936,4.21696291504726,8.98250367403183,5.33170035516153,0.350648872378354,4.71691712056472,6.07654631539401,1.30235262519532
8.66368900685491,6.86452420146924,5.65311421771098,10,0.250685588631827,2.48251046912746,9.85511538421544,9.02757991118233,1.01635893796376,1.68188013910087,7.59607358925117,1.27311169722491,5.01502084956773
7.08744519985607,8.9860615432802,5.63510070650518,4.89401676404925,5.17985298858412,4.38399699987328,8.17056200736312,9.01567499751659,3.89121941721868,4.06669471077883,5.85521361565357,1.66998764752651,5.58159633172725
3.93742907136121,1.33655004927886,4.77364932623615,4.26295968903894,6.05860164417922,3.30450633934273,2.68642787403623,7.50781408156073,4.119032006321,5.66503835588581,5.84322809975669,3.76216152171462,3.15561530220127
2.02735556832949,3.25290052041251,1.87684196738621,9.68223909020601,1.50281474395793,7.71539905881081,0.918903336862923,4.1675181648437,2.79198143111553,9.09860483716809,6.97170600087899,3.20281967346731,8.68816709465975
4.26978705583832,8.7992051181957,4.33118439243106,6.78115200482486,8.08153424681028,6.60477864029,8.58238797130968,0.186474116213085,4.02511257989961,2.00859288169096,0.165502371962579,0.714640744390902,2.3088147106107
2.84747273553568,7.77072717179212,8.93202889333818,7.02217142807523,0.971739587447333,3.13643174353284,8.67483486419948,8.53936267574754,10,2.65087754558667,9.31243764613268,5.0619912842448,1.38699403782285
1.05257076828418,9.26347360392561,6.06476743452106,8.3149619982429,5.99073452463059,1.5027172769836,6.51666926899124,2.04328800665388,8.86424353422692,1.2290664606938,8.66583627834165,2.25584406676045,2.79175209955473
0.1,5.11275536800317,5.16237685832841,2.84781272479961,6.03563362740245,6.75239190355509,6.95297186940904,8.01738051301158,6.48835448443722,5.47913180471756,7.36573231373327,5.16321983961178,2.64690308354429
4.96488703065725,2.1308540676006,9.6938484805054,6.45391431335395,7.70321064544265,7.19586532452761,1.65170109616996,7.82491369321855,6.82337218385516,8.80866083401441,1.69167642626384,8.19021064783836,2.46096214093568
3.82230856647983,2.99953422034159,6.65578367359922,8.41335895073718,9.55881010857359,2.4146376851337,8.16369023884941,4.96630147433305,5.3769706975233,6.84423748979729,7.44098873073899,5.65717417242687,8.72211621987835
3.25093580467354,6.99872625053504,5.63041789843542,7.67084237450083,9.61732844586677,0.303171441134696,0.525848181181916,10,1.51824411244084,1.57812162888619,3.90694968943177,8.97357660036128,4.87125320178236
5.13454828870309,8.95588845389601,6.25237609396048,3.07890602895042,8.26454137124085,2.56353870091834,6.58048946258465,6.1959462359176,4.58760858445422,0.638479812615718,3.67795202462937,5.74828330893996,4.80235355771353
6.93157522736895,4.86651047529731,2.40575288478899,3.57328984488156,3.37842763300866,1.05031595488501,0.350750823273395,4.39240547068779,5.54923813264972,0.244332426660556,2.39165618803258,9.42226631493996,5.47857155359484
1.75881556078024,3.68364369957822,7.81652888018438,8.63153135929065,0.481352139462091,6.42559573841353,3.66004927692975,5.24900135293525,3.10422892560272,1.8319404886294,3.08814517437203,6.17826581908771,2.92989679063426
0.267528688951629,5.03417143749081,9.41352124534342,5.36701315796712,3.54868308002984,6.25605501077093,5.16168690188503,1.90481219813546,1.4469963463374,3.45649684544294,9.69392578223487,6.35564428040436,8.19945611555109
8.73180494752728,4.06851839221563,2.20625144251987,1.57358516155454,6.92618546715188,9.0897341594045,0.780463787138863,1.31906008322314,0.37190336612249,0.978080915958348,6.5782965508722,3.54955244288107,8.79407454885467
0.893799842029513,3.42553556084982,9.05786737284015,9.76970421913948,7.55204648435019,7.52055290970333,0.421084210613093,0.976191061318952,6.93820693755071,4.10483588759432,5.47406612488724,7.93263692002006,5.84684349726156
