"fastcoef_sq","pref_flow_den","slowcoef_sq","soil_moist_max","soil2gw_max","fastcoef_lin","gwflow_coef","jh_coef","slowcoef_lin","sat_threshold","carea_max","smidx_coef","smidx_exp"
8.46744909512367,0.87210107148508,4.548406201131,2.91571403985917,2.17267075216275,8.03106042566068,5.6186931169952,1.47430590887454,6.54486185075851,6.74550420541574,0.648481176827689,7.74731082948406,0.355078044025746
8.4658275299391,0.874329602401808,4.52484468582748,2.92407942668943,2.18087783497224,8.0223189223587,5.57284655132297,1.46573437715925,6.53591763467393,6.7146894873056,0.646663523535983,7.7800467357651,0.369678189472442
8.5123999071062,0.793328494472711,4.51155967616997,2.91541905838933,2.08506879704259,8.13986543115895,5.60347788264006,1.40334879295369,6.56656782442802,6.76071741349094,0.593188514845657,7.89284549225211,0.361598046496759
8.43289953786398,0.915139376070981,4.59857153521673,2.9164102238232,2.22013140909102,7.97907463548543,5.6242709113231,1.5193267582582,6.53976161082328,6.75002689158439,0.708856954727882,7.67432442632117,0.347151633081707
8.46520398199258,0.872697521566125,4.57329685496777,2.90746830426747,2.17182367823653,8.03351195627333,5.65771734825273,1.48671314773487,6.55262897284437,6.77392602663031,0.654768278031318,7.7103915410777,0.340877468717676
8.50096804435243,0.865947542510936,4.49350869433841,2.97647840033372,2.10333585251855,8.01734692999637,5.62210551663739,1.42554277839354,6.47838009475022,6.71838871930067,0.609816263757386,7.84309912064549,0.36713675995316
8.44351604706737,0.919319067270134,4.53413263563457,2.92469917023021,2.2271094428566,7.96884857081128,5.56785525782607,1.47174783871268,6.51965124629231,6.70770191170739,0.66290975247346,7.70804622249653,0.362690941583551
8.45686574228582,0.878615557793935,4.52927441633224,2.91989518154055,2.19474957682852,8.01294860379283,5.56560954846864,1.47600482882402,6.53787823210295,6.71303259218156,0.655902477195208,7.76524878370959,0.369917143253586
8.41551091049488,0.907624218487769,4.52944615411418,2.87418498236361,2.31558249159216,7.97227047637921,5.47767945887768,1.47069560888419,6.56477230167432,6.69524831732327,0.660552411206669,7.6736448499049,0.364673013633659
8.44190059453585,0.887398760374001,4.5268288630775,2.89497294816034,2.24737568476639,8.0042945846622,5.52396982252805,1.46507855446214,6.55565962093608,6.7055089521331,0.650417942804363,7.7300717622186,0.36659348636617
8.4212452217285,0.960654279622881,4.52273643018024,2.93037166351938,2.27281743330084,7.91571179652119,5.5199820437869,1.46939335393838,6.4984694808643,6.67068681323733,0.676342654326283,7.67838653159236,0.371678185170252
8.46796465920134,0.884199030452458,4.45849555855841,2.94867567715606,2.21186501121289,7.99718309703477,5.4789941444696,1.44017225952364,6.51278188175744,6.65535220123945,0.629582555354242,7.83183689466505,0.397688205063288
8.42017431829921,0.898755625997579,4.5287499951268,2.86487209760507,2.3106628923624,7.98898627502924,5.47746634799171,1.4597005344833,6.57599940256801,6.69653000812438,0.651089566114378,7.68185266044497,0.360970108479238
8.39412765563978,0.979376691703054,4.54487149286423,2.92414681723414,2.32740376673507,7.87033861651377,5.50370670459573,1.4937158137489,6.49080273391834,6.68358436799658,0.693782296927475,7.61452982507121,0.36509470712657
8.49217385802825,1.00661354199078,4.5033715293982,2.98493771973298,2.12406941857171,7.96286415835971,5.73500595159353,1.36913495514303,6.45314214834086,6.71483154065261,0.60435803346475,7.65269713256577,0.34350349278035
8.66653521612528,0.827465940629437,4.35035830006605,3.00457783401039,1.97684675016242,8.17925753648619,5.63655308196871,1.19861893943561,6.47015025631256,6.71991735684531,0.424251503375799,8.02927159713949,0.398188564558697
8.61140077892583,0.976001794890056,4.30240854966694,3.01777100907394,2.17083465967154,7.99759047403256,5.58362963633732,1.09376373866144,6.40993750162145,6.70708729113014,0.342688231654327,7.80541128708605,0.344456532782449
8.2540136282263,1.26277625324347,4.49845817975892,2.94385953356499,2.72937512691266,7.53831610791783,5.27519970720898,1.52740043936542,6.42127408547006,6.59863053563169,0.830483274341395,7.26206195170117,0.405043290580995
8.43458397595975,1.15838352461125,4.35831333553184,3.04054476914982,2.52106528730423,7.69998025862577,5.24897782738244,1.31853506533762,6.31306063567282,6.59939805562145,0.604570668443049,7.627650177418,0.455791505628647
8.31264498045735,0.724952614623779,4.61308228603579,2.71131522377475,2.53669349474405,7.97288269676992,5.00404099708847,1.66647388252129,6.66161473642367,6.57918943887333,0.779941989285069,7.82657902128612,0.403185653527411
8.34681224798603,1.02456887708209,4.55686287038309,2.93696477535319,2.3827768683697,7.79653714490587,5.46585199324198,1.55449893642933,6.47474255184028,6.65395849474555,0.760643444951958,7.56083662038382,0.380426395320689
8.27413349422534,0.929686506372992,4.63766717819836,2.8466515312274,2.4083722033815,7.87326546229574,5.37293143447075,1.73827021440118,6.59486018924925,6.62593384786497,0.910430285476923,7.61572387674463,0.418148550693248
8.03588620463737,1.02964202957536,4.82768220141595,2.68406813470049,2.75802007324465,7.68714076202218,5.28845572431797,2.06307968416307,6.71270866068541,6.65393862895017,1.17865665454882,7.13555414761523,0.405278021142372
7.97616785610592,0.985799499647662,4.98266505397576,2.65764471941471,2.68261964511947,7.74293937349812,5.30263693608397,2.21037870058537,6.76321661143177,6.63492193937846,1.35611414140763,7.23736587042885,0.422682476252535
6.78974498185476,0.936908356351898,6.60816459351686,2.00071203175273,3.28675206710991,7.38998946097255,5.39521053673271,4.65721365628133,7.46079130820303,6.79268463344111,3.51795335849283,6.07258823421565,0.504737266885979
6.41870084770843,2.00222813545195,5.37421460142406,2.56730087747491,4.63680453160896,7.24294139397756,4.74027692781373,4.25577574685418,7.27491557065652,6.7033147960154,2.74782601420135,5.41713770834406,1.20747698407472
6.98774964054814,4.27029086472869,6.26775596919643,5.09015957577119,4.641078929967,2.82436286012778,6.30990555392464,1.07205204619924,2.63894784121528,3.49547444805602,4.42133357200888,4.42817180693902,2.44126500747127
