"fastcoef_sq","pref_flow_den","slowcoef_sq","soil_moist_max","soil2gw_max","fastcoef_lin","gwflow_coef","jh_coef","slowcoef_lin","sat_threshold","carea_max","smidx_coef","smidx_exp"
8.54668515100613,0.10176741992189,4.92731948864943,2.61298376938866,1.08486118805858,9.01164680269771,6.07295758011066,1.46880448469006,6.82620387053113,6.9370146766312,0.875879605695716,8.87978618129581,0.395230203208492
8.54677327645153,0.101724442946468,4.92729033732839,2.61303488349472,1.08481914756393,9.01160076386131,6.07292440972044,1.46884128737835,6.82615470139043,6.93699006714136,0.875797661400779,8.8798992868566,0.39520920381086
8.54678993061013,0.101773415224059,4.92723405527368,2.61307170465823,1.08487281227882,9.01163098168426,6.07295358334025,1.4688507687315,6.82618240692896,6.93700862946522,0.875836815694942,8.87984651360034,0.39528205874436
8.54668257366774,0.101715820430633,4.92742562975884,2.61296804288161,1.0847202781458,9.01150651019173,6.07300905151183,1.46880008099973,6.82611267888192,6.93699263623242,0.875721032794695,8.87979072440917,0.395004933375291
8.54695866493316,0.101700379023927,4.92736565576872,2.613094680028,1.08469570033462,9.01110907525132,6.07311882391533,1.46885468199843,6.82598437115582,6.93694386480806,0.875179552885414,8.87966090815677,0.394634213163261
8.54667136159691,0.101730363096377,4.92738515447473,2.61294814073186,1.08480811007341,9.01158164941739,6.07296878430716,1.46879654198636,6.82617656914973,6.93700406949418,0.875798325118963,8.87977493058045,0.395107119850033
8.54659306678325,0.101702475718711,4.92749843071131,2.61287232356477,1.08473913154929,9.01152945877911,6.07300414646562,1.46876158683109,6.82615829714357,6.93700278165335,0.87575212130008,8.87971714376836,0.394959181688075
8.54289122816402,0.102005008215837,4.92967701328351,2.60890337692982,1.0873168262637,9.01305042731554,6.0732158023951,1.46717785169299,6.82920611131886,6.93791776467687,0.877521526197838,8.87459376352779,0.394010414127742
8.54606804961215,0.101748276272528,4.92770829120971,2.61220248253892,1.08542619875213,9.01185331616757,6.07284745217443,1.46853439150042,6.8267805515951,6.93713134076719,0.876093864673378,8.87890163543301,0.395010110626931
8.54578421012017,0.101811446968368,4.92785915700554,2.61202298421955,1.08545563811657,9.01204403159862,6.07297094138745,1.46844019828503,6.8269306356476,6.93723063433948,0.876345522396751,8.87862793299853,0.395027108226143
8.54530268501281,0.101889189057978,4.92798273053597,2.61139327001451,1.08614478815058,9.01243051948923,6.07283719547857,1.46813640305205,6.82755410360843,6.93736256218951,0.876693285261011,8.87785883572076,0.395172043658367
8.54697635419377,0.101803214404262,4.92711793634844,2.61328144340774,1.08476652181397,9.01151933442099,6.07302220605705,1.46892467068882,6.82604409084851,6.93698089808093,0.87571233229814,8.87997917832498,0.395290484140259
8.54695405864693,0.101755904495355,4.92716255233394,2.61328259108159,1.08466571253035,9.01152022585606,6.07295852339969,1.46891734176047,6.8259707208265,6.93695088849811,0.87573689519651,8.88013953003344,0.39528142954648
8.54705170288877,0.101777580568677,4.9270495843804,2.6133910686646,1.08467789677728,9.01155954977941,6.07293959903148,1.46895988444613,6.82594994309091,6.93694631027366,0.875770373438175,8.88025022001448,0.395420380475169
8.54704273790432,0.101738800990511,4.92710189047106,2.61334388635766,1.08466135875522,9.01150421487332,6.07292781875345,1.46895027327026,6.82594316481675,6.93693442463251,0.875692365449444,8.88023229598311,0.395316058908015
8.54727947460688,0.101717735556446,4.92700881611197,2.61353576364641,1.08453999422182,9.01129275884524,6.0729663100166,1.46902352673584,6.82577350150721,6.93688071000483,0.875415818340808,8.88037910569433,0.395196887799311
8.54759279303784,0.101769181108157,4.92661607609084,2.61396014458567,1.08448551833851,9.01150958116833,6.07281424371984,1.4691900452293,6.82562850210848,6.93683827489611,0.875681836925269,8.88099924240467,0.395809170639997
8.54851893846946,0.101810913246755,4.92587874720081,2.6150056852385,1.0840734545056,9.01136898177197,6.072706722576,1.46958362194072,6.82500933982609,6.93666198179093,0.875510697637194,8.88223846261745,0.396430710189498
8.55039218793528,0.101577360673577,4.92514983441061,2.61693010547681,1.08240017343492,9.00990400583801,6.07291553954518,1.47029358059092,6.82317064688714,6.93614753072042,0.873800799917762,8.88444518488641,0.395876099821916
8.55053998288586,0.10204892540168,4.92475440637908,2.61734805154783,1.08235173774286,9.00980161501934,6.0733754904185,1.46984532145909,6.82292521540257,6.93625055826792,0.873508471930802,8.88403724252371,0.395902231607458
8.54858953173571,0.101734959090391,4.92607760405598,2.61499008242012,1.08384140055804,9.01092371775847,6.07289359132855,1.46957857913788,6.8248223442193,6.93662049846796,0.874971067820275,8.88205726958081,0.395803228586692
8.54874886411164,0.101706164422399,4.92609040804142,2.61517589528159,1.08357110884304,9.01064844239695,6.07296878947161,1.46962878642475,6.8245524622266,6.93655073693075,0.874689361837086,8.88223732523035,0.395567982427587
8.55383760938519,0.101650694977562,4.92345995978428,2.61949027584432,1.08178463545556,9.00691717335938,6.07367733492062,1.47132383150578,6.82145143527364,6.93561326858634,0.869699364813524,8.88513314769741,0.394292684756101
8.55546330027389,0.101708665869068,4.92136427610248,2.6227043485792,1.07975423709954,9.00876909129568,6.07247758203357,1.47251528048738,6.8195017855912,6.93513780126283,0.872514437035395,8.89125281433721,0.39874262945939
8.5536108314118,0.101226582074297,4.92330886380529,2.62023276589881,1.08021329571893,9.00853638384435,6.07267667122484,1.47160107751905,6.82058954653982,6.93531446526297,0.872128637379483,8.8888688135146,0.396579576764843
8.5333867238284,0.102136258809982,4.93618225605731,2.59870108805848,1.09243086558138,9.01599427228088,6.07379191409825,1.46327730063422,6.83605092318855,6.9399214589437,0.881197465612457,8.86247246056814,0.390123563257868
8.55484216242209,0.109482532828135,4.91799003708899,2.62608147340942,1.09147295589748,8.99747642290141,6.06950248233622,1.47713536783654,6.81797878695282,6.9335399576865,0.870413193997217,8.87675188811231,0.39731307986307
