"fastcoef_sq","pref_flow_den","slowcoef_sq","soil_moist_max","soil2gw_max","fastcoef_lin","gwflow_coef","jh_coef","slowcoef_lin","sat_threshold","carea_max","smidx_coef","smidx_exp"
8.45116825760936,0.874653679082473,4.63592891836706,2.88247055555588,2.1730394264087,8.03872265979033,5.74193380918011,1.52986015623196,6.57724116134377,6.83242724830324,0.683794610750633,7.62341853737283,0.313621881997091
8.52136613549783,0.824143386628756,4.59181664401441,2.89486359632155,2.07885371164598,8.12669332558839,5.7962952282539,1.44329809125227,6.57879281344128,6.85982004648827,0.58898384897743,7.71945453498088,0.305762758280415
8.50412137524867,0.826089106971426,4.60253750415161,2.89587433971417,2.09514576662367,8.10974366938659,5.78385031022679,1.47499216627748,6.57862910750306,6.85854364342299,0.619103067342267,7.70585773746332,0.31048500663559
8.50481696335612,0.860300725674345,4.57920934133109,2.91601706071435,2.13195980677714,8.06265198138086,5.74455115318966,1.44118720454608,6.54563776002796,6.83536851891037,0.600108297854714,7.69268977344269,0.307441345860371
8.54908418897721,0.815511621370167,4.55943733954615,2.90877206159935,2.06278957355055,8.14149390345149,5.79649652185178,1.40047875943104,6.5682675607409,6.86222670386048,0.547178819465314,7.74954447791036,0.304635363213296
8.54217631947269,0.780039254747595,4.56118338273614,2.87725715994259,2.08887096940293,8.1682288968622,5.73949761938018,1.40857221798082,6.60149473953818,6.8581582704319,0.548273882938415,7.77403925968145,0.306741951923707
8.57293146221111,0.79520193293968,4.5664481675574,2.91466399680735,2.00084889276631,8.18093062025395,5.85634333324188,1.38764937570112,6.57099228060988,6.88398447298347,0.53079145896032,7.78268097335963,0.29763704315815
8.5357503898815,0.837700877692166,4.56857623306513,2.91505985080583,2.07307973571108,8.11297176289557,5.79912982850718,1.41050154738578,6.55505451201778,6.85451169407502,0.56435271455933,7.72615683044538,0.304244784751369
8.42194135227201,0.967452688815152,4.57543463815487,2.91536077334263,2.29546196193001,7.90624665623368,5.623508230641,1.48100452760475,6.50768180908215,6.76500404969003,0.667318338447081,7.55184818213717,0.324043729299505
8.55192662152179,0.853831603525441,4.54247339852427,2.93801064183282,2.06954785036005,8.09594152334,5.80366851315411,1.37405226377112,6.52860567840972,6.85070134695822,0.537109216418473,7.72869304081894,0.300861050301754
8.61490807947115,0.785077718456842,4.51793435652386,2.93522605867981,1.97005946434273,8.20343446251664,5.86241291702981,1.31609504697175,6.55106226959806,6.88628902221497,0.460655417164534,7.8290332897843,0.29451363773994
8.68726466627765,0.745616374589168,4.51083082309294,2.96561964328285,1.84031143227581,8.28235814800621,5.98030019536086,1.25135762824455,6.54041541826581,6.93225109738089,0.398166032811983,7.91729570498956,0.278652295845921
8.62732745849476,0.78506627391672,4.48594082925448,2.96132409317499,1.96513022308286,8.18677933873279,5.84883674732556,1.30371312002964,6.52455141238918,6.87910839029126,0.443775072589024,7.84977082733113,0.304857138970488
8.65178351558956,0.881837747578845,4.51381034262241,3.06488142293394,1.92933140021711,8.05304167353292,5.96091786443002,1.18524881299683,6.36403209462455,6.87882356783948,0.404149813956058,7.7784976245611,0.247085155198781
8.68011235050374,0.829834310806452,4.40863556543168,2.99202809423654,2.00756618247012,8.16283548367169,5.84424158580897,1.16520942389932,6.49261054197259,6.8866040132031,0.343678935015479,7.81292830884814,0.268289488036842
8.47290374655794,0.770663530535873,4.634644734338,2.82135581594426,2.11774003593883,8.17649440171644,5.76978322038161,1.56721961788826,6.67189760854886,6.87059310566396,0.664798330976991,7.67965242281512,0.323849165437576
8.78686642656034,0.792765994974148,4.29763733576171,3.03938243759691,1.88133450007712,8.24101585297648,5.87210018361629,0.97136653916602,6.43834624250611,6.87886146925661,0.15588447273354,7.97678324268882,0.272583244302153
8.26423403809779,0.779525525702565,4.97296567867912,2.74836925563969,2.15980935980763,8.09060472649602,5.85003175516725,2.01522544582617,6.75026686707008,6.90484738460507,1.09466656354106,7.50929132366513,0.327743656722365
8.35435293609069,0.854918889746936,4.77452445253253,2.83016643663938,2.19274357598188,8.01470585630316,5.76131978021706,1.73395964174972,6.62816970556274,6.84881071028354,0.867414305558031,7.55628469941095,0.318016969912582
7.62751078450848,0.957800636414935,5.33048825039606,2.50568011792413,3.04187579235525,7.48148854527794,5.2086263180351,2.84929014655323,6.85361168493588,6.73963368541016,1.80032393429769,6.74497708517712,0.368566052507375
7.72226211423402,1.048676878554,5.12355971022821,2.42491820307367,3.09796614298169,7.6209316076942,5.16659120280044,2.6043157474024,6.9922205098601,6.65133811638214,1.63847829893188,6.71472114896049,0.441861041502957
6.65423944426126,1.33665615075912,6.56373009198506,2.10369245179093,3.63589196215088,6.92907646099722,5.27483997680024,4.56699539673058,7.25970986466999,6.65926889883111,3.58630409282673,5.6187855278062,0.483615862678293
7.01696630522749,1.06804315663204,5.56479757703645,1.96743279928577,3.95822010128044,7.27672212605658,4.51748690740159,3.69335478849642,7.4255298585401,6.48645715555242,2.57391515303569,5.98623018613194,0.588912483878533
6.50750256868093,1.20681673582328,6.20001183419918,1.94142332446215,4.46136948020894,6.65369330864613,4.2028808460391,4.61561395315548,7.3360874653082,6.45826419424613,3.4078536107635,5.5942879586538,0.612900450862672
7.70654187000536,1.23494515049227,5.2543848050664,2.55264420324661,3.00064610369868,7.44172264036952,5.40062826733313,2.58573069495886,6.82951100523949,6.672916172283,1.71232261997461,6.59939283083421,0.380686586713353
4.55713958809596,1.43129868880869,2.57180965911008,3.00526249913832,4.38625809112305,6.64987498111246,5.97073532570529,1.67071627190753,3.37392230918253,8.22380781207775,1.62268992539552,7.64532794417651,2.83160294693819
6.98774964054814,4.27029086472869,6.26775596919643,5.09015957577119,4.641078929967,2.82436286012778,6.30990555392464,1.07205204619924,2.63894784121528,3.49547444805602,4.42133357200888,4.42817180693902,2.44126500747127
