"fastcoef_sq","pref_flow_den","slowcoef_sq","soil_moist_max","soil2gw_max","fastcoef_lin","gwflow_coef","jh_coef","slowcoef_lin","sat_threshold","carea_max","smidx_coef","smidx_exp"
8.77975109856414,0.490043512453726,4.56573804983199,2.87314362112736,1.57739715253536,8.63692749267098,6.11537809906036,1.28447361780213,6.71457531933719,7.04038492849941,0.401236880744536,8.2021930226155,0.273902196890457
8.4540729813824,0.871881741029199,4.53312159084486,2.91477802020588,2.19289386732372,8.01884569703577,5.56834986633585,1.48526113512946,6.54421312342312,6.7169402532162,0.660387569434372,7.76420383161499,0.371269295864597
8.48352632316647,0.823828755946887,4.50557561111574,2.91088574588643,2.16675543777246,8.07412722536681,5.54828187034129,1.47074481459199,6.5695456411169,6.71854067605097,0.63066029811622,7.83934118702267,0.380775152113498
8.45116825760936,0.874653679082473,4.63592891836706,2.88247055555588,2.1730394264087,8.03872265979033,5.74193380918011,1.52986015623196,6.57724116134377,6.83242724830324,0.683794610750633,7.62341853737283,0.313621881997091
8.47764481642901,0.85037139302695,4.61923321125934,2.88917244763502,2.13409259651619,8.07423316458846,5.76289205970345,1.50242616125472,6.57793513442341,6.84548544586311,0.65144883904645,7.66463813741807,0.31205344431634
8.48959612799729,0.857307017165453,4.6042171848525,2.89970652316469,2.12769311745028,8.07078262807681,5.76784661043528,1.47719118562813,6.56542927715008,6.84352487174692,0.630950376315501,7.67034696325698,0.309647455232881
8.38068124190763,0.918165093043279,4.52763358231917,2.80553801596719,2.4319584423372,7.96750497831833,5.38584892510231,1.44735853428254,6.61734404443325,6.68293138111101,0.644498529773637,7.59404547826444,0.356392118658321
8.37660729305579,0.914600446658443,4.53508833905741,2.80564343836993,2.42974769438057,7.96649551796497,5.38723723160462,1.4586583271019,6.61914714049643,6.68456238878159,0.656393901627806,7.59654770884592,0.35573874432904
8.53303816854025,0.829865698769657,4.57693163744546,2.90884830711784,2.07154944537572,8.12107856115349,5.80217336310496,1.42297760160186,6.56415171547092,6.8593581352591,0.572225013957583,7.72622591357856,0.304067759868515
8.54372375798197,0.838099709477781,4.47322123395516,2.94428614205218,2.0724841845219,8.11365194048284,5.64177917354977,1.35705657956522,6.52906946744309,6.73743956738559,0.546716642976517,7.87536799894818,0.359142261322812
8.5583030013271,0.899405342390697,4.55416698423613,3.01409802808329,1.99181294637999,8.0472833656137,5.8217282389607,1.38648856170623,6.44230959717912,6.81089860584806,0.58605813547881,7.8130542203425,0.330994258110359
8.40213374179804,0.915788629830133,4.50855706527433,2.82775334263366,2.39928577129881,7.97016702433462,5.40938316171902,1.41539462501009,6.59584498733707,6.68586101406043,0.619364817803403,7.62307728273537,0.351341930864279
8.55147588659946,0.878245713330659,4.57486963049474,2.97367598924491,2.05118541331291,8.04588216666163,5.85142583680507,1.3575544846144,6.47063662798416,6.85562540807136,0.543972212353346,7.70095808096696,0.280353518597936
8.58637019846106,0.954159223546851,4.43651066898219,3.02777439720359,2.0287989253022,8.03362594505795,5.7288834993218,1.25392200374449,6.37928088023458,6.80278783435203,0.537835072887285,7.87642143181556,0.39664184329155
8.43901560355384,1.13193046152479,4.54924956428157,3.05284822377535,2.31058703909309,7.73765432089031,5.64274345626098,1.39570223701836,6.34898537883399,6.72486377711622,0.683913578234049,7.52220955849792,0.320084857755131
8.59635832768599,0.916785458975663,4.42517300268176,2.99782808857546,1.99890282406132,8.05994727355431,5.74612178631688,1.17410927900755,6.40221246346356,6.76720789726684,0.432028530430738,7.8705359545222,0.33243367819237
8.40929906684999,1.23222745475613,4.43882379420737,3.02645690171343,2.38275207111127,7.64678804814134,5.50948433314618,1.30610923650676,6.3137112496013,6.54837594101179,0.62300887188389,7.48006061799122,0.348240728647225
8.12417653918769,1.04359136503619,4.58653975134915,2.67798991893246,2.85737915097757,7.72410444613289,4.97348664488778,1.65973393782666,6.67628809634564,6.50227904148191,0.883365373048123,7.33705132437023,0.421700119793866
8.08994601314597,0.893298177756408,4.78883286808642,2.66591161830425,2.64209289656096,7.96501698832636,5.08441924749865,2.0771298268978,6.72676181277361,6.55642768056155,1.15198603181254,7.40190873197634,0.414398536351973
8.42304320074132,1.00984283815402,4.53039961328661,2.95374992364011,2.26597791050706,7.8769365216592,5.65241889723765,1.55614214240199,6.48361544146709,6.69937820010568,0.714956231238998,7.58668533840692,0.376325310765371
8.25715379917786,1.09205266387961,4.675690954772,2.92462002534186,2.53815437186731,7.65945502026557,5.44771708737431,1.70563348611191,6.49791704014825,6.65641474605654,0.901515782337677,7.35853540797601,0.351452023273615
8.135071237985,1.28970612838028,4.8349041307877,2.95770576062713,2.59508218409454,7.42293285613411,5.49245624114297,1.83911688326191,6.36922754237143,6.57517216966465,1.10055871605045,7.20615918584447,0.330257798781514
7.56594213034514,1.09351377189304,5.5914816516222,2.49643244971298,2.88499227933353,7.50165481279284,5.51886601825185,3.03471077899265,6.9188224995467,6.75237717234711,2.11887646593659,6.64171183261213,0.397834653497317
8.03933952105892,0.916227157748704,4.98320858438156,2.69407533674,2.60745760938198,7.76010560253414,5.47528006360761,2.1895751513926,6.71542642313983,6.7860304668567,1.24205927252416,7.18419781127498,0.341093967252233
6.85480984292424,1.12984575290632,6.03149280124781,2.12141378684523,3.79285698220263,6.88873648125971,4.82099293950628,4.00909066524799,7.27180111011864,6.53277463454021,2.94433517167915,5.93980405934447,0.415370050398814
6.56017983346004,1.39129814021961,6.10501500282035,2.14578869003328,4.30614156644137,6.48796888421293,4.38738528595343,4.45969923790792,7.06868994185126,6.4020032193019,3.31893983848547,5.58269870608593,0.629879676796921
6.72106155981592,1.43056909824257,5.71100216241937,2.05293423665602,3.55662318547695,8.07116590412861,5.04616557938257,2.77871444705567,7.33471277031349,6.35500325384644,4.14094403948506,6.95365119498786,1.91036435612763
