lstm_run,subbasin,subbasin_pretty,aggregation,aggregation_pretty,model,process_model,process_model_pretty,calibration_status,lstm_model,time_period,error_metric,value,error_metric_pretty
IHACRES_calib,ua,Upper Alameda,entire,entire period,calibrated,IHACRES,IHACRES,calibrated,none,train,FLV,100,low flow bias from flow duration curve
IHACRES_uncal,ua,Upper Alameda,entire,entire period,uncalibrated,IHACRES,IHACRES,uncalibrated,none,train,FLV,0.987262106366368,low flow bias from flow duration curve
PRMS_calib,ua,Upper Alameda,entire,entire period,calibrated,PRMS,PRMS,calibrated,none,train,FLV,20.0328911443829,low flow bias from flow duration curve
PRMS_uncal,ua,Upper Alameda,entire,entire period,uncalibrated,PRMS,PRMS,uncalibrated,none,train,FLV,6.258964644002,low flow bias from flow duration curve
SACSMA_calib,ua,Upper Alameda,entire,entire period,calibrated,SACSMA,SAC-SMA,calibrated,none,train,FLV,-4.63161539640724,low flow bias from flow duration curve
SACSMA_uncal,ua,Upper Alameda,entire,entire period,uncalibrated,SACSMA,SAC-SMA,uncalibrated,none,train,FLV,19.0463630791758,low flow bias from flow duration curve
LSTM_PT_ALLMODELS_ENSEMBLE_10,ua,Upper Alameda,entire,entire period,calibrated + LSTM all,ALLMODELS,all,calibrated,LSTM PT all,train,FLV,-16.0497742432468,low flow bias from flow duration curve
LSTM_PT_ALLMODELS_FLUXES_ENSEMBLE_10,ua,Upper Alameda,entire,entire period,calibrated + LSTM fluxes,ALLMODELS,all,calibrated,LSTM PT fluxes,train,FLV,-17.3991959095092,low flow bias from flow duration curve
LSTM_PT_ALLMODELS_STATES_ENSEMBLE_10,ua,Upper Alameda,entire,entire period,calibrated + LSTM states,ALLMODELS,all,calibrated,LSTM PT states,train,FLV,-38.5321574383479,low flow bias from flow duration curve
LSTM_PT_ALLMODELS_UNC_ENSEMBLE_10,ua,Upper Alameda,entire,entire period,uncalibrated + LSTM all,ALLMODELS,all,uncalibrated,LSTM PT all,train,FLV,26.5168325821782,low flow bias from flow duration curve
LSTM_PT_ENSEMBLE_10,ua,Upper Alameda,entire,entire period,LSTM,none,none,none,LSTM PT,train,FLV,43.6120930274585,low flow bias from flow duration curve
LSTM_PT_IHACRES_ENSEMBLE_10,ua,Upper Alameda,entire,entire period,calibrated + LSTM all,IHACRES,IHACRES,calibrated,LSTM PT all,train,FLV,3.04106553356489,low flow bias from flow duration curve
LSTM_PT_IHACRES_FLUXES_ENSEMBLE_10,ua,Upper Alameda,entire,entire period,calibrated + LSTM fluxes,IHACRES,IHACRES,calibrated,LSTM PT fluxes,train,FLV,-18.2415963762237,low flow bias from flow duration curve
LSTM_PT_IHACRES_STATES_ENSEMBLE_10,ua,Upper Alameda,entire,entire period,calibrated + LSTM states,IHACRES,IHACRES,calibrated,LSTM PT states,train,FLV,-21.5839346135025,low flow bias from flow duration curve
LSTM_PT_IHACRES_UNC_ENSEMBLE_10,ua,Upper Alameda,entire,entire period,uncalibrated + LSTM all,IHACRES,IHACRES,uncalibrated,LSTM PT all,train,FLV,17.7121067336771,low flow bias from flow duration curve
LSTM_PT_PRMS_ENSEMBLE_10,ua,Upper Alameda,entire,entire period,calibrated + LSTM all,PRMS,PRMS,calibrated,LSTM PT all,train,FLV,-24.5031282949258,low flow bias from flow duration curve
LSTM_PT_PRMS_FLUXES_ENSEMBLE_10,ua,Upper Alameda,entire,entire period,calibrated + LSTM fluxes,PRMS,PRMS,calibrated,LSTM PT fluxes,train,FLV,-22.1657107752426,low flow bias from flow duration curve
LSTM_PT_PRMS_STATES_ENSEMBLE_10,ua,Upper Alameda,entire,entire period,calibrated + LSTM states,PRMS,PRMS,calibrated,LSTM PT states,train,FLV,-36.9679338938359,low flow bias from flow duration curve
LSTM_PT_PRMS_UNC_ENSEMBLE_10,ua,Upper Alameda,entire,entire period,uncalibrated + LSTM all,PRMS,PRMS,uncalibrated,LSTM PT all,train,FLV,-7.10410493978232,low flow bias from flow duration curve
LSTM_PT_SACSMA_ENSEMBLE_10,ua,Upper Alameda,entire,entire period,calibrated + LSTM all,SACSMA,SAC-SMA,calibrated,LSTM PT all,train,FLV,18.838256277978,low flow bias from flow duration curve
LSTM_PT_SACSMA_FLUXES_ENSEMBLE_10,ua,Upper Alameda,entire,entire period,calibrated + LSTM fluxes,SACSMA,SAC-SMA,calibrated,LSTM PT fluxes,train,FLV,-10.1932252986204,low flow bias from flow duration curve
LSTM_PT_SACSMA_STATES_ENSEMBLE_10,ua,Upper Alameda,entire,entire period,calibrated + LSTM states,SACSMA,SAC-SMA,calibrated,LSTM PT states,train,FLV,20.7011420872588,low flow bias from flow duration curve
LSTM_PT_SACSMA_UNC_ENSEMBLE_10,ua,Upper Alameda,entire,entire period,uncalibrated + LSTM all,SACSMA,SAC-SMA,uncalibrated,LSTM PT all,train,FLV,20.2301267417619,low flow bias from flow duration curve
