lstm_run,subbasin,subbasin_pretty,aggregation,aggregation_pretty,model,process_model,process_model_pretty,calibration_status,lstm_model,time_period,error_metric,value,error_metric_pretty
IHACRES_calib,ua,Upper Alameda,entire,entire period,calibrated,IHACRES,IHACRES,calibrated,none,train,KGE,0.615126270250177,Kling-Gupta efficiency
IHACRES_uncal,ua,Upper Alameda,entire,entire period,uncalibrated,IHACRES,IHACRES,uncalibrated,none,train,KGE,0.011399126972413,Kling-Gupta efficiency
PRMS_calib,ua,Upper Alameda,entire,entire period,calibrated,PRMS,PRMS,calibrated,none,train,KGE,0.426989589886943,Kling-Gupta efficiency
PRMS_uncal,ua,Upper Alameda,entire,entire period,uncalibrated,PRMS,PRMS,uncalibrated,none,train,KGE,0.421296871852454,Kling-Gupta efficiency
SACSMA_calib,ua,Upper Alameda,entire,entire period,calibrated,SACSMA,SAC-SMA,calibrated,none,train,KGE,0.580002307670106,Kling-Gupta efficiency
SACSMA_uncal,ua,Upper Alameda,entire,entire period,uncalibrated,SACSMA,SAC-SMA,uncalibrated,none,train,KGE,0.17865831539883,Kling-Gupta efficiency
LSTM_PT_ALLMODELS_ENSEMBLE_10,ua,Upper Alameda,entire,entire period,calibrated + LSTM all,ALLMODELS,all,calibrated,LSTM PT all,train,KGE,0.969862907943758,Kling-Gupta efficiency
LSTM_PT_ALLMODELS_FLUXES_ENSEMBLE_10,ua,Upper Alameda,entire,entire period,calibrated + LSTM fluxes,ALLMODELS,all,calibrated,LSTM PT fluxes,train,KGE,0.980510080191123,Kling-Gupta efficiency
LSTM_PT_ALLMODELS_STATES_ENSEMBLE_10,ua,Upper Alameda,entire,entire period,calibrated + LSTM states,ALLMODELS,all,calibrated,LSTM PT states,train,KGE,0.965752953830802,Kling-Gupta efficiency
LSTM_PT_ALLMODELS_UNC_ENSEMBLE_10,ua,Upper Alameda,entire,entire period,uncalibrated + LSTM all,ALLMODELS,all,uncalibrated,LSTM PT all,train,KGE,0.965538807507223,Kling-Gupta efficiency
LSTM_PT_ENSEMBLE_10,ua,Upper Alameda,entire,entire period,LSTM,none,none,none,LSTM PT,train,KGE,0.930385807595582,Kling-Gupta efficiency
LSTM_PT_IHACRES_ENSEMBLE_10,ua,Upper Alameda,entire,entire period,calibrated + LSTM all,IHACRES,IHACRES,calibrated,LSTM PT all,train,KGE,0.977217475151015,Kling-Gupta efficiency
LSTM_PT_IHACRES_FLUXES_ENSEMBLE_10,ua,Upper Alameda,entire,entire period,calibrated + LSTM fluxes,IHACRES,IHACRES,calibrated,LSTM PT fluxes,train,KGE,0.972937772023837,Kling-Gupta efficiency
LSTM_PT_IHACRES_STATES_ENSEMBLE_10,ua,Upper Alameda,entire,entire period,calibrated + LSTM states,IHACRES,IHACRES,calibrated,LSTM PT states,train,KGE,0.960988158461077,Kling-Gupta efficiency
LSTM_PT_IHACRES_UNC_ENSEMBLE_10,ua,Upper Alameda,entire,entire period,uncalibrated + LSTM all,IHACRES,IHACRES,uncalibrated,LSTM PT all,train,KGE,0.964509477125794,Kling-Gupta efficiency
LSTM_PT_PRMS_ENSEMBLE_10,ua,Upper Alameda,entire,entire period,calibrated + LSTM all,PRMS,PRMS,calibrated,LSTM PT all,train,KGE,0.964865951103704,Kling-Gupta efficiency
LSTM_PT_PRMS_FLUXES_ENSEMBLE_10,ua,Upper Alameda,entire,entire period,calibrated + LSTM fluxes,PRMS,PRMS,calibrated,LSTM PT fluxes,train,KGE,0.963458922677591,Kling-Gupta efficiency
LSTM_PT_PRMS_STATES_ENSEMBLE_10,ua,Upper Alameda,entire,entire period,calibrated + LSTM states,PRMS,PRMS,calibrated,LSTM PT states,train,KGE,0.979867609838795,Kling-Gupta efficiency
LSTM_PT_PRMS_UNC_ENSEMBLE_10,ua,Upper Alameda,entire,entire period,uncalibrated + LSTM all,PRMS,PRMS,uncalibrated,LSTM PT all,train,KGE,0.978899695427978,Kling-Gupta efficiency
LSTM_PT_SACSMA_ENSEMBLE_10,ua,Upper Alameda,entire,entire period,calibrated + LSTM all,SACSMA,SAC-SMA,calibrated,LSTM PT all,train,KGE,0.976091234918807,Kling-Gupta efficiency
LSTM_PT_SACSMA_FLUXES_ENSEMBLE_10,ua,Upper Alameda,entire,entire period,calibrated + LSTM fluxes,SACSMA,SAC-SMA,calibrated,LSTM PT fluxes,train,KGE,0.962454220286002,Kling-Gupta efficiency
LSTM_PT_SACSMA_STATES_ENSEMBLE_10,ua,Upper Alameda,entire,entire period,calibrated + LSTM states,SACSMA,SAC-SMA,calibrated,LSTM PT states,train,KGE,0.974591307498723,Kling-Gupta efficiency
LSTM_PT_SACSMA_UNC_ENSEMBLE_10,ua,Upper Alameda,entire,entire period,uncalibrated + LSTM all,SACSMA,SAC-SMA,uncalibrated,LSTM PT all,train,KGE,0.966599339687861,Kling-Gupta efficiency
