lstm_run,subbasin,subbasin_pretty,aggregation,aggregation_pretty,model,process_model,process_model_pretty,calibration_status,lstm_model,time_period,error_metric,value,error_metric_pretty
none,ah,Arroyo Hondo,monthly,monthly,calibrated,IHACRES,IHACRES,calibrated,none,train,RR,0.770088630861434,relative runoff ratio
none,ah,Arroyo Hondo,monthly,monthly,uncalibrated,IHACRES,IHACRES,uncalibrated,none,train,RR,2.78625646035899,relative runoff ratio
LSTM_PT_ALLMODELS_ENSEMBLE_10,ah,Arroyo Hondo,monthly,monthly,calibrated + LSTM all,ALLMODELS,all,calibrated,LSTM all,train,RR,0.206613675555139,relative runoff ratio
LSTM_PT_ALLMODELS_FLUXES_ENSEMBLE_10,ah,Arroyo Hondo,monthly,monthly,calibrated + LSTM fluxes,ALLMODELS,all,calibrated,LSTM fluxes,train,RR,0.691809244765808,relative runoff ratio
LSTM_PT_ALLMODELS_STATES_ENSEMBLE_10,ah,Arroyo Hondo,monthly,monthly,calibrated + LSTM states,ALLMODELS,all,calibrated,LSTM states,train,RR,0.743460179083531,relative runoff ratio
LSTM_PT_ALLMODELS_UNC_ENSEMBLE_10,ah,Arroyo Hondo,monthly,monthly,uncalibrated + LSTM all,ALLMODELS,all,uncalibrated,LSTM all,train,RR,0.395889945878244,relative runoff ratio
LSTM_PT_ENSEMBLE_10,ah,Arroyo Hondo,monthly,monthly,LSTM,none,none,none,LSTM,train,RR,1.00605305602768,relative runoff ratio
LSTM_PT_IHACRES_ENSEMBLE_10,ah,Arroyo Hondo,monthly,monthly,calibrated + LSTM all,IHACRES,IHACRES,calibrated,LSTM all,train,RR,0.313081722593134,relative runoff ratio
LSTM_PT_IHACRES_FLUXES_ENSEMBLE_10,ah,Arroyo Hondo,monthly,monthly,calibrated + LSTM fluxes,IHACRES,IHACRES,calibrated,LSTM fluxes,train,RR,0.450207126116163,relative runoff ratio
LSTM_PT_IHACRES_STATES_ENSEMBLE_10,ah,Arroyo Hondo,monthly,monthly,calibrated + LSTM states,IHACRES,IHACRES,calibrated,LSTM states,train,RR,0.464702370533168,relative runoff ratio
LSTM_PT_IHACRES_UNC_ENSEMBLE_10,ah,Arroyo Hondo,monthly,monthly,uncalibrated + LSTM all,IHACRES,IHACRES,uncalibrated,LSTM all,train,RR,0.394135502428508,relative runoff ratio
LSTM_PT_PRMS_ENSEMBLE_10,ah,Arroyo Hondo,monthly,monthly,calibrated + LSTM all,PRMS,PRMS,calibrated,LSTM all,train,RR,0.35722004585564,relative runoff ratio
LSTM_PT_PRMS_FLUXES_ENSEMBLE_10,ah,Arroyo Hondo,monthly,monthly,calibrated + LSTM fluxes,PRMS,PRMS,calibrated,LSTM fluxes,train,RR,0.631816949980793,relative runoff ratio
LSTM_PT_PRMS_STATES_ENSEMBLE_10,ah,Arroyo Hondo,monthly,monthly,calibrated + LSTM states,PRMS,PRMS,calibrated,LSTM states,train,RR,0.407992908769635,relative runoff ratio
LSTM_PT_PRMS_UNC_ENSEMBLE_10,ah,Arroyo Hondo,monthly,monthly,uncalibrated + LSTM all,PRMS,PRMS,uncalibrated,LSTM all,train,RR,0.898546183390976,relative runoff ratio
LSTM_PT_SACSMA_ENSEMBLE_10,ah,Arroyo Hondo,monthly,monthly,calibrated + LSTM all,SACSMA,SAC-SMA,calibrated,LSTM all,train,RR,0.299738737991943,relative runoff ratio
LSTM_PT_SACSMA_FLUXES_ENSEMBLE_10,ah,Arroyo Hondo,monthly,monthly,calibrated + LSTM fluxes,SACSMA,SAC-SMA,calibrated,LSTM fluxes,train,RR,0.694425132907963,relative runoff ratio
LSTM_PT_SACSMA_STATES_ENSEMBLE_10,ah,Arroyo Hondo,monthly,monthly,calibrated + LSTM states,SACSMA,SAC-SMA,calibrated,LSTM states,train,RR,0.669743114339225,relative runoff ratio
LSTM_PT_SACSMA_UNC_ENSEMBLE_10,ah,Arroyo Hondo,monthly,monthly,uncalibrated + LSTM all,SACSMA,SAC-SMA,uncalibrated,LSTM all,train,RR,0.26173782400328,relative runoff ratio
none,ah,Arroyo Hondo,monthly,monthly,calibrated,PRMS,PRMS,calibrated,none,train,RR,1.2543855070912,relative runoff ratio
none,ah,Arroyo Hondo,monthly,monthly,uncalibrated,PRMS,PRMS,uncalibrated,none,train,RR,1.53674994486231,relative runoff ratio
none,ah,Arroyo Hondo,monthly,monthly,calibrated,SACSMA,SAC-SMA,calibrated,none,train,RR,0.505426330577764,relative runoff ratio
none,ah,Arroyo Hondo,monthly,monthly,uncalibrated,SACSMA,SAC-SMA,uncalibrated,none,train,RR,1.01342158964083,relative runoff ratio
