lstm_run,subbasin,subbasin_pretty,aggregation,aggregation_pretty,model,process_model,process_model_pretty,calibration_status,lstm_model,time_period,error_metric,value,error_metric_pretty
none,ua,Upper Alameda,wy,water year,calibrated,IHACRES,IHACRES,calibrated,none,train,FMS,295.333540981371,bias in flow duration curve midsegment slope
none,ua,Upper Alameda,wy,water year,uncalibrated,IHACRES,IHACRES,uncalibrated,none,train,FMS,25.1518066289739,bias in flow duration curve midsegment slope
LSTM_PT_ALLMODELS_ENSEMBLE_10,ua,Upper Alameda,wy,water year,calibrated + LSTM all,ALLMODELS,all,calibrated,LSTM all,train,FMS,-8.57852660165549,bias in flow duration curve midsegment slope
LSTM_PT_ALLMODELS_FLUXES_ENSEMBLE_10,ua,Upper Alameda,wy,water year,calibrated + LSTM fluxes,ALLMODELS,all,calibrated,LSTM fluxes,train,FMS,-7.48761379364818,bias in flow duration curve midsegment slope
LSTM_PT_ALLMODELS_STATES_ENSEMBLE_10,ua,Upper Alameda,wy,water year,calibrated + LSTM states,ALLMODELS,all,calibrated,LSTM states,train,FMS,-17.5343620328852,bias in flow duration curve midsegment slope
LSTM_PT_ALLMODELS_UNC_ENSEMBLE_10,ua,Upper Alameda,wy,water year,uncalibrated + LSTM all,ALLMODELS,all,uncalibrated,LSTM all,train,FMS,-1.11348122347618,bias in flow duration curve midsegment slope
LSTM_PT_ENSEMBLE_10,ua,Upper Alameda,wy,water year,LSTM,none,none,none,LSTM,train,FMS,11.6041395470885,bias in flow duration curve midsegment slope
LSTM_PT_IHACRES_ENSEMBLE_10,ua,Upper Alameda,wy,water year,calibrated + LSTM all,IHACRES,IHACRES,calibrated,LSTM all,train,FMS,-7.23984101780076,bias in flow duration curve midsegment slope
LSTM_PT_IHACRES_FLUXES_ENSEMBLE_10,ua,Upper Alameda,wy,water year,calibrated + LSTM fluxes,IHACRES,IHACRES,calibrated,LSTM fluxes,train,FMS,-16.0975483288095,bias in flow duration curve midsegment slope
LSTM_PT_IHACRES_STATES_ENSEMBLE_10,ua,Upper Alameda,wy,water year,calibrated + LSTM states,IHACRES,IHACRES,calibrated,LSTM states,train,FMS,-7.82611731222616,bias in flow duration curve midsegment slope
LSTM_PT_IHACRES_UNC_ENSEMBLE_10,ua,Upper Alameda,wy,water year,uncalibrated + LSTM all,IHACRES,IHACRES,uncalibrated,LSTM all,train,FMS,6.37577156017919,bias in flow duration curve midsegment slope
LSTM_PT_PRMS_ENSEMBLE_10,ua,Upper Alameda,wy,water year,calibrated + LSTM all,PRMS,PRMS,calibrated,LSTM all,train,FMS,-5.18321736248339,bias in flow duration curve midsegment slope
LSTM_PT_PRMS_FLUXES_ENSEMBLE_10,ua,Upper Alameda,wy,water year,calibrated + LSTM fluxes,PRMS,PRMS,calibrated,LSTM fluxes,train,FMS,4.80090290059925,bias in flow duration curve midsegment slope
LSTM_PT_PRMS_STATES_ENSEMBLE_10,ua,Upper Alameda,wy,water year,calibrated + LSTM states,PRMS,PRMS,calibrated,LSTM states,train,FMS,-9.45296295742316,bias in flow duration curve midsegment slope
LSTM_PT_PRMS_UNC_ENSEMBLE_10,ua,Upper Alameda,wy,water year,uncalibrated + LSTM all,PRMS,PRMS,uncalibrated,LSTM all,train,FMS,1.57803932539303,bias in flow duration curve midsegment slope
LSTM_PT_SACSMA_ENSEMBLE_10,ua,Upper Alameda,wy,water year,calibrated + LSTM all,SACSMA,SAC-SMA,calibrated,LSTM all,train,FMS,7.32792648243315,bias in flow duration curve midsegment slope
LSTM_PT_SACSMA_FLUXES_ENSEMBLE_10,ua,Upper Alameda,wy,water year,calibrated + LSTM fluxes,SACSMA,SAC-SMA,calibrated,LSTM fluxes,train,FMS,-4.74964669053256,bias in flow duration curve midsegment slope
LSTM_PT_SACSMA_STATES_ENSEMBLE_10,ua,Upper Alameda,wy,water year,calibrated + LSTM states,SACSMA,SAC-SMA,calibrated,LSTM states,train,FMS,4.14930896011141,bias in flow duration curve midsegment slope
LSTM_PT_SACSMA_UNC_ENSEMBLE_10,ua,Upper Alameda,wy,water year,uncalibrated + LSTM all,SACSMA,SAC-SMA,uncalibrated,LSTM all,train,FMS,2.29696591129808,bias in flow duration curve midsegment slope
none,ua,Upper Alameda,wy,water year,calibrated,PRMS,PRMS,calibrated,none,train,FMS,49.4343832760187,bias in flow duration curve midsegment slope
none,ua,Upper Alameda,wy,water year,uncalibrated,PRMS,PRMS,uncalibrated,none,train,FMS,-13.3856909237792,bias in flow duration curve midsegment slope
none,ua,Upper Alameda,wy,water year,calibrated,SACSMA,SAC-SMA,calibrated,none,train,FMS,12.056730687924,bias in flow duration curve midsegment slope
none,ua,Upper Alameda,wy,water year,uncalibrated,SACSMA,SAC-SMA,uncalibrated,none,train,FMS,31.149035251856,bias in flow duration curve midsegment slope
