lstm_run,subbasin,subbasin_pretty,aggregation,aggregation_pretty,model,process_model,process_model_pretty,calibration_status,lstm_model,time_period,error_metric,value,error_metric_pretty
IHACRES_calib,ua,Upper Alameda,entire,entire period,calibrated,IHACRES,IHACRES,calibrated,none,train,r,0.835306003110804,correlation coefficient
IHACRES_uncal,ua,Upper Alameda,entire,entire period,uncalibrated,IHACRES,IHACRES,uncalibrated,none,train,r,0.782114038952585,correlation coefficient
PRMS_calib,ua,Upper Alameda,entire,entire period,calibrated,PRMS,PRMS,calibrated,none,train,r,0.556275231878497,correlation coefficient
PRMS_uncal,ua,Upper Alameda,entire,entire period,uncalibrated,PRMS,PRMS,uncalibrated,none,train,r,0.425938573263119,correlation coefficient
SACSMA_calib,ua,Upper Alameda,entire,entire period,calibrated,SACSMA,SAC-SMA,calibrated,none,train,r,0.76628042606416,correlation coefficient
SACSMA_uncal,ua,Upper Alameda,entire,entire period,uncalibrated,SACSMA,SAC-SMA,uncalibrated,none,train,r,0.649421108524459,correlation coefficient
LSTM_PT_ALLMODELS_ENSEMBLE_10,ua,Upper Alameda,entire,entire period,calibrated + LSTM all,ALLMODELS,all,calibrated,LSTM PT all,train,r,0.997133781670745,correlation coefficient
LSTM_PT_ALLMODELS_FLUXES_ENSEMBLE_10,ua,Upper Alameda,entire,entire period,calibrated + LSTM fluxes,ALLMODELS,all,calibrated,LSTM PT fluxes,train,r,0.997025106506969,correlation coefficient
LSTM_PT_ALLMODELS_STATES_ENSEMBLE_10,ua,Upper Alameda,entire,entire period,calibrated + LSTM states,ALLMODELS,all,calibrated,LSTM PT states,train,r,0.996607510460115,correlation coefficient
LSTM_PT_ALLMODELS_UNC_ENSEMBLE_10,ua,Upper Alameda,entire,entire period,uncalibrated + LSTM all,ALLMODELS,all,uncalibrated,LSTM PT all,train,r,0.9967100778918,correlation coefficient
LSTM_PT_ENSEMBLE_10,ua,Upper Alameda,entire,entire period,LSTM,none,none,none,LSTM PT,train,r,0.991134910710657,correlation coefficient
LSTM_PT_IHACRES_ENSEMBLE_10,ua,Upper Alameda,entire,entire period,calibrated + LSTM all,IHACRES,IHACRES,calibrated,LSTM PT all,train,r,0.996301626988869,correlation coefficient
LSTM_PT_IHACRES_FLUXES_ENSEMBLE_10,ua,Upper Alameda,entire,entire period,calibrated + LSTM fluxes,IHACRES,IHACRES,calibrated,LSTM PT fluxes,train,r,0.994852667049495,correlation coefficient
LSTM_PT_IHACRES_STATES_ENSEMBLE_10,ua,Upper Alameda,entire,entire period,calibrated + LSTM states,IHACRES,IHACRES,calibrated,LSTM PT states,train,r,0.993832149234239,correlation coefficient
LSTM_PT_IHACRES_UNC_ENSEMBLE_10,ua,Upper Alameda,entire,entire period,uncalibrated + LSTM all,IHACRES,IHACRES,uncalibrated,LSTM PT all,train,r,0.995709332612864,correlation coefficient
LSTM_PT_PRMS_ENSEMBLE_10,ua,Upper Alameda,entire,entire period,calibrated + LSTM all,PRMS,PRMS,calibrated,LSTM PT all,train,r,0.996890085545975,correlation coefficient
LSTM_PT_PRMS_FLUXES_ENSEMBLE_10,ua,Upper Alameda,entire,entire period,calibrated + LSTM fluxes,PRMS,PRMS,calibrated,LSTM PT fluxes,train,r,0.995866403670229,correlation coefficient
LSTM_PT_PRMS_STATES_ENSEMBLE_10,ua,Upper Alameda,entire,entire period,calibrated + LSTM states,PRMS,PRMS,calibrated,LSTM PT states,train,r,0.99631446399873,correlation coefficient
LSTM_PT_PRMS_UNC_ENSEMBLE_10,ua,Upper Alameda,entire,entire period,uncalibrated + LSTM all,PRMS,PRMS,uncalibrated,LSTM PT all,train,r,0.997306419276088,correlation coefficient
LSTM_PT_SACSMA_ENSEMBLE_10,ua,Upper Alameda,entire,entire period,calibrated + LSTM all,SACSMA,SAC-SMA,calibrated,LSTM PT all,train,r,0.996850089081871,correlation coefficient
LSTM_PT_SACSMA_FLUXES_ENSEMBLE_10,ua,Upper Alameda,entire,entire period,calibrated + LSTM fluxes,SACSMA,SAC-SMA,calibrated,LSTM PT fluxes,train,r,0.996393103299387,correlation coefficient
LSTM_PT_SACSMA_STATES_ENSEMBLE_10,ua,Upper Alameda,entire,entire period,calibrated + LSTM states,SACSMA,SAC-SMA,calibrated,LSTM PT states,train,r,0.99616590770524,correlation coefficient
LSTM_PT_SACSMA_UNC_ENSEMBLE_10,ua,Upper Alameda,entire,entire period,uncalibrated + LSTM all,SACSMA,SAC-SMA,uncalibrated,LSTM PT all,train,r,0.996801618255545,correlation coefficient
