lstm_run,subbasin,subbasin_pretty,aggregation,aggregation_pretty,model,process_model,process_model_pretty,calibration_status,lstm_model,time_period,error_metric,value,error_metric_pretty
none,ah,Arroyo Hondo,wy,water year,calibrated,IHACRES,IHACRES,calibrated,none,train,KGE,0.630981616697948,Kling-Gupta efficiency
none,ah,Arroyo Hondo,wy,water year,uncalibrated,IHACRES,IHACRES,uncalibrated,none,train,KGE,-0.670421678054241,Kling-Gupta efficiency
LSTM_PT_ALLMODELS_ENSEMBLE_10,ah,Arroyo Hondo,wy,water year,calibrated + LSTM all,ALLMODELS,all,calibrated,LSTM all,train,KGE,0.940618636213449,Kling-Gupta efficiency
LSTM_PT_ALLMODELS_FLUXES_ENSEMBLE_10,ah,Arroyo Hondo,wy,water year,calibrated + LSTM fluxes,ALLMODELS,all,calibrated,LSTM fluxes,train,KGE,0.918328948371556,Kling-Gupta efficiency
LSTM_PT_ALLMODELS_STATES_ENSEMBLE_10,ah,Arroyo Hondo,wy,water year,calibrated + LSTM states,ALLMODELS,all,calibrated,LSTM states,train,KGE,0.875142677520319,Kling-Gupta efficiency
LSTM_PT_ALLMODELS_UNC_ENSEMBLE_10,ah,Arroyo Hondo,wy,water year,uncalibrated + LSTM all,ALLMODELS,all,uncalibrated,LSTM all,train,KGE,0.941894324215703,Kling-Gupta efficiency
LSTM_PT_ENSEMBLE_10,ah,Arroyo Hondo,wy,water year,LSTM,none,none,none,LSTM,train,KGE,0.802511395494718,Kling-Gupta efficiency
LSTM_PT_IHACRES_ENSEMBLE_10,ah,Arroyo Hondo,wy,water year,calibrated + LSTM all,IHACRES,IHACRES,calibrated,LSTM all,train,KGE,0.924758867760078,Kling-Gupta efficiency
LSTM_PT_IHACRES_FLUXES_ENSEMBLE_10,ah,Arroyo Hondo,wy,water year,calibrated + LSTM fluxes,IHACRES,IHACRES,calibrated,LSTM fluxes,train,KGE,0.896501126891682,Kling-Gupta efficiency
LSTM_PT_IHACRES_STATES_ENSEMBLE_10,ah,Arroyo Hondo,wy,water year,calibrated + LSTM states,IHACRES,IHACRES,calibrated,LSTM states,train,KGE,0.862084795076751,Kling-Gupta efficiency
LSTM_PT_IHACRES_UNC_ENSEMBLE_10,ah,Arroyo Hondo,wy,water year,uncalibrated + LSTM all,IHACRES,IHACRES,uncalibrated,LSTM all,train,KGE,0.878871547371862,Kling-Gupta efficiency
LSTM_PT_PRMS_ENSEMBLE_10,ah,Arroyo Hondo,wy,water year,calibrated + LSTM all,PRMS,PRMS,calibrated,LSTM all,train,KGE,0.922953213957339,Kling-Gupta efficiency
LSTM_PT_PRMS_FLUXES_ENSEMBLE_10,ah,Arroyo Hondo,wy,water year,calibrated + LSTM fluxes,PRMS,PRMS,calibrated,LSTM fluxes,train,KGE,0.885348985508838,Kling-Gupta efficiency
LSTM_PT_PRMS_STATES_ENSEMBLE_10,ah,Arroyo Hondo,wy,water year,calibrated + LSTM states,PRMS,PRMS,calibrated,LSTM states,train,KGE,0.923133958398712,Kling-Gupta efficiency
LSTM_PT_PRMS_UNC_ENSEMBLE_10,ah,Arroyo Hondo,wy,water year,uncalibrated + LSTM all,PRMS,PRMS,uncalibrated,LSTM all,train,KGE,0.898524804298191,Kling-Gupta efficiency
LSTM_PT_SACSMA_ENSEMBLE_10,ah,Arroyo Hondo,wy,water year,calibrated + LSTM all,SACSMA,SAC-SMA,calibrated,LSTM all,train,KGE,0.949032881998005,Kling-Gupta efficiency
LSTM_PT_SACSMA_FLUXES_ENSEMBLE_10,ah,Arroyo Hondo,wy,water year,calibrated + LSTM fluxes,SACSMA,SAC-SMA,calibrated,LSTM fluxes,train,KGE,0.916703985305478,Kling-Gupta efficiency
LSTM_PT_SACSMA_STATES_ENSEMBLE_10,ah,Arroyo Hondo,wy,water year,calibrated + LSTM states,SACSMA,SAC-SMA,calibrated,LSTM states,train,KGE,0.899256350887142,Kling-Gupta efficiency
LSTM_PT_SACSMA_UNC_ENSEMBLE_10,ah,Arroyo Hondo,wy,water year,uncalibrated + LSTM all,SACSMA,SAC-SMA,uncalibrated,LSTM all,train,KGE,0.922165312777056,Kling-Gupta efficiency
none,ah,Arroyo Hondo,wy,water year,calibrated,PRMS,PRMS,calibrated,none,train,KGE,0.469834609851454,Kling-Gupta efficiency
none,ah,Arroyo Hondo,wy,water year,uncalibrated,PRMS,PRMS,uncalibrated,none,train,KGE,0.273902625697584,Kling-Gupta efficiency
none,ah,Arroyo Hondo,wy,water year,calibrated,SACSMA,SAC-SMA,calibrated,none,train,KGE,0.544294247700396,Kling-Gupta efficiency
none,ah,Arroyo Hondo,wy,water year,uncalibrated,SACSMA,SAC-SMA,uncalibrated,none,train,KGE,0.304090297232789,Kling-Gupta efficiency
