"","uncalib","AH_calib","UA_calib"
"f",0.5,0.718054238835705,0.786143332946065
"e",0.1,0.333124788143725,0.271225551844154
"d",200,172.488520801323,155.777251150943
"tau_s",10,170.625886325395,1.73371733286819
"tau_q",1,1.7869409612904,0.102103708749043
"v_s",0.5,0.154300457247328,1.40896156725402
"v_q",0.5,1.20423054283275,0.0934432428668993
