subbasin,time_period,aggregation,error_metric,model_comp,IHACRES,SACSMA,PRMS,ALLMODELS
ah,train,wy,NSE,calibrated,0.3959312384281,0.393807223029825,0.690411429684064,NA
ah,train,wy,NSE,uncalibrated,1.90302471263648,0.600406265009546,0.943066102996933,NA
ah,train,wy,NSE,calibrated + LSTM all,0.0323371736862546,0.0185555105355111,0.0277328876389967,0.0244284893832446
ah,train,wy,NSE,calibrated + LSTM fluxes,0.0411152634716102,0.0325491709013179,0.0296338842116558,0.0307958554978106
ah,train,wy,NSE,calibrated + LSTM states,0.0605331708329677,0.0397264103274676,0.0315050685466193,0.0390974537450895
ah,train,wy,NSE,uncalibrated + LSTM all,0.04687329893167,0.0329704298062473,0.0222703436769083,0.0173755148556636
ah,train,wy,NSE,LSTM,0.0676262889166227,0.0676262889166227,0.0676262889166227,0.0676262889166227
ah,train,wy,NSE,uncal_vs_cal,-79.194634951452,-34.4098744500004,-26.7907702874663,NA
ah,train,wy,NSE,cal_vs_uncalHybrid,-88.1612526665581,-91.6277742311115,-96.7743373415618,NA
ah,train,wy,NSE,lstm_vs_calHybridAll,-52.182539949629,-72.5616903828799,-58.9909662598979,-63.8772291447742
ah,train,wy,NSE,lstm_vs_calHybridFluxes,-39.2022479271312,-51.8690565122563,-56.1799343326501,-54.4617100965289
ah,train,wy,NSE,lstm_vs_calHybridStates,-10.488699287344,-41.2559657436669,-53.4129862050211,-42.1860132036917
ah,train,wy,NSE,cal_vs_calHybridAll,-91.8326288638812,-95.2881741495874,-95.9831360770363,NA
ah,train,wy,NSE,cal_vs_calHybridFluxes,-89.6155545506227,-91.7347450737711,-95.7077935072401,NA
ah,train,wy,NSE,cal_vs_calHybridStates,-84.7111909953626,-89.9122189730738,-95.4367689768641,NA
ah,train,wy,NSE,calIHACRES_vs_cal,0,-0.536460676027558,74.3765994380968,NA
ah,train,wy,NSE,calSACSMA_vs_cal,0.539354098671473,0,75.3171067742901,NA
ah,train,wy,NSE,calPRMS_vs_cal,-42.6528557603283,-42.9605006379989,0,NA
ah,train,wy,NSE,cal_vs_calIHACRES,0,0.539354098671473,-42.6528557603283,NA
ah,train,wy,NSE,cal_vs_calSACSMA,-0.536460676027558,0,-42.9605006379989,NA
ah,train,wy,NSE,cal_vs_calPRMS,74.3765994380968,75.3171067742901,0,NA
ah,train,wy,NSE,calSACSMA_vs_calHybridAll,-91.7885778129048,-95.2881741495874,-92.9577503871999,-93.7968406990355
ah,train,wy,NSE,calSACSMA_vs_calHybridFluxes,-89.5595456184671,-91.7347450737711,-92.4750277601151,-92.1799668221224
ah,train,wy,NSE,calSACSMA_vs_calHybridStates,-84.6287301773581,-89.9122189730738,-91.9998753948113,-90.0719307674739
ah,train,wy,NSE,calPRMS_vs_calHybridAll,-95.3162458939806,-97.3123981241153,-95.9831360770363,-96.4617489901024
ah,train,wy,NSE,calPRMS_vs_calHybridFluxes,-94.0448170896556,-95.2855399690859,-95.7077935072401,-95.5394922253962
ah,train,wy,NSE,calPRMS_vs_calHybridStates,-91.2323046475827,-94.2459802055064,-95.4367689768641,-94.3370790134542
ah,train,wy,NSE,calHybridAll_vs_calHybridFluxes,27.1455071198351,75.4151190775707,6.85466510882184,26.0653289471651
ah,train,wy,NSE,calHybridAll_vs_calHybridStates,87.1937585525551,114.094946358065,13.601832440695,60.0485938025555
ah,train,wy,NSE,calHybridFluxes_vs_calHybridAll,-21.3499538715515,-42.9923711674027,-6.41494229741021,-20.6760488112392
ah,train,wy,NSE,calHybridFluxes_vs_calHybridStates,47.227977451161,22.0504523691541,6.31434044082377,26.9568684262372
ah,train,wy,NSE,calHybridStates_vs_calHybridAll,-46.5794154819939,-53.2917512995594,-11.9732509137084,-37.5189761908403
ah,train,wy,NSE,calHybridStates_vs_calHybridFluxes,-32.078126908201,-18.0666699230743,-5.93931205766021,-21.2330918054263
ah,train,wy,NSE,uncalHybrid_vs_uncalHybridAllModelsAll,-62.930889756676,-47.2997017091624,-21.9791346386812,0
ah,train,wy,NSE,calHybridAll_vs_calHybridAllModelsAll,-24.4569435156656,31.650861001609,-11.9150890407302,0
ah,train,wy,NSE,calHybridFluxes_vs_calHybridAllModelsFluxes,-25.0987275830667,-5.38666686418217,3.92109005304735,0
ah,train,wy,NSE,calHybridStates_vs_calHybridAllModelsStates,-35.4115219687183,-1.58322027385187,24.0989324852143,0
ah,train,wy,NSE,cal_vs_lstm,-82.9196884830032,-82.8275651227705,-90.2049291177626,NA
ah,train,wy,NSE,hybrid_param_fraction,0.00964513846962995,0.0697724400491223,-0.0216205933991336,NA
ah,train,wy,NSE,uncal_hybrid_vs_cal_hybrid,-31.0115259150111,-43.7207502463461,24.5283325723997,40.591456346297
ah,train,wy,NSE,hybrid_complexity_fraction_prms_sacsma,0.0309414934029711,0.0309414934029711,0.0309414934029711,0.0309414934029711
ah,train,wy,NSE,hybrid_sacsma_vs_hybrid_prms,49.4590385207791,49.4590385207791,49.4590385207791,49.4590385207791
ah,train,wy,NSE,cal_sacsma_vs_cal_prms,75.3171067742901,75.3171067742901,75.3171067742901,75.3171067742901
ah,train,wy,NSE,hybrid_complexity_fraction_prms_ihacres,-0.0156352997042702,-0.0156352997042702,-0.0156352997042702,-0.0156352997042702
ah,train,wy,NSE,hybrid_ihacres_vs_hybrid_prms,-14.2383687947811,-14.2383687947811,-14.2383687947811,-14.2383687947811
ah,train,wy,NSE,cal_ihacres_vs_cal_prms,74.3765994380968,74.3765994380968,74.3765994380968,74.3765994380968
ah,train,wy,NSE,hybrid_complexity_fraction_sacsma_ihacres,6.48849493366752,6.48849493366752,6.48849493366752,6.48849493366752
ah,train,wy,NSE,hybrid_ihacres_vs_hybrid_sacsma,-42.6186384885009,-42.6186384885009,-42.6186384885009,-42.6186384885009
ah,train,wy,NSE,cal_ihacres_vs_cal_sacsma,-0.536460676027558,-0.536460676027558,-0.536460676027558,-0.536460676027558
