subbasin,time_period,aggregation,error_metric,model_comp,IHACRES,SACSMA,PRMS,ALLMODELS
ah,train,wy,KGE,calibrated,0.369018383302052,0.455705752299604,0.530165390148545,NA
ah,train,wy,KGE,uncalibrated,1.67042167805424,0.695909702767211,0.726097374302416,NA
ah,train,wy,KGE,calibrated + LSTM all,0.0752411322399217,0.0509671180019948,0.0770467860426615,0.0593813637865512
ah,train,wy,KGE,calibrated + LSTM fluxes,0.103498873108318,0.0832960146945219,0.114651014491162,0.0816710516284443
ah,train,wy,KGE,calibrated + LSTM states,0.137915204923249,0.100743649112858,0.076866041601288,0.124857322479681
ah,train,wy,KGE,uncalibrated + LSTM all,0.121128452628138,0.0778346872229444,0.101475195701809,0.0581056757842974
ah,train,wy,KGE,LSTM,0.197488604505282,0.197488604505282,0.197488604505282,0.197488604505282
ah,train,wy,KGE,uncal_vs_cal,-77.9086689217362,-34.5165399350608,-26.9842573583342,NA
ah,train,wy,KGE,cal_vs_uncalHybrid,-67.1754963684313,-82.9199682404333,-80.8597095194432,NA
ah,train,wy,KGE,lstm_vs_calHybridAll,-61.9010259207592,-74.1923752361966,-60.9867180763836,-69.9317517912973
ah,train,wy,KGE,lstm_vs_calHybridFluxes,-47.5924834409625,-57.822369091532,-41.945503752802,-58.6451826762186
ah,train,wy,KGE,lstm_vs_calHybridStates,-30.1654871334305,-48.9876140624792,-61.0782395299005,-36.777454682788
ah,train,wy,KGE,cal_vs_calHybridAll,-79.6104650487467,-88.8157834864269,-85.4674055541283,NA
ah,train,wy,KGE,cal_vs_calHybridFluxes,-71.9529221871853,-81.7215353823844,-78.3744815067919,NA
ah,train,wy,KGE,cal_vs_calHybridStates,-62.6264676330876,-77.8928291766164,-85.5014976402456,NA
ah,train,wy,KGE,calIHACRES_vs_cal,0,23.4913416025117,43.6691000064865,NA
ah,train,wy,KGE,calSACSMA_vs_cal,-19.0226628828153,0,16.3394114454778,NA
ah,train,wy,KGE,calPRMS_vs_cal,-30.3956104719212,-14.0446055575373,0,NA
ah,train,wy,KGE,cal_vs_calIHACRES,0,-19.0226628828153,-30.3956104719212,NA
ah,train,wy,KGE,cal_vs_calSACSMA,23.4913416025117,0,-14.0446055575373,NA
ah,train,wy,KGE,cal_vs_calPRMS,43.6691000064865,16.3394114454778,0,NA
ah,train,wy,KGE,calSACSMA_vs_calHybridAll,-83.4890975458975,-88.8157834864269,-83.0928651539147,-86.9693626892138
ah,train,wy,KGE,calSACSMA_vs_calHybridFluxes,-77.2882232479979,-81.7215353823844,-74.8409990629688,-82.0781170269824
ah,train,wy,KGE,calSACSMA_vs_calHybridStates,-69.7359087026452,-77.8928291766164,-83.132527686253,-72.6013284121123
ah,train,wy,KGE,calPRMS_vs_calHybridAll,-85.8079886695659,-90.3865625804592,-85.4674055541283,-88.799464301147
ah,train,wy,KGE,calPRMS_vs_calHybridFluxes,-80.4780027079251,-84.2886736399026,-78.3744815067919,-84.5951747990262
ah,train,wy,KGE,calPRMS_vs_calHybridStates,-73.9863809509317,-80.9976941186916,-85.5014976402456,-76.4493637646362
ah,train,wy,KGE,calHybridAll_vs_calHybridFluxes,37.5562408846937,63.4308902678423,48.8070046525746,37.5365037455427
ah,train,wy,KGE,calHybridAll_vs_calHybridStates,83.2976203540887,97.6640097815918,-0.234590500989131,110.263480859898
ah,train,wy,KGE,calHybridFluxes_vs_calHybridAll,-27.3024623551433,-38.8120569886679,-32.7988623697696,-27.2920299144649
ah,train,wy,KGE,calHybridFluxes_vs_calHybridStates,33.2528565590402,20.9465416590743,-32.9565098552068,52.8783087644191
ah,train,wy,KGE,calHybridStates_vs_calHybridAll,-45.4439180351479,-49.4091007713065,0.235142122071335,-52.4406237397773
ah,train,wy,KGE,calHybridStates_vs_calHybridFluxes,-24.9547044751771,-17.3188429960392,49.1569126011055,-34.5884966885021
ah,train,wy,KGE,uncalHybrid_vs_uncalHybridAllModelsAll,-52.0297052231976,-25.3473253925163,-42.7390355027799,0
ah,train,wy,KGE,calHybridAll_vs_calHybridAllModelsAll,-21.0785882418653,16.5091653489748,-22.9281754158165,0
ah,train,wy,KGE,calHybridFluxes_vs_calHybridAllModelsFluxes,-21.0899122128887,-1.95082930682442,-28.7655220576005,0
ah,train,wy,KGE,calHybridStates_vs_calHybridAllModelsStates,-9.46805136593531,23.9356759251487,62.4349581149619,0
ah,train,wy,KGE,cal_vs_lstm,-46.4827191702177,-56.6631310865168,-62.7496233864025,NA
ah,train,wy,KGE,hybrid_param_fraction,0.0352598772211917,0.111853152992056,0.124678008874565,NA
ah,train,wy,KGE,uncal_hybrid_vs_cal_hybrid,-37.8831887905723,-34.5187604390211,-24.0732816430646,2.19546194934472
ah,train,wy,KGE,hybrid_complexity_fraction_prms_sacsma,0.350252415860188,0.350252415860188,0.350252415860188,0.350252415860188
ah,train,wy,KGE,hybrid_sacsma_vs_hybrid_prms,51.1695953450731,51.1695953450731,51.1695953450731,51.1695953450731
ah,train,wy,KGE,cal_sacsma_vs_cal_prms,16.3394114454778,16.3394114454778,16.3394114454778,16.3394114454778
ah,train,wy,KGE,hybrid_complexity_fraction_prms_ihacres,0.0112050098731268,0.0112050098731268,0.0112050098731268,0.0112050098731268
ah,train,wy,KGE,hybrid_ihacres_vs_hybrid_prms,2.39982274187752,2.39982274187752,2.39982274187752,2.39982274187752
ah,train,wy,KGE,cal_ihacres_vs_cal_prms,43.6691000064865,43.6691000064865,43.6691000064865,43.6691000064865
ah,train,wy,KGE,hybrid_complexity_fraction_sacsma_ihacres,-0.280017890941097,-0.280017890941097,-0.280017890941097,-0.280017890941097
ah,train,wy,KGE,hybrid_ihacres_vs_hybrid_sacsma,-32.2616280687061,-32.2616280687061,-32.2616280687061,-32.2616280687061
ah,train,wy,KGE,cal_ihacres_vs_cal_sacsma,23.4913416025117,23.4913416025117,23.4913416025117,23.4913416025117
