Run_name,train_RMSE,test_RMSE,train_NRMSE,test_NRMSE,train_R2,test_R2,train_NSE,test_NSE,train_aNSE,test_aNSE,train_bNSE,test_bNSE,train_r,test_r,train_NSEL,test_NSEL,train_aNSEL,test_aNSEL,train_bNSEL,test_bNSEL,train_rL,test_rL,train_NSEH,test_NSEH,train_aNSEH,test_aNSEH,train_bNSEH,test_bNSEH,train_rH,test_rH,train_KGE,test_KGE,train_aKGE,test_aKGE,train_bKGE,test_bKGE,train_FHV,test_FHV,train_FLV,test_FLV,train_FMS,test_FMS,train_FMR,test_FMR,train_FMAR,test_FMAR,train_MI,test_MI,train_RR,test_RR,train_WRR,test_WRR,train_DRR,test_DRR,train_KGEL,test_KGEL,train_aKGEL,test_aKGEL,train_bKGEL,test_bKGEL,train_KGEH,test_KGEH,train_aKGEH,test_aKGEH,train_bKGEH,test_bKGEH,train_YVRMSE,test_YVRMSE,train_YVNSE,test_YVNSE,train_YVKGE,test_YVKGE,train_SQRTNSE,test_SQRTNSE,train_MOTOTNSE,test_MOTOTNSE,train_LOSSVAR,test_LOSSVAR
LSTM_PT_SACSMA_UNC_ENSEMBLE_10,5.45428382833298,57.6135976326106,0.0827754048776531,0.627810294936901,5.45428382833298,57.6135976326106,0.993147189936318,0.605674258335429,0.976144655550105,0.513995350685633,-0.0062896815336165,-0.0905208454881315,0.996801618255545,0.854154850546525,-0.941977559685727,-11.5012731804621,1.74078679924253,3.5982161761003,0.131615862075441,1.02408880325069,0.604809345110948,0.346761056834917,0.989022539804067,-0.188363208836301,0.990523916095163,0.488951734632583,-0.0500166033363734,-0.772115210858068,0.995776598756803,0.676004166570534,0.966599339687861,0.35200389190987,0.976144655550105,0.513995350685633,0.976841912758596,0.596976887355492,-2.65913505959803,-53.1314902561859,20.2301267417619,-16.8835070370667,-6.03451255052995,-24.4488174883683,-10.4617863171443,-281.431822141367,16.0226270648557,285.725477142093,0.848548571813825,0.544091887620623,0.0231580872413903,0.40302311264451,0.0224862352464493,0.399081260226635,0.0140636787149286,0.0641682445871419,0.146476879148589,-1.93820068538044,1.74078679924253,3.5982161761003,1.15349587025161,2.20647206886582,0.971456468145115,0.194742801771373,0.990523916095163,0.488951734632583,0.97340864940402,0.468685097438141,22045705.7740358,435843206.269978,0.996874870713163,0.463994539509529,0.972163947016947,0.306608338166641,0.977765104950568,0.794759541269031,0.994319957064023,0.698149657294818,0.982731560584604,0.765776576076767
PRMS_uncal,145.089851434478,147.026015783573,2.20191533373101,1.60212953409173,145.089851434478,147.026015783573,-3.8491687652686,-1.56799110749939,2.78679932648989,2.19827615550152,0.560716549183896,0.38674622086138,0.759210137892923,0.776532984075346,-702.126232229473,-8334.98874866194,24.7687940180125,90.2798964440243,10.1332320656914,14.3757483733059,0.284134787778803,0.12345146913469,-10.7741494723353,-2.81474536909746,3.14753614462597,2.12445039234371,2.06769392890224,1.04443409564726,0.546630714555767,0.66260881711175,-1.74095626238865,-1.10967677286147,2.78679932648989,2.19827615550152,3.06451196206011,2.72189803237631,109.929044599142,71.870543664644,41.0109115312694,56.5108930269477,-30.2015747280754,-28.6928814945947,432.491824923664,380.690584139535,487.578912923664,501.347826,0.400373367704657,0.452985559814849,2.06451196206016,1.72189803237631,2.05850867447568,1.66668777047888,4.70344497555997,5.38771324886623,-25.5542522076787,-89.8762641189132,24.7687940180125,90.2798964440243,12.8177949819851,17.9359715938532,-1.45476978271023,-0.376502451795057,3.14753614462597,2.12445039234371,2.09929044599143,1.71870543664644,1345582853.15347,1261457071.33017,-10.6423556902298,-3.49007508689294,-1.65467810986724,-0.954350223773768,-0.301645261468011,-0.0571275640983209,-3.48075104463533,-0.887415734269272,-1.25537699641821,-0.306214015149606
PRMS_calib,74.1172214803721,72.0524646569028,1.1248191714144,0.785149356157836,74.1172214803721,72.0524646569028,-0.265410655551382,0.383259000163532,1.64688068179221,1.29031174173454,0.294169899169766,0.202169990983993,0.76913720813473,0.809515519405984,-457.153440285487,-1331.17501110604,21.0397694541648,36.0169972303613,4.70689160934508,6.58236098734021,0.182485468479747,0.130626218219135,-1.0688865686,0.494857751699287,1.74426236964471,1.09590370178745,0.343838656588577,0.0100412757933332,0.599880822686618,0.773775059064128,-0.282527922490581,0.0352345252345118,1.64688068179221,1.29031174173454,2.08310924048511,1.90011509073194,18.2801982859727,0.690969352074151,12.0109096862238,18.2740364879905,48.2251361018761,28.0508605205705,71.919449,3.65999076744186,216.635771656489,202.878766627907,0.403877283007183,0.513440322194907,1.08310924048513,0.900115090731933,1.10043938661175,0.916519299416182,0.419737227626501,0.779681903890525,-19.7940831580282,-34.875900919454,21.0397694541648,36.0169972303613,6.48937196750865,8.75463480628836,0.135454804038247,0.75418912191987,1.74426236964471,1.09590370178745,1.18280198285973,1.00690969352074,802955699.37863,687890677.796432,-3.14575034073764,-0.335203617886281,-0.675235712413567,-0.0621573583819353,0.271785473833552,0.392493028903981,-0.74181924612655,0.365348119262033,-0.0322959421544782,0.384349556011396
SACSMA_uncal,65.4385095638284,72.674823250494,0.993109140305154,0.791931142893157,65.4385095638284,72.674823250494,0.0135841874027173,0.372558692799461,1.30156667802665,0.935849731964074,0.247729000257675,0.159345531579325,0.679580627260324,0.680545157309026,-226.966566733231,-324.303872184262,14.4091956814203,17.183602329457,5.20882613315062,6.08729319319718,0.270559946138594,0.234399497721748,-0.641309079465521,0.0800276793230316,1.19664068465889,0.53663915206716,-0.267587018199815,-0.504428485852594,0.360506484088957,0.585603605145797,-0.0127041615000778,0.219305005049127,1.30156667802665,0.935849731964074,1.91211769141743,1.70944909735199,-14.2262763587336,-34.7111892164838,2.4282761768922,6.42353853708663,12.3137393861194,4.87983959264217,-55.9701782790267,-183.861457353936,207.906333375096,237.226479382327,0.422415438781521,0.519800875673102,0.912117691417457,0.709449097351983,0.84889294135841,0.723500756199031,0.333661930407072,0.688855460389029,-13.7391039282085,-16.7179030702231,14.4091956814203,17.183602329457,7.07474880071053,8.17139879791422,0.31599838475418,0.288020847814028,1.19664068465889,0.53663915206716,0.857737236412664,0.652888107835162,738967397.94312,535243675.482175,-2.51132098362603,0.191627108665875,-0.556488371616518,0.168829559733134,0.310957986436445,0.390504355212202,-0.54492944772271,0.526594251934453,0.0541917561886983,0.431331324228878
SACSMA_calib,75.1442457926993,72.4354428315614,1.14040551711033,0.789322635568713,75.1442457926993,72.4354428315614,-0.300722602080874,0.376685288292549,1.73609354605984,1.31021786942142,0.335058743082323,0.2304422368301,0.813775169529718,0.819132480362696,-103.177410447345,-180.56579810109,9.71716932722682,12.7920821249004,4.05941237224775,5.0588265026477,0.397696903098404,0.339380590559593,-1.36247085549917,0.413392224810344,1.59872135278362,0.809451933490017,0.7240064376862,0.229692914622346,0.538447998440652,0.693444297777676,-0.448594799620637,-0.0870166267112173,1.73609354605984,1.31021786942142,2.23365858220713,2.02599072148754,38.4918361784461,15.8058365947871,0.0288436147808648,27.0850901304072,-12.5946747265893,-17.8810180415509,151.437725436292,83.7218262068553,237.993447300073,228.710792895775,0.519517600140983,0.631740271705086,1.23365858220717,1.02599072148753,1.17877466043432,1.01413892238469,3.13907754250757,3.82554131697001,-8.93805711329117,-12.2290765891285,9.71716932722682,12.7920821249004,5.73425486079445,6.95976916973336,0.151672437285382,0.605960140008874,1.59872135278362,0.809451933490017,1.38491836178446,1.15805836594787,983526619.181334,839985196.10041,-5.22002617348025,-0.990911323578012,-1.11498865391911,-0.314348888581407,0.358444310030566,0.484816711863516,-1.39203821453209,0.101918373846257,-0.16670044733823,0.369947210458338
IHACRES_uncal,136.193050348483,133.781737518302,2.06689553366419,1.45780780127843,136.193050348483,133.781737518302,-3.2727070873133,-1.12617399806434,2.50998719709329,1.86857745822442,0.948012171070205,0.662325207327189,0.782114038952607,0.75037903708819,-4264.65498845363,-6117.48603357254,62.4190926566059,75.1911085846948,20.1658719320486,22.2612491579387,0.306425789750143,0.213835999057718,-3.65481391685174,-0.122839589082581,1.49863723605524,0.880727363195477,1.83039223160796,0.791265348304134,0.656332011471633,0.734534413158446,-2.80934938215373,-2.08422630275986,2.50998719709329,1.86857745822442,4.49050241196132,3.94884968429643,97.3128887451836,54.4492668351366,-13.0356643210849,-4.68798917891017,-2.73004835090588,-1.57759752947737,382.856314229499,288.411943760412,385.74787497957,315.272090473667,0.572843030821916,0.636611415387821,3.49050241196139,2.94884968429642,3.21077294213775,2.61039819429475,2.2778446814145,0.722791328635211,-64.7715383362722,-77.6939173326496,62.4190926566059,75.1911085846948,24.5182751742948,27.2258265512363,-0.146179135699647,0.38261016725587,1.49863723605524,0.880727363195477,1.97312888745184,1.54449266835137,2151392427.75066,2058256261.90181,-28.7618035965992,-10.9538428788794,-3.10051140126476,-2.19122803066551,-1.50094559554155,-1.03349092341899,-7.48848688379366,-2.70536153248,-3.29720798201718,-1.53505210613729
IHACRES_calib,90.0011716561936,82.6778247089141,1.36587747498676,0.900932968051014,90.0011716561936,82.6778247089141,-0.865905107693509,0.187949156844579,2.0410392892244,1.54969432642054,0.360935375725486,0.243261900822859,0.840314651374307,0.854589511810356,-37.2764752022979,-36.342599919408,4.85557677591097,4.45063415159042,4.11573632829559,4.37205781315171,0.334021193455657,0.291529360215003,-2.93953045953039,0.170324335529315,1.91887706479722,1.08828636349836,1.28758971159838,0.584900811037825,0.628804997184162,0.783316786758556,-0.695679312158383,-0.223250937720171,2.0410392892244,1.54969432642054,2.32893420356591,2.08306730818486,68.4547673392078,40.2487236431405,50.558314334506,43.1368382225871,-30.8891346961251,-35.0164845926713,269.320336215219,213.193185042171,313.855702119744,253.369524046558,0.548208876322857,0.6449369465989,1.32893420356594,1.08306730818486,1.32198244961621,1.03945813467393,4.06259001756714,5.43350114371608,-5.19261213760557,-5.24006658946122,4.85557677591097,4.45063415159042,5.79994219143413,6.15069163757166,-0.204461002885656,0.534444340201313,1.91887706479722,1.08828636349836,1.68454767339208,1.4024872364314,1023319694.79112,904719110.047776,-5.73352753231389,-1.30959685865939,-1.17115106875395,-0.434062391644539,0.278762029440047,0.47461990487698,-1.90709261422144,-0.182998138159497,-0.3769943636584,0.277334491966037
