subbasin,time_period,aggregation,error_metric,wet_dry,model_comp,IHACRES,SACSMA,PRMS,ALLMODELS
ah,train,wy,NSE,dry,calibrated,0.518155143823128,0.445370144732574,0.693079831443643,NA
ah,train,wy,NSE,dry,uncalibrated,4.61559275019925,0.647363394266466,1.05734907021651,NA
ah,train,wy,NSE,dry,calibrated + LSTM all,0.0670307186884728,0.0289353894706276,0.0467035060147194,0.0406263574058435
ah,train,wy,NSE,dry,calibrated + LSTM fluxes,0.077338943528711,0.0502418755607131,0.0539836284089724,0.0520101189342692
ah,train,wy,NSE,dry,calibrated + LSTM states,0.122843601012031,0.0872772532148972,0.0596258095906023,0.0720949859392066
ah,train,wy,NSE,dry,uncalibrated + LSTM all,0.10321993120786,0.0604929420983557,0.0489886874537552,0.0327855930558222
ah,train,wy,NSE,dry,LSTM,0.139528413838861,0.139528413838861,0.139528413838861,0.139528413838861
ah,train,wy,NSE,dry,uncal_vs_cal,-88.7738114719771,-31.2024515632016,-34.4511806964825,NA
ah,train,wy,NSE,dry,cal_vs_uncalHybrid,-80.0793387003229,-86.4173782607994,-92.9317395729559,NA
ah,train,wy,NSE,dry,lstm_vs_calHybridAll,-51.9590907369696,-79.2620093108458,-66.527601991766,-70.883093781341
ah,train,wy,NSE,dry,lstm_vs_calHybridFluxes,-44.5711870429285,-63.9916528982142,-61.3099390126249,-62.7243530523218
ah,train,wy,NSE,dry,lstm_vs_calHybridStates,-11.9580036551544,-37.4484015021541,-57.2661883338951,-48.3295309137049
ah,train,wy,NSE,dry,cal_vs_calHybridAll,-87.0635813447886,-93.5030693429165,-93.2614536023305,NA
ah,train,wy,NSE,dry,cal_vs_calHybridFluxes,-85.0741723882007,-88.7190742004314,-92.2110518933255,NA
ah,train,wy,NSE,dry,cal_vs_calHybridStates,-76.2921197489909,-80.4034342563973,-91.3969781134151,NA
ah,train,wy,NSE,dry,calIHACRES_vs_cal,0,-14.0469509872122,33.759133669862,NA
ah,train,wy,NSE,dry,calSACSMA_vs_cal,16.3425860380152,0,55.618835173563,NA
ah,train,wy,NSE,dry,calPRMS_vs_cal,-25.238750239804,-35.740426351046,0,NA
ah,train,wy,NSE,dry,cal_vs_calIHACRES,0,16.3425860380152,-25.238750239804,NA
ah,train,wy,NSE,dry,cal_vs_calSACSMA,-14.0469509872122,0,-35.740426351046,NA
ah,train,wy,NSE,dry,cal_vs_calPRMS,33.759133669862,55.618835173563,0,NA
ah,train,wy,NSE,dry,calSACSMA_vs_calHybridAll,-84.9494359958228,-93.5030693429165,-89.5135525883166,-90.8780689755848
ah,train,wy,NSE,dry,calSACSMA_vs_calHybridFluxes,-82.6349061688565,-88.7190742004314,-87.8789296841199,-88.3220463811064
ah,train,wy,NSE,dry,calSACSMA_vs_calHybridStates,-72.4176390211802,-80.4034342563973,-86.6120775503699,-83.8123442283055
ah,train,wy,NSE,dry,calPRMS_vs_calHybridAll,-90.3285717391528,-95.82510005949,-93.2614536023305,-94.1382860151591
ah,train,wy,NSE,dry,calPRMS_vs_calHybridFluxes,-88.8412647403664,-92.7509251775423,-92.2110518933255,-92.4957967935764
ah,train,wy,NSE,dry,calPRMS_vs_calHybridStates,-82.2756924326949,-87.407330403324,-91.3969781134151,-89.5978814173488
ah,train,wy,NSE,dry,calHybridAll_vs_calHybridFluxes,15.3783594177857,73.6346960586581,15.5879569126107,28.0206305839969
ah,train,wy,NSE,dry,calHybridAll_vs_calHybridStates,83.2646336121655,201.628057584961,27.668808358435,77.4586513356394
ah,train,wy,NSE,dry,calHybridFluxes_vs_calHybridAll,-13.3286341523548,-42.4078238566919,-13.4857967291488,-21.8875898799858
ah,train,wy,NSE,dry,calHybridFluxes_vs_calHybridStates,58.8379610673464,73.7141622219694,10.45165237669,38.6172295247408
ah,train,wy,NSE,dry,calHybridStates_vs_calHybridAll,-45.4340982059717,-66.8465855594907,-21.6723322745786,-43.6488448168902
ah,train,wy,NSE,dry,calHybridStates_vs_calHybridFluxes,-37.0427577085301,-42.4341696031545,-9.46264917888699,-27.8588957932161
ah,train,wy,NSE,dry,uncalHybrid_vs_uncalHybridAllModelsAll,-68.2371488992761,-45.8026144562187,-33.0751755968734,0
ah,train,wy,NSE,dry,calHybridAll_vs_calHybridAllModelsAll,-39.3914339563392,40.4036999297469,-13.0121892925138,0
ah,train,wy,NSE,dry,calHybridFluxes_vs_calHybridAllModelsFluxes,-32.7504145243965,3.51946131353974,-3.65575551860311,0
ah,train,wy,NSE,dry,calHybridStates_vs_calHybridAllModelsStates,-41.3115658078553,-17.3954457965219,20.9123807864734,0
ah,train,wy,NSE,dry,cal_vs_lstm,-73.0720778318686,-68.671358983292,-79.8683488526521,NA
ah,train,wy,NSE,dry,hybrid_param_fraction,0.00883215706886477,0.156230728999847,0.00627333081084197,NA
ah,train,wy,NSE,dry,uncal_hybrid_vs_cal_hybrid,-0.0361892125193872,-0.0315575526277281,-0.00228518143903578,0.00784076435002135
ah,train,wy,NSE,dry,hybrid_complexity_fraction_prms_sacsma,0.071729599193336,0.071729599193336,0.071729599193336,0.071729599193336
ah,train,wy,NSE,dry,hybrid_sacsma_vs_hybrid_prms,0.0177681165440918,0.0177681165440918,0.0177681165440918,0.0177681165440918
ah,train,wy,NSE,dry,cal_sacsma_vs_cal_prms,0.247709686711069,0.247709686711069,0.247709686711069,0.247709686711069
ah,train,wy,NSE,dry,hybrid_complexity_fraction_prms_ihacres,-0.116205510784456,-0.116205510784456,-0.116205510784456,-0.116205510784456
ah,train,wy,NSE,dry,hybrid_ihacres_vs_hybrid_prms,-0.0203272126737534,-0.0203272126737534,-0.0203272126737534,-0.0203272126737534
ah,train,wy,NSE,dry,cal_ihacres_vs_cal_prms,0.174924687620515,0.174924687620515,0.174924687620515,0.174924687620515
ah,train,wy,NSE,dry,hybrid_complexity_fraction_sacsma_ihacres,0.523395338240642,0.523395338240642,0.523395338240642,0.523395338240642
ah,train,wy,NSE,dry,hybrid_ihacres_vs_hybrid_sacsma,-0.0380953292178452,-0.0380953292178452,-0.0380953292178452,-0.0380953292178452
ah,train,wy,NSE,dry,cal_ihacres_vs_cal_sacsma,-0.0727849990905537,-0.0727849990905537,-0.0727849990905537,-0.0727849990905537
