subbasin,time_period,aggregation,error_metric,wet_dry,model_comp,IHACRES,SACSMA,PRMS,ALLMODELS
ua,train,wy,FLV,dry,calibrated,Inf,Inf,Inf,NA
ua,train,wy,FLV,dry,uncalibrated,Inf,Inf,Inf,NA
ua,train,wy,FLV,dry,calibrated + LSTM all,Inf,14.3455443569154,Inf,Inf
ua,train,wy,FLV,dry,calibrated + LSTM fluxes,Inf,Inf,Inf,Inf
ua,train,wy,FLV,dry,calibrated + LSTM states,Inf,Inf,Inf,Inf
ua,train,wy,FLV,dry,uncalibrated + LSTM all,Inf,Inf,Inf,Inf
ua,train,wy,FLV,dry,LSTM,Inf,Inf,Inf,Inf
ua,train,wy,FLV,dry,uncal_vs_cal,NA,NA,NA,NA
ua,train,wy,FLV,dry,cal_vs_uncalHybrid,NA,NA,NA,NA
ua,train,wy,FLV,dry,lstm_vs_calHybridAll,NA,NA,NA,NA
ua,train,wy,FLV,dry,lstm_vs_calHybridFluxes,NA,NA,NA,NA
ua,train,wy,FLV,dry,lstm_vs_calHybridStates,NA,NA,NA,NA
ua,train,wy,FLV,dry,cal_vs_calHybridAll,NA,NA,NA,NA
ua,train,wy,FLV,dry,cal_vs_calHybridFluxes,NA,NA,NA,NA
ua,train,wy,FLV,dry,cal_vs_calHybridStates,NA,NA,NA,NA
ua,train,wy,FLV,dry,calIHACRES_vs_cal,NA,NA,NA,NA
ua,train,wy,FLV,dry,calSACSMA_vs_cal,NA,NA,NA,NA
ua,train,wy,FLV,dry,calPRMS_vs_cal,NA,NA,NA,NA
ua,train,wy,FLV,dry,cal_vs_calIHACRES,NA,NA,NA,NA
ua,train,wy,FLV,dry,cal_vs_calSACSMA,NA,NA,NA,NA
ua,train,wy,FLV,dry,cal_vs_calPRMS,NA,NA,NA,NA
ua,train,wy,FLV,dry,calSACSMA_vs_calHybridAll,NA,NA,NA,NA
ua,train,wy,FLV,dry,calSACSMA_vs_calHybridFluxes,NA,NA,NA,NA
ua,train,wy,FLV,dry,calSACSMA_vs_calHybridStates,NA,NA,NA,NA
ua,train,wy,FLV,dry,calPRMS_vs_calHybridAll,NA,NA,NA,NA
ua,train,wy,FLV,dry,calPRMS_vs_calHybridFluxes,NA,NA,NA,NA
ua,train,wy,FLV,dry,calPRMS_vs_calHybridStates,NA,NA,NA,NA
ua,train,wy,FLV,dry,calHybridAll_vs_calHybridFluxes,NA,Inf,NA,NA
ua,train,wy,FLV,dry,calHybridAll_vs_calHybridStates,NA,Inf,NA,NA
ua,train,wy,FLV,dry,calHybridFluxes_vs_calHybridAll,NA,NA,NA,NA
ua,train,wy,FLV,dry,calHybridFluxes_vs_calHybridStates,NA,NA,NA,NA
ua,train,wy,FLV,dry,calHybridStates_vs_calHybridAll,NA,NA,NA,NA
ua,train,wy,FLV,dry,calHybridStates_vs_calHybridFluxes,NA,NA,NA,NA
ua,train,wy,FLV,dry,uncalHybrid_vs_uncalHybridAllModelsAll,NA,NA,NA,NA
ua,train,wy,FLV,dry,calHybridAll_vs_calHybridAllModelsAll,NA,Inf,NA,NA
ua,train,wy,FLV,dry,calHybridFluxes_vs_calHybridAllModelsFluxes,NA,NA,NA,NA
ua,train,wy,FLV,dry,calHybridStates_vs_calHybridAllModelsStates,NA,NA,NA,NA
ua,train,wy,FLV,dry,cal_vs_lstm,NA,NA,NA,NA
ua,train,wy,FLV,dry,hybrid_param_fraction,NA,NA,NA,NA
ua,train,wy,FLV,dry,uncal_hybrid_vs_cal_hybrid,NA,-Inf,NA,NA
ua,train,wy,FLV,dry,hybrid_complexity_fraction_prms_sacsma,NA,NA,NA,NA
ua,train,wy,FLV,dry,hybrid_sacsma_vs_hybrid_prms,Inf,Inf,Inf,Inf
ua,train,wy,FLV,dry,cal_sacsma_vs_cal_prms,NA,NA,NA,NA
ua,train,wy,FLV,dry,hybrid_complexity_fraction_prms_ihacres,NA,NA,NA,NA
ua,train,wy,FLV,dry,hybrid_ihacres_vs_hybrid_prms,NA,NA,NA,NA
ua,train,wy,FLV,dry,cal_ihacres_vs_cal_prms,NA,NA,NA,NA
ua,train,wy,FLV,dry,hybrid_complexity_fraction_sacsma_ihacres,NA,NA,NA,NA
ua,train,wy,FLV,dry,hybrid_ihacres_vs_hybrid_sacsma,-Inf,-Inf,-Inf,-Inf
ua,train,wy,FLV,dry,cal_ihacres_vs_cal_sacsma,NA,NA,NA,NA
