subbasin,time_period,aggregation,error_metric,wet_dry,model_comp,IHACRES,SACSMA,PRMS,ALLMODELS
ah,train,wy,KGE,normal,calibrated,0.326996694234538,0.435129241827889,0.493549490736993,NA
ah,train,wy,KGE,normal,uncalibrated,1.28266742920294,0.668559578924427,0.774124904428658,NA
ah,train,wy,KGE,normal,calibrated + LSTM all,0.0573674035521345,0.0504959189074131,0.0563804237880204,0.04760151659907
ah,train,wy,KGE,normal,calibrated + LSTM fluxes,0.10617660546735,0.0764512485330968,0.057905141767029,0.0694191288505326
ah,train,wy,KGE,normal,calibrated + LSTM states,0.0922951274669962,0.0495934883086009,0.068185362181146,0.095880273924124
ah,train,wy,KGE,normal,uncalibrated + LSTM all,0.0831485078603202,0.0587481489203906,0.0753985961038416,0.052313340903427
ah,train,wy,KGE,normal,LSTM,0.12011724242802,0.12011724242802,0.12011724242802,0.12011724242802
ah,train,wy,KGE,normal,uncal_vs_cal,-74.5065098879344,-34.9154128450419,-36.2442045316632,NA
ah,train,wy,KGE,normal,cal_vs_uncalHybrid,-74.572064694733,-86.4986897516697,-84.7231944275228,NA
ah,train,wy,KGE,normal,lstm_vs_calHybridAll,-52.2404923785092,-57.9611403935843,-53.0621727169549,-60.3707880426948
ah,train,wy,KGE,normal,lstm_vs_calHybridFluxes,-11.6058583088301,-36.3528108140592,-51.7928145896883,-42.2071907019243
ah,train,wy,KGE,normal,lstm_vs_calHybridStates,-23.1624656033007,-58.7124318656251,-43.2343260610514,-20.1777596737784
ah,train,wy,KGE,normal,cal_vs_calHybridAll,-82.456274157014,-88.3951906575412,-88.5765409860255,NA
ah,train,wy,KGE,normal,cal_vs_calHybridFluxes,-67.529761817349,-82.4302204531369,-88.2676118902357,NA
ah,train,wy,KGE,normal,cal_vs_calHybridStates,-71.7749050390101,-88.6025843493605,-86.1846960718512,NA
ah,train,wy,KGE,normal,calIHACRES_vs_cal,0,33.0683916687529,50.9340918238748,NA
ah,train,wy,KGE,normal,calSACSMA_vs_cal,-24.8506735927718,0,13.4259533245092,NA
ah,train,wy,KGE,normal,calPRMS_vs_cal,-33.7459159878272,-11.8367559901373,0,NA
ah,train,wy,KGE,normal,cal_vs_calIHACRES,0,-24.8506735927718,-33.7459159878272,NA
ah,train,wy,KGE,normal,cal_vs_calSACSMA,33.0683916687529,0,-11.8367559901373,NA
ah,train,wy,KGE,normal,cal_vs_calPRMS,50.9340918238748,13.4259533245092,0,NA
ah,train,wy,KGE,normal,calSACSMA_vs_calHybridAll,-86.8160082022652,-88.3951906575412,-87.0428327107648,-89.0603728678161
ah,train,wy,KGE,normal,calSACSMA_vs_calHybridFluxes,-75.5988347229151,-82.4302204531369,-86.6924269387685,-84.0463195351071
ah,train,wy,KGE,normal,calSACSMA_vs_calHybridStates,-78.7890312590156,-88.6025843493605,-84.3298598148189,-77.9651044546327
ah,train,wy,KGE,normal,calPRMS_vs_calHybridAll,-88.3765651411228,-89.7688236225287,-88.5765409860255,-90.3552698376836
ah,train,wy,KGE,normal,calPRMS_vs_calHybridFluxes,-78.4871411155138,-84.5099123861042,-88.2676118902357,-85.9347177631827
ah,train,wy,KGE,normal,calPRMS_vs_calHybridStates,-81.2997218720302,-89.9516686291084,-86.1846960718512,-80.5733212730195
ah,train,wy,KGE,normal,calHybridAll_vs_calHybridFluxes,85.0817692504736,51.4008462214028,2.70433933725152,45.8338595285195
ah,train,wy,KGE,normal,calHybridAll_vs_calHybridStates,60.8842683338804,-1.78713570985189,20.9380093301708,101.42272930438
ah,train,wy,KGE,normal,calHybridFluxes_vs_calHybridAll,-45.969827063481,-33.9501710223179,-2.63313055193437,-31.428818846803
ah,train,wy,KGE,normal,calHybridFluxes_vs_calHybridStates,-13.0739515915511,-35.1305711022742,17.7535536575969,38.1179445950198
ah,train,wy,KGE,normal,calHybridStates_vs_calHybridAll,-37.8435188004388,1.81965542168915,-17.3130097362594,-50.3531699995559
ah,train,wy,KGE,normal,calHybridStates_vs_calHybridFluxes,15.0403151079859,54.1558199281539,-15.0768729317678,-27.5981116767895
ah,train,wy,KGE,normal,uncalHybrid_vs_uncalHybridAllModelsAll,-37.0844501607807,-10.9532098205909,-30.6176194164422,0
ah,train,wy,KGE,normal,calHybridAll_vs_calHybridAllModelsAll,-17.0234076293683,-5.73195293990032,-15.5708428548843,0
ah,train,wy,KGE,normal,calHybridFluxes_vs_calHybridAllModelsFluxes,-34.6191860768428,-9.19817506907023,19.8842222506389,0
ah,train,wy,KGE,normal,calHybridStates_vs_calHybridAllModelsStates,3.88443740804175,93.332385347646,40.6170926677807,0
ah,train,wy,KGE,normal,cal_vs_lstm,-63.2665269876198,-72.3950424652153,-75.6625739297888,NA
ah,train,wy,KGE,normal,hybrid_param_fraction,0.0269769737262468,0.0353520031527208,0.0677827471252378,NA
ah,train,wy,KGE,normal,uncal_hybrid_vs_cal_hybrid,-0.0257811043081857,-0.00825223001297748,-0.0190181723158211,-0.00471182430435702
ah,train,wy,KGE,normal,hybrid_complexity_fraction_prms_sacsma,0.10072714496241,0.10072714496241,0.10072714496241,0.10072714496241
ah,train,wy,KGE,normal,hybrid_sacsma_vs_hybrid_prms,0.00588450488060732,0.00588450488060732,0.00588450488060732,0.00588450488060732
ah,train,wy,KGE,normal,cal_sacsma_vs_cal_prms,0.0584202489091034,0.0584202489091034,0.0584202489091034,0.0584202489091034
ah,train,wy,KGE,normal,hybrid_complexity_fraction_prms_ihacres,-0.00592592730257494,-0.00592592730257494,-0.00592592730257494,-0.00592592730257494
ah,train,wy,KGE,normal,hybrid_ihacres_vs_hybrid_prms,-0.000986979764114104,-0.000986979764114104,-0.000986979764114104,-0.000986979764114104
ah,train,wy,KGE,normal,cal_ihacres_vs_cal_prms,0.166552796502455,0.166552796502455,0.166552796502455,0.166552796502455
ah,train,wy,KGE,normal,hybrid_complexity_fraction_sacsma_ihacres,-0.0635468672259778,-0.0635468672259778,-0.0635468672259778,-0.0635468672259778
ah,train,wy,KGE,normal,hybrid_ihacres_vs_hybrid_sacsma,-0.00687148464472143,-0.00687148464472143,-0.00687148464472143,-0.00687148464472143
ah,train,wy,KGE,normal,cal_ihacres_vs_cal_sacsma,0.108132547593351,0.108132547593351,0.108132547593351,0.108132547593351
