subbasin,time_period,aggregation,error_metric,wet_dry,model_comp,IHACRES,SACSMA,PRMS,ALLMODELS
ua,train,wy,NSE,wet,calibrated,0.846087968986752,0.687007788516379,1.09483239718758,NA
ua,train,wy,NSE,wet,uncalibrated,1.61499877339086,0.77666883079532,1.901440298224,NA
ua,train,wy,NSE,wet,calibrated + LSTM all,0.00761612726164518,0.007850836640933,0.00759495808788946,0.00702915424386297
ua,train,wy,NSE,wet,calibrated + LSTM fluxes,0.010409526179517,0.00920083287340268,0.0107458396555906,0.0068785096740176
ua,train,wy,NSE,wet,calibrated + LSTM states,0.0137797991416444,0.0108673106032655,0.00997404156784354,0.00864351973495436
ua,train,wy,NSE,wet,uncalibrated + LSTM all,0.0106439624838525,0.00777837669114667,0.00561884190436079,0.00736471962714103
ua,train,wy,NSE,wet,LSTM,0.022849806488932,0.022849806488932,0.022849806488932,0.022849806488932
ua,train,wy,NSE,wet,uncal_vs_cal,-47.610612284844,-11.5443080401626,-42.4208901951755,NA
ua,train,wy,NSE,wet,cal_vs_uncalHybrid,-98.7419792180003,-98.8677891544804,-99.486785199379,NA
ua,train,wy,NSE,wet,lstm_vs_calHybridAll,-66.6687450270781,-65.6415618016905,-66.7613898981231,-69.2375764877144
ua,train,wy,NSE,wet,lstm_vs_calHybridFluxes,-54.4437009365522,-59.7334319751925,-52.9718570667296,-69.896858087838
ua,train,wy,NSE,wet,lstm_vs_calHybridStates,-39.6940225803703,-52.4402510431349,-56.3495578280946,-62.1724598011754
ua,train,wy,NSE,wet,cal_vs_calHybridAll,-99.0998421510749,-98.8572419742304,-99.3062903411153,NA
ua,train,wy,NSE,wet,cal_vs_calHybridFluxes,-98.7696874839169,-98.6607382001779,-99.0184945491936,NA
ua,train,wy,NSE,wet,cal_vs_calHybridStates,-98.3713514851007,-98.4181677726341,-99.0889891828681,NA
ua,train,wy,NSE,wet,calIHACRES_vs_cal,0,-18.801848779493,29.3993576694768,NA
ua,train,wy,NSE,wet,calSACSMA_vs_cal,23.155513391473,0,59.3624432631126,NA
ua,train,wy,NSE,wet,calPRMS_vs_cal,-22.7198636832273,-37.2499580500929,0,NA
ua,train,wy,NSE,wet,cal_vs_calIHACRES,0,23.155513391473,-22.7198636832273,NA
ua,train,wy,NSE,wet,cal_vs_calSACSMA,-18.801848779493,0,-37.2499580500929,NA
ua,train,wy,NSE,wet,cal_vs_calPRMS,29.3993576694768,59.3624432631126,0,NA
ua,train,wy,NSE,wet,calSACSMA_vs_calHybridAll,-98.8914059798227,-98.8572419742304,-98.8944873384491,-98.9768450429008
ua,train,wy,NSE,wet,calSACSMA_vs_calHybridFluxes,-98.4848023044984,-98.6607382001779,-98.4358489328343,-98.998772679292
ua,train,wy,NSE,wet,calSACSMA_vs_calHybridStates,-97.9942295601332,-98.4181677726341,-98.5481909034273,-98.7418600080764
ua,train,wy,NSE,wet,calPRMS_vs_calHybridAll,-99.3043567872845,-99.2829188594437,-99.3062903411153,-99.3579698352077
ua,train,wy,NSE,wet,calPRMS_vs_calHybridFluxes,-99.0492128104487,-99.1596126587925,-99.0184945491936,-99.3717294362418
ua,train,wy,NSE,wet,calPRMS_vs_calHybridStates,-98.7413782075647,-99.0073996137508,-99.0889891828681,-99.2105166272794
ua,train,wy,NSE,wet,calHybridAll_vs_calHybridFluxes,36.6774191384556,17.1955715576988,41.4864905275172,-2.14313933965663
ua,train,wy,NSE,wet,calHybridAll_vs_calHybridStates,80.9292133423174,38.4223249099988,31.3245109771922,22.9667102909411
ua,train,wy,NSE,wet,calHybridFluxes_vs_calHybridAll,-26.8350246658528,-14.6725437908146,-29.3218740339373,2.19007571384838
ua,train,wy,NSE,wet,calHybridFluxes_vs_calHybridStates,32.3768143141731,18.1122486713155,-7.1822967072242,25.6597743491413
ua,train,wy,NSE,wet,calHybridStates_vs_calHybridAll,-44.7297657726503,-27.757318001255,-23.852752806087,-18.6771771291608
ua,train,wy,NSE,wet,calHybridStates_vs_calHybridFluxes,-24.4580703062792,-15.33477592296,7.73806768798083,-20.420038538225
ua,train,wy,NSE,wet,uncalHybrid_vs_uncalHybridAllModelsAll,-30.8084781554449,-5.3180384600873,31.0718427835681,0
ua,train,wy,NSE,wet,calHybridAll_vs_calHybridAllModelsAll,-7.70697491805589,-10.4661762134486,-7.44972964273093,0
ua,train,wy,NSE,wet,calHybridFluxes_vs_calHybridAllModelsFluxes,-33.9210108568382,-25.2403584690505,-35.9890907134559,0
ua,train,wy,NSE,wet,calHybridStates_vs_calHybridAllModelsStates,-37.2739787706158,-20.4631205410005,-13.3398464788717,0
ua,train,wy,NSE,wet,cal_vs_lstm,-97.2993580660063,-96.6740105613246,-97.9129402319817,NA
ua,train,wy,NSE,wet,hybrid_param_fraction,0.00393782374348843,-0.000808154221104218,-0.00244990928180784,NA
ua,train,wy,NSE,wet,uncal_hybrid_vs_cal_hybrid,-0.00302783522220729,7.24599497863299e-05,0.00197611618352866,-0.000335565383278058
ua,train,wy,NSE,wet,hybrid_complexity_fraction_prms_sacsma,-0.000627423033340882,-0.000627423033340882,-0.000627423033340882,-0.000627423033340882
ua,train,wy,NSE,wet,hybrid_sacsma_vs_hybrid_prms,-0.000255878553043543,-0.000255878553043543,-0.000255878553043543,-0.000255878553043543
ua,train,wy,NSE,wet,cal_sacsma_vs_cal_prms,0.4078246086712,0.4078246086712,0.4078246086712,0.4078246086712
ua,train,wy,NSE,wet,hybrid_complexity_fraction_prms_ihacres,-8.51041123165516e-05,-8.51041123165516e-05,-8.51041123165516e-05,-8.51041123165516e-05
ua,train,wy,NSE,wet,hybrid_ihacres_vs_hybrid_prms,-2.11691737557196e-05,-2.11691737557196e-05,-2.11691737557196e-05,-2.11691737557196e-05
ua,train,wy,NSE,wet,cal_ihacres_vs_cal_prms,0.248744428200827,0.248744428200827,0.248744428200827,0.248744428200827
ua,train,wy,NSE,wet,hybrid_complexity_fraction_sacsma_ihacres,-0.00147541559604614,-0.00147541559604614,-0.00147541559604614,-0.00147541559604614
ua,train,wy,NSE,wet,hybrid_ihacres_vs_hybrid_sacsma,0.000234709379287823,0.000234709379287823,0.000234709379287823,0.000234709379287823
ua,train,wy,NSE,wet,cal_ihacres_vs_cal_sacsma,-0.159080180470373,-0.159080180470373,-0.159080180470373,-0.159080180470373
