subbasin,time_period,aggregation,error_metric,wet_dry,model_comp,IHACRES,SACSMA,PRMS,ALLMODELS
ah,train,wy,FLV,dry,calibrated,75.3193553253224,11.1263260770982,18.1788698531155,NA
ah,train,wy,FLV,dry,uncalibrated,140.510606084344,111.26477229526,35.8578805211056,NA
ah,train,wy,FLV,dry,calibrated + LSTM all,100.316802570256,127.773574421681,183.279363630697,87.3050181894094
ah,train,wy,FLV,dry,calibrated + LSTM fluxes,191.289202774704,190.666582958743,244.354256781762,220.366208024181
ah,train,wy,FLV,dry,calibrated + LSTM states,157.552690871001,259.727284561645,182.695150041697,253.982919168394
ah,train,wy,FLV,dry,uncalibrated + LSTM all,153.137025002209,49.3200102962385,255.591181574007,180.526381388225
ah,train,wy,FLV,dry,LSTM,239.698378655235,239.698378655235,239.698378655235,239.698378655235
ah,train,wy,FLV,dry,uncal_vs_cal,-46.395964387122,-90.0001358493121,-49.3029995389283,NA
ah,train,wy,FLV,dry,cal_vs_uncalHybrid,103.316961942616,343.273098006323,1305.97948958969,NA
ah,train,wy,FLV,dry,lstm_vs_calHybridAll,-58.1487354511711,-46.6940180661541,-23.5375038166972,-63.5771344473786
ah,train,wy,FLV,dry,lstm_vs_calHybridFluxes,-20.1958712245438,-20.4556225918471,1.94239032931651,-8.06520709047403
ah,train,wy,FLV,dry,lstm_vs_calHybridStates,-34.2704394769336,8.3558787584537,-23.7812324527766,5.95938136640674
ah,train,wy,FLV,dry,cal_vs_calHybridAll,33.1886102011407,1048.3896259762,908.199987741742,NA
ah,train,wy,FLV,dry,cal_vs_calHybridFluxes,153.970844477465,1613.65266160229,1244.16637973722,NA
ah,train,wy,FLV,dry,cal_vs_calHybridStates,109.1795531049,2234.34902736001,904.986291875491,NA
ah,train,wy,FLV,dry,calIHACRES_vs_cal,0,-85.2277996418837,-75.8642784784913,NA
ah,train,wy,FLV,dry,calSACSMA_vs_cal,576.947222321262,0,63.3860964270482,NA
ah,train,wy,FLV,dry,calPRMS_vs_cal,314.32364021471,-38.795281736442,0,NA
ah,train,wy,FLV,dry,cal_vs_calIHACRES,0,576.947222321262,314.32364021471,NA
ah,train,wy,FLV,dry,cal_vs_calSACSMA,-85.2277996418837,0,-38.795281736442,NA
ah,train,wy,FLV,dry,cal_vs_calPRMS,-75.8642784784913,63.3860964270482,0,NA
ah,train,wy,FLV,dry,calSACSMA_vs_calHybridAll,801.616597204914,1048.3896259762,1547.25860414921,684.670677314708
ah,train,wy,FLV,dry,calSACSMA_vs_calHybridFluxes,1619.24857719605,1613.65266160229,2096.18097733741,1880.58376590068
ah,train,wy,FLV,dry,calSACSMA_vs_calHybridStates,1316.03517440765,2234.34902736001,1542.00787192231,2182.72043627391
ah,train,wy,FLV,dry,calPRMS_vs_calHybridAll,451.831898136746,602.868635146663,908.199987741742,380.255477347219
ah,train,wy,FLV,dry,calPRMS_vs_calHybridFluxes,952.261247923073,948.836283549646,1244.16637973722,1112.21071389328
ah,train,wy,FLV,dry,calPRMS_vs_calHybridStates,766.680339009084,1328.7317454838,904.986291875491,1297.13261176611
ah,train,wy,FLV,dry,calHybridAll_vs_calHybridFluxes,90.6851074531974,49.2222345831084,33.3233878278457,152.409555137018
ah,train,wy,FLV,dry,calHybridAll_vs_calHybridStates,57.0551361629184,103.271518181442,-0.318755793029658,190.914456506239
ah,train,wy,FLV,dry,calHybridFluxes_vs_calHybridAll,-47.557519653419,-32.9858581200206,-24.9944052358425,-60.3818484820371
ah,train,wy,FLV,dry,calHybridFluxes_vs_calHybridStates,-17.6363910844654,36.2206635956997,-25.2334899142496,15.2549301663001
ah,train,wy,FLV,dry,calHybridStates_vs_calHybridAll,-36.3280931505056,-50.8047163249211,0.31977509466858,-65.625634009063
ah,train,wy,FLV,dry,calHybridStates_vs_calHybridFluxes,21.4128439934581,-26.5896983905481,33.7497228174876,-13.2358157211053
ah,train,wy,FLV,dry,uncalHybrid_vs_uncalHybridAllModelsAll,17.8855220581836,266.030704989519,-29.3690884495741,0
ah,train,wy,FLV,dry,calHybridAll_vs_calHybridAllModelsAll,-12.9706928923833,-31.6720858874279,-52.3650582040832,0
ah,train,wy,FLV,dry,calHybridFluxes_vs_calHybridAllModelsFluxes,15.200547039617,15.5767332715375,-9.8169146195825,0
ah,train,wy,FLV,dry,calHybridStates_vs_calHybridAllModelsStates,61.2050659143272,-2.21169116019004,39.020066548251,0
ah,train,wy,FLV,dry,cal_vs_lstm,218.242738031837,2054.33537534565,1218.55489693247,NA
ah,train,wy,FLV,dry,hybrid_param_fraction,0.810234836990667,-0.783450982997314,4.09026383327198,NA
ah,train,wy,FLV,dry,uncal_hybrid_vs_cal_hybrid,-52.8202224319534,78.4535641254423,-72.3118179433097,-93.221363198816
ah,train,wy,FLV,dry,hybrid_complexity_fraction_prms_sacsma,7.8703218259727,7.8703218259727,7.8703218259727,7.8703218259727
ah,train,wy,FLV,dry,hybrid_sacsma_vs_hybrid_prms,55.5057892090166,55.5057892090166,55.5057892090166,55.5057892090166
ah,train,wy,FLV,dry,cal_sacsma_vs_cal_prms,7.05254377601727,7.05254377601727,7.05254377601727,7.05254377601727
ah,train,wy,FLV,dry,hybrid_complexity_fraction_prms_ihacres,-1.45190507876932,-1.45190507876932,-1.45190507876932,-1.45190507876932
ah,train,wy,FLV,dry,hybrid_ihacres_vs_hybrid_prms,82.9625610604417,82.9625610604417,82.9625610604417,82.9625610604417
ah,train,wy,FLV,dry,cal_ihacres_vs_cal_prms,-57.140485472207,-57.140485472207,-57.140485472207,-57.140485472207
ah,train,wy,FLV,dry,hybrid_complexity_fraction_sacsma_ihacres,-0.427722015505049,-0.427722015505049,-0.427722015505049,-0.427722015505049
ah,train,wy,FLV,dry,hybrid_ihacres_vs_hybrid_sacsma,27.456771851425,27.456771851425,27.456771851425,27.456771851425
ah,train,wy,FLV,dry,cal_ihacres_vs_cal_sacsma,-64.1930292482242,-64.1930292482242,-64.1930292482242,-64.1930292482242
