subbasin,time_period,aggregation,error_metric,model_comp,IHACRES,SACSMA,PRMS,ALLMODELS
ua,train,entire,NSEL,calibrated,5.61823968107797,10.476565617997,547.73678540679,NA
ua,train,entire,NSEL,uncalibrated,795.428019149815,42.0812334797571,290.802950074682,NA
ua,train,entire,NSEL,calibrated + LSTM all,5.07289007938572,3.39266234342595,8.7031215827179,3.59474968244158
ua,train,entire,NSEL,calibrated + LSTM fluxes,8.63953994211479,6.05346466869372,7.96688831617202,3.82997612123136
ua,train,entire,NSEL,calibrated + LSTM states,11.1517009863142,4.65114635966079,8.44420171996082,5.23868665760713
ua,train,entire,NSEL,uncalibrated + LSTM all,7.10632105196084,1.94197755968573,3.31477644370026,3.45481227140399
ua,train,entire,NSEL,LSTM,10.5591086329433,10.5591086329433,10.5591086329433,10.5591086329433
ua,train,entire,NSEL,uncal_vs_cal,-99.2936834577335,-75.1039483596965,88.3532423815247,NA
ua,train,entire,NSEL,cal_vs_uncalHybrid,26.4866124507766,-81.4636052453131,-99.3948231099289,NA
ua,train,entire,NSEL,lstm_vs_calHybridAll,-51.9572129075475,-67.8698035851132,-17.5771186256662,-65.9559361741356
ua,train,entire,NSEL,lstm_vs_calHybridFluxes,-18.1792683223247,-42.6706848170162,-24.5496131054455,-63.728225038975
ua,train,entire,NSEL,lstm_vs_calHybridStates,5.61214373268284,-55.9513352751225,-20.0292182465497,-50.3870370150092
ua,train,entire,NSEL,cal_vs_calHybridAll,-9.70676996086457,-67.6166554276345,-98.4110759374588,NA
ua,train,entire,NSEL,cal_vs_calHybridFluxes,53.7766352548549,-42.2189972418551,-98.545489635089,NA
ua,train,entire,NSEL,cal_vs_calHybridStates,98.4910153241189,-55.6042836053937,-98.458346792668,NA
ua,train,entire,NSEL,calIHACRES_vs_cal,0,86.4741665130756,9649.25984826792,NA
ua,train,entire,NSEL,calSACSMA_vs_cal,-46.3732688179153,0,5128.20937107355,NA
ua,train,entire,NSEL,calPRMS_vs_cal,-98.9742811089627,-98.087299247171,0,NA
ua,train,entire,NSEL,cal_vs_calIHACRES,0,-46.3732688179153,-98.9742811089627,NA
ua,train,entire,NSEL,cal_vs_calSACSMA,86.4741665130756,0,-98.087299247171,NA
ua,train,entire,NSEL,cal_vs_calPRMS,9649.25984826792,5128.20937107355,0,NA
ua,train,entire,NSEL,calSACSMA_vs_calHybridAll,-51.5786922512915,-67.6166554276345,-16.9277232629807,-65.6877089924737
ua,train,entire,NSEL,calSACSMA_vs_calHybridFluxes,-17.5346171910241,-42.2189972418551,-23.9551527984876,-63.4424461137141
ua,train,entire,NSEL,calSACSMA_vs_calHybridStates,6.44424320845572,-55.6042836053937,-19.3991425448139,-49.996145219499
ua,train,entire,NSEL,calPRMS_vs_calHybridAll,-99.0738452821608,-99.3806035245731,-98.4110759374588,-99.3437085515862
ua,train,entire,NSEL,calPRMS_vs_calHybridFluxes,-98.4226840021894,-98.8948223252528,-98.545489635089,-99.3007633916012
ua,train,entire,NSEL,calPRMS_vs_calHybridStates,-97.9640401588088,-99.1508427982966,-98.458346792668,-99.0435758931698
ua,train,entire,NSEL,calHybridAll_vs_calHybridFluxes,70.3080454516956,78.4281504000442,-8.45941607902899,6.54361108754623
ua,train,entire,NSEL,calHybridAll_vs_calHybridStates,119.829344058339,37.0942902311937,-2.97502293052216,45.7316119449234
ua,train,entire,NSEL,calHybridFluxes_vs_calHybridAll,-41.2828679145619,-43.9550318849378,9.24116464707302,-6.14172076650319
ua,train,entire,NSEL,calHybridFluxes_vs_calHybridStates,29.0774863132872,-23.1655487523567,5.99121494925314,36.7811832707422
ua,train,entire,NSEL,calHybridStates_vs_calHybridAll,-54.5101676810437,-27.0575019343537,3.06624440466685,-31.3807082311056
ua,train,entire,NSEL,calHybridStates_vs_calHybridFluxes,-22.5271556983319,30.1499501541208,-5.65255804655285,-26.8905286467205
ua,train,entire,NSEL,uncalHybrid_vs_uncalHybridAllModelsAll,-51.3839545646378,77.9017607166937,4.22459342529324,0
ua,train,entire,NSEL,calHybridAll_vs_calHybridAllModelsAll,-29.1380332278583,5.95660040873858,-58.6958581668007,0
ua,train,entire,NSEL,calHybridFluxes_vs_calHybridAllModelsFluxes,-55.6692121699497,-36.7308420739848,-51.9263234372587,0
ua,train,entire,NSEL,calHybridStates_vs_calHybridAllModelsStates,-53.0234296630061,12.6321610311396,-37.9611379341677,0
ua,train,entire,NSEL,cal_vs_lstm,87.943363621634,0.787882383941591,-98.0722294148819,NA
ua,train,entire,NSEL,hybrid_param_fraction,0.0025745831786774,-0.0459009659612804,0.0209717226695844,NA
ua,train,entire,NSEL,uncal_hybrid_vs_cal_hybrid,-28.6143977693498,74.7014184847218,162.555310457156,4.0505069463795
ua,train,entire,NSEL,hybrid_complexity_fraction_prms_sacsma,0.00988433359421174,0.00988433359421174,0.00988433359421174,0.00988433359421174
ua,train,entire,NSEL,hybrid_sacsma_vs_hybrid_prms,156.52778560714,156.52778560714,156.52778560714,156.52778560714
ua,train,entire,NSEL,cal_sacsma_vs_cal_prms,5128.20937107355,5128.20937107355,5128.20937107355,5128.20937107355
ua,train,entire,NSEL,hybrid_complexity_fraction_prms_ihacres,0.00669637947632383,0.00669637947632383,0.00669637947632383,0.00669637947632383
ua,train,entire,NSEL,hybrid_ihacres_vs_hybrid_prms,71.561406742954,71.561406742954,71.561406742954,71.561406742954
ua,train,entire,NSEL,cal_ihacres_vs_cal_prms,9649.25984826792,9649.25984826792,9649.25984826792,9649.25984826792
ua,train,entire,NSEL,hybrid_complexity_fraction_sacsma_ihacres,-0.345845000474649,-0.345845000474649,-0.345845000474649,-0.345845000474649
ua,train,entire,NSEL,hybrid_ihacres_vs_hybrid_sacsma,-33.1217059637774,-33.1217059637774,-33.1217059637774,-33.1217059637774
ua,train,entire,NSEL,cal_ihacres_vs_cal_sacsma,86.4741665130756,86.4741665130756,86.4741665130756,86.4741665130756
