subbasin,time_period,aggregation,error_metric,wet_dry,model_comp,IHACRES,SACSMA,PRMS,ALLMODELS
ua,train,wy,RR,wet,calibrated,0.540533675087692,0.380227958818235,0.346135877288052,NA
ua,train,wy,RR,wet,uncalibrated,1.35872691252361,0.546388574235128,0.494739958768114,NA
ua,train,wy,RR,wet,calibrated + LSTM all,0.012253732797563,0.0129481605710173,0.0245538362867658,0.0150164727248195
ua,train,wy,RR,wet,calibrated + LSTM fluxes,0.0210675053355067,0.021310195809077,0.0341489477127102,0.007649532371975
ua,train,wy,RR,wet,calibrated + LSTM states,0.0270756309158578,0.0199712722201031,0.0224779235093204,0.0181196449265758
ua,train,wy,RR,wet,uncalibrated + LSTM all,0.0267939593400581,0.0151094076841674,0.0159436193520272,0.0168524639108198
ua,train,wy,RR,wet,LSTM,0.0598980782319688,0.0598980782319688,0.0598980782319688,0.0598980782319688
ua,train,wy,RR,wet,uncal_vs_cal,-60.2176368109365,-30.4107046252743,-30.0368059717839,NA
ua,train,wy,RR,wet,cal_vs_uncalHybrid,-95.0430545634902,-96.0262239181127,-95.3938264137933,NA
ua,train,wy,RR,wet,lstm_vs_calHybridAll,-79.5423606912601,-78.3830116871653,-59.0073053902071,-74.9299590770428
ua,train,wy,RR,wet,lstm_vs_calHybridFluxes,-64.8277441324278,-64.4225717450426,-42.9882414917208,-87.2290854769155
ua,train,wy,RR,wet,lstm_vs_calHybridStates,-54.7971625884201,-66.6579082174225,-62.4730472616006,-69.7492048803246
ua,train,wy,RR,wet,cal_vs_calHybridAll,-97.733030639474,-96.5946321750613,-92.9063012828536,NA
ua,train,wy,RR,wet,cal_vs_calHybridFluxes,-96.1024620099592,-94.395415877541,-90.1342363061973,NA
ua,train,wy,RR,wet,cal_vs_calHybridStates,-94.9909446601148,-94.7475529463497,-93.5060405510595,NA
ua,train,wy,RR,wet,calIHACRES_vs_cal,0,-29.6569341851735,-35.9640493754811,NA
ua,train,wy,RR,wet,calSACSMA_vs_cal,42.1604231229322,0,-8.96622164139204,NA
ua,train,wy,RR,wet,calPRMS_vs_cal,56.1622791958847,9.84933483269424,0,NA
ua,train,wy,RR,wet,cal_vs_calIHACRES,0,42.1604231229322,56.1622791958847,NA
ua,train,wy,RR,wet,cal_vs_calSACSMA,-29.6569341851735,0,9.84933483269424,NA
ua,train,wy,RR,wet,cal_vs_calPRMS,-35.9640493754811,-8.96622164139204,0,NA
ua,train,wy,RR,wet,calSACSMA_vs_calHybridAll,-96.777266765009,-96.5946321750613,-93.5423380324056,-96.0506658238675
ua,train,wy,RR,wet,calSACSMA_vs_calHybridFluxes,-94.4592435019809,-94.395415877541,-91.0188225455996,-97.9881720440154
ua,train,wy,RR,wet,calSACSMA_vs_calHybridStates,-92.8791057343574,-94.7475529463497,-94.0883033485537,-95.2345311526032
ua,train,wy,RR,wet,calPRMS_vs_calHybridAll,-96.4598489779302,-96.2592260956983,-92.9063012828536,-95.6616826771982
ua,train,wy,RR,wet,calPRMS_vs_calHybridFluxes,-93.9135158422268,-93.8434016213399,-90.1342363061973,-97.7900203723727
ua,train,wy,RR,wet,calPRMS_vs_calHybridStates,-92.1777450150521,-94.2302218491257,-93.5060405510595,-94.7651641694753
ua,train,wy,RR,wet,calHybridAll_vs_calHybridFluxes,71.9272460363792,64.5808738020826,39.0778504584069,-49.0590599260256
ua,train,wy,RR,wet,calHybridAll_vs_calHybridStates,120.958228510112,54.2402267145659,-8.45453538583816,20.6651206220173
ua,train,wy,RR,wet,calHybridFluxes_vs_calHybridAll,-41.8358623746929,-39.2395983264401,-28.0978245850109,96.3057608571496
ua,train,wy,RR,wet,calHybridFluxes_vs_calHybridStates,28.5184481250619,-6.28301870602037,-34.1768194486585,136.872583126248
ua,train,wy,RR,wet,calHybridStates_vs_calHybridAll,-54.7425770588925,-35.1660704019464,9.23534051792913,-17.126009998159
ua,train,wy,RR,wet,calHybridStates_vs_calHybridFluxes,-22.1901591103174,6.70424785270372,51.922163533257,-57.7832104162507
ua,train,wy,RR,wet,uncalHybrid_vs_uncalHybridAllModelsAll,-37.1034952433304,11.5362313539189,5.70036538583683,0
ua,train,wy,RR,wet,calHybridAll_vs_calHybridAllModelsAll,22.5461087890371,15.9737913540541,-38.8426616947301,0
ua,train,wy,RR,wet,calHybridFluxes_vs_calHybridAllModelsFluxes,-63.6903741085915,-64.1038851050035,-77.599507790608,0
ua,train,wy,RR,wet,calHybridStates_vs_calHybridAllModelsStates,-33.0776631470354,-9.27145388195891,-19.3891512307065,0
ua,train,wy,RR,wet,cal_vs_lstm,-88.9187147827096,-84.2467980476411,-82.6952124404827,NA
ua,train,wy,RR,wet,hybrid_param_fraction,0.0177711399669615,0.0130069758572307,-0.057940649065509,NA
ua,train,wy,RR,wet,uncal_hybrid_vs_cal_hybrid,-0.0145402265424951,-0.00216124711315012,0.00861021693473858,-0.00183599118600027
ua,train,wy,RR,wet,hybrid_complexity_fraction_prms_sacsma,-0.340421446706717,-0.340421446706717,-0.340421446706717,-0.340421446706717
ua,train,wy,RR,wet,hybrid_sacsma_vs_hybrid_prms,0.0116056757157485,0.0116056757157485,0.0116056757157485,0.0116056757157485
ua,train,wy,RR,wet,cal_sacsma_vs_cal_prms,-0.0340920815301838,-0.0340920815301838,-0.0340920815301838,-0.0340920815301838
ua,train,wy,RR,wet,hybrid_complexity_fraction_prms_ihacres,-0.0632728540571232,-0.0632728540571232,-0.0632728540571232,-0.0632728540571232
ua,train,wy,RR,wet,hybrid_ihacres_vs_hybrid_prms,0.0123001034892028,0.0123001034892028,0.0123001034892028,0.0123001034892028
ua,train,wy,RR,wet,cal_ihacres_vs_cal_prms,-0.19439779779964,-0.19439779779964,-0.19439779779964,-0.19439779779964
ua,train,wy,RR,wet,hybrid_complexity_fraction_sacsma_ihacres,-0.00433189651382744,-0.00433189651382744,-0.00433189651382744,-0.00433189651382744
ua,train,wy,RR,wet,hybrid_ihacres_vs_hybrid_sacsma,0.000694427773454269,0.000694427773454269,0.000694427773454269,0.000694427773454269
ua,train,wy,RR,wet,cal_ihacres_vs_cal_sacsma,-0.160305716269456,-0.160305716269456,-0.160305716269456,-0.160305716269456
