subbasin,time_period,aggregation,error_metric,wet_dry,model_comp,IHACRES,SACSMA,PRMS,ALLMODELS
ua,train,monthly,MFB,wet,calibrated,3.1904469438696,1.28186227019525,30.5744560991223,NA
ua,train,monthly,MFB,wet,uncalibrated,37.6502481094553,19.2439265119461,19.7994805578354,NA
ua,train,monthly,MFB,wet,calibrated + LSTM all,9.90077020241731,7.59573468948902,7.87771510589492,11.1000917084958
ua,train,monthly,MFB,wet,calibrated + LSTM fluxes,19.3601172141817,14.6426885601834,17.5314245050593,2.34315298124043
ua,train,monthly,MFB,wet,calibrated + LSTM states,6.20885708382785,10.0943954887423,29.6343215972979,23.498352018572
ua,train,monthly,MFB,wet,uncalibrated + LSTM all,6.57571433512418,4.90086112109294,16.945369670211,3.16489787420463
ua,train,monthly,MFB,wet,LSTM,15.2089932248275,15.2089932248275,15.2089932248275,15.2089932248275
ua,train,monthly,MFB,wet,uncal_vs_cal,-91.5260931758153,-93.3388735952639,54.4204960822712,NA
ua,train,monthly,MFB,wet,cal_vs_uncalHybrid,106.106368506122,282.323533116115,-44.5767093443162,NA
ua,train,monthly,MFB,wet,lstm_vs_calHybridAll,-34.9018698604251,-50.0576101441771,-48.2035727845865,-27.016262388915
ua,train,monthly,MFB,wet,lstm_vs_calHybridFluxes,27.2938775630319,-3.72348554748285,15.2701184483443,-84.5936351827981
ua,train,monthly,MFB,wet,lstm_vs_calHybridStates,-59.1764096936253,-33.6287725326614,94.8473587911281,54.5030079980106
ua,train,monthly,MFB,wet,cal_vs_calHybridAll,210.325492841732,492.554665668725,-74.2343246259053,NA
ua,train,monthly,MFB,wet,cal_vs_calHybridFluxes,506.81520660865,1042.29811584617,-42.659897372426,NA
ua,train,monthly,MFB,wet,cal_vs_calHybridStates,94.6077522385407,687.478945550426,-3.07490180291823,NA
ua,train,monthly,MFB,wet,calIHACRES_vs_cal,0,-59.8218590452245,858.312632588066,NA
ua,train,monthly,MFB,wet,calSACSMA_vs_cal,148.891555516618,0,2285.15921796069,NA
ua,train,monthly,MFB,wet,calPRMS_vs_cal,-89.5649919870163,-95.8074077719013,0,NA
ua,train,monthly,MFB,wet,cal_vs_calIHACRES,0,148.891555516618,-89.5649919870163,NA
ua,train,monthly,MFB,wet,cal_vs_calSACSMA,-59.8218590452245,0,-95.8074077719013,NA
ua,train,monthly,MFB,wet,cal_vs_calPRMS,858.312632588066,2285.15921796069,0,NA
ua,train,monthly,MFB,wet,calSACSMA_vs_calHybridAll,672.373946298397,492.554665668725,514.552381255045,765.934817381354
ua,train,monthly,MFB,wet,calSACSMA_vs_calHybridFluxes,1410.31180683965,1042.29811584617,1267.6527434097,82.7928815537662
ua,train,monthly,MFB,wet,calSACSMA_vs_calHybridStates,384.36226170243,687.478945550426,2211.81791416514,1733.14171615276
ua,train,monthly,MFB,wet,calPRMS_vs_calHybridAll,-67.617509955634,-75.1565991399367,-74.2343246259053,-63.6948841460685
ua,train,monthly,MFB,wet,calPRMS_vs_calHybridFluxes,-36.6787845663836,-52.1080979733153,-42.659897372426,-92.3362398544591
ua,train,monthly,MFB,wet,calPRMS_vs_calHybridStates,-79.6926654600207,-66.9842189309391,-3.07490180291823,-23.1438428785438
ua,train,monthly,MFB,wet,calHybridAll_vs_calHybridFluxes,95.5415267536947,92.7751449829588,122.54453568574,-78.8906880882161
ua,train,monthly,MFB,wet,calHybridAll_vs_calHybridStates,-37.2891506732281,32.8955776024007,276.179148381774,111.695116001491
ua,train,monthly,MFB,wet,calHybridFluxes_vs_calHybridAll,-48.8599676702123,-48.1260927030609,-55.0651739473792,373.724583813539
ua,train,monthly,MFB,wet,calHybridFluxes_vs_calHybridStates,-67.9296513800044,-31.0618712727989,69.0354459715807,902.851807231654
ua,train,monthly,MFB,wet,calHybridStates_vs_calHybridAll,59.4620405775767,-24.7529512989651,-73.4169210520641,-52.7622545626912
ua,train,monthly,MFB,wet,calHybridStates_vs_calHybridFluxes,211.81450873799,45.0576072288176,-40.8408103843423,-90.028436975544
ua,train,monthly,MFB,wet,uncalHybrid_vs_uncalHybridAllModelsAll,-51.8699001673577,-35.4215964091871,-81.3229340179675,0
ua,train,monthly,MFB,wet,calHybridAll_vs_calHybridAllModelsAll,12.1134162449871,46.1358533738162,40.9049649458575,0
ua,train,monthly,MFB,wet,calHybridFluxes_vs_calHybridAllModelsFluxes,-87.8970103573339,-83.9977954075185,-86.6345545362601,0
ua,train,monthly,MFB,wet,calHybridStates_vs_calHybridAllModelsStates,278.465017012197,132.786124189193,-20.7056185125741,0
ua,train,monthly,MFB,wet,cal_vs_lstm,376.704157517846,1086.47639285856,-50.2558829647862,NA
ua,train,monthly,MFB,wet,hybrid_param_fraction,-0.0964908605048421,-0.150031395730795,-0.841547577492979,NA
ua,train,monthly,MFB,wet,uncal_hybrid_vs_cal_hybrid,3.32505586729313,2.69487356839608,-9.06765456431605,7.93519383429113
ua,train,monthly,MFB,wet,hybrid_complexity_fraction_prms_sacsma,0.00962633824961732,0.00962633824961732,0.00962633824961732,0.00962633824961732
ua,train,monthly,MFB,wet,hybrid_sacsma_vs_hybrid_prms,0.281980416405904,0.281980416405904,0.281980416405904,0.281980416405904
ua,train,monthly,MFB,wet,cal_sacsma_vs_cal_prms,29.292593828927,29.292593828927,29.292593828927,29.292593828927
ua,train,monthly,MFB,wet,hybrid_complexity_fraction_prms_ihacres,-0.0738772429213247,-0.0738772429213247,-0.0738772429213247,-0.0738772429213247
ua,train,monthly,MFB,wet,hybrid_ihacres_vs_hybrid_prms,-2.02305509652238,-2.02305509652238,-2.02305509652238,-2.02305509652238
ua,train,monthly,MFB,wet,cal_ihacres_vs_cal_prms,27.3840091552527,27.3840091552527,27.3840091552527,27.3840091552527
ua,train,monthly,MFB,wet,hybrid_complexity_fraction_sacsma_ihacres,1.2077198065783,1.2077198065783,1.2077198065783,1.2077198065783
ua,train,monthly,MFB,wet,hybrid_ihacres_vs_hybrid_sacsma,-2.30503551292829,-2.30503551292829,-2.30503551292829,-2.30503551292829
ua,train,monthly,MFB,wet,cal_ihacres_vs_cal_sacsma,-1.90858467367435,-1.90858467367435,-1.90858467367435,-1.90858467367435
