"fastcoef_sq","pref_flow_den","slowcoef_sq","soil_moist_max","soil2gw_max","fastcoef_lin","gwflow_coef","jh_coef","slowcoef_lin","sat_threshold","carea_max","smidx_coef","smidx_exp"
4.82082989255716,2.21990011160807,9.56711160241329,1.16807397425244,1.23705042434725,9.2234374671165,6.78451963393564,2.14707959471468,9.50728887987397,2.28423578526901,8.48065626967919,0.105775069502312,0.133338965526904
4.82095699518536,2.219922850987,9.567296065439,1.16773618385484,1.23727161267302,9.22363903043473,6.78452372225417,2.14707205022393,9.50748656736369,2.28410414345944,8.4803828991268,0.105775408498243,0.133418324836319
4.82113765144766,2.21996496826802,9.56757943546994,1.16727256402299,1.23759101716764,9.2239838465283,6.78454587846777,2.14707819112832,9.50779191891945,2.28390211423349,8.48001339416941,0.105759899667424,0.133509143291647
4.82126840585589,2.22002523905128,9.56801097227217,1.1666594307744,1.23778105473668,9.22434704713247,6.78453273293449,2.14704752743947,9.50796421718995,2.28406765566452,8.47940894747329,0.105941107526215,0.13351623517822
4.8203878664219,2.22058353905382,9.56904442103613,1.16660319265432,1.236249741997,9.22440943868118,6.7843473177584,2.14687238990119,9.50640556670551,2.28692785627931,8.47836607588459,0.107349387185634,0.132413576412567
4.82060727957895,2.22062426502467,9.56943543411902,1.1659266643913,1.23663372970865,9.22480454279869,6.78433321013676,2.14686317842728,9.50675326916069,2.28680189575244,8.47776226155573,0.107433341478848,0.132531480685292
4.83167007041941,2.22167706936494,9.5809556505979,1.14260436787103,1.25614522316688,9.24091947957209,6.78562967214204,2.14708444691925,9.5251643232927,2.26895859240399,8.46197109970473,0.102731298870883,0.14014397104352
4.81708369383846,2.21982006271821,9.56392410841886,1.17590805257125,1.23027417577018,9.21913843403791,6.78445784216811,2.14708338503867,9.50125284690288,2.2902459406286,8.4862735639713,0.106941625852576,0.130261899567736
4.83185125721635,2.22175999251479,9.58157668144726,1.14176689114334,1.25644143781401,9.24149742749817,6.78560940907766,2.14708475759171,9.52546365672845,2.26917454069077,8.46111264318207,0.103004640203363,0.14013245686319
4.82218496305272,2.22071940543566,9.57104184535542,1.16224433820736,1.23930707172325,9.22659832971731,6.78436167549811,2.14667806533578,9.50905129229672,2.28467150353982,8.47510021955456,0.107046638703027,0.133788307817303
4.83212541951719,2.22183143023901,9.58209874099793,1.14091643884209,1.25690772389921,9.2420275584225,6.78561540325448,2.14706602289466,9.52588500588279,2.26904197389198,8.46036164120664,0.103101010829671,0.140259724352979
4.83258673028088,2.22186931850548,9.58251327638709,1.13991170008151,1.25774963248701,9.24253051817915,6.78561989386514,2.14703924364476,9.52660054625861,2.26831290825777,8.4596230334403,0.102975015281866,0.140650133909005
4.82600445700707,2.22247976768338,9.58194246524432,1.14843446806231,1.24535749568372,9.2385872759953,6.78519849351717,2.14689061108652,9.51571050324707,2.28539118340793,8.46254933077891,0.109230783808566,0.13356928740606
4.82614469129831,2.22253884949876,9.58239630314206,1.14781130284297,1.24553308088841,9.23898749057945,6.78520794757714,2.14685917624277,9.51588210228262,2.28557013307142,8.46196231378187,0.109387776560749,0.133563591539463
4.82641150834901,2.22251155405374,9.58250530215857,1.14730108517182,1.24601672645863,9.23913132854598,6.78518034730245,2.14683234232287,9.51627825577123,2.28505650525366,8.4616353642011,0.109265403255981,0.133852896179102
4.82624169925634,2.22272320923524,9.58353518290851,1.14662997200848,1.24542853826418,9.23990690164251,6.78528116064059,2.1467642931634,9.51586303189714,2.28667809475359,8.46073287861985,0.109923681439585,0.133228909608131
4.83340703000071,2.22207692904417,9.58404451126174,1.13739603003404,1.25916608711562,9.24409527003544,6.7856303382939,2.14699532186854,9.52787922192742,2.26787254994545,8.45739412831204,0.10325878574445,0.141044273838668
4.82746637584468,2.2226764373711,9.5839361018237,1.1446478632089,1.24794193241158,9.24082330458387,6.7852100362826,2.14685560907136,9.51804116394086,2.28378026886343,8.45947286237592,0.109231794368652,0.134521684746749
4.8277733921121,2.22275830048926,9.58441328021725,1.1438591526134,1.24837403704977,9.24134009986994,6.78529837666646,2.14678409928325,9.51842195238209,2.28352998684545,8.45893214234756,0.109137516834653,0.134672975499321
4.82954587283402,2.22272750427229,9.5848371344284,1.14130251843002,1.25213022904331,9.24271018059164,6.78525758682457,2.1469989963948,9.52171080043635,2.27895568642361,8.45743094518251,0.107945499919791,0.13655884163773
4.83714221285351,2.22360045463463,9.59509743359682,1.12083273386821,1.26534585542966,9.25322026367507,6.78493514696541,2.14637773427413,9.53313434732822,2.27150748626254,8.44048412366906,0.108626302292745,0.141886627509857
4.82535050965943,2.22246110596863,9.58239816410569,1.1487488358726,1.2438439499742,9.23863947980039,6.78510844713206,2.14689908764942,9.5145499590652,2.28778327475256,8.46236428923441,0.110078077358187,0.13266067943845
4.83020723085208,2.22244525583991,9.58596760949557,1.13871157007035,1.2528574366946,9.24339677127618,6.78488913600606,2.14681733748383,9.52239105307814,2.27925827238551,8.45522728578635,0.108440780571453,0.137075381379424
4.84954230887594,2.22275826964909,9.60123449894188,1.09640002714844,1.28572107526588,9.26006959333434,6.78478286955296,2.14377049061857,9.54938458980019,2.24986145683128,8.42622336453225,0.101867651648499,0.154643614207956
4.82791423278476,2.22115944286341,9.57736905092824,1.14948074140758,1.24945045564164,9.23495540276767,6.78481578340016,2.14681227190409,9.51852188321794,2.27667344944129,8.46565495633831,0.105658862349584,0.137669672938971
4.84592340714326,2.23126411015478,9.6043757698808,1.09246287458942,1.29230140992007,9.2540801929382,6.77928219666054,2.14453052793463,9.54257178898973,2.26539912428786,8.39997798652655,0.124900739568715,0.156122407975977
4.8409017751004,2.24634927430432,9.57246948927303,1.10994600177538,1.31217430371037,9.24047104040058,6.7625748944569,2.13795678506819,9.54583537209629,2.29361982825128,8.40682064890873,0.143677962920348,0.165687874707109
