"fastcoef_sq","pref_flow_den","slowcoef_sq","soil_moist_max","soil2gw_max","fastcoef_lin","gwflow_coef","jh_coef","slowcoef_lin","sat_threshold","carea_max","smidx_coef","smidx_exp"
4.58888781164088,3.09064498715384,9.52619521021173,1.28849177823567,1.79195267922742,8.59403265338724,6.70950446197577,2.01488819686264,8.86929889752431,2.82446342742336,7.22326045733959,1.23182447646583,0.309538894729021
4.4815344750144,3.02592411480937,9.60773081024446,1.36690031983729,1.55707502399502,8.857963200026,6.79198988586561,1.91319649363947,8.97629657372767,2.70218083712485,7.70631985148332,0.928036336759297,0.12899961460698
4.58632075570348,3.08459906732428,9.55027673218682,1.24320646271454,1.77818588642575,8.60923834013697,6.65042135066594,2.00261062451862,8.90759969871061,2.86708586027392,7.18120566443584,1.29298751454084,0.282044645483255
4.57507219264064,3.05683903027395,9.58137896707714,1.15468947370804,1.79505378840844,8.53070923421808,6.61954224311397,1.98472147918492,8.89062266574665,2.94117726534572,7.04115196085033,1.39419645666593,0.307278628848381
4.58204562399061,3.02630730679956,9.57839042853414,1.15391065458968,1.78553825555802,8.55291138325445,6.63902896521276,1.99004987887028,8.90755317178665,2.89645859845047,7.09046807511231,1.33405803493026,0.320300062995199
4.57022983209269,3.17173742869435,9.49224103835324,1.28489082811069,1.8539517258433,8.55949633217022,6.68969806624501,2.02217511216241,8.8046140526283,2.84382478905835,7.12494874194896,1.29435045974608,0.359034486400977
4.62862667893613,3.0448247203227,9.55265552568364,1.12332133665375,1.87106425178455,8.39380511069508,6.61836668237962,2.02340600565453,8.83698837281965,2.97362980045168,6.8728595164807,1.47487534953369,0.390205621938328
4.60247507093016,3.22458078491357,9.43838555503632,1.44443275380728,1.86151701913712,8.61176258703952,6.78400302016304,2.05860597263077,8.78637657885986,2.71983852436807,7.32145335744093,1.14062293541297,0.346696326898183
4.60371819546602,3.22384022704667,9.43835455601847,1.4421431018937,1.86205275797312,8.61167422688801,6.78466789781198,2.05759333131414,8.78658816880584,2.71906007119971,7.32163801719845,1.13887109992688,0.346612670669794
4.60351433378252,3.223380770328,9.43889172799985,1.44174605685557,1.86179771682408,8.61173452156024,6.7841131711537,2.05783963179026,8.78723996929095,2.71936048749541,7.32108730462783,1.13973005345486,0.346716756115884
4.57777361122516,3.05903619909726,9.60777298968888,1.12241338032658,1.82338364160799,8.49687667284821,6.62976736553806,1.96939376480363,8.90664829141469,2.9352884363228,6.99007460840974,1.42860590443293,0.320345760079057
4.57662797885037,3.0024631050021,9.6311594274992,1.07663841383781,1.78928142679901,8.5515747740592,6.59834050333102,1.9579262868856,8.96978901861363,2.9225033865212,7.02263859588007,1.40003123688251,0.302568174613123
4.45539794723216,3.1683455915301,9.61499154709998,1.39055006939567,1.68188406859583,8.85502298239692,6.72416898823119,1.90956793940033,9.05223939858531,2.6860682828683,7.5168232948978,1.10038676877254,0.14587954122559
4.58423278498658,3.20916264096874,9.38958621952989,1.56636505594542,1.76510459056694,8.75296222449666,6.82774806536863,2.07733027818429,8.79157900933846,2.63041179410733,7.57797130948219,0.941592299586673,0.303312700310408
4.58428649317762,3.2114555303223,9.38913589547149,1.56743473578642,1.76725889012246,8.75251983897412,6.82834781724234,2.07734803090975,8.79082799144564,2.62949807384083,7.57773536734787,0.941685685231342,0.303732502915481
4.58078462623732,3.17927448384166,9.39839038431381,1.55272118644132,1.73148341278542,8.76337836578888,6.82243023326632,2.07354591777111,8.80528368614077,2.64030465083782,7.58917190317128,0.934707764189705,0.292671080554788
4.59943213090642,3.22536362026952,9.44453656877863,1.44285877515841,1.8577611209553,8.61880515286157,6.78416811505431,2.05219708445919,8.79410678470545,2.71578797181025,7.32682612408174,1.13762449501008,0.341507936384724
4.56266383355166,3.11836038191093,9.5576451490438,1.11555869397806,1.87153795885362,8.4491680897107,6.59833342942199,1.99399856055605,8.82132502411245,2.98318664597292,6.87728794938487,1.49030289613327,0.376640279685513
4.60949725842341,3.24800711361081,9.38603865199697,1.58336949616398,1.82637275419138,8.73931914162157,6.88384960636843,2.07865528698368,8.79209723115749,2.55247694744387,7.60369194939675,0.896351008060985,0.331828411518901
4.60117683405316,3.25899874716364,9.38252770274666,1.59742034606812,1.82681988680252,8.73000570245514,6.88297428460951,2.07928959956087,8.78066971647683,2.56402215416229,7.59039139744314,0.912635387294707,0.330741107671851
4.56474773774115,3.19775123996443,9.34094142914255,1.69071822611483,1.66649982668082,8.89475098958032,6.87550205244713,2.09465962189968,8.795661771049,2.53995559302509,7.83997932670676,0.737651715999528,0.256933435509017
4.60456981316076,3.25936670985604,9.36168570345749,1.75507312339229,1.740809197961,8.87297377800925,6.94745395462134,2.09185496627285,8.83182479363908,2.44999312676662,7.88654192237733,0.718857982431008,0.24509789921825
4.64925174795473,2.77083667788491,9.79390054906839,0.817260589535766,1.73761276900291,8.86555992936263,6.48397095160134,1.88989329887286,9.38851833702376,2.72658368125914,7.20368173350508,1.25497614391911,0.226150975616418
4.55202501383435,3.13871921130877,9.56048381029186,1.07371909240909,1.90253591006557,8.38983785337324,6.58489527504545,2.00068924228889,8.78186587361113,3.01672820868998,6.79774097916464,1.53578304972928,0.405972902903312
4.58022038430275,2.94542156370796,9.69933766202043,0.890769108552919,1.82424450058975,8.42783114695066,6.50263487036746,1.93072617335191,8.99037819375077,3.06552482336587,6.74663787819386,1.61529389268567,0.328938547830075
4.59244954648226,3.96016993859546,8.82520364420352,2.47657565401591,2.01854477868262,8.50879521177181,7.11643153013192,2.30413638464612,7.93236405096627,2.663475415994,7.55757236382844,0.937273452724405,0.434065827965151
7.51087569083523,4.6807847123863,4.22166186279222,4.72448756971039,7.33530988191998,5.6943820524068,5.20460687888185,3.7362433810882,3.70996247859851,6.08557274380765,3.72175570875331,6.50668351230603,4.70295122978764
