"fastcoef_sq","pref_flow_den","slowcoef_sq","soil_moist_max","soil2gw_max","fastcoef_lin","gwflow_coef","jh_coef","slowcoef_lin","sat_threshold","carea_max","smidx_coef","smidx_exp"
4.60906575440779,2.95374554952771,9.62609344804744,1.20594164448391,1.69480571129718,8.88425129202163,6.66869644923393,1.9582679126989,9.15890969909705,2.64202060166019,7.50796988178776,1.03466667113174,0.206461930527277
4.59068613135699,3.06908396278874,9.53539473877992,1.47479954290908,1.67338336039853,8.83119163361544,6.81223699438478,1.98698259705264,9.00274409504493,2.62065963293816,7.65459256618973,0.950813016920311,0.18302196141383
4.58888781164088,3.09064498715384,9.52619521021173,1.28849177823567,1.79195267922742,8.59403265338724,6.70950446197577,2.01488819686264,8.86929889752431,2.82446342742336,7.22326045733959,1.23182447646583,0.309538894729021
4.57086268770532,3.01599567877879,9.61944945484235,1.13385225054839,1.76101025151611,8.55223590650577,6.62166866983703,1.95952575395648,8.9380550200097,2.93957511115245,7.07462787024565,1.38538943225069,0.274261236551854
4.4815344750144,3.02592411480937,9.60773081024446,1.36690031983729,1.55707502399502,8.857963200026,6.79198988586561,1.91319649363947,8.97629657372767,2.70218083712485,7.70631985148332,0.928036336759297,0.12899961460698
4.58632075570348,3.08459906732428,9.55027673218682,1.24320646271454,1.77818588642575,8.60923834013697,6.65042135066594,2.00261062451862,8.90759969871061,2.86708586027392,7.18120566443584,1.29298751454084,0.282044645483255
4.57507219264064,3.05683903027395,9.58137896707714,1.15468947370804,1.79505378840844,8.53070923421808,6.61954224311397,1.98472147918492,8.89062266574665,2.94117726534572,7.04115196085033,1.39419645666593,0.307278628848381
4.58204562399061,3.02630730679956,9.57839042853414,1.15391065458968,1.78553825555802,8.55291138325445,6.63902896521276,1.99004987887028,8.90755317178665,2.89645859845047,7.09046807511231,1.33405803493026,0.320300062995199
4.57022983209269,3.17173742869435,9.49224103835324,1.28489082811069,1.8539517258433,8.55949633217022,6.68969806624501,2.02217511216241,8.8046140526283,2.84382478905835,7.12494874194896,1.29435045974608,0.359034486400977
4.62862667893613,3.0448247203227,9.55265552568364,1.12332133665375,1.87106425178455,8.39380511069508,6.61836668237962,2.02340600565453,8.83698837281965,2.97362980045168,6.8728595164807,1.47487534953369,0.390205621938328
4.60247507093016,3.22458078491357,9.43838555503632,1.44443275380728,1.86151701913712,8.61176258703952,6.78400302016304,2.05860597263077,8.78637657885986,2.71983852436807,7.32145335744093,1.14062293541297,0.346696326898183
4.60371819546602,3.22384022704667,9.43835455601847,1.4421431018937,1.86205275797312,8.61167422688801,6.78466789781198,2.05759333131414,8.78658816880584,2.71906007119971,7.32163801719845,1.13887109992688,0.346612670669794
4.60351433378252,3.223380770328,9.43889172799985,1.44174605685557,1.86179771682408,8.61173452156024,6.7841131711537,2.05783963179026,8.78723996929095,2.71936048749541,7.32108730462783,1.13973005345486,0.346716756115884
4.57777361122516,3.05903619909726,9.60777298968888,1.12241338032658,1.82338364160799,8.49687667284821,6.62976736553806,1.96939376480363,8.90664829141469,2.9352884363228,6.99007460840974,1.42860590443293,0.320345760079057
4.57662797885037,3.0024631050021,9.6311594274992,1.07663841383781,1.78928142679901,8.5515747740592,6.59834050333102,1.9579262868856,8.96978901861363,2.9225033865212,7.02263859588007,1.40003123688251,0.302568174613123
4.45539794723216,3.1683455915301,9.61499154709998,1.39055006939567,1.68188406859583,8.85502298239692,6.72416898823119,1.90956793940033,9.05223939858531,2.6860682828683,7.5168232948978,1.10038676877254,0.14587954122559
4.57983573766471,3.15473253279142,9.46626372300232,1.58399385346563,1.69504559157531,8.85499784227839,6.86878497174945,2.02731644163918,8.92115859939663,2.55035270045884,7.76540467026708,0.841398156390886,0.20770673370321
4.57225133262013,3.08279335697394,9.607209104179,1.16053736523532,1.8239582087197,8.53398387204808,6.64908388515567,1.96401362924907,8.92177562729308,2.89451642546001,7.05669514094789,1.38698953652072,0.302360302587728
4.58423278498658,3.20916264096874,9.38958621952989,1.56636505594542,1.76510459056694,8.75296222449666,6.82774806536863,2.07733027818429,8.79157900933846,2.63041179410733,7.57797130948219,0.941592299586673,0.303312700310408
4.58428649317762,3.2114555303223,9.38913589547149,1.56743473578642,1.76725889012246,8.75251983897412,6.82834781724234,2.07734803090975,8.79082799144564,2.62949807384083,7.57773536734787,0.941685685231342,0.303732502915481
4.58078462623732,3.17927448384166,9.39839038431381,1.55272118644132,1.73148341278542,8.76337836578888,6.82243023326632,2.07354591777111,8.80528368614077,2.64030465083782,7.58917190317128,0.934707764189705,0.292671080554788
4.59943213090642,3.22536362026952,9.44453656877863,1.44285877515841,1.8577611209553,8.61880515286157,6.78416811505431,2.05219708445919,8.79410678470545,2.71578797181025,7.32682612408174,1.13762449501008,0.341507936384724
4.60949725842341,3.24800711361081,9.38603865199697,1.58336949616398,1.82637275419138,8.73931914162157,6.88384960636843,2.07865528698368,8.79209723115749,2.55247694744387,7.60369194939675,0.896351008060985,0.331828411518901
4.57754424836751,2.71708315012047,9.83648247601139,0.839063165675982,1.64848327018599,8.74897858079387,6.57637918389516,1.87686552585196,9.33842946704844,2.77851035688381,7.29079389699806,1.21009917064107,0.211498708141271
4.59067936209426,3.30883843731295,9.33301033663752,1.70273470635549,1.80668812662495,8.75164356518125,6.91315399056564,2.10315181421386,8.72110504661896,2.55594641566448,7.67337188096642,0.863616567180259,0.317533988475363
4.60456981316076,3.25936670985604,9.36168570345749,1.75507312339229,1.740809197961,8.87297377800925,6.94745395462134,2.09185496627285,8.83182479363908,2.44999312676662,7.88654192237733,0.718857982431008,0.24509789921825
7.51087569083523,4.6807847123863,4.22166186279222,4.72448756971039,7.33530988191998,5.6943820524068,5.20460687888185,3.7362433810882,3.70996247859851,6.08557274380765,3.72175570875331,6.50668351230603,4.70295122978764
