"fastcoef_sq","pref_flow_den","slowcoef_sq","soil_moist_max","soil2gw_max","fastcoef_lin","gwflow_coef","jh_coef","slowcoef_lin","sat_threshold","carea_max","smidx_coef","smidx_exp"
4.81184550897492,2.21568127361664,9.53763492615337,1.20399448853431,1.2250136219401,9.19187010631997,6.7822413897325,2.14702242223511,9.49248313621912,2.27854190931462,8.51232576716915,0.100263774902199,0.135504867588357
4.81184550898303,2.2156812736125,9.53763492614424,1.20399448853752,1.22501362195051,9.19187010632138,6.7822413897366,2.1470224222357,9.49248313623185,2.27854190928021,8.51232576718941,0.100263774878578,0.135504867597744
4.81184550897524,2.21568127361656,9.53763492615337,1.20399448853411,1.22501362194047,9.19187010632034,6.78224138973268,2.14702242223513,9.49248313621963,2.27854190931364,8.51232576716955,0.100263774901488,0.135504867588587
4.81184550897559,2.21568127361634,9.5376349261528,1.20399448853441,1.22501362194094,9.19187010632024,6.78224138973285,2.14702242223515,9.49248313622017,2.27854190931198,8.51232576717062,0.100263774900367,0.135504867589059
4.81184550897521,2.21568127361653,9.53763492615324,1.20399448853425,1.22501362194045,9.19187010632019,6.78224138973266,2.14702242223512,9.49248313621958,2.2785419093136,8.51232576716966,0.100263774901474,0.135504867588616
4.81184550897764,2.21568127361603,9.53763492615393,1.2039944885325,1.22501362194305,9.19187010632387,6.78224138973421,2.14702242223527,9.49248313622342,2.2785419093065,8.51232576717267,0.100263774895878,0.135504867589974
4.81184550897848,2.21568127361673,9.53763492615806,1.20399448852807,1.22501362194394,9.19187010632814,6.78224138973458,2.14702242223526,9.49248313622481,2.27854190930828,8.51232576716853,0.100263774896932,0.135504867589183
4.81184550897605,2.21568127361622,9.5376349261528,1.20399448853414,1.22501362194148,9.19187010632079,6.78224138973311,2.14702242223518,9.49248313622091,2.27854190931053,8.51232576717122,0.100263774899303,0.135504867589393
4.81184550864844,2.21568127343575,9.53763492493826,1.20399448970602,1.22501362171694,9.19187010480075,6.78224138945112,2.14702242222749,9.49248313568763,2.27854190918255,8.51232576788187,0.100263775082528,0.135504867854959
4.81184550897921,2.21568127361737,9.53763492616114,1.20399448852084,1.22501362194776,9.19187010632765,6.78224138973205,2.14702242223512,9.49248313622604,2.27854190931243,8.51232576715676,0.100263774904331,0.135504867590686
4.81184550890307,2.21568127356468,9.53763492581209,1.20399448882291,1.22501362192828,9.19187010588769,6.78224138964266,2.14702242223261,9.49248313610299,2.27854190923713,8.51232576732479,0.100263774962051,0.135504867693877
4.81184550876582,2.2156812735034,9.53763492539366,1.20399448914457,1.22501362188327,9.19187010524161,6.7822413894617,2.14702242222676,9.49248313587751,2.27854190935224,8.51232576733061,0.100263775241729,0.135504867814621
4.81184550901838,2.2156812736401,9.53763492631278,1.20399448838081,1.22501362196962,9.19187010652062,6.78224138977018,2.14702242223624,9.4924831362899,2.27854190932947,8.51232576707785,0.100263774876033,0.135504867553502
4.81184550898181,2.21568127361953,9.53763492617526,1.20399448851336,1.22501362194461,9.19187010634927,6.7822413897387,2.14702242223535,9.49248313623026,2.27854190931327,8.51232576715945,0.100263774895231,0.135504867583864
4.81184550901067,2.21568127363747,9.53763492628809,1.20399448840142,1.22501362196777,9.19187010648465,6.78224138976097,2.14702242223578,9.49248313627771,2.27854190933277,8.51232576708139,0.100263774889501,0.13550486756038
4.8118455092231,2.21568127376524,9.53763492714099,1.20399448759702,1.2250136220929,9.19187010753993,6.78224138995576,2.147022422241,9.49248313662262,2.27854190947299,8.51232576658298,0.100263774782853,0.135504867355537
4.81184550761111,2.21568127280092,9.53763492073262,1.20399449355208,1.2250136211911,9.191870099497,6.78224138841229,2.14702242219891,9.49248313400064,2.27854190855739,8.51232577009983,0.100263775781846,0.135504868929757
4.81184551489029,2.21568127855837,9.53763495528637,1.20399445714625,1.22501362837668,9.19187013619193,6.78224139217574,2.14702242215183,9.4924831459481,2.27854192206561,8.51232573762547,0.100263782671617,0.1355048620869
4.81184550516949,2.21568127129149,9.53763491085116,1.20399450294862,1.22501361966225,9.19187008738192,6.78224138623377,2.14702242214601,9.49248313002423,2.27854190681446,8.51232577612963,0.10026377679555,0.135504871263227
4.81184552746891,2.21568128287111,9.53763499212387,1.20399443406761,1.22501362744951,9.19187019912451,6.78224141252785,2.14702242305049,9.49248316619579,2.27854190629918,8.51232575139563,0.100263746355897,0.135504848658421
4.81184548992841,2.21568126189894,9.53763484822434,1.20399456108391,1.22501361154545,9.19187000959783,6.7822413715892,2.14702242174265,9.49248310529181,2.27854189597131,8.51232581146107,0.100263785155682,0.135504886960764
4.81184560123377,2.21568133409319,9.53763531696875,1.20399411596203,1.22501367926671,9.19187057711086,6.7822414710156,2.14702242405127,9.49248328649885,2.27854199472326,8.51232551590579,0.100263750203626,0.135504773795022
4.8118455967811,2.2156813250715,9.53763526326869,1.20399414014119,1.22501369954555,9.19187050040668,6.78224144790232,2.14702242319941,9.492483279466,2.27854197550059,8.51232550928215,0.100263775188106,0.135504804428301
4.81184537028961,2.21568118050689,9.53763429852146,1.20399494147745,1.22501365279906,9.19186922514188,6.78224116101306,2.14702241374481,9.49248291225742,2.27854185769229,8.51232586095488,0.100264043384468,0.135505098325037
4.81184516652197,2.21568114862932,9.53763401346897,1.20399559219709,1.22501321725705,9.19186902217438,6.78224124089301,2.14702243278058,9.49248259866331,2.27854197065622,8.51232654865719,0.100263845048933,0.135504909403228
4.81184146956557,2.21567804346859,9.53761557099562,1.20401368319199,1.22501050401925,9.19184844519963,6.78223844199655,2.14702241369164,9.49247649404849,2.27853525317646,8.51234134744119,0.10026190866351,0.135509321622846
4.82717077906587,2.22483429529207,9.54835601991001,1.17368654892122,1.24965401610166,9.19897460509048,6.78180413720104,2.14951178279082,9.48956815766029,2.28312034188564,8.46992678820995,0.121248858817759,0.150889446958557
