"fastcoef_sq","pref_flow_den","slowcoef_sq","soil_moist_max","soil2gw_max","fastcoef_lin","gwflow_coef","jh_coef","slowcoef_lin","sat_threshold","carea_max","smidx_coef","smidx_exp"
4.56946205405015,3.07417290494496,9.56688867257278,1.31566900081,1.70538072829834,8.68360563516917,6.76729368666994,1.98069915299441,8.93950408669939,2.8042405634375,7.4121009450881,1.1166676951705,0.202068891343362
4.56574159826356,3.07414989232033,9.56356515814048,1.32290318075532,1.69686620001343,8.69520359110876,6.76651427959094,1.98152899714821,8.93827375422281,2.80326186623845,7.42654721437906,1.10765466374695,0.198023153634408
4.55997416119732,3.07197786938625,9.60325165030758,1.28410110847944,1.7090642621195,8.67334672922318,6.75668175686814,1.95641576363259,8.976920752316,2.81559100638798,7.37909751106387,1.15710886810027,0.18411234086814
4.57233903869654,3.067941467939,9.58085250519222,1.27779279812779,1.71183083863244,8.65588675693271,6.74919054645942,1.97319008890669,8.94239256580189,2.8364841709579,7.35871695085863,1.1594286560561,0.201091978661507
4.56197897861892,3.05751158003049,9.59576870304451,1.28678268390426,1.69168741630017,8.68266826248347,6.77086001006936,1.96295739016709,8.9625992657607,2.82344325001831,7.40659226805817,1.12922199205464,0.181125543349418
4.56965373334219,3.06077070665686,9.58692875960946,1.2674643768064,1.70909811317807,8.65800409653675,6.73612230689354,1.97135013868134,8.94921116537308,2.84849383457495,7.34483435715441,1.17685807215006,0.199396809002236
4.58306021813065,3.11436398920233,9.52382714773062,1.33256696615383,1.75550708498355,8.64968042140573,6.73608579771479,2.00884076730108,8.88747345664293,2.80729239609175,7.3381826922351,1.16331252354678,0.253491529463633
4.5541654694735,3.01699341541452,9.62354183905686,1.17151835922228,1.69448413015503,8.62112305900814,6.70063772606424,1.94846183236894,8.96163159286723,2.92502475827903,7.248536110526,1.24833333696537,0.197402331172833
4.56978679397649,3.06161259632096,9.59081979057038,1.23713358918315,1.71748383544957,8.62649446341632,6.7169552438313,1.96744685327365,8.93803310790392,2.88045905587001,7.2859294278083,1.21882806206041,0.206966714221463
4.58103360918297,3.09825727060929,9.50682610827154,1.42643009129867,1.70075176441266,8.73826316915344,6.81902034166795,2.01356266514086,8.9175972046104,2.70002065099035,7.56070236895798,0.979737602278269,0.217126599132206
4.57444315966386,3.09903286235808,9.53382423056477,1.36722220430135,1.71122246814407,8.70518482482898,6.77176114333001,1.99943359635389,8.91827281400799,2.77154098570633,7.45296406257656,1.08293605694924,0.213164997722251
4.56562344759522,3.1040891370662,9.50800149628107,1.41439193562718,1.68975696599395,8.74495497806015,6.79257660041237,2.01027505034965,8.90304362947365,2.73782844908487,7.52829637078416,1.01678977338157,0.213530409967282
4.56954988031069,3.10495649593119,9.55848514482712,1.34651857500028,1.72714266143955,8.6789643533046,6.79374611680471,1.98288257619199,8.9262557920382,2.77726175946929,7.42673285368022,1.10232169459371,0.21067860303283
4.56927227942632,3.09363893448687,9.55720865796314,1.32741990249516,1.71909637393375,8.67132973610081,6.77639639489227,1.98383091489853,8.92273228512003,2.80284936661028,7.40363956755797,1.11877771470193,0.209212982299798
4.56369562003062,3.10141905178317,9.47481465014446,1.45723678357876,1.65777110071849,8.79151080754141,6.78177170258061,2.02747645224493,8.89192007832464,2.7172983170312,7.59821939847174,0.961890876344876,0.208580357789804
4.5690039739284,3.08058247055144,9.57112638590397,1.29522824756527,1.7239031297437,8.6594360024198,6.75281062462744,1.9789303388997,8.93448165292719,2.82287938106326,7.36517374535704,1.15459703392275,0.211866906142323
4.57054668568708,3.07778619051052,9.57582707156184,1.29186709785675,1.72104315947617,8.65990545662018,6.75565804143274,1.97665209683723,8.93712843608439,2.82547027610723,7.36239561603467,1.15711906947075,0.20885746679626
4.58109194210448,3.1075145124614,9.57154810648491,1.31583834063935,1.68246869212889,8.6842603006571,6.84927697416412,1.94727367547258,8.92852362260122,2.74703997804217,7.52709059615248,0.981952007573655,0.165519970049314
4.58178032038687,3.13223831556573,9.49563963893001,1.41056003262852,1.73806446029384,8.70873993867916,6.78544099160526,2.0196646598392,8.88417808676897,2.72969009279192,7.47265852413777,1.04996065290445,0.245575179972847
4.49463261497838,3.16409542581819,9.51860778882257,1.4604526182245,1.68781182522115,8.64524344275518,6.77105294018972,1.99182311738206,8.8450894909125,2.88329740136999,7.38102044514587,1.19734899805922,0.187266561729434
4.58481814325526,3.14218861852553,9.47472334909191,1.49834207880459,1.70418758375359,8.77231596340638,6.82019735681911,2.02999587008787,8.89536525991064,2.67477637530527,7.61129297612114,0.957161416617258,0.210119150952848
4.55058618370781,3.07530558745299,9.63086462357676,1.24248252399252,1.6999967523044,8.67613157533334,6.73287268180161,1.93584626344673,8.98637318242867,2.86085257244036,7.34142818691569,1.20305386539927,0.159992728524543
4.55236865940022,3.22402520123498,9.44429618217727,1.60173919636035,1.72557754791904,8.74143659367045,6.85874025941466,2.03501669601478,8.82127089424935,2.67893961679071,7.59710993222141,0.981616871217496,0.224614245680826
4.65719572204121,3.2864397802226,9.23661128220993,1.96152606012976,1.70656886889434,9.15830382415744,7.18690905073646,2.14504015947551,8.85777419903119,1.99621282347457,8.49799631285161,0.105913909964648,0.276044293990214
4.56513406378904,3.43490607887928,9.19093616564228,2.08539101331398,1.70476803542159,9.10701170530732,7.10634675250305,2.14876520208155,8.71146752494179,2.20742692645909,8.35216098809304,0.330507331868121,0.238546696608235
4.60334169918156,3.28324331378416,9.41217089110882,1.55617484009669,1.83935281926996,8.42648515966401,6.75153794829966,1.96165830970416,8.83973845567604,2.84337733075056,7.43996326232805,1.24224672659367,0.460873657148989
3.44727079842368,4.2620187759355,8.16657171704834,4.98370940157555,2.35928841221895,7.03001801258036,7.52650137998976,1.53096544913591,6.43731023827677,4.3263568477069,5.10985339296647,3.97112689259265,0.418100447706236
