"fastcoef_sq","pref_flow_den","slowcoef_sq","soil_moist_max","soil2gw_max","fastcoef_lin","gwflow_coef","jh_coef","slowcoef_lin","sat_threshold","carea_max","smidx_coef","smidx_exp"
4.81064293292611,2.21486031593432,9.61237696376046,1.1143058694989,1.20198221702444,9.23809749445576,6.76981013198613,2.13835523972755,9.47707072964286,2.38404393892446,8.4175389938064,0.155827947508829,0.117680890251047
4.79590082488821,2.27307953379469,9.60836180619145,1.13572589714891,1.23064475519528,9.2085212620009,6.7825669295568,2.1258424920206,9.44391994894607,2.39759008518881,8.37765449252143,0.195866388221739,0.117832398452272
4.79628638096829,2.26562240346481,9.61017179628679,1.13136348081116,1.22631156959097,9.20891954987665,6.77714934820366,2.12798448022543,9.44489283696645,2.40548629657802,8.37368614931331,0.200361718871993,0.117730762725297
4.79359260161907,2.27375559598018,9.61199041648589,1.12779126002603,1.23305580263148,9.20093019904819,6.77490609277439,2.12447653154539,9.4418982297166,2.41147181412697,8.35697245205167,0.215056231332367,0.11868515236852
4.794837155708,2.2695974849076,9.61195304719112,1.12630300076212,1.23090341688088,9.20205773308891,6.77440264377149,2.12542315101623,9.44366587808836,2.41086955529641,8.35959379779802,0.212114168236469,0.118636652806518
4.78616387735291,2.25399446061158,9.60875681193558,1.13290356949007,1.21902422922311,9.21132688531414,6.74600773678052,2.14101981874404,9.44156760345651,2.44312095591992,8.34416504479064,0.243035600426632,0.123590545996852
4.78685411860032,2.31318344001423,9.6046182414281,1.1391737385074,1.26162617572602,9.17694888412185,6.77425707489392,2.12103647108391,9.41766169276616,2.41974336115436,8.31265338683146,0.253275614087126,0.129828547783295
4.78811423563746,2.30563121449731,9.60589096012801,1.13407915510656,1.25662290459186,9.17680131882685,6.77413915494563,2.12113525964819,9.42047086351661,2.42332751222404,8.3150684151589,0.250026025090112,0.126598261218933
4.7819480451529,2.3121477171803,9.6133048465507,1.12568007041549,1.25986139438164,9.17128671061697,6.76618745030436,2.11519594197306,9.42056642405321,2.43714456900382,8.29319007540372,0.273533841206114,0.124846925459201
4.79140683903566,2.29570107045354,9.60804659061746,1.13172342805053,1.25113911554147,9.18769492066323,6.77637743814981,2.1207380752642,9.43228203937276,2.40912340471754,8.33461241775259,0.231884771130092,0.125253939228124
4.78594953994461,2.29237288211395,9.61105672921905,1.1300370152646,1.24604150405589,9.18466749272548,6.76359630639918,2.12460757034534,9.42492911958227,2.43614222396953,8.31491213627476,0.256890106400399,0.124313966799217
4.78263484314518,2.29988003085644,9.61383347325389,1.12755147994773,1.24791835427746,9.17995299764373,6.76559404703552,2.11898427787302,9.42429813917622,2.43878077727687,8.30957627169728,0.262293657698384,0.121423302337163
4.79123472476475,2.28059868526398,9.61147360427583,1.13148800076839,1.23670786201932,9.19769915147363,6.77278228011638,2.1251072596351,9.43503975468789,2.41880719427807,8.34582812333196,0.226631563288464,0.119868681388783
4.79087212884467,2.28074262074846,9.60600601968774,1.14006129058248,1.23373481471605,9.20619075814401,6.77678421731264,2.12668377707607,9.4385852769717,2.40496335605271,8.3674559979799,0.209436412733961,0.120527472434194
4.78753579039029,2.28646334426888,9.61188660408255,1.12752926021292,1.23891435642077,9.1894106956088,6.76942345893801,2.1221115908222,9.43239635584128,2.42664841590537,8.33442286344661,0.238344406856385,0.120409178221372
4.78935622480439,2.27982118682411,9.61289022483331,1.12707826414122,1.2356980146948,9.19370585478971,6.76817230782581,2.12436343437994,9.43445558830603,2.42699125056946,8.33756922768956,0.235430581083667,0.119892198810495
4.78888315964878,2.28259418444684,9.61067663111809,1.13334227493163,1.23454360096333,9.19659724762674,6.77336040543971,2.1244668340154,9.4336071795565,2.42106552312009,8.34859394741489,0.226495730878123,0.118669188626835
4.79300072108602,2.27660674105558,9.61081406114469,1.12979868951863,1.2344331720579,9.19960085916959,6.77472729354609,2.12458392846237,9.44005813018305,2.41179243072895,8.35544723329407,0.217068400157004,0.119617507980551
4.76883744247478,2.31457601234276,9.62037259154527,1.09198027734367,1.26943586679482,9.12913694157247,6.71706003410849,2.11630011405832,9.4007395167919,2.51551652801954,8.18611160799649,0.37601505615068,0.13864943873636
4.78810270056994,2.275308312363,9.61958347025044,1.112543768679,1.23724957194265,9.18307663058543,6.75673408074911,2.12331212534311,9.43444715917049,2.44690204305083,8.30964877896655,0.260793330083988,0.121264599420349
4.7699186111462,2.34132500703801,9.60610783137244,1.12364807732931,1.28634864342438,9.12951921237318,6.74054278883211,2.11822365251634,9.38735316927775,2.48499903783827,8.20762627934975,0.354066173037775,0.144708959113797
4.77293321349704,2.34953483750898,9.6125437746432,1.12152938877231,1.29140643874812,9.14024694960612,6.75467268787443,2.10885903654252,9.39866099090013,2.46058052721513,8.22315323775846,0.334272346240423,0.136930397317222
4.75452235138898,2.37866465476169,9.6189463744685,1.098913935236,1.31017857447079,9.09821292045057,6.719825854134,2.10117128158797,9.37012910631152,2.53002720100893,8.11814588206287,0.433607667950201,0.144242218847877
4.7392711331923,2.48547320025477,9.57978444194666,1.20283951105206,1.35996825973756,9.06883609469137,6.77527500291477,2.103361224469,9.29179264986282,2.50479435263789,8.11851006849999,0.437705169744459,0.154619299644552
4.68174294387413,2.69299047670949,9.53054549814699,1.22981671573859,1.56295190217406,8.85234147186558,6.65024748928108,2.12337233834857,9.09619039319903,2.71687445644187,7.62691620919265,0.889309836187199,0.282663994324879
4.79200613977515,2.50935602670273,9.51694020052567,1.22320569816534,1.43481315922637,9.03774935353839,6.73441006580032,2.13242216140798,9.2634607895294,2.48041191034677,8.06202152653048,0.43956868808836,0.212575696524084
6.14169499037241,3.55090830201811,6.91353888958588,2.90598288128209,4.35511782441385,7.38363265477467,5.97367974143786,2.91133622396999,6.54646116557378,4.2673278318881,5.91025578524995,3.4617488033226,2.43836255684679
