"fastcoef_sq","pref_flow_den","slowcoef_sq","soil_moist_max","soil2gw_max","fastcoef_lin","gwflow_coef","jh_coef","slowcoef_lin","sat_threshold","carea_max","smidx_coef","smidx_exp"
4.811843369989,2.21567969761555,9.5376251690965,1.20400433422237,1.22501188613747,9.19185917198759,6.78223992359579,2.14702241026206,9.49247963856711,2.27853874340167,8.5123337130805,0.10026288484483,0.135506994855375
4.81184213846406,2.21568110274216,9.53763041240845,1.20400552014509,1.22500627120715,9.19186708057826,6.78224310895719,2.14702262929015,9.49247775540119,2.27854347497073,8.51233772288299,0.100259930846696,0.135501546908216
4.81184443844027,2.21568048444533,9.53763004207455,1.20399941525964,1.22501275398071,9.19186463151767,6.7822406547875,2.14702241620651,9.49248138547258,2.27854032549348,8.51232974167144,0.100263331439783,0.135505933296012
4.81184550897492,2.21568127361664,9.53763492615337,1.20399448853431,1.2250136219401,9.19187010631997,6.7822413897325,2.14702242223511,9.49248313621912,2.27854190931462,8.51232576716915,0.100263774902199,0.135504867588357
4.81184550705387,2.2156812714669,9.53763491593288,1.20399449571964,1.22501362181363,9.19187009229215,6.78224138630107,2.14702242215836,9.49248313268281,2.27854190769792,8.51232577008556,0.100263777737166,0.13550487138896
4.81184336999309,2.21567969761856,9.53762516911514,1.20400433420357,1.22501188614079,9.19185917200848,6.7822399235986,2.14702241026209,9.4924796385738,2.2785387434077,8.51233371306534,0.100262884846516,0.135506994851313
4.81184213847052,2.21568110274251,9.53763041241722,1.2040055201239,1.22500627122119,9.19186708058421,6.78224310895395,2.14702262928975,9.49247775541151,2.27854347496779,8.51233772286008,0.100259930854017,0.135501546914511
4.81184443828024,2.21568048434942,9.53763004143345,1.20399941585094,1.22501275389595,9.19186463071068,6.78224065463094,2.1470224162021,9.49248138521253,2.27854032540049,8.51232974201544,0.100263331544152,0.13550593345664
4.81184550898303,2.2156812736125,9.53763492614424,1.20399448853752,1.22501362195051,9.19187010632138,6.7822413897366,2.1470224222357,9.49248313623185,2.27854190928021,8.51232576718941,0.100263774878578,0.135504867597744
4.81184550705481,2.21568127146335,9.53763491591646,1.20399449572978,1.22501362181922,9.19187009227526,6.78224138629832,2.1470224221584,9.49248313268413,2.27854190768148,8.51232577009598,0.100263777732182,0.135504871397858
4.81184337000131,2.21567969764405,9.537625169296,1.20400433405459,1.22501188610542,9.19185917219011,6.78223992362117,2.14702241026275,9.4924796385828,2.27853874355968,8.51233371292815,0.100262884895588,0.135506994776781
4.81184213848224,2.21568110274941,9.5376304124635,1.2040055200797,1.22500627122853,9.19186708064131,6.78224310896431,2.14702262929,9.49247775543052,2.27854347497521,8.5123377228323,0.10025993084857,0.135501546903748
4.81184443823505,2.21568048432436,9.53763004125864,1.20399941600421,1.22501275387869,9.19186463048021,6.78224065458075,2.1470224162005,9.49248138513961,2.27854032538698,8.51232974208628,0.100263331592422,0.135505933504078
4.81184550897555,2.21568127361647,9.53763492615338,1.20399448853392,1.22501362194085,9.19187010632071,6.78224138973285,2.14702242223514,9.49248313622013,2.27854190931266,8.51232576716994,0.100263774900776,0.135504867588817
4.81184550705395,2.21568127146534,9.5376349159252,1.20399449572555,1.22501362181513,9.19187009228475,6.78224138630029,2.14702242215839,9.49248313268286,2.27854190769053,8.5123257700921,0.100263777733989,0.135504871392381
4.811843370073,2.21567969768073,9.53762516948859,1.20400433383931,1.22501188619904,9.19185917243595,6.78223992366181,2.14702241026271,9.4924796387056,2.2785387435245,8.51233371278209,0.100262884866851,0.135506994763163
4.81184213845954,2.21568110266926,9.53763041204233,1.20400552036972,1.22500627131036,9.19186708015708,6.78224310887095,2.14702262928686,9.49247775538834,2.27854347470021,8.512337723049,0.100259930819688,0.135501547095743
4.81184443821626,2.21568048431378,9.5376300411858,1.20399941607054,1.22501275386933,9.19186463038654,6.78224065456177,2.14702241619983,9.49248138510903,2.27854032537922,8.51232974212182,0.100263331607772,0.135505933522556
4.81184550897625,2.21568127361604,9.53763492615223,1.20399448853452,1.22501362194178,9.19187010632051,6.78224138973319,2.1470224222352,9.49248313622122,2.27854190930934,8.51232576717208,0.100263774898535,0.13550486758976
4.8118455070552,2.2156812714649,9.53763491592444,1.203994495724,1.22501362181782,9.19187009228409,6.78224138629986,2.14702242215841,9.49248313268484,2.27854190768709,8.51232577009118,0.100263777733321,0.135504871394348
4.8118433700005,2.215679697624,9.53762516914886,1.2040043341695,1.22501188614683,9.19185917204626,6.78223992360365,2.14702241026213,9.49247963858592,2.27853874341861,8.51233371303783,0.100262884849604,0.135506994843993
4.81184213847291,2.21568110274114,9.53763041241375,1.20400552012348,1.22500627122565,9.19186708058191,6.7822431089537,2.14702262928974,9.49247775541506,2.27854347495875,8.51233772286244,0.100259930850067,0.135501546918589
4.81184443809116,2.21568048424118,9.53763004069343,1.20399941652207,1.22501275380539,9.1918646297605,6.78224065443736,2.14702241619621,9.49248138490624,2.27854032531753,8.51232974237368,0.100263331700296,0.135505933646479
4.8118455089755,2.21568127361643,9.53763492615311,1.20399448853419,1.2250136219408,9.19187010632041,6.78224138973281,2.14702242223514,9.49248313622003,2.27854190931257,8.51232576717016,0.100263774900749,0.135504867588875
4.81184550705475,2.2156812714648,9.53763491592348,1.20399449572498,1.22501362181746,9.1918700922826,6.78224138629948,2.14702242215839,9.49248313268411,2.27854190768767,8.51232577009133,0.100263777734034,0.135504871394445
4.81184336984212,2.2156796975159,9.53762516847119,1.20400433487478,1.22501188600217,9.19185917129097,6.78223992350783,2.14702241026202,9.4924796383277,2.27853874321676,8.51233371361285,0.100262884782491,0.135506994976222
4.81184213930494,2.21568110256992,9.53763041264236,1.20400551865357,1.22500627278767,9.19186708101685,6.78224310883499,2.14702262931366,9.49247775676275,2.27854347328204,8.51233772190042,0.10025993049622,0.135501547830972
4.8118444381137,2.21568048425281,9.53763004077819,1.20399941644488,1.22501275381569,9.19186462987052,6.78224065446026,2.14702241619697,9.49248138494233,2.27854032532445,8.51232974233512,0.100263331679365,0.135505933625077
4.81184550898035,2.21568127361543,9.53763492615449,1.2039944885307,1.225013621946,9.19187010632778,6.78224138973592,2.14702242223544,9.49248313622772,2.27854190929837,8.51232576717618,0.100263774889556,0.135504867591592
4.81184550705395,2.21568127146673,9.53763491593212,1.20399449572007,1.22501362181395,9.1918700922914,6.78224138630096,2.14702242215836,9.49248313268293,2.27854190769705,8.51232577008605,0.100263777736876,0.135504871389408
4.81184337105192,2.21567969839628,9.53762517393376,1.20400432933555,1.22501188700386,9.19185917740718,6.78223992432098,2.14702241026793,9.49247964030486,2.27853874496698,8.51233370913516,0.100262885287567,0.135506993804674
4.8118421384702,2.21568110274134,9.53763041241116,1.20400552012865,1.22500627122191,9.19186708057779,6.78224310895305,2.14702262928976,9.49247775541088,2.27854347496333,8.51233772286453,0.100259930852555,0.135501546916973
4.81184443600132,2.21568048309949,9.53763003272165,1.20399942374334,1.22501275281122,9.19186461942269,6.78224065229293,2.1470224161269,9.49248138152686,2.27854032461314,8.51232974606379,0.100263333579675,0.135505935677091
4.81184550898204,2.21568127361682,9.53763492616276,1.20399448852183,1.22501362194779,9.19187010633631,6.78224138973665,2.14702242223542,9.49248313623049,2.27854190930194,8.51232576716791,0.100263774891664,0.135504867590009
4.81184550705456,2.21568127146462,9.5376349159224,1.20399449572601,1.22501362181735,9.19187009228142,6.78224138629933,2.14702242215839,9.4924831326838,2.27854190768717,8.51232577009221,0.100263777733866,0.135504871394736
4.81184337424308,2.21567970073993,9.53762518845504,1.20400431466477,1.22501188960558,9.19185919367654,6.78223992649779,2.14702241028553,9.49247964552211,2.27853874966535,8.5123336972906,0.100262886616826,0.135506990651023
4.81184213857996,2.21568110281815,9.53763041288991,1.20400551966586,1.22500627129731,9.19186708114284,6.78224310904453,2.14702262929099,9.49247775559085,2.27854347508393,8.51233772253152,0.100259930845956,0.13550154680458
4.81184443846227,2.2156804844607,9.53763004217129,1.20399941516675,1.22501275399512,9.19186463163213,6.78224065480626,2.1470224162069,9.49248138550863,2.27854032551805,8.51232974160525,0.100263331437844,0.135505933272844
4.81184550897718,2.21568127361579,9.53763492615224,1.20399448853397,1.22501362194287,9.19187010632161,6.78224138973371,2.14702242223525,9.49248313622269,2.27854190930644,8.51232576717329,0.100263774896407,0.13550486759043
4.81184550705443,2.21568127146496,9.53763491592393,1.20399449572511,1.22501362181675,9.19187009228298,6.78224138629958,2.14702242215838,9.49248313268361,2.27854190768884,8.51232577009124,0.100263777734392,0.135504871393856
4.81184336970709,2.21567969734433,9.53762516747865,1.20400433577478,1.22501188597739,9.19185917022127,6.7822399233641,2.14702241026153,9.49247963810605,2.27853874267636,8.51233371439495,0.100262884607141,0.135506995283512
4.81184213835363,2.2156811024215,9.53763041075653,1.2040055214428,1.22500627139248,9.19186707880162,6.7822431086816,2.14702262929492,9.4924777552123,2.27854347382841,8.51233772403819,0.100259930523837,0.135501547569232
4.81184443621392,2.21568048318896,9.53763003346156,1.20399942296567,1.22501275297538,9.19186462030993,6.78224065243307,2.14702241613231,9.49248138186202,2.2785403247102,8.512329745547,0.100263333517449,0.135505935546689
4.81184550864844,2.21568127343575,9.53763492493826,1.20399448970602,1.22501362171694,9.19187010480075,6.78224138945112,2.14702242222749,9.49248313568763,2.27854190918255,8.51232576788187,0.100263775082528,0.135504867854959
4.81184550705966,2.21568127146357,9.53763491592173,1.20399449572011,1.22501362182659,9.19187009228324,6.78224138629951,2.14702242215847,9.49248313269194,2.27854190767333,8.51232577009113,0.100263777728395,0.135504871400623
4.81184335427701,2.21567968494291,9.53762509348199,1.20400440604694,1.22501187651757,9.19185908470984,6.78223990969984,2.14702241019409,9.49247961303648,2.27853871967118,8.51233376695022,0.100262882905932,0.135507013907711
4.81184214060062,2.21568110423687,9.53763042178134,1.20400551046608,1.22500627309806,9.19186709101319,6.7822431102844,2.14702262929459,9.49247775889,2.27854347790624,8.51233771496924,0.100259931816544,0.135501545011856
4.81184443984275,2.21568048543025,9.5376300482726,1.20399940933327,1.22501275487825,9.19186463886341,6.78224065600101,2.1470224162318,9.49248138777035,2.27854032707341,8.51232973746997,0.100263331293798,0.13550593179554
4.8118455089835,2.2156812736181,9.53763492616891,1.20399448850738,1.22501362195542,9.19187010633532,6.78224138973159,2.14702242223513,9.49248313623296,2.27854190931023,8.51232576714436,0.100263774906463,0.135504867593015
4.81184550705504,2.21568127146495,9.53763491592444,1.20399449572398,1.22501362181774,9.19187009228379,6.78224138629968,2.14702242215839,9.49248313268459,2.27854190768769,8.51232577009068,0.100263777733917,0.135504871394294
4.81184337100285,2.21567969842868,9.53762517391941,1.2040043295969,1.22501188682569,9.19185917755134,6.7822399244521,2.14702241027,9.49247964024186,2.27853874490296,8.51233370954684,0.100262885032447,0.135506993671471
4.81184213860286,2.21568110283588,9.53763041300145,1.20400551952286,1.22500627133676,9.19186708123536,6.78224310903752,2.14702262929011,9.49247775562765,2.27854347515182,8.51233772236972,0.10025993091326,0.135501546794793
4.81184443787119,2.21568048412466,9.53763003989138,1.20399941728289,1.22501275366591,9.19186462873692,6.78224065423782,2.14702241619021,9.49248138454853,2.27854032525469,8.51232974280307,0.100263331856335,0.135505933827725
4.81184550883122,2.21568127351272,9.53763492547082,1.20399448911152,1.22501362191645,9.19187010545541,6.78224138955281,2.14702242223011,9.49248313598686,2.27854190915963,8.51232576748043,0.100263775021903,0.135504867799397
4.81184550700099,2.21568127143011,9.53763491571014,1.20399449594529,1.22501362176711,9.1918700920364,6.78224138626456,2.14702242215804,9.49248313259544,2.27854190764069,8.51232577026123,0.100263777726454,0.135504871434619
4.81184337856491,2.21567970435688,9.53762520936816,1.20400429519415,1.22501189225255,9.19185921826091,6.78223993055267,2.14702241033177,9.49247965273488,2.27853875591522,8.51233368295083,0.100262886767424,0.135506985213808
4.81184213900413,2.21568110312894,9.53763041476349,1.20400551776561,1.22500627166626,9.19186708325817,6.78224310933116,2.14702262928997,9.49247775629023,2.27854347564504,8.51233772100416,0.100259931000702,0.135501546410778
4.8118444385915,2.21568048458977,9.53763004287668,1.20399941446436,1.22501275410855,9.19186463238718,6.78224065489312,2.14702241620523,9.49248138572603,2.27854032582431,8.51232974097378,0.100263331578266,0.135505933106627
4.81184550855673,2.21568127339016,9.53763492463395,1.20399448975484,1.22501362182644,9.19187010416325,6.7822413891909,2.14702242221841,9.4924831355359,2.27854190938985,8.51232576749207,0.100263775581259,0.135504868040885
4.811845507055,2.21568127146501,9.53763491592469,1.20399449572385,1.22501362181761,9.19187009228403,6.78224138629972,2.14702242215839,9.49248313268452,2.27854190768803,8.51232577009051,0.100263777734038,0.135504871394128
4.81184337106014,2.21567969840272,9.53762517397213,1.20400432929789,1.22501188700954,9.19185917745062,6.78223992432752,2.14702241026768,9.49247964031791,2.27853874497908,8.51233370910615,0.100262885289434,0.135506993795734
4.8118421390714,2.21568110318191,9.53763041509395,1.20400551750138,1.2250062716686,9.19186708368636,6.78224310942658,2.1470226292935,9.49247775640019,2.27854347571304,8.51233772087805,0.100259930926283,0.135501546300877
4.81184444064325,2.21568048584709,9.53763005128698,1.20399940680247,1.2250127550927,9.19186464298361,6.7822406569717,2.14702241626486,9.49248138905493,2.27854032714134,8.51232973657085,0.100263330183488,0.135505930926024
4.81184550906184,2.21568127366356,9.5376349264722,1.20399448822732,1.22501362199914,9.19187010672128,6.78224138980785,2.14702242223737,9.49248313636067,2.27854190934432,8.51232576698655,0.100263774849868,0.135504867518648
4.81184550706172,2.2156812714554,9.53763491588384,1.20399449574338,1.22501362183948,9.19187009224397,6.78224138629295,2.14702242215855,9.49248313269484,2.27854190763586,8.51232577011464,0.100263777717454,0.135504871421173
4.81184333938672,2.2156796746661,9.53762502813562,1.20400447722558,1.22501186069942,9.19185901537004,6.78223990323574,2.14702241020499,9.49247958859343,2.27853869601675,8.51233383036146,0.100262869707627,0.135507025296438
4.81184214086925,2.21568110450457,9.53763042314195,1.20400550964337,1.22500627298702,9.1918670930241,6.78224311085861,2.1470226293061,9.49247775935909,2.2785434779626,8.51233771495639,0.10025993112548,0.135501544438296
4.81184443770364,2.21568048404301,9.53763003926039,1.20399941776098,1.22501275366723,9.19186462782365,6.78224065399622,2.14702241618048,9.49248138428185,2.27854032528103,8.51232974286799,0.100263332184491,0.135505934037957
4.81184550898181,2.21568127361953,9.53763492617526,1.20399448851336,1.22501362194461,9.19187010634927,6.7822413897387,2.14702242223535,9.49248313623026,2.27854190931327,8.51232576715945,0.100263774895231,0.135504867583864
4.81184550710462,2.21568127144868,9.53763491588764,1.20399449568373,1.22501362191797,9.19187009226592,6.78224138629346,2.14702242215912,9.49248313276371,2.27854190753017,8.51232577009119,0.100263777680064,0.135504871468099
4.81184336911132,2.21567969695434,9.53762516504014,1.20400433828495,1.2250118854467,9.19185916743577,6.78223992297373,2.14702241025908,9.4924796371346,2.27853874207161,8.51233371634494,0.100262884491501,0.135506995759326
4.81184214335577,2.21568110602487,9.53763043332091,1.2040055000006,1.22500627444285,9.1918671055074,6.78224311310917,2.14702262935289,9.49247776339078,2.27854347986681,8.51233770881992,0.100259930062126,0.135501541985356
4.81184444911409,2.2156804911939,9.53763008645823,1.20399937438456,1.22501275949958,9.19186468673764,6.78224066527191,2.14702241648723,9.49248140283532,2.27854033332151,8.51232971694261,0.100263325432912,0.13550592197365
4.81184550901067,2.21568127363747,9.53763492628809,1.20399448840142,1.22501362196777,9.19187010648465,6.78224138976097,2.14702242223578,9.49248313627771,2.27854190933277,8.51232576708139,0.100263774889501,0.13550486756038
4.81184548945087,2.21568125841569,9.53763483856954,1.20399457308408,1.22501360703952,9.19187000404187,6.78224137352226,2.14702242218666,9.49248310378094,2.27854188598106,8.51232583078533,0.100263773358359,0.135504888132924
4.81184343692635,2.2156797468513,9.53762547402847,1.20400402633064,1.22501194058452,9.19185951367076,6.78223996936701,2.14702241063142,9.49247974800524,2.27853884217446,8.51233346456725,0.100262912686731,0.135506928509918
4.81184213841806,2.21568110263803,9.53763041186682,1.20400552056424,1.22500627126146,9.19186707997286,6.78224310885344,2.14702262928988,9.49247775532186,2.27854347463958,8.51233772322519,0.100259930781927,0.135501547123025
4.81184450901295,2.21568052934719,9.53763033706128,1.20399914392083,1.22501279005229,9.191864998203,6.78224072435702,2.14702241806053,9.49248150025373,2.27854037857925,8.51232957718544,0.100263292076932,0.135505857703556
4.81184550947127,2.21568127391385,9.53763492812861,1.20399448665973,1.2250136222457,9.19187010875988,6.78224139017902,2.14702242224689,9.49248313702611,2.27854190963136,8.51232576599682,0.100263774663507,0.135504867122718
4.81184550658334,2.21568127110571,9.53763491381453,1.20399449782836,1.22501362142455,9.19187008988754,6.78224138595477,2.14702242216041,9.49248313191069,2.27854190707073,8.51232577175616,0.100263777596485,0.135504871857378
4.81184337212496,2.21567969918544,9.53762517881821,1.20400432440436,1.22501188787524,9.19185918288142,6.78223992505611,2.14702241027272,9.49247964205759,2.27853874654512,8.51233370515945,0.100262885728115,0.135506992742118
4.81184213830634,2.21568110245481,9.53763041089018,1.20400552137453,1.22500627129315,9.19186707888464,6.78224310867859,2.14702262928942,9.49247775513203,2.27854347410199,8.51233772389376,0.100259930661618,0.135501547469222
4.81184441547028,2.21568047012881,9.53762994745426,1.20399950227172,1.22501274217378,9.19186451329918,6.78224063212746,2.14702241558939,9.49248134812937,2.27854030967416,8.5123297935205,0.100263345193453,0.135505957412669
4.81184550761111,2.21568127280092,9.53763492073262,1.20399449355208,1.2250136211911,9.191870099497,6.78224138841229,2.14702242219891,9.49248313400064,2.27854190855739,8.51232577009983,0.100263775781846,0.135504868929757
4.8118455267343,2.21568128979473,9.53763502544489,1.20399439401548,1.22501363074961,9.19187021602541,6.78224140506602,2.14702242233164,9.49248316480638,2.27854195160611,8.5123256901694,0.10026378598046,0.13550484101103
4.81184344238384,2.21567975078977,9.53762549842425,1.20400400062606,1.22501194580624,9.19185954012796,6.78223997234684,2.14702241061221,9.49247975690239,2.27853885058782,8.51233344255708,0.100262916428341,0.135506923799274
4.81184212804202,2.21568109367912,9.53763035953946,1.20400557014299,1.22500626473897,9.19186702007174,6.78224309972995,2.14702262923409,9.49247773812855,2.27854345660658,8.51233776178776,0.10025992778188,0.135501560553825
4.81184451531195,2.21568053226937,9.53763035872436,1.2039991248112,1.22501279282429,9.19186502787502,6.78224073117513,2.14702241830966,9.49248151041152,2.27854037786465,8.51232956993051,0.100263284037774,0.135505852181006
4.81184552095694,2.21568128358226,9.53763498496623,1.2039944252568,1.22501363490119,9.19187016678044,6.78224139476878,2.14702242207272,9.49248315592424,2.27854193483767,8.51232570782762,0.100263790302632,0.135504856454843
4.81184550697859,2.21568127062232,9.53763491167421,1.20399449875887,1.22501362251897,9.19187008768656,6.7822413856353,2.14702242205433,9.49248313235288,2.27854190435037,8.51232577306191,0.100263776636871,0.135504873336059
4.81184339868435,2.21567971382732,9.53762528110309,1.20400423825891,1.22501189565588,9.1918593214717,6.78223995709179,2.14702241139106,9.49247968507947,2.27853875101668,8.51233367177207,0.100262851086597,0.135506963253044
4.81184213629361,2.21568110119189,9.53763040301248,1.20400552953558,1.22500626942285,9.1918670697625,6.78224310737429,2.14702262928808,9.49247775182655,2.27854347243037,8.51233773012209,0.100259930452654,0.135501548934301
4.81184428907401,2.21568039118923,9.53762942525693,1.20399998037763,1.22501267909305,9.1918638594473,6.7822405058686,2.14702241211925,9.49248114269928,2.27854022269423,8.51233007569192,0.100263423713157,0.135506091800119
4.81184551251885,2.21568127578566,9.53763494042038,1.20399447506121,1.2250136240855,9.19187012393652,6.78224139296558,2.14702242231687,9.49248314198831,2.27854191168839,8.51232575872842,0.100263773209151,0.13550486417764
4.81184551517776,2.21568127584461,9.53763494283585,1.20399446603627,1.22501363080016,9.19187012358389,6.78224139071803,2.14702242199686,9.49248314580741,2.27854191029904,8.51232574767576,0.100263777714467,0.135504867939917
4.8118434317504,2.21567974176824,9.53762544514439,1.20400405854594,1.2250119339127,9.19185948629869,6.78223996843079,2.14702241079951,9.4924797394373,2.27853882613409,8.51233349810915,0.100262900806095,0.135506933702987
4.81184215282204,2.21568111727843,9.53763049589218,1.20400544273733,1.22500627819413,9.19186717406443,6.78224312265368,2.14702262928083,9.49247777921519,2.27854351051407,8.51233765989781,0.100259939585355,0.135501523540318
4.81184445700906,2.21568049652764,9.53763012026775,1.20399934282953,1.22501276372989,9.19186472782818,6.78224067281294,2.14702241649106,9.49248141545612,2.2785403403917,8.51232969672839,0.100263322149814,0.135505913494657
4.81184549020455,2.21568126419797,9.53763485909348,1.20399454399792,1.22501361628543,9.19187001212904,6.78224136666119,2.14702242141215,9.49248310579255,2.27854191219608,8.5123257835012,0.100263803651813,0.135504886792416
4.81184550104495,2.21568126960114,9.53763490278516,1.20399451311682,1.22501361324848,9.19187007626502,6.7822413843339,2.14702242215933,9.49248312283344,2.2785419115626,8.51232578268043,0.100263779063243,0.135504870627479
4.81184323083134,2.21567958442476,9.53762449152879,1.20400498182864,1.22501180053118,9.19185839649407,6.78223980323867,2.14702241057164,9.49247941350491,2.27853852128508,8.51233420636842,0.100262857498344,0.135507164587208
4.81184216977104,2.21568112425644,9.53763054524683,1.20400538456025,1.22500629872179,9.19186723190554,6.78224312984535,2.14702262938838,9.49247780692759,2.27854351123189,8.51233761597494,0.100259939235081,0.135501519877937
4.81184422227694,2.21568065335043,9.53763095880598,1.20399965515606,1.22501161631576,9.19186608169443,6.7822412500974,2.14702243735941,9.49248101921807,2.27854120168101,8.51233063948046,0.100262669239521,0.135504929307059
4.81184548992841,2.21568126189894,9.53763484822434,1.20399456108391,1.22501361154545,9.19187000959783,6.7822413715892,2.14702242174265,9.49248310529181,2.27854189597131,8.51232581146107,0.100263785155682,0.135504886960764
4.81184539651703,2.21568119067008,9.53763443062808,1.20399497743407,1.22501353359329,9.19186953440505,6.78224130337935,2.14702242217564,9.4924829515054,2.27854177363149,8.51232614070626,0.100263758041229,0.135504978388354
4.81184347680151,2.2156797325601,9.53762543491379,1.20400396635198,1.22501205315789,9.19185945868231,6.78223993616395,2.14702241145333,9.49247981564745,2.27853873595288,8.51233338988702,0.100262931066395,0.135507010238126
4.81184209501395,2.21568106966198,9.53763021353589,1.20400571614811,1.22500623776662,9.19186685326334,6.78224307589724,2.14702262912801,9.49247768371266,2.27854341438242,8.51233787608302,0.100259919330831,0.135501592378857
4.81184472346868,2.21568061576353,9.53763097598934,1.20399833003128,1.22501309272591,9.19186568320887,6.78224076684376,2.1470224194529,9.49248185351925,2.27854046081942,8.51232886207092,0.100263409161651,0.135505837117742
4.81184542021424,2.21568121517077,9.53763454895144,1.20399484882218,1.22501356632238,9.19186965310166,6.78224131207001,2.1470224205243,9.49248299162946,2.27854182528052,8.51232601196832,0.100263796603859,0.135504957883521
4.81184577450879,2.2156814520019,9.53763600956411,1.20399338300643,1.22501386041402,9.19187135462107,6.78224157064369,2.14702242253535,9.49248357205371,2.27854216389137,8.51232491623485,0.100263813168888,0.135504653080816
4.81184359786808,2.21568012304817,9.53762737073914,1.20400287297178,1.22501154693954,9.19186192061098,6.78224055819724,2.14702243926781,9.49248003233618,2.278539716622,8.5123329395363,0.10026261431293,0.13550602433208
4.81184036629175,2.21567989827146,9.53762346085786,1.20401263344964,1.22500450650465,9.19185901567977,6.78224193874517,2.14702255397381,9.49247477809142,2.27854223173879,8.5123431945704,0.100259785221872,0.135502830022349
4.8118448195374,2.2156808124342,9.5376320789588,1.20399789684946,1.22501264698634,9.19186732427761,6.78224129406755,2.14702243394176,9.49248200472606,2.2785407803135,8.51232914065403,0.10026277806422,0.135505181761519
4.81184542653956,2.21568122636182,9.53763461454803,1.2039948107709,1.22501354903923,9.19186974002784,6.78224133487088,2.14702242127061,9.49248300177357,2.27854185253164,8.51232600275164,0.100263778409967,0.135504925310763
4.81184554171811,2.21568129665363,9.5376350738795,1.20399434264285,1.22501364436694,9.19187027562491,6.78224141478404,2.14702242237671,9.49248318903779,2.27854195413605,8.51232565663636,0.100263780410076,0.13550483375391
4.81184359469294,2.21567991215272,9.53762640033519,1.20400323731946,1.22501197266519,9.19186061304752,6.7822401701962,2.14702241501714,9.49248001156981,2.27853917841938,8.51233291136657,0.100262897803588,0.135506635010999
4.81184325544063,2.21568196716213,9.53763598097033,1.20400072149259,1.225006488056,9.19187395185524,6.78224445496515,2.14702266011858,9.49247956269638,2.27854500654102,8.51233484322421,0.100259286189022,0.135499847680008
4.81184560648791,2.21568124719516,9.53763490838859,1.20399450361331,1.22501370580158,9.19187026229935,6.78224148306614,2.14702242952163,9.49248329537795,2.27854154025666,8.51232603091372,0.100263452008941,0.135504917485875
4.81184537028961,2.21568118050689,9.53763429852146,1.20399494147745,1.22501365279906,9.19186922514188,6.78224116101306,2.14702241374481,9.49248291225742,2.27854185769229,8.51232586095488,0.100264043384468,0.135505098325037
4.8118450420639,2.21568097283778,9.53763299636575,1.20399655236221,1.22501314647084,9.19186797430363,6.78224114674935,2.14702241392854,9.49248236312685,2.278541337637,8.5123275039754,0.10026352147948,0.135505210086143
4.81184490230441,2.21568195269071,9.53763677709335,1.2039969489615,1.22501027726108,9.19187447271963,6.78224380999249,2.14702263297621,9.49248226991365,2.27854230976002,8.51233104712797,0.100259929881345,0.135501905016831
4.81184134746295,2.21568258909994,9.53763634539591,1.20400565382543,1.22500132309658,9.19187591037376,6.78224641481482,2.14702285009051,9.49247659330509,2.27854764597752,8.51234107465721,0.100256740744453,0.135496272337152
4.81184521307447,2.21568102760408,9.53763350979482,1.20399590288778,1.2250133685265,9.19186852974032,6.78224118234685,2.14702242245713,9.49248264300759,2.27854141826193,8.51232694593481,0.100263607640482,0.135505185169305
4.81184516703982,2.21568114927205,9.53763401704081,1.20399558776458,1.22501321828355,9.1918690249057,6.78224124056135,2.14702243274037,9.49248259951449,2.2785419734635,8.51232654321709,0.100263847676015,0.135504908930152
4.8118446743088,2.21568075465605,9.53763220397307,1.20399785109008,1.22501238291546,9.19186728711364,6.78224119639252,2.14702245277477,9.49248184791451,2.27854139199425,8.51232888887742,0.100263151860142,0.135504981969746
4.811841929319,2.21567892777008,9.53762001765459,1.20401025839241,1.22501014186746,9.19185353992871,6.78223939291765,2.14702239637006,9.49247725681456,2.27853759126279,8.5123387850217,0.100262121138378,0.135507607405387
4.81184486509684,2.21568193910738,9.53763666470005,1.20399710997506,1.22501021651556,9.19187437219318,6.78224381501305,2.14702263391872,9.49248221209329,2.27854227632258,8.51233120992198,0.100259879959832,0.135501900655872
4.81183950122768,2.21567811100349,9.5376140959383,1.20401793608551,1.22500675999469,9.19184662753658,6.78223866179111,2.14702238867781,9.49247329128887,2.27853841055317,8.51234468452425,0.100262185112892,0.135507489546216
4.81183743015621,2.21567481332055,9.53759621583787,1.20403287784968,1.2250073860984,9.19182678407929,6.7822354942606,2.14702240514818,9.49246985187786,2.2785285970383,8.51235692771323,0.100260042424821,0.135513775657335
4.81185752599949,2.21568589344236,9.53767005607477,1.20394729679021,1.22503207903403,9.19190583137286,6.78224213748796,2.14702244784066,9.49250288010494,2.27854761119458,8.51228174254898,0.100273543263229,0.135505064615773
4.81584722312406,2.21865309614712,9.53558545012991,1.20263783987171,1.23329175491216,9.19146574501175,6.78074315240468,2.14838763622151,9.48884074276288,2.28212487271948,8.50324287988852,0.107321024628744,0.140467916228514
4.7763932845337,2.29903925091341,9.51485255703473,1.28184376836738,1.24895142705551,9.15060461195422,6.79070031641023,2.14641541439649,9.418214076604,2.32834097308261,8.44793457510291,0.174669495198835,0.143694324125177
4.81285173282303,2.21673184062482,9.53928069723785,1.2005433385246,1.22777625748729,9.19402124295666,6.78172417946831,2.14674073269896,9.49431116674388,2.27924071944974,8.50862958601775,0.101659560406095,0.136289352366157
4.82717077906587,2.22483429529207,9.54835601991001,1.17368654892122,1.24965401610166,9.19897460509048,6.78180413720104,2.14951178279082,9.48956815766029,2.28312034188564,8.46992678820995,0.121248858817759,0.150889446958557
4.81161350093874,2.21681761245805,9.53781680120579,1.2045506308058,1.22629787800438,9.19175790746733,6.78266235856036,2.14670955743854,9.49169176254213,2.27925223246469,8.50958110517507,0.102213362697908,0.135801853990871
