"fastcoef_sq","pref_flow_den","slowcoef_sq","soil_moist_max","soil2gw_max","fastcoef_lin","gwflow_coef","jh_coef","slowcoef_lin","sat_threshold","carea_max","smidx_coef","smidx_exp"
4.74793496670171,2.72419323109213,9.5472668627387,1.21467007527481,1.60653050039462,8.90860495711604,6.80309989681307,2.05397882830085,9.21265174934924,2.42144282285876,7.84819616231722,0.617125310100261,0.246149330806309
4.73107543282506,2.7430521575184,9.55186966908485,1.19610620428519,1.61856454641711,8.88081408465969,6.78286246062333,2.04579063233408,9.19112040520096,2.4644042822711,7.77946016730789,0.676391576140982,0.253539848947157
4.70977178144055,2.79767410042026,9.54468251530511,1.25372001770386,1.6280465679604,8.89283710327847,6.80318597916245,2.03853138689899,9.17995723733227,2.44472361904,7.81062484966733,0.669244615390955,0.240002303190563
4.77504069089615,2.59510837649112,9.62638009005228,1.00032754416338,1.60551324092937,8.85292947053077,6.71281769978281,2.02425614866935,9.31224837646762,2.49658338689487,7.67761905435873,0.73176314851108,0.25395261516676
4.71428881434022,2.84439107874406,9.49770471530606,1.33834109583944,1.63350507035488,8.91767370337768,6.83974219841233,2.06466618053602,9.12610500168842,2.41242678375028,7.88069482254611,0.61384328519894,0.249533982335984
4.63463116790552,2.70466625591775,9.60615696381294,1.09004146810849,1.52671677403529,8.80418692688009,6.5587757488019,2.06893340151875,9.0678300873932,2.92877828926313,7.39938650374729,1.09611082470287,0.23148914803538
4.69415594404721,2.76565062976925,9.63531217658402,1.1183926280903,1.58515354032733,8.89469017317652,6.76621713065063,1.97324254327128,9.24452825971747,2.52790343999653,7.74624899260226,0.742928863926486,0.175033390165362
4.79235251671335,2.67317049745961,9.60276416221192,0.98883549348981,1.70195847797929,8.87468634116333,6.6443241001296,2.05219222187674,9.24912885557969,2.49928360116445,7.55587492203879,0.824451305531398,0.338541482209803
4.73396546128113,2.63900801883526,9.63256834550953,1.00654398064355,1.59846786312371,8.81118043218839,6.65377489392141,2.01616452762875,9.25865686742326,2.62424997546261,7.5569153587683,0.876970507129806,0.235088083362456
4.73326308108949,2.62692728220991,9.62930920227529,0.979751352001862,1.62215201151536,8.94736256494776,6.65385796597618,2.08296264432112,9.20639652354189,2.5510521512386,7.49344718444133,0.826250418213218,0.211233386563179
4.64414819956406,2.83254895126194,9.59265619935096,1.23349705576309,1.51637747590079,8.84117498920959,6.70844434214274,2.02575417412514,9.02472094456306,2.81041027349776,7.56479796648312,0.930688512882676,0.170478887632049
4.60906575440779,2.95374554952771,9.62609344804744,1.20594164448391,1.69480571129718,8.88425129202163,6.66869644923393,1.9582679126989,9.15890969909705,2.64202060166019,7.50796988178776,1.03466667113174,0.206461930527277
4.63648231854855,2.98044796524365,9.51740944860851,1.26953479942648,1.69387122934153,8.73072137738912,6.7176445648183,2.05307564217206,8.94063154515881,2.755790965587,7.44511573545898,1.0220546167425,0.283948473390922
4.56946205405015,3.07417290494496,9.56688867257278,1.31566900081,1.70538072829834,8.68360563516917,6.76729368666994,1.98069915299441,8.93950408669939,2.8042405634375,7.4121009450881,1.1166676951705,0.202068891343362
4.60884567660128,3.12343988595654,9.43060960052258,1.36841067903563,1.92614138987069,8.56074014931411,6.60036961188138,2.11564167624069,8.79146459670852,2.85162352154515,7.02540864389646,1.40830123645977,0.450609337936743
4.61884621667196,2.9992851349252,9.58937448686554,1.16463149056883,1.78293498154086,8.63902820135836,6.64353156580678,1.99083695917671,8.99794903595835,2.80782520105594,7.19041469913423,1.25477101033272,0.298333776232803
4.59341968281647,3.00639087431248,9.61693321886816,1.16417751240524,1.75909467645259,8.69056398243492,6.64923190738599,1.96383083875126,9.03277899525587,2.7886545189915,7.24902224509875,1.23163628778234,0.263403845303167
4.60629004409515,3.08856315992785,9.53249258802364,1.32384385066974,1.77830171406063,8.74799290679094,6.72640481019381,2.00805377224458,8.973074834194,2.6806905445778,7.41452859320779,1.0871983622933,0.276589343321581
4.56754275082268,3.08913102100558,9.53744508442692,1.36503046821859,1.69756884714614,8.71428030661466,6.77993514354115,1.99548710167203,8.92127385808652,2.77103450626119,7.47019865793613,1.06672873427603,0.207799650655322
4.571952606857,3.08660288365152,9.55035645156877,1.34144560255567,1.7083015982212,8.69439522999907,6.76952741499997,1.99006637467415,8.92888845035369,2.78789077457191,7.43253250383233,1.09980187605987,0.207616944532806
4.61102966704622,3.12505198637673,9.42794866890382,1.39253777244095,1.91139259640875,8.58233085275345,6.61886817690992,2.11376840691392,8.80068572844979,2.8261804892306,7.0812696526066,1.36653217177567,0.436576555400163
4.60961451884583,3.12824387462987,9.43392015310574,1.36662066688528,1.92405864606125,8.55804631836672,6.61046017193493,2.11047340774206,8.79181571221769,2.84723515028507,7.03444512987397,1.39791767443051,0.445068276068856
4.57507219264064,3.05683903027395,9.58137896707714,1.15468947370804,1.79505378840844,8.53070923421808,6.61954224311397,1.98472147918492,8.89062266574665,2.94117726534572,7.04115196085033,1.39419645666593,0.307278628848381
4.57983573766471,3.15473253279142,9.46626372300232,1.58399385346563,1.69504559157531,8.85499784227839,6.86878497174945,2.02731644163918,8.92115859939663,2.55035270045884,7.76540467026708,0.841398156390886,0.20770673370321
4.59943213090642,3.22536362026952,9.44453656877863,1.44285877515841,1.8577611209553,8.61880515286157,6.78416811505431,2.05219708445919,8.79410678470545,2.71578797181025,7.32682612408174,1.13762449501008,0.341507936384724
4.60844800484021,3.33957341658782,9.2331225237707,2.10616542043141,1.66210999261372,9.13072770414053,7.11596684331808,2.1345888488055,8.82476384319224,2.1776482167663,8.40434314377634,0.320580501179388,0.187600114771507
3.44727079842368,4.2620187759355,8.16657171704834,4.98370940157555,2.35928841221895,7.03001801258036,7.52650137998976,1.53096544913591,6.43731023827677,4.3263568477069,5.10985339296647,3.97112689259265,0.418100447706236
