"fastcoef_sq","pref_flow_den","slowcoef_sq","soil_moist_max","soil2gw_max","fastcoef_lin","gwflow_coef","jh_coef","slowcoef_lin","sat_threshold","carea_max","smidx_coef","smidx_exp"
4.81489796026258,2.21823263246371,9.55289471165478,1.18948761426979,1.22685396255363,9.20929711812324,6.78490503828639,2.14705380705781,9.49746981495464,2.28377540519014,8.50113446526586,0.101057319528281,0.131608330944633
4.81446200391545,2.21830459954399,9.55329889691595,1.18958260940279,1.2259990147372,9.20938295536514,6.78482637400514,2.14705918521156,9.49677233241968,2.28547832189341,8.50070287712263,0.101859146353626,0.130985417202481
4.81441594570514,2.21833867227003,9.55342531523315,1.1895070597496,1.22592219959859,9.20944945426455,6.78480929475205,2.14705887916857,9.49670322663123,2.28573435539173,8.50053360561497,0.102013768076841,0.130899218431369
4.81445322890922,2.21835767050795,9.5535577739355,1.18933604432265,1.22597866589529,9.20957647462759,6.78481049302151,2.14705764191026,9.49676308873808,2.28578350834784,8.50036255752751,0.102065706064545,0.130892121099493
4.81460535831947,2.21838804953381,9.55379289635215,1.18892516349327,1.22625519930162,9.20984340126116,6.78481271129595,2.1470593547386,9.4970177463349,2.28562522865372,8.50001717348194,0.102077466847419,0.130980390251338
4.81462077437004,2.21837610947142,9.55375433344694,1.18894997432107,1.22627536739242,9.20982686424864,6.78482177573834,2.14705876002167,9.49703871351579,2.28554617514727,8.5000772126865,0.102023162117367,0.13100523558162
4.81463440304207,2.21838818316388,9.55386926529838,1.18880015412411,1.2262999902409,9.20990876976985,6.78480225337523,2.14705855311857,9.49706161125385,2.28565826788479,8.49988932925189,0.102122001648083,0.130989081339499
4.81455167777685,2.21835907363627,9.55361835140037,1.18916626035066,1.22615301189778,9.20968283867795,6.78482238597006,2.14705793027621,9.49692336127022,2.28557946283236,8.50027342661563,0.101993443782526,0.130975784240883
4.81454064459401,2.21836723404117,9.55364320113862,1.18914693066838,1.22614569415803,9.2096899280072,6.78481109665359,2.14706034281584,9.49691218087152,2.28563411531344,8.50022112600513,0.102040454812137,0.130961768390391
4.81478153080319,2.21844797470165,9.5542126522127,1.18831206126439,1.22655517611522,9.21027392255899,6.78481724135152,2.1470582169491,9.49730818347893,2.28561197149785,8.49944727683548,0.102187183177921,0.131026293949969
4.81476424200022,2.21845353466763,9.55419402505475,1.18836256649714,1.22652492123555,9.21025728533481,6.78482477219173,2.1470577026846,9.49728086371779,2.28562114170879,8.49949439415825,0.102176284560536,0.131010783649539
4.81484718633155,2.2184207872111,9.55411118173943,1.18833283816638,1.22667937043275,9.21023000284717,6.78482766009741,2.1470590753268,9.49741322933683,2.28532272158957,8.49956182424825,0.102040346717458,0.131132210234433
4.81525120543476,2.21847524175522,9.55467973107758,1.18723520864245,1.22735060653754,9.21080990065459,6.7848298301546,2.14700678310176,9.49799739297373,2.28494891277013,8.49868566986127,0.102048813615536,0.131401038481957
4.81551419744526,2.21858702174965,9.55534602768799,1.18634596567714,1.22784900185398,9.21157105111498,6.78484608030348,2.14705740328841,9.49851566065482,2.28485354216324,8.49783916175408,0.102199476177268,0.131438614147192
4.81535690093056,2.21862266759604,9.55555081781473,1.18631568152652,1.22750035163835,9.21162698444043,6.78482411998118,2.14703717880602,9.4982231337789,2.2855520096512,8.49763453369781,0.102504865500738,0.13119567026898
4.81584351890341,2.2188125870526,9.55671879209547,1.18462253991608,1.22839725330741,9.21283537734759,6.78482538666017,2.14705630805421,9.49907303270583,2.28548822648791,8.4959959249295,0.102861080902448,0.131326997888118
4.815718254241,2.21892193855196,9.55708762864543,1.18438732188274,1.22818379256399,9.21301966866331,6.7847779363833,2.14704225767441,9.49886990551901,2.28618152982947,8.49551668612581,0.103274914462094,0.131093496432996
4.81596276266169,2.21895542961677,9.55749664922427,1.18361191521229,1.22859911214922,9.21338328544762,6.78473946418529,2.14700812110868,9.49922060631787,2.28604715947744,8.49483167173637,0.103373791895944,0.131257213266781
4.81118333345714,2.21786370002119,9.54896871951182,1.19760416576343,1.22024258383194,9.20408676030583,6.78462294927076,2.1470419609537,9.49137316538317,2.28962382739155,8.5068504740868,0.102391997686024,0.128941221834405
4.81623494322078,2.2190611111945,9.55799279471716,1.18306801298226,1.22903157442475,9.21419086804989,6.78490248287171,2.14706853168218,9.49976993202194,2.28555652016365,8.49458295909417,0.103092343384587,0.131272362755852
4.81733661755086,2.21939723475872,9.56069966678968,1.17906423310965,1.23080571613639,9.21685058806813,6.78490468814505,2.14700887692637,9.50148066909696,2.28575730818623,8.49084846477978,0.103895925628622,0.131543762015614
4.81326096043837,2.21803929536033,9.55124014625303,1.19296892470595,1.22391123482393,9.20707267632651,6.78475665247917,2.14706246902335,9.49479823175562,2.28647879873395,8.50354574811018,0.101715661292544,0.130400178208907
4.81852481806166,2.21947891466669,9.56180520297055,1.1764885382602,1.23310390168463,9.21832131560227,6.78486542085985,2.14706457733258,9.50352755866535,2.28376962903046,8.48885951180069,0.103638194677591,0.132522261928164
4.81856423461245,2.21954495259205,9.56188834302215,1.17647426131943,1.23315179445841,9.21847699695127,6.78495734064144,2.14705425170478,9.50358270021812,2.28365718438956,8.48892637886294,0.103518608018263,0.132496492770197
4.8179245353074,2.21924741531457,9.56025076112006,1.17858656397626,1.23200759038976,9.21657802939352,6.78484530662489,2.14697119181195,9.50236919977371,2.28388959032115,8.49084320276601,0.103262006398228,0.132441900770575
4.81902218459362,2.22020537225459,9.56141055315555,1.17504033156641,1.23537703470106,9.21668552055141,6.78413868783678,2.14674029101952,9.5035488799814,2.28312604507432,8.4857799356232,0.105296311057724,0.13422137332884
4.82768188950793,2.23232693692416,9.56288419309449,1.14976430558909,1.26908665922379,9.22492699788286,6.77370063423102,2.14250798513987,9.52130385225798,2.28954907507234,8.45376176301568,0.122768554636987,0.148336645954795
