"fastcoef_sq","pref_flow_den","slowcoef_sq","soil_moist_max","soil2gw_max","fastcoef_lin","gwflow_coef","jh_coef","slowcoef_lin","sat_threshold","carea_max","smidx_coef","smidx_exp"
4.85523169330825,2.22483827358117,9.61544515974053,1.06917393665156,1.29549071732137,9.26533697398478,6.78213364174425,2.14044791115131,9.55396942427806,2.25737480112453,8.39689146897201,0.113181181702626,0.158783098756845
4.855249876329,2.22483623764883,9.61545126803666,1.06905617725443,1.29560893980541,9.26528822782346,6.78205442739328,2.14046193146484,9.55402644850873,2.25737145000011,8.39667224040851,0.113318123076496,0.158851572227993
4.85525790878777,2.22483405358777,9.61545114846621,1.0691179759105,1.29557245197152,9.26535375264646,6.78210923973472,2.14046400242865,9.55403589151571,2.25731045132201,8.39681850505345,0.113201655988095,0.158824410960312
4.85525413124409,2.22476483859854,9.61545061978381,1.06911880318423,1.29547490625043,9.26535312588531,6.78211509666124,2.14046149893841,9.55402392905585,2.25735272185113,8.39690813945608,0.113144061645729,0.158790124386979
4.85523034998506,2.22483672016336,9.61544625102495,1.06913029939757,1.29553007518577,9.26530819004599,6.78209240469012,2.1404569497152,9.55398157049493,2.25739988412562,8.39678841670999,0.113258658692255,0.158807844877913
4.85526304589022,2.22481888532477,9.61545556205599,1.06902554865613,1.29565390238352,9.2653163875008,6.78202928176069,2.14048676758029,9.55408082537275,2.25733618533258,8.39663277555445,0.113332250933138,0.158876328274103
4.85529556216503,2.22479875739581,9.61547191198383,1.06899504026532,1.29567838847279,9.26535452720831,6.78205017394885,2.14047839773701,9.55413844491719,2.25725244462831,8.39667364890638,0.11326421720699,0.158882738345253
4.85530525657659,2.22483900312329,9.6154617902529,1.06899044023282,1.29572699337512,9.2653363658848,6.78206519735562,2.14046804087348,9.55413296768419,2.25720861781903,8.39664645144722,0.113262561860538,0.158904555316775
4.85521460240317,2.22483877879794,9.61544258712739,1.06915324533508,1.29548932664173,9.265288794273,6.78209813879264,2.14044840776582,9.55394342451017,2.25744501983823,8.39680796711322,0.113264247748329,0.158788391285951
4.85518796323294,2.22483638204662,9.61543985672575,1.069116399934,1.29548974050255,9.2652179003796,6.78203772049748,2.14045202942102,9.55390703858713,2.25755479086672,8.3966723428197,0.113397715371222,0.158798939568669
4.85522126376331,2.22483559942784,9.61544525027907,1.06911484803358,1.2955315552643,9.26528079602073,6.78206975664796,2.14045801739067,9.55396900923058,2.25743949743085,8.39673625448111,0.11330852037359,0.158812434553242
4.85538527817635,2.22483248016847,9.61547885434455,1.06879581422997,1.29598091482272,9.26535866605042,6.78197641755625,2.14049986606573,9.55431929143445,2.25703051149973,8.39638625545543,0.113353575994835,0.159037365493206
4.85537055185561,2.22451983654033,9.61556511823173,1.06889267130838,1.29543096927134,9.26565521492189,6.78207989422528,2.1405373682188,9.55427687303305,2.2572523725858,8.39702700797994,0.112920378946628,0.158824792737657
4.85565186806795,2.22475883449987,9.61554175184029,1.06828655027242,1.29678369601353,9.26562169263138,6.78174812679286,2.14070957102293,9.55503468424764,2.25634073875142,8.39575399347882,0.113486803123297,0.159439022134396
4.85599415947658,2.22336116292719,9.61558987277475,1.06796998240442,1.29600306967882,9.26641235991436,6.78179226481058,2.14081813322006,9.55608943776513,2.25542243361716,8.39756313551514,0.111828039920076,0.159175627360832
4.85597385961776,2.224827693169,9.61559386084276,1.06786513703596,1.29743092629312,9.26579090601809,6.78181530844219,2.1406378238451,9.55554073258046,2.25545341177851,8.39558027543823,0.113187183044414,0.159736973554618
4.85576921991764,2.22347533687392,9.61597280195387,1.067970584368,1.29521226274841,9.26657896793526,6.78184404200769,2.14079485995324,9.5552469023877,2.25698466470881,8.39734287164909,0.1122480351757,0.158918821449871
4.85589013736168,2.22484518972055,9.61558752571474,1.0677955485473,1.29738376668787,9.26552558974915,6.78173669577947,2.14060406589105,9.55538007804243,2.25575740317696,8.39527934800413,0.11348769516611,0.159730592087613
4.85615866019491,2.22411076642013,9.61587377047079,1.06682460240014,1.29793717448722,9.26503982475032,6.78130568088715,2.1403800596326,9.55651569679924,2.2551452586706,8.394510228489,0.11396776033323,0.159801611693358
4.85519406648506,2.2240596543979,9.61567221160821,1.06892958897447,1.29452465630197,9.26569541103281,6.78200044162437,2.14053511794728,9.55397013256472,2.2581227136508,8.39745782691205,0.112855995605706,0.1584858422326
4.85626184022598,2.22121990602626,9.61669225398837,1.06696174497412,1.29340388362046,9.26877456101264,6.78171797877276,2.14136374747826,9.55637602146347,2.25731881954303,8.39945754013974,0.110153901913837,0.158560552272904
4.85495192695442,2.22532162013801,9.61520950970799,1.06984021678662,1.29535825630394,9.2649318679365,6.78226783303928,2.14037477226792,9.55336792362223,2.25770256474592,8.39698543783384,0.113463575824477,0.158632702300606
4.85281230709255,2.22816058707811,9.61364391538486,1.07402965403405,1.29479173199821,9.26013710754213,6.78303474321145,2.13895450855171,9.54996273386474,2.2593236873226,8.39685681481381,0.11639003531215,0.15701213258373
4.85388806555149,2.22577733699587,9.61473503086999,1.07211610819592,1.29326315589181,9.26410435528751,6.78272994037391,2.14010824137572,9.55130670986233,2.25970903223941,8.39870032833787,0.113638102380308,0.157391944226371
4.85109360697324,2.25260129636836,9.6152293003577,1.06713302408294,1.32089289050516,9.23678350116995,6.77874527109549,2.134312970223,9.53725478444205,2.27078884263191,8.34673402048708,0.15594828031292,0.167458313920632
4.84939614559467,2.2424045158936,9.61357395528347,1.07325675491894,1.30674382229551,9.24997624149945,6.779870430638,2.13666070223932,9.54230974343622,2.26705792870605,8.37220808734471,0.137483945559399,0.161070309335069
5.01199811399757,2.38926787653958,9.27768838655861,1.30108098529905,1.67140207630976,9.02776730158577,6.67799287569259,2.23755999100603,9.1724562992798,2.52057695023731,8.08398444522803,0.538557264150947,0.441157008531883
