"fastcoef_sq","pref_flow_den","slowcoef_sq","soil_moist_max","soil2gw_max","fastcoef_lin","gwflow_coef","jh_coef","slowcoef_lin","sat_threshold","carea_max","smidx_coef","smidx_exp"
4.81184550897492,2.21568127361664,9.53763492615337,1.20399448853431,1.2250136219401,9.19187010631997,6.7822413897325,2.14702242223511,9.49248313621912,2.27854190931462,8.51232576716915,0.100263774902199,0.135504867588357
4.81184550898303,2.2156812736125,9.53763492614424,1.20399448853752,1.22501362195051,9.19187010632138,6.7822413897366,2.1470224222357,9.49248313623185,2.27854190928021,8.51232576718941,0.100263774878578,0.135504867597744
4.81184550897913,2.21568127361453,9.5376349261488,1.20399448853582,1.22501362194549,9.19187010632086,6.78224138973464,2.14702242223541,9.49248313622574,2.27854190929692,8.51232576717948,0.100263774890033,0.135504867593166
4.81184550897931,2.21568127361442,9.53763492614852,1.20399448853597,1.22501362194572,9.19187010632081,6.78224138973472,2.14702242223542,9.49248313622601,2.27854190929609,8.51232576718001,0.100263774889472,0.135504867593401
4.81184550897521,2.21568127361653,9.53763492615324,1.20399448853425,1.22501362194045,9.19187010632019,6.78224138973266,2.14702242223512,9.49248313621958,2.2785419093136,8.51232576716966,0.100263774901474,0.135504867588616
4.81184550898033,2.21568127361427,9.53763492614908,1.20399448853501,1.22501362194678,9.19187010632263,6.78224138973541,2.14702242223548,9.49248313622764,2.27854190929335,8.51232576718104,0.100263774887228,0.135504867593859
4.81184550898075,2.21568127361462,9.53763492615115,1.2039944885328,1.22501362194723,9.19187010632476,6.78224138973559,2.14702242223548,9.49248313622833,2.27854190929424,8.51232576717897,0.100263774887755,0.135504867593463
4.81184550897954,2.21568127361436,9.53763492614852,1.20399448853583,1.225013621946,9.19187010632108,6.78224138973485,2.14702242223544,9.49248313622638,2.27854190929537,8.51232576718031,0.10026377488894,0.135504867593569
4.81184550881574,2.21568127352412,9.53763492554125,1.20399448912177,1.22501362183373,9.19187010556107,6.78224138959386,2.14702242223159,9.49248313595974,2.27854190923138,8.51232576753564,0.100263774980553,0.135504867726352
4.81184550898112,2.21568127361493,9.53763492615269,1.20399448852918,1.22501362194913,9.19187010632451,6.78224138973432,2.14702242223541,9.49248313622894,2.27854190929632,8.51232576717308,0.100263774891454,0.135504867594215
4.81184550894305,2.21568127358859,9.53763492597816,1.20399448868022,1.22501362193939,9.19187010610453,6.78224138968963,2.14702242223415,9.49248313616742,2.27854190925867,8.5123257672571,0.100263774920314,0.13550486764581
4.81184550876582,2.2156812735034,9.53763492539366,1.20399448914457,1.22501362188327,9.19187010524161,6.7822413894617,2.14702242222676,9.49248313587751,2.27854190935224,8.51232576733061,0.100263775241729,0.135504867814621
4.81184550901838,2.2156812736401,9.53763492631278,1.20399448838081,1.22501362196962,9.19187010652062,6.78224138977018,2.14702242223624,9.4924831362899,2.27854190932947,8.51232576707785,0.100263774876033,0.135504867553502
4.81184550898242,2.21568127361601,9.53763492615975,1.20399448852544,1.22501362194756,9.19187010633532,6.78224138973765,2.14702242223552,9.49248313623105,2.27854190929674,8.51232576717443,0.100263774886904,0.135504867590804
4.81184550899685,2.21568127362499,9.53763492621616,1.20399448846947,1.22501362195914,9.19187010640302,6.78224138974879,2.14702242223574,9.49248313625478,2.27854190930649,8.5123257671354,0.100263774884039,0.135504867579062
4.81184550910306,2.21568127368887,9.53763492664261,1.20399448806727,1.2250136220217,9.19187010693065,6.78224138984618,2.14702242223835,9.49248313642723,2.2785419093766,8.51232576688619,0.100263774830715,0.135504867476641
4.81184550829707,2.21568127320671,9.53763492343843,1.2039944910448,1.2250136215708,9.19187010290919,6.78224138907444,2.1470224222173,9.49248313511624,2.2785419089188,8.51232576864462,0.100263775330212,0.13550486826375
4.81184551489029,2.21568127855837,9.53763495528637,1.20399445714625,1.22501362837668,9.19187013619193,6.78224139217574,2.14702242215183,9.4924831459481,2.27854192206561,8.51232573762547,0.100263782671617,0.1355048620869
4.81184550516949,2.21568127129149,9.53763491085116,1.20399450294862,1.22501361966225,9.19187008738192,6.78224138623377,2.14702242214601,9.49248313002423,2.27854190681446,8.51232577612963,0.10026377679555,0.135504871263227
4.81184548964388,2.21568126385549,9.53763485683749,1.20399454611778,1.22501361595431,9.19187000933248,6.78224136614182,2.14702242139882,9.49248310487997,2.27854191183029,8.51232578481093,0.100263803939259,0.135504887337162
4.81184548992841,2.21568126189894,9.53763484822434,1.20399456108391,1.22501361154545,9.19187000959783,6.7822413715892,2.14702242174265,9.49248310529181,2.27854189597131,8.51232581146107,0.100263785155682,0.135504886960764
4.81184541317475,2.2156812109608,9.53763452088022,1.20399487457425,1.22501356266186,9.1918696175796,6.78224130508234,2.14702242032862,9.49248298018601,2.27854182145593,8.51232602665756,0.100263801506987,0.135504964965674
4.81184542192055,2.21568122282231,9.53763459287006,1.20399483268243,1.22501354525114,9.19186971600261,6.7822413317724,2.14702242125368,9.49248299421104,2.27854184499544,8.5123260208372,0.100263775929881,0.135504930073977
4.81184564925469,2.2156813689005,9.53763556662874,1.20399402684075,1.2250135890311,9.19187100386826,6.7822416223022,2.14702243083827,9.49248336276063,2.27854196605148,8.51232566948715,0.100263504033192,0.135504631313672
4.81184516652197,2.21568114862932,9.53763401346897,1.20399559219709,1.22501321725705,9.19186902217438,6.78224124089301,2.14702243278058,9.49248259866331,2.27854197065622,8.51232654865719,0.100263845048933,0.135504909403228
4.81184146956557,2.21567804346859,9.53761557099562,1.20401368319199,1.22501050401925,9.19184844519963,6.78223844199655,2.14702241369164,9.49247649404849,2.27853525317646,8.51234134744119,0.10026190866351,0.135509321622846
4.81950814402445,2.22025778445229,9.54299547302712,1.18884051872937,1.23733381902608,9.19542235570593,6.78202276346882,2.14826710251326,9.49102564694607,2.28083112558292,8.49112627769968,0.110756316848168,0.143197157278151
