"fastcoef_sq","pref_flow_den","slowcoef_sq","soil_moist_max","soil2gw_max","fastcoef_lin","gwflow_coef","jh_coef","slowcoef_lin","sat_threshold","carea_max","smidx_coef","smidx_exp"
4.8536699513434,2.22478497732298,9.61218134068895,1.07846221584399,1.29662923886521,9.26888483016445,6.78222001064963,2.14472026298417,9.55780821712096,2.25138748870615,8.40394967854598,0.111041961110689,0.157077124923693
4.85397930230593,2.22466600176063,9.61230117655593,1.07782958686621,1.29719662245097,9.26905967746569,6.78213853552109,2.14472918217594,9.55835349054477,2.25076566846394,8.40354130887155,0.11091916362763,0.157408743113566
4.85409853046733,2.22474942787339,9.61234432679183,1.07757227429429,1.29753514964925,9.26903765685024,6.78211700848746,2.14468946561336,9.55851187410541,2.25051300985416,8.40322818550557,0.110980284822439,0.157579629504464
4.85524735781012,2.22402563770165,9.61245376949987,1.07593601824685,1.29927129479653,9.26995367953291,6.78229462327051,2.14479677948777,9.5607433052473,2.24726703845821,8.4033121336861,0.109258244681071,0.158528210743374
4.84992072577177,2.22425750885687,9.6109893084623,1.0816075121449,1.28709098101122,9.2618478161821,6.78189527501028,2.14226285188039,9.54811929209044,2.26399638640984,8.40555785751965,0.114652356454803,0.153842703562741
4.85577979476976,2.22407385105323,9.61281833058658,1.07443769655962,1.30036036123582,9.26988829505395,6.78207169109141,2.14458837537932,9.5613336356471,2.24671002302913,8.40183895059546,0.109584597777861,0.159228948747828
4.85663952302215,2.22365021184726,9.61006052486006,1.07355683858814,1.30128716738172,9.26481934062052,6.78126763965047,2.14282370634883,9.5598911702214,2.24485512089224,8.40192389268181,0.108932897219665,0.162245265801727
4.85649079178478,2.22363581519115,9.6100602171888,1.07373809512673,1.30090619355126,9.26471773366318,6.7812881773516,2.14279007562022,9.55957588276704,2.24531727863991,8.4020651736658,0.109015119899158,0.162064558220278
4.85672230431558,2.22357745826987,9.61041263981878,1.07300386861963,1.30130469131752,9.26506887353767,6.78118867033563,2.14282231253975,9.55998403054153,2.2451927128154,8.40140900633996,0.109142222393502,0.1622395620134
4.85687201625682,2.22422437758683,9.61087322853942,1.07169448358674,1.30260700091587,9.26479202791699,6.78071837850692,2.14266069222362,9.56018175053666,2.24544420489238,8.39883384209042,0.110672997587137,0.162785280547364
4.85523824717813,2.22483721858282,9.61544665692195,1.0691599464663,1.29551115098391,9.2653411686502,6.78212754124186,2.14045193397064,9.55398604108747,2.2573587136739,8.39687322799237,0.113186300273993,0.158793426807711
4.85526847494242,2.22483863835223,9.61545347499671,1.06908218844219,1.29560885534825,9.26533666993479,6.78209941954993,2.1404579760124,9.55405119598113,2.25729170947178,8.39676896020962,0.113221871781582,0.15884382703681
4.85520973985922,2.22478206132125,9.61545547502618,1.06920959297272,1.29536823543474,9.26537413811571,6.78213459450411,2.14045915995855,9.55393598316418,2.25746771334884,8.39699131130609,0.113143489004681,0.15873380751717
4.85560277646301,2.22483298337509,9.61551951029164,1.06851953684376,1.29646082180724,9.26556394000144,6.78197447509322,2.1405428674982,9.55475507842926,2.25641410645152,8.39623587220512,0.11318418237352,0.159260036155731
4.86376395404697,2.2243206901523,9.61685362366125,1.05762650141854,1.31553160844073,9.27359391012066,6.780375885776,2.14357990888998,9.57186773597483,2.23445204988112,8.38794390072272,0.109014314761118,0.168389217793529
4.8635010435487,2.22421302076054,9.61704740841547,1.05746820801934,1.31521981068814,9.27333717080903,6.78035754315541,2.14338984257689,9.57193055095929,2.23449552991929,8.38798554304821,0.109182000189607,0.16815767798686
4.85288671870864,2.21724624037091,9.61186611998244,1.08111380225482,1.28373428280153,9.26974098884361,6.78423835086546,2.14375401495295,9.55538511655549,2.25557859693216,8.41875575754845,0.101848503408441,0.152311376606531
4.85799314606669,2.22436193556453,9.61596657542389,1.06257445144259,1.30511275476474,9.26619863588829,6.77879411036332,2.14227750267898,9.56146912480731,2.25059607313493,8.38725365448527,0.116879776022214,0.163550099700268
4.85811683284047,2.22437197608527,9.61598740659672,1.06236014919419,1.3054240930627,9.26623548053864,6.77877233657509,2.14227985044432,9.56170568554186,2.25026217177102,8.38705952624216,0.116853756062306,0.163697416965744
4.85844989350789,2.22436545555055,9.61606439093884,1.06186650332483,1.30618654737212,9.26652831047214,6.77872952567071,2.1423554410735,9.56237380822838,2.24937512958437,8.38670835871723,0.116672648244739,0.164070319603581
4.85607166481968,2.22354701296202,9.6160317126534,1.0672139643117,1.29627623314716,9.26637839183921,6.7816116155745,2.14073997995822,9.55591324643021,2.25617005972,8.39627703479646,0.11262606985286,0.159387928663137
4.85943662038111,2.22426064530159,9.61632231850374,1.06027444497031,1.30856691652249,9.26741532092586,6.77840901702616,2.14268535480339,9.56448529766101,2.24684366227572,8.38533694882702,0.116416599646148,0.165241443144318
4.86308224036808,2.22415334852421,9.61695228130734,1.05810950013743,1.31419423641339,9.2730688962191,6.7804223769816,2.14335917583838,9.57109806388288,2.23560954373201,8.38850812437799,0.109320022001031,0.167682887562155
4.8647456123477,2.22096336644773,9.61830022377328,1.05507731911264,1.3140063466867,9.27689651668762,6.78000955009065,2.14431697809834,9.57475973594815,2.23356238972912,8.39014972938257,0.106154018291104,0.168279255952144
4.85624092311366,2.23735637451756,9.61481547761824,1.0580604910968,1.3218670267799,9.25437098005702,6.7704834703787,2.14247931661851,9.55389132925739,2.259681769073,8.35258739825226,0.144732522969954,0.172386193677624
4.85158018424649,2.23838315296887,9.61229755200202,1.0770353442464,1.30839120841389,9.26014666098569,6.78111288447076,2.14195210449574,9.55149568633412,2.2557724823654,8.38329479629937,0.127300646553109,0.1608910967704
4.93648039653938,2.32030742416376,9.40710361591983,1.13418149410076,1.43353538170532,8.980622108304,6.75828666003516,2.18783767873531,9.24915453216561,2.3615394629033,8.19439154218204,0.389018258612132,0.365487668764281
