"fastcoef_sq","pref_flow_den","slowcoef_sq","soil_moist_max","soil2gw_max","fastcoef_lin","gwflow_coef","jh_coef","slowcoef_lin","sat_threshold","carea_max","smidx_coef","smidx_exp"
4.811843369989,2.21567969761555,9.5376251690965,1.20400433422237,1.22501188613747,9.19185917198759,6.78223992359579,2.14702241026206,9.49247963856711,2.27853874340167,8.5123337130805,0.10026288484483,0.135506994855375
4.81184336999309,2.21567969761856,9.53762516911514,1.20400433420357,1.22501188614079,9.19185917200848,6.7822399235986,2.14702241026209,9.4924796385738,2.2785387434077,8.51233371306534,0.100262884846516,0.135506994851313
4.81184337000953,2.21567969766953,9.53762516947686,1.20400433390562,1.22501188607005,9.19185917237175,6.78223992364374,2.14702241026341,9.49247963859181,2.27853874371167,8.51233371279097,0.100262884944659,0.135506994702249
4.81184337015291,2.2156796977429,9.53762516986204,1.20400433347505,1.22501188625728,9.19185917286342,6.78223992372502,2.14702241026332,9.49247963883739,2.2785387436413,8.51233371249884,0.100262884887185,0.135506994675012
4.81184337000792,2.21567969762945,9.53762516918257,1.20400433413543,1.22501188615288,9.19185917208403,6.7822399236087,2.14702241026217,9.49247963859803,2.27853874342952,8.51233371301033,0.100262884852693,0.135506994836674
4.81184336969115,2.21567969741325,9.53762516782725,1.20400433554599,1.22501188586354,9.19185917057345,6.78223992341706,2.14702241026196,9.49247963808159,2.27853874302583,8.51233371416035,0.100262884718465,0.13550699510113
4.81184337105192,2.21567969839628,9.53762517393376,1.20400432933555,1.22501188700386,9.19185917740718,6.78223992432098,2.14702241026793,9.49247964030486,2.27853874496698,8.51233370913516,0.100262885287567,0.135506993804674
4.81184337424308,2.21567970073993,9.53762518845504,1.20400431466477,1.22501188960558,9.19185919367654,6.78223992649779,2.14702241028553,9.49247964552211,2.27853874966535,8.5123336972906,0.100262886616826,0.135506990651023
4.81184336970709,2.21567969734433,9.53762516747865,1.20400433577478,1.22501188597739,9.19185917022127,6.7822399233641,2.14702241026153,9.49247963810605,2.27853874267636,8.51233371439495,0.100262884607141,0.135506995283512
4.81184335427701,2.21567968494291,9.53762509348199,1.20400440604694,1.22501187651757,9.19185908470984,6.78223990969984,2.14702241019409,9.49247961303648,2.27853871967118,8.51233376695022,0.100262882905932,0.135507013907711
4.81184337201261,2.21567969923879,9.53762517872369,1.20400432499023,1.2250118875106,9.19185918309419,6.7822399253056,2.14702241027791,9.49247964190992,2.27853874639822,8.51233370602835,0.100262885218377,0.135506992491629
4.81184337856491,2.21567970435688,9.53762520936816,1.20400429519415,1.22501189225255,9.19185921826091,6.78223993055267,2.14702241033177,9.49247965273488,2.27853875591522,8.51233368295083,0.100262886767424,0.135506985213808
4.81184337212719,2.21567969918687,9.53762517882912,1.20400432439222,1.2250118878783,9.19185918289276,6.78223992505645,2.14702241027328,9.49247964206202,2.27853874655045,8.51233370514696,0.100262885732351,0.135506992740155
4.81184330878036,2.21567965171363,9.5376248871561,1.2040046202476,1.22501183525804,9.19185885873159,6.78223988287287,2.14702241014788,9.49247953861305,2.27853864862579,8.51233394765759,0.100262854568738,0.135507055741563
4.81184336822955,2.21567969629012,9.53762516096515,1.20400434236634,1.2250118847526,9.19185916286307,6.78223992234887,2.14702241025608,9.4924796356954,2.27853874073552,8.51233371962454,0.100262884136485,0.135506996667339
4.81184343692635,2.2156797468513,9.53762547402847,1.20400402633064,1.22501194058452,9.19185951367076,6.78223996936701,2.14702241063142,9.49247974800524,2.27853884217446,8.51233346456725,0.100262912686731,0.135506928509918
4.81184337212496,2.21567969918544,9.53762517881821,1.20400432440436,1.22501188787524,9.19185918288142,6.78223992505611,2.14702241027272,9.49247964205759,2.27853874654512,8.51233370515945,0.100262885728115,0.135506992742118
4.81184321565237,2.21567958401931,9.53762446608584,1.20400504603478,1.22501175917735,9.19185838625156,6.78223981947077,2.14702240955156,9.49247938635782,2.27853851414298,8.51233429035926,0.100262817342249,0.135507146773347
4.81184342737561,2.21567973003608,9.53762539309104,1.20400414231425,1.22501190517098,9.19185947093492,6.78223999058498,2.14702241252003,9.49247973158514,2.27853875862566,8.5123336304788,0.100262817326677,0.135506931654774
4.81184327333258,2.21567962878011,9.53762473825633,1.20400476328329,1.22501181232034,9.19185867985111,6.78223985245548,2.14702240938983,9.49247948078492,2.2785386162277,8.51233404515541,0.100262862952953,0.135507090800073
4.81184349926075,2.21567980192436,9.53762579550978,1.2040037440151,1.22501195910201,9.1918598981691,6.78224004182446,2.14702241024041,9.49247984737167,2.27853893945912,8.51233327811969,0.100262892917518,0.135506833812085
4.81184344588177,2.21567971017059,9.53762529602031,1.2040041172282,1.2250120197319,9.19185931233593,6.78223992289315,2.14702241142602,9.49247976465676,2.27853868358046,8.51233352634032,0.100262900755035,0.135507034828373
4.81184312408835,2.21567925729283,9.53762287871172,1.20400587956605,1.22501221488241,9.19185632151727,6.78223927286442,2.14702238132639,9.49247921573616,2.27853774097979,8.51233455005534,0.100263152472406,0.135507988063146
4.81184391465564,2.21568027420814,9.53762841634596,1.20400158878521,1.22501197011559,9.1918630291121,6.78224063442813,2.14702242920213,9.49248054667288,2.27853993682288,8.51233180288306,0.100262820790536,0.135505950518967
4.81184185151443,2.21567745446699,9.53761363119028,1.20401165349585,1.22501350271251,9.19184395141198,6.78223604988019,2.14702218744111,9.49247702954304,2.27853520111005,8.51233632885007,0.100265842649677,0.135512066411023
4.81184048864491,2.2156781579216,9.53761486619404,1.20401618258125,1.22500839759414,9.19184790784893,6.78223886223669,2.14702238247803,9.49247487505531,2.27853643911788,8.51234385697805,0.10026135743024,0.13550821995946
4.81584722312406,2.21865309614712,9.53558545012991,1.20263783987171,1.23329175491216,9.19146574501175,6.78074315240468,2.14838763622151,9.48884074276288,2.28212487271948,8.50324287988852,0.107321024628744,0.140467916228514
