"fastcoef_sq","pref_flow_den","slowcoef_sq","soil_moist_max","soil2gw_max","fastcoef_lin","gwflow_coef","jh_coef","slowcoef_lin","sat_threshold","carea_max","smidx_coef","smidx_exp"
4.83215843806992,2.22369090349791,9.59130621856794,1.13195182953575,1.25604165116315,9.24898144969637,6.78554497663695,2.14667241612014,9.52538052055502,2.27945602067188,8.44902043389795,0.109452904428642,0.13711963769192
4.83225248176783,2.22369770176962,9.59142498670559,1.13166719273454,1.25618316516773,9.24904391283191,6.78553482076683,2.14663184543289,9.52547441536519,2.27940842109219,8.44878629299419,0.109478824519842,0.137201432292926
4.83280110122019,2.2237453885826,9.59200401774826,1.13016469913055,1.25725091360631,9.2494604091711,6.78540693849497,2.14654436333789,9.52625230740698,2.27884600691856,8.44739502600122,0.109692720350937,0.13773586317961
4.83548207268104,2.22280060685135,9.59381655674537,1.12480269602237,1.26111235581839,9.25231463766785,6.78554949853168,2.14650484402651,9.53046532962364,2.27545666834139,8.44433484387279,0.108544626075219,0.139645433611364
4.83931226621164,2.22292704030673,9.59722538995747,1.11579731641534,1.26861574805531,9.25650973378021,6.78458636344809,2.14667157642326,9.53683006296675,2.26872218621866,8.43724948991242,0.107836941419699,0.143530228216352
4.83304622843286,2.22336830822564,9.59235678823421,1.13214332972672,1.25581279679242,9.25318538216282,6.78708480890848,2.14706541731427,9.52724343163579,2.27667219788412,8.45254152991962,0.105425438511623,0.13633418270483
4.84639373385419,2.22324246461644,9.59923657543356,1.10525210142256,1.28153745384738,9.260651697953,6.78564547752253,2.14579434008518,9.5472881890042,2.25232143613416,8.43255530119716,0.101915655553352,0.150718610569821
4.84948641075467,2.22274446061057,9.60117118095962,1.09658911513732,1.28556011509631,9.26005085960803,6.78482911588919,2.14376998045942,9.5492842174685,2.24991318818839,8.42646514739235,0.101772130115051,0.154568053511173
4.84986562124433,2.22273787826963,9.60135754797716,1.09607384022887,1.286463741152,9.26066145287954,6.78480360943385,2.1439669032391,9.55020197596044,2.24884620357834,8.42610055414268,0.101539294566861,0.15490336458224
4.85257279654524,2.2231933399162,9.60536513645766,1.08859121763257,1.29568920393427,9.2667779344594,6.7827952294337,2.14667515250135,9.55898774290537,2.24350616966348,8.41570432653235,0.105205127039525,0.157074879273237
4.85260780951583,2.22319748577266,9.60541556582907,1.08847637166867,1.29574685462624,9.26680404599612,6.7827877167224,2.14666165666995,9.5590250181399,2.24349613811568,8.41559972719894,0.10522666068475,0.157105898298693
4.83889996251281,2.22447277911696,9.60284940989633,1.10983363982262,1.26713829203807,9.25870466660226,6.78443008202038,2.14540372153603,9.53457185766852,2.27719798057706,8.42922046593219,0.112913049464516,0.141535655248067
4.85271163931003,2.22321456092419,9.60557454257131,1.08805486176066,1.29586888419917,9.26677422745648,6.782755684093,2.14655317169722,9.55903135989347,2.24358617325662,8.41521519262049,0.105338229845051,0.157220798036028
4.84920155268347,2.22494146469352,9.60818093052326,1.09362306274556,1.28671245517412,9.26956036632073,6.78570638643503,2.14601106697347,9.5522782763315,2.25393580119705,8.42059312664175,0.105301294626291,0.150685343730754
4.84920358921731,2.22494133001303,9.60818264446479,1.09361624560012,1.286716804419,9.26955992407211,6.78570486843058,2.14601039038696,9.55228066813865,2.25393459773127,8.4205858493215,0.105303685860222,0.150688255468803
4.84919458751762,2.22493647436107,9.6081847107924,1.09357779166087,1.28669549198361,9.26949922918508,6.78568297839702,2.14598939354949,9.55223592583914,2.25401076370279,8.42052276041894,0.105359601760943,0.150696466145096
4.8492587925364,2.22493881562183,9.60822431852779,1.09345193423265,1.28683317835374,9.26956200742103,6.78567264208608,2.14599693437785,9.55235238733849,2.25388168234416,8.42041905791661,0.105347204202607,0.150761882914691
4.84024361709849,2.22439301623915,9.60347024984084,1.10732546968486,1.26968637942112,9.25967499127345,6.78430646006146,2.14537818403946,9.53671638941208,2.2745233676079,8.42754289379969,0.112317125489139,0.142939273700086
4.8505189096192,2.22289090066936,9.60269838309294,1.09279186904798,1.28811318310136,9.26077432536132,6.78404795263788,2.14373713580242,9.55097251250145,2.24953244422042,8.42198737620058,0.103463359187816,0.155753607437955
4.84030000956159,2.22439619169234,9.60350900825691,1.107215737413,1.26979886998489,9.25973467938252,6.78430393709353,2.14538137457802,9.53681322193783,2.27441410189173,8.42746143931197,0.112297628558825,0.142991805939511
4.84055397123831,2.22438466553057,9.60360392612887,1.10671195204318,1.27028110393225,9.25981730309437,6.78426770706229,2.14534141205772,9.53717059894397,2.27393908188058,8.4270976545733,0.112222027489128,0.143286666283574
4.83698631638535,2.22441308443923,9.60163740428058,1.11458196688188,1.26320613249164,9.25823927021196,6.78503435467181,2.14578113720452,9.53194750179554,2.27990545916495,8.4335805237665,0.112379872858651,0.139214729219697
4.85256402426383,2.22152093153924,9.60489529764731,1.09077814166308,1.29309039546352,9.26854458154904,6.7842282915512,2.14692221117943,9.55992202428505,2.24161206596748,8.42206058150426,0.100662341714289,0.155579965954433
4.84173904738063,2.22449925928756,9.60464096708621,1.10345165522686,1.27267831641309,9.26024955056248,6.78389640714154,2.14505155702195,9.53871718498528,2.27263608095453,8.42399094894825,0.112778560071,0.144636105268915
4.84969419657216,2.22480992615294,9.60832526430054,1.09231110679443,1.28761656144628,9.26932878946156,6.78542312533815,2.14582473039473,9.55280862683106,2.2533440208321,8.41944698559971,0.10547735295235,0.151416402746445
4.83215310363144,2.29693843731383,9.6467460602463,0.956027408035922,1.38251080746,9.10231409919457,6.71905577662397,2.09994475518217,9.47361319715083,2.3989652834801,8.06602913718724,0.372306685868247,0.184507349112386
4.67445897928912,2.48562136723696,9.42760404283777,1.57590283056701,1.42951533075658,8.98268594260752,6.87717707974912,2.06666623264932,9.16158424041863,2.51148065103887,7.99383482571478,0.596692905589951,0.187821414952722
