"fastcoef_sq","pref_flow_den","slowcoef_sq","soil_moist_max","soil2gw_max","fastcoef_lin","gwflow_coef","jh_coef","slowcoef_lin","sat_threshold","carea_max","smidx_coef","smidx_exp"
4.81191193733148,2.2157300698906,9.53793725613828,1.20368905275372,1.22506777255144,9.19220881718372,6.78228670513937,2.14702278777103,9.49259173861937,2.2786397620453,8.51207915588586,0.100291470944387,0.135439200732288
4.81191193732979,2.21573006989134,9.53793725614149,1.20368905275423,1.22506777254702,9.19220881718694,6.78228670514025,2.14702278777112,9.49259173861672,2.27863976205216,8.51207915588572,0.100291470945877,0.135439200728504
4.81191193711662,2.21573007022045,9.53793725657934,1.20368905411314,1.2250677713953,9.19220881889989,6.78228670619858,2.14702278779064,9.49259173841078,2.27863976166871,8.51207915848098,0.100291469079656,0.135439199653597
4.81191193860797,2.21573007025999,9.53793725920364,1.20368904854944,1.2250677744358,9.19220882060989,6.78228670536598,2.14702278777515,9.4925917407121,2.27863976179303,8.51207915240708,0.100291471229406,0.135439200897964
4.81191193717981,2.21573007028799,9.53793725697888,1.20368905374914,1.22506777141484,9.19220881934404,6.78228670626361,2.14702278779161,9.49259173851467,2.27863976185519,8.51207915818374,0.100291469125403,0.135439199534914
4.81191193893536,2.21573007084574,9.537937261962,1.20368904666129,1.22506777421361,9.1922088241096,6.78228670614635,2.14702278779481,9.49259174133876,2.27863976288877,8.51207915130648,0.100291470947321,0.135439199749533
4.81191194646738,2.21573007625985,9.53793729331778,1.20368901607698,1.22506778078636,9.19220886170206,6.78228671209967,2.14702278796731,9.49259175430523,2.27863976969336,8.51207912858756,0.100291470915165,0.135439192841848
4.81191177982147,2.21573001639174,9.5379368087347,1.20368966928787,1.22506753114665,9.19220837088856,6.78228670139866,2.14702278772386,9.49259148406104,2.27863968910372,8.51207973246021,0.100291339705938,0.135439190210564
4.81191196928365,2.21573007514794,9.53793731699496,1.20368897731729,1.22506780912013,9.19220890477855,6.78228672189227,2.14702278897535,9.49259179091574,2.27863972710945,8.5120791215872,0.100291441434549,0.135439202653705
4.81191195694068,2.21573007414037,9.53793729808804,1.20368900092139,1.22506779569548,9.19220887346159,6.78228671447076,2.1470227883961,9.49259177075469,2.27863974642212,8.51207912650558,0.100291458075909,0.135439200936651
4.81191180545384,2.2157299043345,9.53793621840951,1.2036900565847,1.22506772544756,9.19220776552446,6.78228661104561,2.14702278676295,9.49259151975566,2.27863909854782,8.51208012313788,0.100291156811613,0.13543950038713
4.8119119632212,2.21573007368716,9.53793730108937,1.20368898612914,1.22506781025646,9.19220887537063,6.78228671161217,2.14702278846831,9.49259178128539,2.27863973701552,8.51207911109167,0.100291461443999,0.135439208854091
4.81191196240762,2.21573008293753,9.53793734340499,1.20368895239742,1.22506780323274,9.19220891397474,6.78228671472071,2.14702278810344,9.49259178039621,2.27863977955359,8.51207907089019,0.100291482528692,0.135439190657045
4.81191228888197,2.21573035058158,9.53793884427052,1.20368754734069,1.22506795927782,9.19221066380347,6.78228703998799,2.14702275334185,9.49259226124374,2.2786401667867,8.51207813139509,0.100291386356028,0.135438812483424
4.81191209401876,2.21573020026708,9.53793798055893,1.20368838174862,1.22506784183861,9.19220966620207,6.78228686709425,2.147022770207,9.49259196803955,2.27863994624602,8.51207871629092,0.100291414678001,0.135439014349169
4.81191277684333,2.2157306672106,9.53794060935794,1.20368573391073,1.22506837124908,9.19221273398978,6.78228740600539,2.14702270612727,9.49259299126996,2.27864036140813,8.51207691076204,0.100291226397889,0.135438504904404
4.81188674622377,2.2157177349099,9.53784764570553,1.20379632840451,1.22503468997521,9.19211385478596,6.78228076887683,2.14702200425232,9.49254940135547,2.27861588682229,8.51217638114094,0.100271042977933,0.135447995855061
4.81191259394352,2.21573042441185,9.53793942703463,1.20368662699194,1.22506845872861,9.19221129024914,6.78228706230083,2.14702273903733,9.49259274111522,2.27863998587322,8.51207736091217,0.100291440589833,0.135438938773607
4.81190892950245,2.21572821523779,9.53792532488698,1.20370194018767,1.2250647891966,9.19219560911375,6.7822851189359,2.14702284736023,9.49258691655518,2.27863659542853,8.51208966937653,0.100290282247906,0.135441200069961
4.81189765052208,2.21572829295865,9.53791834968282,1.20372325074107,1.22504349475445,9.19218490896655,6.78228522120684,2.14702267504985,9.49256827434827,2.27865830430608,8.51210403584759,0.100295261960498,0.13543076359015
4.81188834823066,2.21571487315587,9.53783708431862,1.20380080586679,1.22504111678318,9.1921033595078,6.78227812761234,2.14702261065361,9.49255273425137,2.27860378674621,8.51218026989725,0.100269056428699,0.135455106349112
4.81194154019267,2.21573431315994,9.53797884184675,1.20361695278174,1.22511704649725,9.1922611809227,6.78229058502136,2.1470228919854,9.49264016972738,2.27860300145482,8.51202716723388,0.100283262207551,0.13545532464768
4.81188959320678,2.21572141302481,9.53787507054712,1.20377025788514,1.22503511240093,9.19214185695629,6.78228254017722,2.14702279780068,9.49255513763794,2.27863576165719,8.51214994449917,0.100281121626234,0.135439330329682
4.81203047043407,2.21574712099468,9.53810411727898,1.20340006432864,1.22526501432608,9.19241880862477,6.78230225977676,2.14702320669255,9.49278566637603,2.27849291255281,8.51187065440529,0.100258770142004,0.135503619550992
4.81195678227907,2.21574282091614,9.5380370576376,1.20354956284127,1.22513576912498,9.19232281105779,6.78229524182526,2.14702308429414,9.4926654132971,2.27862067248355,8.5119664929492,0.100295948391135,0.135447985275559
4.81150562132725,2.21551480659498,9.53647124887348,1.20540036201407,1.22456037481474,9.19063522250614,6.78215756226265,2.14701836524968,9.49192023483622,2.27826722868473,8.51358852000861,0.100015308739438,0.135604728720405
4.81985107625911,2.22162649467869,9.53354573116332,1.20127134552105,1.24157162368686,9.19107231803592,6.77924638121357,2.14975286218095,9.48520184695865,2.28571100203729,8.49415204669653,0.114379164412657,0.145428837601652
