"fastcoef_sq","pref_flow_den","slowcoef_sq","soil_moist_max","soil2gw_max","fastcoef_lin","gwflow_coef","jh_coef","slowcoef_lin","sat_threshold","carea_max","smidx_coef","smidx_exp"
4.85523169330825,2.22483827358117,9.61544515974053,1.06917393665156,1.29549071732137,9.26533697398478,6.78213364174425,2.14044791115131,9.55396942427806,2.25737480112453,8.39689146897201,0.113181181702626,0.158783098756845
4.85796747142674,2.2243627457431,9.61595992684119,1.06260286368895,1.30507113980531,9.26616716848904,6.77878630053493,2.14227620520787,9.56142729585204,2.25066342930787,8.38725143229032,0.116916212563461,0.163528602414782
4.86326546782819,2.2243762227584,9.61700816879607,1.05763575842084,1.31501778669588,9.27303819544342,6.78024849647927,2.14333236519708,9.57151238478635,2.23506758252574,8.38768611982414,0.10966496833014,0.168048952837205
4.85334244726829,2.22496585599172,9.61212887233915,1.07897296057818,1.2961232483724,9.26865614445886,6.78218212443501,2.14470767062423,9.55720498559785,2.25224874961793,8.40401271882085,0.111467913976435,0.156793720024676
4.85420737594931,2.22488865568509,9.61527993536441,1.06794354004669,1.29541862609378,9.26239847549304,6.78001302888502,2.14047361012428,9.5523730066186,2.26160963151119,8.39184570857197,0.11819169608757,0.159108484052848
4.85524078481862,2.224837255615,9.61544821388859,1.069115056953,1.29554982856339,9.26531260090412,6.78209403456876,2.14045492130807,9.5539979363934,2.25737312556232,8.39678185469026,0.113249652389561,0.158817335492419
4.85799704701163,2.22436207919725,9.61596489108404,1.06257685281653,1.30511525321559,9.26619621316168,6.77880150728325,2.1422726052254,9.56147424793872,2.25057732972973,8.3872676856935,0.116865636301302,0.1635477489808
4.86327642168354,2.22437668888716,9.61701053802629,1.05761611568858,1.31504637790967,9.27304272498763,6.78024569174931,2.14333407978778,9.57153467192786,2.23503871627644,8.38766696487587,0.10966406288778,0.168062757366038
4.85361119585909,2.2245912702884,9.61222220969664,1.07846538140171,1.29626779383911,9.26895290518991,6.78218137571781,2.14474908265249,9.55769692373756,2.2517307323247,8.40413070500798,0.110989386096329,0.15696186249689
4.86303562852307,2.22373377278284,9.61714093157269,1.05617168333806,1.31651330956419,9.27270507697245,6.77815587691284,2.14453345414545,9.57264294260806,2.23640958200932,8.3835392956104,0.113121255623257,0.169024924759219
4.85523824717813,2.22483721858282,9.61544665692195,1.0691599464663,1.29551115098391,9.2653411686502,6.78212754124186,2.14045193397064,9.55398604108747,2.2573587136739,8.39687322799237,0.113186300273993,0.158793426807711
4.85798201864939,2.22436240879185,9.61596241168137,1.06258972148213,1.30509300166563,9.26618111302327,6.77879355232677,2.14227436503172,9.56145031123943,2.25062135326036,8.38725873865408,0.116891862421348,0.163538154036778
4.8632935937599,2.22435442902272,9.61701243972654,1.05759063545023,1.31505234272214,9.2730657453007,6.78022951701188,2.14334926547233,9.57154789798414,2.23505299283025,8.38764863580671,0.109662661225411,0.168077887792309
4.8536699513434,2.22478497732298,9.61218134068895,1.07846221584399,1.29662923886521,9.26888483016445,6.78222001064963,2.14472026298417,9.55780821712096,2.25138748870615,8.40394967854598,0.111041961110689,0.157077124923693
4.86320368666003,2.22372955585501,9.6171530594621,1.0560874020393,1.3167096001338,9.27288371043581,6.77828768831524,2.14452133675564,9.57292145865433,2.23590482767895,8.38375591283226,0.112747842310108,0.16909797751465
4.85524291227617,2.22480155608986,9.61544788976217,1.0691463699179,1.2954828117859,9.26534504993505,6.78212436920274,2.14045470504486,9.55399667666696,2.25736376148783,8.39689980421404,0.113162621674177,0.158786611571912
4.85799018119824,2.22436428281692,9.61596378014899,1.06257399506617,1.30511308989111,9.26618114355544,6.77879141115497,2.14227237455553,9.56146337991173,2.25060159701236,8.38724371997238,0.116891973558854,0.163548187500423
4.86376395404697,2.2243206901523,9.61685362366125,1.05762650141854,1.31553160844073,9.27359391012066,6.780375885776,2.14357990888998,9.57186773597483,2.23445204988112,8.38794390072272,0.109014314761118,0.168389217793529
4.85368310270596,2.22473071275633,9.61213829637754,1.07852488853553,1.29662062259783,9.26893226044623,6.78225651158868,2.14474208608099,9.55788428793025,2.2512276989463,8.40412258262205,0.110891346793698,0.157059058032487
4.85414626542679,2.22481768866752,9.61528891215864,1.06782692148294,1.29537397751306,9.26228141732601,6.77984614285587,2.14049376218795,9.55232743142681,2.26187712385336,8.39156868219802,0.118476987769445,0.15912343054695
4.85523034998506,2.22483672016336,9.61544625102495,1.06913029939757,1.29553007518577,9.26530819004599,6.78209240469012,2.1404569497152,9.55398157049493,2.25739988412562,8.39678841670999,0.113258658692255,0.158807844877913
4.85799314606669,2.22436193556453,9.61596657542389,1.06257445144259,1.30511275476474,9.26619863588829,6.77879411036332,2.14227750267898,9.56146912480731,2.25059607313493,8.38725365448527,0.116879776022214,0.163550099700268
4.86330315436722,2.22431108535272,9.61704871456791,1.05749117109448,1.31506966664616,9.27305655397717,6.78021074406935,2.14333399892884,9.57161509663118,2.23500985914986,8.3876014698425,0.109670397492699,0.16808965089991
4.85372723418376,2.22479848028922,9.61219969347393,1.07833634826835,1.29678605991615,9.26888620586142,6.78219445986902,2.144713619738,9.5579080478919,2.2512599387908,8.40380705352872,0.111069633572187,0.157156484834238
4.85404047179447,2.2248156148038,9.61529958803948,1.06772430826089,1.29538340031401,9.26214660976757,6.77963163809972,2.14052672136144,9.55222195617772,2.26221631079179,8.39115824899552,0.11890771942225,0.159158871350756
4.85524736959923,2.22482857945297,9.61545036089826,1.06909974265385,1.29557230985244,9.26532668074279,6.78208146175247,2.1404673393658,9.5540251248254,2.25735549322856,8.39676212226323,0.113256716317882,0.158829713515474
4.85800043105333,2.22435766670143,9.61597500529062,1.06254976703925,1.3051304836141,9.2662252334129,6.77878117033843,2.14229090112441,9.56148476286834,2.25059829542706,8.38722400007351,0.116888276265788,0.163568144956341
4.86332967983598,2.22436965848773,9.61702219036195,1.05748205083603,1.31519580848263,9.2730378991606,6.78019708417203,2.14333647237467,9.57164196444255,2.23492725848147,8.38750994381892,0.109711117020431,0.168143146910561
4.85381643580535,2.22395693630656,9.61247513740809,1.07817777288319,1.29592521063093,9.26977701268768,6.78214142994638,2.14499244187173,9.55822948707925,2.25161921729633,8.40473073973658,0.110351985288725,0.156905578231148
4.86259754163308,2.22466719876908,9.6169934641739,1.05523661850678,1.31766967308001,9.27065123742929,6.77694517983219,2.14431113614051,9.57202083245549,2.23817284346318,8.37963133139807,0.11653674026863,0.169644035219359
4.85526362773664,2.22481851548849,9.61545853586218,1.06908448845844,1.29558455289708,9.26534575059655,6.78209190784655,2.14046315444416,9.55405393459763,2.25731362287642,8.3967825589392,0.113222699454808,0.158832918551049
4.85806431972838,2.22436493607681,9.61597757551998,1.06246779568912,1.30527807133622,9.26623642240775,6.77878564894409,2.14228050262379,9.56160569875707,2.25039978941929,8.38717500630235,0.116846255460678,0.163626749291962
4.86334867356308,2.22436215705404,9.61702751901732,1.05744748168951,1.3152380238493,9.2730454241925,6.78019484720308,2.14334670926659,9.57167919797296,2.23488783991094,8.38747808540947,0.109707198784878,0.168166264093351
4.8540171369177,2.22459986186781,9.6122269318086,1.07795519671895,1.29719781960641,9.26915771794165,6.78225400760736,2.14475290612079,9.55848500847972,2.25042244501574,8.40389803559495,0.110586802038347,0.157377511772606
4.85289164033761,2.2248859035318,9.61513949229259,1.06628460826023,1.29536078332496,9.25888650937293,6.7772143093287,2.14055230254984,9.55050601519832,2.2669328073262,8.3854241326678,0.124582160918171,0.159539857378182
4.85526847494242,2.22483863835223,9.61545347499671,1.06908218844219,1.29560885534825,9.26533666993479,6.78209941954993,2.1404579760124,9.55405119598113,2.25729170947178,8.39676896020962,0.113221871781582,0.15884382703681
4.85811176436007,2.22429274768587,9.61601187500692,1.06232416447703,1.30531025499881,9.26626459160207,6.77875279209143,2.14227745680713,9.56168727006445,2.25036168751177,8.3871117912331,0.116825737395047,0.163666933551004
4.8633976751909,2.22428492900098,9.61702537115492,1.05751647120606,1.31515956681395,9.27318998314486,6.78026889171879,2.14338083403262,9.57174316065557,2.23479288753468,8.38776267717765,0.109466954591821,0.168133319938382
4.85397930230593,2.22466600176063,9.61230117655593,1.07782958686621,1.29719662245097,9.26905967746569,6.78213853552109,2.14472918217594,9.55835349054477,2.25076566846394,8.40354130887155,0.11091916362763,0.157408743113566
4.86720944444496,2.224676177668,9.61789292306552,1.04807396039615,1.32679949981392,9.27282650890426,6.77702736406864,2.14345153477441,9.5794681412634,2.22618908309508,8.37591227950256,0.113137534527383,0.174114108559777
4.85522908592201,2.22483760504284,9.61544518237516,1.06915916449706,1.2955009268071,9.26532292949377,6.78211767047017,2.14045043771115,9.55396932051619,2.25739097520111,8.39685266534929,0.113213016370367,0.158790432705944
4.85806002441062,2.22425110780789,9.61596659935556,1.06249248872446,1.30518131061192,9.26623425697028,6.77878631349131,2.14228136438588,9.56166028697542,2.25037250713885,8.3873294985239,0.116758777445323,0.163575627777741
4.8635010435487,2.22421302076054,9.61704740841547,1.05746820801934,1.31521981068814,9.27333717080903,6.78035754315541,2.14338984257689,9.57193055095929,2.23449552991929,8.38798554304821,0.109182000189607,0.16815767798686
4.85405705351968,2.22461254840862,9.6122549697947,1.07781442961401,1.29731291169855,9.26913859591247,6.7822081038281,2.14474513227666,9.55853363814587,2.25040087322272,8.40371096769971,0.11066794294175,0.157453811895587
4.8675458617099,2.22477165706118,9.6179082317378,1.04825467189815,1.32718371342828,9.27355810995125,6.77748587483918,2.14348771054777,9.57999754016107,2.22489113454372,8.37683380148078,0.112017965572384,0.174208138094527
4.85526640794509,2.22475866432096,9.61547514936333,1.06910362031577,1.29547578030886,9.26541653421906,6.7821202048645,2.14047027541818,9.55404628646681,2.25734419398985,8.396925353724,0.113115981013627,0.158793522252048
4.85811683284047,2.22437197608527,9.61598740659672,1.06236014919419,1.3054240930627,9.26623548053864,6.77877233657509,2.14227985044432,9.56170568554186,2.25026217177102,8.38705952624216,0.116853756062306,0.163697416965744
4.86348968453733,2.22438678286175,9.61705524451361,1.05701246246001,1.31573462548179,9.27294142402553,6.78000582505212,2.14334460878983,9.57195652424481,2.23463006664871,8.38684337858074,0.109990634453072,0.168434414856643
4.85406181648532,2.22461432387617,9.61224969713152,1.0778384228652,1.29730742470387,9.26914923595933,6.78223393339137,2.14473903431657,9.55853929868726,2.25035816027492,8.40376904175942,0.110618889313237,0.157443354519635
4.86631578720206,2.22498523473543,9.61778496465796,1.04786679550533,1.32577611950667,9.26983984783662,6.77701230912093,2.14288355209997,9.57730543894273,2.22923221884306,8.37388534265674,0.115339930614457,0.173731785644199
4.85522742058198,2.22483839988536,9.61544451658724,1.06916876382244,1.29549036965146,9.26532492905684,6.78212476600634,2.14044803530494,9.55396292433609,2.25739235580295,8.39687059350732,0.113201948214052,0.158784421889121
4.85815076122542,2.22438862580713,9.61599645375128,1.0622592523463,1.30552732749126,9.26618705375928,6.7787554911483,2.1422572044165,9.56174989426161,2.25019856841035,8.38693198965327,0.11689618694504,0.163751232091166
4.86396582695829,2.22440635434804,9.61715993773035,1.05638090299554,1.31684526015786,9.27332918646978,6.78007024354929,2.14344182739303,9.57293732778857,2.23322104616149,8.38646386847512,0.109605186114169,0.168930969483135
4.85405886346438,2.22459344228074,9.61223181612161,1.07784846814001,1.29728803074575,9.26911533709495,6.78222979228269,2.14472959702921,9.55853851297443,2.25034594858541,8.40379533830612,0.110609075722267,0.157433526021066
4.86632283565537,2.22498412210853,9.61778631369702,1.04787124081589,1.32577962903048,9.26985804689465,6.77702352739117,2.14288396591928,9.57731841630552,2.22920435331424,8.37391231707068,0.115311068642172,0.173731313373126
4.85522076078942,2.22483780069753,9.61544383398683,1.06915955247217,1.29549047311667,9.26530720558349,6.78210966143255,2.14044894071874,9.55395382785533,2.25741979856008,8.39683668743394,0.113235315119775,0.158787058959801
4.85823768322695,2.22464658088023,9.61594382815175,1.0621738427567,1.30603547431846,9.26608781223421,6.77874842879195,2.14222390493709,9.56187853597252,2.24979816584441,8.38656081843011,0.117040842571942,0.163946423479325
4.86345608663822,2.2234829492057,9.61712928146611,1.05847457685272,1.31369844741546,9.27434742847906,6.7811094590966,2.14353623430029,9.57209398045785,2.23422832333357,8.39100359403805,0.107187498125599,0.167361906137469
4.85409853046733,2.22474942787339,9.61234432679183,1.07757227429429,1.29753514964925,9.26903765685024,6.78211700848746,2.14468946561336,9.55851187410541,2.25051300985416,8.40322818550557,0.110980284822439,0.157579629504464
4.86733567447236,2.22466790041634,9.61783883055715,1.04792374051488,1.32705807645066,9.27275035281959,6.77700139578319,2.14352514428229,9.57956428342692,2.22599880580558,8.37567958630941,0.113155543302834,0.174297200229169
4.85520973985922,2.22478206132125,9.61545547502618,1.06920959297272,1.29536823543474,9.26537413811571,6.78213459450411,2.14045915995855,9.55393598316418,2.25746771334884,8.39699131130609,0.113143489004681,0.15873380751717
4.85839377061685,2.22375716775136,9.61622563517692,1.0618754209592,1.30520666866354,9.26690115431947,6.7787525154185,2.14240789504858,9.56225612079503,2.24999029107325,8.38753418369837,0.116180328800004,0.163723312164634
4.86308224036808,2.22415334852421,9.61695228130734,1.05810950013743,1.31419423641339,9.2730688962191,6.7804223769816,2.14335917583838,9.57109806388288,2.23560954373201,8.38850812437799,0.109320022001031,0.167682887562155
4.85419806690296,2.22463031858928,9.61231490821034,1.07750223141256,1.29763234151593,9.2691472769693,6.78217678835661,2.14471249677335,9.55874196776438,2.25012814988889,8.40342095160815,0.110685519062996,0.157626331799701
4.84410807249796,2.27366358160085,9.59713407687094,1.09149911488719,1.33698006087782,9.21435390530769,6.78277608790196,2.12889481202158,9.5300248835329,2.24841898495036,8.34834885350594,0.161101272657021,0.167951494660137
4.85554509428129,2.22485847193215,9.61548230299951,1.06867110706219,1.29635534595773,9.26552235297947,6.78202018012655,2.14053842762551,9.55465913502438,2.25647830646984,8.39636921145749,0.113159849563321,0.159192088248753
4.85839178094076,2.22439229782252,9.61605202484099,1.0619298776021,1.30611883402088,9.26647125223825,6.77870909009566,2.14235851595745,9.56227178177379,2.24953036187044,8.38666801606667,0.116774793823804,0.164036140692859
4.86297404523119,2.22439334098491,9.61694544548351,1.05799705742661,1.31438522619655,9.27270661579587,6.78025028008,2.14324589090614,9.57089976888962,2.2358942609649,8.38785614479309,0.109917356987054,0.167756782923964
4.85405462195294,2.22462188714861,9.61227212605169,1.07776891254377,1.29728348796744,9.26908416491393,6.78221338700799,2.14470338677554,9.55847529435272,2.25046915170373,8.40366791174911,0.110695511189691,0.157451034573188
4.84415162229438,2.27348038105841,9.59751082244326,1.09146295637709,1.33644981828699,9.21553493950893,6.78315316973957,2.12894525385678,9.5303063850586,2.24827852919788,8.34949717254109,0.160015286399456,0.167639512511169
4.8554417806881,2.22479855404052,9.61549345579041,1.06873024346199,1.29613720666745,9.26547933330808,6.78194088426855,2.14057874108712,9.55450205426285,2.25685776993797,8.39632273122542,0.113333992412962,0.15911106044562
4.85844989350789,2.22436545555055,9.61606439093884,1.06186650332483,1.30618654737212,9.26652831047214,6.77872952567071,2.1423554410735,9.56237380822838,2.24937512958437,8.38670835871723,0.116672648244739,0.164070319603581
4.86309077015432,2.22428801584638,9.61698037875071,1.05784376623044,1.31452117614241,9.2728815534328,6.78024751098675,2.14329417733434,9.57115331446751,2.23561339038927,8.38790068717695,0.10973848002888,0.167839203811484
4.85429137298183,2.22450843465166,9.61228301645563,1.07745895454209,1.29770752102231,9.26927561553314,6.7822396841192,2.14474310006565,9.55896703162135,2.24975307493455,8.40364877162285,0.110377456735221,0.157661055362465
4.8440960350203,2.27319277204027,9.59779271087239,1.09091433306453,1.33615305336954,9.21583971104458,6.78273384461353,2.12908080741396,9.53020995659323,2.24920791179604,8.34885437559103,0.160506920624734,0.167669320368431
4.85542230985033,2.22446899591768,9.61548133799908,1.06887294808978,1.29561880541073,9.26560582046718,6.78204829751083,2.1405404666685,9.55449942764983,2.25688670924769,8.39705938560779,0.112842896256988,0.158881230907842
4.85894263750065,2.22425378443233,9.61623356458684,1.06109398696646,1.30728617329317,9.2671566953873,6.77853096905993,2.1426178450281,9.56339799049113,2.24825492194656,8.38604645992586,0.116536537198408,0.164655180764091
4.8632539039739,2.22437151080283,9.6170049356427,1.05770865160956,1.31495559776796,9.27308309204167,6.78028728177738,2.14334124096658,9.57149383483082,2.23506790262688,8.38780909217169,0.109590925047597,0.168011737197077
4.85432748778183,2.22333210157307,9.61275908868325,1.0771074300826,1.29630181468728,9.27037476152949,6.78202745404024,2.14509538075748,9.55915332182979,2.25085511782394,8.40461029232535,0.109749755276735,0.157278437119739
4.84401445623461,2.27273736241017,9.5983727426401,1.0897528740214,1.33566259171308,9.21636557024726,6.78191518114415,2.12929079505007,9.52997519491868,2.25106042100446,8.34741448854123,0.161569307921927,0.167773593039958
4.8553084857423,2.22483537687482,9.61546200704254,1.06898487544077,1.29573581607205,9.2653478200176,6.78205502965025,2.14047388860852,9.55414435785626,2.25720265631213,8.39663886221372,0.11326737884873,0.158910232125025
4.85888128505887,2.22384319770187,9.61636180978381,1.06057779247901,1.30692325897939,9.26691241243367,6.77818338416381,2.14261200500817,9.56331443360997,2.24903458722231,8.3855488703978,0.116992411018682,0.164629823748712
4.86321403524231,2.22437729727218,9.61699813774123,1.05771322169708,1.31489503540408,9.27299714248606,6.78025932064088,2.14332051559955,9.57140624667194,2.23520723917268,8.38774707575756,0.109686428282961,0.167990092091324
4.85524735781012,2.22402563770165,9.61245376949987,1.07593601824685,1.29927129479653,9.26995367953291,6.78229462327051,2.14479677948777,9.5607433052473,2.24726703845821,8.4033121336861,0.109258244681071,0.158528210743374
4.84344553636124,2.27063229546222,9.59667021432838,1.09151040483814,1.33399552113834,9.21336298497277,6.78078249340538,2.12985337282498,9.52910096827053,2.25231995950033,8.34825421705001,0.162711521417445,0.167677238041638
4.85560277646301,2.22483298337509,9.61551951029164,1.06851953684376,1.29646082180724,9.26556394000144,6.78197447509322,2.1405428674982,9.55475507842926,2.25641410645152,8.39623587220512,0.11318418237352,0.159260036155731
4.85925047573854,2.22436386432336,9.61624987753942,1.06058803954356,1.30810705768336,9.26718965093344,6.77852758673665,2.14255228668357,9.56398289900966,2.24731096332674,8.38562878202017,0.116413245874674,0.165026373442396
4.86319288369195,2.22436387050861,9.61697462117594,1.05769241447212,1.31491110492536,9.27289077306886,6.78020169881074,2.14332096024006,9.57138666339039,2.23527653370368,8.38762611885788,0.109811961100249,0.16800267298434
4.85486550560057,2.22426668547675,9.6124806171774,1.07591187015364,1.2989854888448,9.26921065195611,6.78186544492589,2.14472892249606,9.55996149335583,2.24878120428628,8.4021769867825,0.110632450464705,0.158451458338863
4.85546353469776,2.23610911920024,9.59698119957026,1.08849179573377,1.31863924622829,9.248522425848,6.78271366977638,2.14119744214066,9.55922146212777,2.2245815500529,8.40081347828935,0.113028584987898,0.169397101045818
4.85550045661294,2.22415680522754,9.6157089808472,1.06857226050978,1.29535149003489,9.26595797096002,6.78198884187597,2.14062138555227,9.55460816333288,2.25717973291667,8.39711717031055,0.112714608439163,0.158850960103358
4.85943662038111,2.22426064530159,9.61632231850374,1.06027444497031,1.30856691652249,9.26741532092586,6.77840901702616,2.14268535480339,9.56448529766101,2.24684366227572,8.38533694882702,0.116416599646148,0.165241443144318
4.8631336610228,2.22438784548259,9.61699202195131,1.05771221352118,1.31484505105935,9.27287659954647,6.7801628400028,2.14333327941883,9.57130966186328,2.23546190206356,8.38755025128569,0.109934620190523,0.167975880627777
4.85513449586673,2.22454910050065,9.61269753675727,1.07550464265536,1.29958008839035,9.26945492795027,6.78195665045235,2.14462518680864,9.56023440183102,2.2482963556752,8.4017979036714,0.110573707744681,0.158725013030425
4.85295686683587,2.22753139927606,9.6139275375699,1.06939847199984,1.29576417529155,9.26039317114789,6.77968298557871,2.14040926153244,9.54959743900868,2.26335584459503,8.38978240316749,0.12064176073589,0.159258844083129
4.85569517675158,2.22447452000065,9.61565946510566,1.06799926952585,1.2967139459043,9.26518839936755,6.7817196613157,2.14041398539195,9.55524256053865,2.25626002989756,8.39570084873051,0.113574471017928,0.159292355225101
4.85935352470585,2.22440217531974,9.61630644050669,1.06022820156525,1.30831608942726,9.26698001277809,6.77853582362181,2.14240977547485,9.56402112859574,2.24719163347195,8.38527743783053,0.116482716837941,0.165142525704542
4.86324938093658,2.22437281630649,9.6170054224057,1.05766729359194,1.31497808860084,9.27303834166524,6.78025312419294,2.14333623823398,9.57148650754904,2.23510620663767,8.38771646545701,0.109664219983598,0.168029020804911
4.85551212270069,2.2245347471695,9.61287909606004,1.07471118071191,1.30035188510369,9.26966415337452,6.78183425916053,2.14461486588063,9.56082669995378,2.24763082153044,8.4011275108375,0.110567028595146,0.159172262469011
4.86746432022536,2.22724235871131,9.61745689082536,1.04959196692992,1.328755865869,9.273143953647,6.7785218827514,2.14319516163442,9.57892455696066,2.22377663570214,8.3763959205684,0.11214266931221,0.174577261616631
4.85607166481968,2.22354701296202,9.6160317126534,1.0672139643117,1.29627623314716,9.26637839183921,6.7816116155745,2.14073997995822,9.55591324643021,2.25617005972,8.39627703479646,0.11262606985286,0.159387928663137
4.85928251389617,2.22283235866615,9.61689605022841,1.06009475764299,1.30586497924242,9.26856985101286,6.77841759505993,2.14278443780807,9.56374705949838,2.24899536086243,8.38709564921926,0.115308254105984,0.164371049423539
4.86323742244767,2.22437665979985,9.61700284399693,1.05767177159349,1.31495594824629,9.2730113249963,6.78024916194162,2.14332652505691,9.57145581178829,2.23514696605473,8.38770568513956,0.109686692278013,0.168020126515604
4.85577979476976,2.22407385105323,9.61281833058658,1.07443769655962,1.30036036123582,9.26988829505395,6.78207169109141,2.14458837537932,9.5613336356471,2.24671002302913,8.40183895059546,0.109584597777861,0.159228948747828
4.86678785297505,2.2249053001281,9.61741692788549,1.04835469767461,1.32677304061186,9.27162525209381,6.77639255503973,2.1435934124578,9.57840391448969,2.2275428935953,8.37444077131379,0.114764408912788,0.174327659650345
4.85611278258321,2.22410882558261,9.61589798379626,1.06723975107578,1.29691310687422,9.26616457920047,6.78168755955272,2.14070107490372,9.55580717223039,2.2558159874575,8.39576194311908,0.112865759616879,0.159673287228352
4.86048351536956,2.2244187631193,9.61646010427051,1.05860139769517,1.31089874162394,9.2677893440363,6.77832185076138,2.14255709602175,9.56620199034481,2.2441472771345,8.38411206204455,0.115928617278479,0.166406214838774
4.86371325430594,2.22306639300137,9.61752118670779,1.0565072242256,1.31449120796897,9.2742384652526,6.77994982200313,2.14368221250571,9.5724642544975,2.23511983216198,8.38811705374447,0.108830772437421,0.168135113584467
4.85614743764631,2.22456878245267,9.61323236231943,1.07318036891489,1.30176000533571,9.26978193178432,6.78161651264539,2.14451977579231,9.56176183002587,2.24661336665983,8.39965188531395,0.110772328745361,0.159983357546897
4.86628811133053,2.22511221672287,9.61767969951423,1.04788408037529,1.32619458758622,9.27031974836046,6.77602407372073,2.14336895783695,9.57739496143621,2.22987060320579,8.37284517613779,0.116572812970747,0.174081494756689
4.85574676676711,2.22302908980372,9.61606870686445,1.06806784081284,1.29444730047092,9.26705576749871,6.7819258102585,2.14090582931479,9.55517272287076,2.25734681033378,8.39817450455588,0.111667541808232,0.158671825514874
4.85883964155295,2.22269488259292,9.61665709536019,1.06100912141664,1.30488489099577,9.26812728613975,6.77861773593588,2.1427340739969,9.5632223708738,2.24966183345218,8.38814416516648,0.115196548682279,0.163821022653065
4.8647456123477,2.22096336644773,9.61830022377328,1.05507731911264,1.3140063466867,9.27689651668762,6.78000955009065,2.14431697809834,9.57475973594815,2.23356238972912,8.39014972938257,0.106154018291104,0.168279255952144
4.85639870460117,2.22457540539383,9.613336963226,1.07257973055849,1.30233173046518,9.26980361009067,6.78152068294293,2.14447901264933,9.5621409183699,2.24616454198647,8.39907200050781,0.110836473865289,0.160311005915743
4.86350607285561,2.23648004656859,9.61808116016271,1.04625351251687,1.33455069284437,9.25682314957117,6.77496236305472,2.13917314761202,9.56910097927074,2.23754950211445,8.35205950945653,0.134604355386007,0.176270311847529
4.85281230709255,2.22816058707811,9.61364391538486,1.07402965403405,1.29479173199821,9.26013710754213,6.78303474321145,2.13895450855171,9.54996273386474,2.2593236873226,8.39685681481381,0.11639003531215,0.15701213258373
4.86077703728643,2.23066567496804,9.61550953273247,1.05828908443149,1.31933918242977,9.26567902311265,6.77762099836366,2.14243280323959,9.56583890488546,2.24121321551589,8.37535841864161,0.121444465207298,0.170236204147598
4.85799569823271,2.23574394525534,9.61260373784075,1.0640816100758,1.32008885377892,9.25811115062563,6.77888812951863,2.14040396906246,9.56092576255618,2.24195057296405,8.3741746152152,0.125675011628628,0.168406274808566
4.85356404486335,2.24903695643965,9.60687881286629,1.07470819758069,1.32655018898211,9.24339113275139,6.78142695281023,2.13626206833065,9.55131247685984,2.24108148826829,8.36776757793136,0.135673785510583,0.167984487079211
4.79325283180408,2.33700225955319,9.62418569107728,1.0753020486155,1.33346505791635,9.13427459087649,6.72915835363582,2.1217204436932,9.44451658177092,2.36788780937153,8.19057340095365,0.315433144928325,0.16467825445043
4.85316265014075,2.23871978497476,9.61533723004912,1.06815348036725,1.30819180391326,9.25106023757737,6.78043945641987,2.13738044068716,9.54561210436005,2.26408182187822,8.37181274472955,0.134564731007773,0.163120706338738
4.85624092311366,2.23735637451756,9.61481547761824,1.0580604910968,1.3218670267799,9.25437098005702,6.7704834703787,2.14247931661851,9.55389132925739,2.259681769073,8.35258739825226,0.144732522969954,0.172386193677624
4.8463553786719,2.25470674653188,9.62072370246633,1.06125732781908,1.3241838166767,9.24271346067466,6.77084471901044,2.13147099122366,9.54465851325537,2.27526097713466,8.33607969549452,0.166239640202352,0.165522064024116
4.859724760068,2.25321403921114,9.61601661907617,1.0533587273946,1.33773930124562,9.23882236715865,6.7758827672479,2.13094939904444,9.55677648203866,2.24880797595549,8.34137590825596,0.151331407667531,0.176437084798832
4.8186298412544,2.30783953728036,9.60933841566288,1.06802330460127,1.35274746644892,9.18233599870437,6.74342849403703,2.12721549346684,9.49265305124062,2.34235426284436,8.22428010988943,0.27789699988127,0.178513844357074
4.84939614559467,2.2424045158936,9.61357395528347,1.07325675491894,1.30674382229551,9.24997624149945,6.779870430638,2.13666070223932,9.54230974343622,2.26705792870605,8.37220808734471,0.137483945559399,0.161070309335069
4.85518247567276,2.23891732161198,9.61386845059834,1.06424588949826,1.31935771868128,9.25617687946428,6.77447381643442,2.14262680018937,9.5526906071623,2.25770060157482,8.36116212168599,0.139265644577265,0.170217741615004
4.85843929670157,2.23826284525049,9.61969470660524,1.05082382884349,1.32420740770466,9.25602406321612,6.77272406110612,2.1393522294976,9.55924439015366,2.25664672215856,8.35090880881564,0.142346692476127,0.170658078620958
4.85158018424649,2.23838315296887,9.61229755200202,1.0770353442464,1.30839120841389,9.26014666098569,6.78111288447076,2.14195210449574,9.55149568633412,2.2557724823654,8.38329479629937,0.127300646553109,0.1608910967704
4.80740902306676,2.37251743167493,9.68104171106267,0.840828413480799,1.46686975982594,8.9355882353933,6.65700973253626,2.05642109727532,9.3866501199868,2.55013892758543,7.72902479031461,0.637261666114388,0.208228414037724
5.01199811399757,2.38926787653958,9.27768838655861,1.30108098529905,1.67140207630976,9.02776730158577,6.67799287569259,2.23755999100603,9.1724562992798,2.52057695023731,8.08398444522803,0.538557264150947,0.441157008531883
3.63172266049744,4.86700761827793,8.68863340815522,3.86281336126907,1.92495297266582,7.75189979261736,7.04737051493868,2.1324261060804,7.04802151063111,3.86230375354189,6.59884405296431,2.45716835644038,0.391839546405991
4.83409321426643,2.31190067462575,9.47375296462806,1.13859808744236,1.42162382265419,9.17878870883031,6.69968636941688,2.11683008109445,9.56031891623481,2.36446151798546,8.36315323454976,0.236554831891282,0.223893137404096
4.93648039653938,2.32030742416376,9.40710361591983,1.13418149410076,1.43353538170532,8.980622108304,6.75828666003516,2.18783767873531,9.24915453216561,2.3615394629033,8.19439154218204,0.389018258612132,0.365487668764281
4.1457497090836,3.26787182680448,8.88191601392702,3.03784030824139,1.84801579008027,8.1226907773424,7.15503903453774,1.82990071056932,7.98389612108127,3.28682330281511,6.73003046695356,2.06527768631352,0.292855914316892
