"fastcoef_sq","pref_flow_den","slowcoef_sq","soil_moist_max","soil2gw_max","fastcoef_lin","gwflow_coef","jh_coef","slowcoef_lin","sat_threshold","carea_max","smidx_coef","smidx_exp"
4.86779448342023,2.22493429508909,9.61795938535358,1.04849639913246,1.32751346609945,9.27432401747515,6.77789825862227,2.14345273090478,9.58050265905942,2.22367319843926,8.37775289311964,0.111005629712353,0.174218434647288
4.86683185360326,2.22446303414144,9.61774270602406,1.04747222814184,1.32640882917343,9.27109822416176,6.77625715225401,2.14352648608736,9.57844921815691,2.22847930341186,8.37381485041238,0.115213466915676,0.174264098382511
4.86684711789588,2.22447702117746,9.61773806841002,1.04744919723959,1.32652474838144,9.27117890958378,6.77622437480418,2.14358089412218,9.57851385416726,2.22839227101368,8.37373297748087,0.115231862257128,0.174321165294846
4.86679999657889,2.22428374297744,9.61775477089046,1.04752949019524,1.32619445541474,9.27126038737954,6.77624872348991,2.14359264947673,9.57848218346603,2.22854494285711,8.3740765265642,0.11505497315248,0.174177248436246
4.86657781418493,2.22452685744997,9.61785231668205,1.04771647508914,1.32596970953988,9.27118287970409,6.77640487638581,2.14347818956231,9.57821698091345,2.22898422859712,8.37416122317419,0.115205636908024,0.173945961594336
4.86690573155924,2.22438255247271,9.61770759697077,1.04745472004639,1.32651023003836,9.27131345047179,6.77622155407432,2.14363157424703,9.57861268063162,2.22822884778604,8.3739000453521,0.115048373701416,0.174355742435091
4.86683677219091,2.22417722164765,9.61777018018459,1.0474952366862,1.32614403047284,9.27134374241895,6.7762614374671,2.14360775380638,9.57857830772513,2.22846318243454,8.37421513189443,0.114915650248281,0.174161843179868
4.86686279947841,2.22426654811006,9.61776119329594,1.04745502940761,1.32630410064153,9.27130848223123,6.77625139548169,2.14360328102198,9.57859895415108,2.22838034216825,8.37405695990451,0.114991267728136,0.17423275770357
4.86640863034929,2.22448134979071,9.61766568243127,1.04731310143132,1.32612045378383,9.2701875030868,6.77565801623372,2.14353383517129,9.57774481098088,2.23002558633858,8.37248981001763,0.116720951161669,0.174234848754675
4.86697435160934,2.22417119903107,9.61770907918203,1.04731770541052,1.3264314841465,9.2712233138511,6.7761399596188,2.14362207938618,9.57866974605417,2.22825731909156,8.37387668713821,0.115039553575058,0.174377078317836
4.8669537344701,2.22451926850975,9.61768178063097,1.04717267359936,1.32701091818897,9.27109298894853,6.77596034239829,2.14360246584285,9.57876963212279,2.2281038834867,8.37313603243415,0.115555940634151,0.174574683185853
4.86603645362253,2.22452361479033,9.61762396790735,1.04841028274793,1.3249148558635,9.27049112374101,6.77611599491072,2.14344794572131,9.57695392688087,2.23063894661724,8.37406717692276,0.116042580107777,0.173566264354051
4.86711118188642,2.22167210458544,9.61794865445033,1.04667160351048,1.32442333657952,9.27216851104194,6.77578719452914,2.1438827869651,9.57973442954868,2.22845603503592,8.37606110915749,0.113407705457697,0.173695376397246
4.86177958798257,2.24525048849216,9.61339154355428,1.0551372028194,1.34036241853699,9.25534545203779,6.77496228506102,2.14211472122619,9.56162106031093,2.23835924680466,8.34724290892388,0.139893676085368,0.180108576445776
4.86483048853829,2.22714608878642,9.61710690518951,1.0493206827525,1.32621440409082,9.26786833625004,6.77531079436936,2.14319214797346,9.5742933986073,2.23346182472754,8.36967742472417,0.120616195355731,0.174035997876156
4.86330137522845,2.22726185027138,9.61614527317348,1.04926248878936,1.32809154199402,9.26774371566334,6.77003777098961,2.14355899484826,9.57510054947567,2.23493821064948,8.36397238581678,0.12708288274715,0.174834323439879
4.8467367108367,2.30096465564703,9.60250541180857,1.0827278739597,1.36351374926638,9.22594605879933,6.7817653306032,2.13382278634719,9.52065026181861,2.25519717648421,8.30832718136875,0.180849739163394,0.183854092206707
4.86409425308837,2.23093078324331,9.61774510382272,1.04868506223099,1.32983223827002,9.26699180242129,6.77431623905569,2.14163810906476,9.57448244564514,2.23292452199379,8.36451228104586,0.12505526928536,0.174642216608963
4.86627846595053,2.22520158122293,9.61697677764896,1.04869645068537,1.32669212046662,9.27045830176028,6.77571161902336,2.14366413472484,9.57731540771666,2.22897671654242,8.37296683278565,0.11649851639316,0.174457477758923
4.86628811133053,2.22511221672287,9.61767969951423,1.04788408037529,1.32619458758622,9.27031974836046,6.77602407372073,2.14336895783695,9.57739496143621,2.22987060320579,8.37284517613779,0.116572812970747,0.174081494756689
4.86644691311223,2.22540731934341,9.61751080667963,1.04783034366219,1.32687519837756,9.27011271980441,6.77600754525092,2.14347483100536,9.57738868930738,2.22948146616517,8.37224127530214,0.116802451156427,0.174494194062294
4.8662643973173,2.22731008176116,9.61734885147808,1.04768325324276,1.32814207733979,9.26896101087848,6.77606236387306,2.14302307066719,9.57581437525088,2.22980919587539,8.36947384405508,0.118571396247597,0.174490972285367
4.86311543536321,2.2262533333574,9.61695321265657,1.04665955667619,1.32508842452029,9.26278198758655,6.77139675362215,2.14326789500145,9.57172829904967,2.24148317815544,8.3613854248247,0.129019315544555,0.174337213791094
4.86007765291599,2.22593901242984,9.61633789428523,1.04481319271774,1.32287595705513,9.25530273784631,6.76659377461704,2.14323159008699,9.56656417213279,2.25331201981476,8.35086097467585,0.140662868706128,0.174262802140244
4.8564695495353,2.28182796503316,9.61578647087631,1.04877251216408,1.35881988123745,9.20641376353918,6.77206697704551,2.11832466428099,9.54124129428628,2.26372486567768,8.29673568364045,0.191315891190061,0.184538374104656
4.84396078332169,2.27992271272673,9.62775432003274,1.03038804011144,1.35177627073103,9.20498166653422,6.7501507549867,2.12741182239916,9.52244040625558,2.32138414105702,8.24057687579014,0.240391864914089,0.178485455972218
3.63172266049744,4.86700761827793,8.68863340815522,3.86281336126907,1.92495297266582,7.75189979261736,7.04737051493868,2.1324261060804,7.04802151063111,3.86230375354189,6.59884405296431,2.45716835644038,0.391839546405991
