"fastcoef_sq","pref_flow_den","slowcoef_sq","soil_moist_max","soil2gw_max","fastcoef_lin","gwflow_coef","jh_coef","slowcoef_lin","sat_threshold","carea_max","smidx_coef","smidx_exp"
4.81184550705387,2.2156812714669,9.53763491593288,1.20399449571964,1.22501362181363,9.19187009229215,6.78224138630107,2.14702242215836,9.49248313268281,2.27854190769792,8.51232577008556,0.100263777737166,0.13550487138896
4.81184550753464,2.21568126964985,9.53763490752679,1.20399450090945,1.2250136246725,9.19187008364265,6.78224138488925,2.14702242217785,9.49248313336042,2.27854189927641,8.51232577542248,0.100263775185279,0.135504875944823
4.81184550673563,2.21568127008375,9.5376349086022,1.20399450262618,1.22501362201947,9.19187008577464,6.7822413861025,2.14702242219286,9.49248313210794,2.27854190098301,8.51232577815688,0.100263773781934,0.135504873839047
4.81184550773677,2.2156812704382,9.53763491161037,1.20399449795188,1.22501362395684,9.19187008816715,6.78224138568087,2.14702242218133,9.49248313372151,2.27854190215312,8.512325772962,0.10026377576831,0.135504874147295
4.81184551255084,2.2156812689942,9.53763490916818,1.20399449264603,1.22501363369545,9.19187008701799,6.78224138483165,2.14702242223913,9.49248314134454,2.27854188840593,8.51232577104397,0.10026377177178,0.13550488104834
4.81184550793136,2.21568126969978,9.53763490819321,1.2039945000615,1.22501362511844,9.19187008464949,6.78224138510605,2.14702242218919,9.49248313399563,2.27854189873281,8.51232577512909,0.100263774733897,0.135504875998983
4.81184550771614,2.21568127013623,9.5376349100468,1.20399449893203,1.22501362440689,9.19187008638243,6.78224138532015,2.14702242217663,9.49248313367825,2.27854190096574,8.5123257736913,0.100263775637691,0.135504874942664
4.81184550810318,2.21568126982373,9.53763490886727,1.20399449924566,1.22501362538975,9.19187008531253,6.7822413851286,2.14702242218448,9.49248313428553,2.2785418989651,8.51232577430866,0.100263774975149,0.135504875939184
4.81184551181499,2.21568127089755,9.53763491724858,1.20399448877351,1.22501363007534,9.19187009594445,6.78224138672845,2.1470224222276,9.49248314031867,2.27854189648329,8.51232576757485,0.100263773276684,0.135504876017602
4.81184550957899,2.21568127126199,9.53763491713823,1.20399449161436,1.2250136261183,9.19187009470045,6.782241386562,2.14702242219357,9.49248313673769,2.27854190225356,8.5123257682675,0.100263775618803,0.135504873633584
4.81184506967713,2.21568098509647,9.53763316069213,1.20399630155188,1.22501321671603,9.19186806843672,6.78224109877087,2.14702241932171,9.49248241095147,2.27854150896424,8.51232716502129,0.10026371138232,0.135505207597652
4.81184551664571,2.2156812724392,9.53763492902516,1.20399447422911,1.22501363616696,9.19187011041541,6.78224138872335,2.14702242228418,9.49248314818629,2.27854189430723,8.51232575754885,0.100263771832447,0.135504875849376
4.81184550846235,2.21568127079268,9.53763491388715,1.20399449530901,1.22501362485744,9.191870090769,6.78224138598604,2.14702242218263,9.49248313491577,2.27854190233714,8.51232577085874,0.100263775880722,0.135504873940519
4.81184551300925,2.21568127117877,9.53763491959909,1.20399448528422,1.2250136319528,9.19187009866486,6.78224138691459,2.14702242223399,9.49248314227498,2.27854189569988,8.51232576480249,0.100263773299006,0.135504876393426
4.81184100068678,2.21567793035605,9.5376151109173,1.20401430101638,1.2250098396395,9.19184750021934,6.7822381149248,2.14702242940157,9.49247573380437,2.27853634818092,8.51234130922726,0.100262656762504,0.135509157843732
4.81184502290433,2.215680907293,9.53763277220037,1.20399664020532,1.22501321338261,9.19186765551472,6.78224103574607,2.14702242417401,9.49248233859682,2.27854129338279,8.51232746435145,0.100263642721615,0.135505336420469
4.81184262101374,2.21567865017756,9.53761927020361,1.20400913761192,1.22501217336804,9.19185239881298,6.78223871561466,2.14702240063043,9.49247841822818,2.27853582126149,8.51233727569914,0.100262626835799,0.135509116031182
4.81184548730032,2.21568105706928,9.53763383411976,1.20399526857066,1.22501379952148,9.19186892190937,6.78224121727408,2.14702239550675,9.4924830475424,2.27854105914639,8.51232652669528,0.100263498613424,0.13550536529032
4.8118446938483,2.21568080607053,9.5376320072824,1.2039976021313,1.22501281629146,9.19186671787682,6.78224089506818,2.14702243719723,9.49248182767332,2.27854146165559,8.51232809333897,0.10026377357293,0.135505331896998
4.81184580091147,2.21568132274561,9.53763535459946,1.20399378390948,1.22501409473437,9.19187065902062,6.78224144570602,2.14702242226544,9.49248361407266,2.27854154487589,8.51232527973633,0.100263669121496,0.135505008329862
4.81184196970416,2.21567868622562,9.53761938725984,1.20400991002309,1.22501079822689,9.19185224093609,6.78223873296083,2.14702242270547,9.49247733474606,2.27853761895826,8.51233762922896,0.100263147959392,0.135508294679987
4.81184504982636,2.21568097330597,9.53763310427946,1.20399636707165,1.22501320159436,9.1918680099827,6.78224108428713,2.14702242745163,9.49248239156637,2.27854150809008,8.51232720499596,0.100263721918225,0.135505212769932
4.81184581681109,2.21568144356894,9.53763619565971,1.2039932606061,1.22501377644772,9.19187164032882,6.78224165080672,2.14702242730781,9.49248362321477,2.27854219979879,8.51232498068884,0.100263665639263,0.135504570685734
4.81187200733997,2.21569772340826,9.53772117412658,1.20388768762852,1.22505311228708,9.19195925092737,6.78224737727286,2.14702144463226,9.49252400579971,2.27855833242921,8.51222639859913,0.1002837978028,0.135501412835251
4.81190831421845,2.21573156560504,9.53793627363235,1.2036955366414,1.22506214960909,9.19220712039933,6.7822871192522,2.14702255456418,9.49258641848205,2.27864593105023,8.51208277248593,0.100293263131466,0.135435534397445
4.81165313058291,2.21560727544172,9.53707240307791,1.20474996525985,1.22471823295387,9.19129795460827,6.78222932247075,2.14702201233288,9.49216705515543,2.27845060477702,8.51303042931964,0.100107524091532,0.135501824599239
4.81138149465288,2.21795395370638,9.53799868755933,1.2051067653339,1.22758213365932,9.19164572367376,6.7830833309747,2.14639669271297,9.49090039214178,2.27996255861766,8.50683643954546,0.104162948150864,0.136098835903198
