"fastcoef_sq","pref_flow_den","slowcoef_sq","soil_moist_max","soil2gw_max","fastcoef_lin","gwflow_coef","jh_coef","slowcoef_lin","sat_threshold","carea_max","smidx_coef","smidx_exp"
4.81184550705387,2.2156812714669,9.53763491593288,1.20399449571964,1.22501362181363,9.19187009229215,6.78224138630107,2.14702242215836,9.49248313268281,2.27854190769792,8.51232577008556,0.100263777737166,0.13550487138896
4.81184550705481,2.21568127146335,9.53763491591646,1.20399449572978,1.22501362181922,9.19187009227526,6.78224138629832,2.1470224221584,9.49248313268413,2.27854190768148,8.51232577009598,0.100263777732182,0.135504871397858
4.81184550705391,2.21568127146612,9.53763491592904,1.2039944957226,1.22501362181438,9.19187009228845,6.78224138630068,2.14702242215837,9.49248313268284,2.27854190769423,8.51232577008883,0.100263777735577,0.135504871390671
4.8118455070552,2.2156812714649,9.53763491592444,1.203994495724,1.22501362181782,9.19187009228409,6.78224138629986,2.14702242215841,9.49248313268484,2.27854190768709,8.51232577009118,0.100263777733321,0.135504871394348
4.81184550705475,2.2156812714648,9.53763491592348,1.20399449572498,1.22501362181746,9.1918700922826,6.78224138629948,2.14702242215839,9.49248313268411,2.27854190768767,8.51232577009133,0.100263777734034,0.135504871394445
4.81184550705391,2.21568127146682,9.5376349159325,1.20399449571986,1.22501362181379,9.19187009229178,6.78224138630102,2.14702242215836,9.49248313268287,2.27854190769749,8.51232577008581,0.100263777737021,0.135504871389184
4.81184550705422,2.21568127146576,9.53763491592764,1.20399449572283,1.22501362181549,9.19187009228679,6.7822413863002,2.14702242215837,9.49248313268331,2.27854190769255,8.51232577008889,0.100263777735516,0.135504871391848
4.81184550705415,2.21568127146593,9.53763491592841,1.20399449572238,1.22501362181519,9.19187009228757,6.78224138630033,2.14702242215837,9.49248313268321,2.27854190769338,8.5123257700884,0.100263777735779,0.135504871391408
4.81184550705676,2.21568127146524,9.53763491592731,1.20399449571988,1.22501362182011,9.1918700922877,6.78224138630029,2.14702242215842,9.49248313268738,2.27854190768563,8.51232577008834,0.100263777732781,0.135504871394792
4.81184550705446,2.21568127146593,9.53763491592866,1.20399449572181,1.22501362181569,9.19187009228797,6.78224138630038,2.14702242215838,9.4924831326837,2.27854190769281,8.51232577008812,0.100263777735541,0.135504871391627
4.81184550702743,2.21568127144851,9.53763491582151,1.20399449583247,1.22501362179037,9.19187009216428,6.78224138628282,2.1470224221582,9.49248313263912,2.27854190766931,8.51232577017339,0.10026377773181,0.13550487141179
4.81184550705443,2.21568127146596,9.53763491592878,1.20399449572175,1.22501362181562,9.19187009228809,6.7822413863004,2.14702242215838,9.49248313268367,2.27854190769298,8.51232577008803,0.100263777735602,0.135504871391544
4.81184550706172,2.2156812714554,9.53763491588384,1.20399449574338,1.22501362183948,9.19187009224397,6.78224138629295,2.14702242215855,9.49248313269484,2.27854190763586,8.51232577011464,0.100263777717454,0.135504871421173
4.81184550710462,2.21568127144868,9.53763491588764,1.20399449568373,1.22501362191797,9.19187009226592,6.78224138629346,2.14702242215912,9.49248313276371,2.27854190753017,8.51232577009119,0.100263777680064,0.135504871468099
4.81184548945087,2.21568125841569,9.53763483856954,1.20399457308408,1.22501360703952,9.19187000404187,6.78224137352226,2.14702242218666,9.49248310378094,2.27854188598106,8.51232583078533,0.100263773358359,0.135504888132924
4.81184550752602,2.21568127181644,9.53763491799617,1.20399449364735,1.22501362221828,9.19187009463986,6.78224138663844,2.14702242215643,9.49248313345689,2.27854190827353,8.51232576845159,0.100263777861775,0.135504870948431
4.8118454874521,2.21568125318358,9.53763480669854,1.2039945971248,1.22501361296015,9.19186996888098,6.78224136758153,2.14702242198494,9.49248310068754,2.27854186382875,8.51232584977435,0.100263769497157,0.135504901724783
4.81184550573867,2.21568127087897,9.5376349120818,1.20399450017007,1.22501362033351,9.19187008777622,6.78224138564618,2.14702242221262,9.4924831306262,2.2785419076727,8.51232577328592,0.10026377794161,0.135504871718731
4.81184551111581,2.21568127365576,9.53763492938437,1.20399448087796,1.2250136263069,9.19187010793802,6.78224138850955,2.14702242207761,9.49248313924511,2.27854190899848,8.51232575888066,0.100263777725816,0.135504869664439
4.81184550985343,2.21568127230418,9.53763492188717,1.20399448772812,1.22501362586995,9.19187009958155,6.78224138717952,2.14702242216624,9.49248313728668,2.27854190574483,8.51232576430017,0.100263777100661,0.135504871830347
4.81184561798463,2.2156813531173,9.53763540644443,1.20399400997923,1.22501370921411,9.19187065594077,6.7822414701864,2.14702242217192,9.49248331447699,2.27854204521393,8.51232539629466,0.100263798030374,0.135504762252982
4.8118457758352,2.21568145285527,9.53763601465065,1.20399337768099,1.22501386174188,9.19187136047556,6.7822415714735,2.14702242252615,9.49248357423019,2.27854216489298,8.51232491209855,0.100263813354085,0.135504652186026
4.81184552438599,2.21568128406027,9.53763499490619,1.20399441918125,1.22501363309029,9.19187018395853,6.78224140054256,2.14702242226754,9.4924831608603,2.27854193091698,8.51232571336096,0.100263779073621,0.135504852571435
4.81184527455889,2.21568112215234,9.53763395614931,1.20399552404093,1.22501338414224,9.19186903329789,6.78224126652521,2.14702241804345,9.49248274790483,2.27854162266746,8.51232663703048,0.100263649608323,0.135505040737552
4.8118446743088,2.21568075465605,9.53763220397307,1.20399785109008,1.22501238291546,9.19186728711364,6.78224119639252,2.14702245277477,9.49248184791451,2.27854139199425,8.51232888887742,0.100263151860142,0.135504981969746
4.81183952920303,2.21567898223933,9.53761747767501,1.2040179619487,1.22500442060772,9.19185237471087,6.78224103297979,2.14702240937963,9.49247331089644,2.27853908839114,8.51234768153893,0.100258899563816,0.135504747703471
4.81161350093874,2.21681761245805,9.53781680120579,1.2045506308058,1.22629787800438,9.19175790746733,6.78266235856036,2.14670955743854,9.49169176254213,2.27925223246469,8.50958110517507,0.102213362697908,0.135801853990871
