"fastcoef_sq","pref_flow_den","slowcoef_sq","soil_moist_max","soil2gw_max","fastcoef_lin","gwflow_coef","jh_coef","slowcoef_lin","sat_threshold","carea_max","smidx_coef","smidx_exp"
4.60307777756248,3.42477878276716,9.13134354699921,2.13830357829436,1.79989102398593,9.13597114742908,7.07442089030828,2.14220691199952,8.73989069801928,2.14894164507839,8.49517240103188,0.244424016282675,0.199059754830722
4.56903260097081,3.43324347958246,9.18253440555227,2.10992761566038,1.74891955090545,9.1644067186852,7.10703901499976,2.11281570950371,8.74843470300798,2.16315307028853,8.4659837283346,0.243581683337187,0.169519704561741
4.57967618803841,3.43237632195973,9.17293342604968,2.12309767289532,1.74420429287342,9.15690756163157,7.10858760910145,2.11667820460934,8.74492245521596,2.15812599279061,8.47029489654254,0.247472459456352,0.184114437359137
4.73234574808936,3.24330387514392,8.98812097113158,2.51589470958626,1.79072911471383,8.93341711159511,7.52354003763841,2.25102706211604,8.69125123922338,1.965705871896,8.41786788093146,0.326172340895827,0.487187660999282
3.53034371853008,5.03246632750462,8.76229661199162,3.9923819281768,1.86356929640121,7.76839631608059,7.02420107759333,2.10789728875205,6.9096072679597,3.924033128881,6.53579787694775,2.57010173947367,0.20289086319259
3.53060161922921,5.03215720381676,8.76201985155114,3.99195132758606,1.8636630407958,7.76828997952772,7.02415171417679,2.10820473573853,6.90972508619974,3.92375571397177,6.53581427318183,2.56973843804707,0.203063606783346
3.53020761060124,5.03258501878302,8.7624106962314,3.99256732472671,1.86353929536827,7.76844030611197,7.02423581752726,2.10780891171138,6.90948668806271,3.92413657956633,6.53580164795462,2.57024463619275,0.202808444934586
2.50590968300154,6.61873334348138,8.32644490160799,5.84979856239796,1.99078678087536,6.36641984059362,6.93797966303192,2.12546029797121,5.08641312361787,5.67495552557041,4.60580771130431,4.8702324162647,0.243159701588534
6.86603170057684,6.58841590373702,5.17188323724488,3.59899744195083,7.05057109677906,4.90144280553218,5.71836949784209,5.82217851406011,5.4488967870388,2.84169789917919,0.183099370566092,4.47378835003382,4.91686623614629
4.64891413735444,2.9313702809032,9.92746729863406,0.364094913889736,1.87637339653989,8.14693595947075,6.58068688665216,1.58232956086859,8.92060756580014,3.30061291096679,6.08473456715594,1.95163090673614,0.322311479016748
5.74023057173575,5.37976135368008,7.17561113227674,3.32855558633386,4.82804778161325,6.96919675075363,5.95171539796511,2.76860166086793,6.99927798677109,2.23791488849266,4.83338417345648,2.1595420487101,2.0424202046997
4.51389863271535,3.17267227301275,9.22361597538206,1.74512055443287,2.12651011852347,7.74813610463074,6.06716557837499,3.31165263216298,8.63689487774984,3.37065502363313,6.06652412289584,2.53752100753842,1.15174099032282
5.70886079504588,3.42072818146268,7.99695043784543,1.83692660592957,2.84663934497504,7.27140287910322,6.94005488276885,3.24873267906525,6.90998742295976,3.03543550559436,6.46780919100025,1.10258854087679,1.55395813532367
5.78205949709558,3.36033084104871,7.98652907581892,1.80754783491276,2.82780448269015,7.22019118169488,6.96270588651499,3.25295312376931,6.86819981839771,3.1053663150509,6.39727704171354,1.09662776275951,1.60285009467089
4.12970181344719,4.09579535221565,7.95826672616271,2.89507885328642,2.67083599217596,8.38311330688522,5.92100150223306,3.23212417055618,7.96195200508039,2.06005212176431,8.09412042884257,0.651824617341757,1.37989793890437
6.94821489632042,3.28513843458365,6.78773631380872,1.51809292761318,3.91261696689148,5.28859235014324,6.82438525185107,4.39742521656306,4.99452297130132,4.02798451975146,4.34994703720659,1.94172981415421,3.03133973928487
6.9484340992392,3.31327913049568,6.80094680476454,1.53445950858993,3.92507319955685,5.30524641256642,6.80463499192556,4.38716153524429,5.0106534718606,4.00478835176033,4.3840896871839,1.95929016147865,3.02022295112222
3.51412506815374,1.14860938696783,7.12391290328495,1.98585971474615,4.93841937235419,6.62941366696962,3.56447839935501,5.73650474154473,9.71030426374921,4.69735484875104,2.80552758813252,6.69913033986554,2.61885149921167
4.68639817391957,2.07062079330638,9.09229262852051,1.62536041751376,2.8767420124952,8.64508324578474,4.61070640905246,3.24439365815769,9.30674239413244,3.52296083033561,4.5255464986257,4.35369791356777,1.75556313051004
4.60544671234037,2.77485882772632,9.0773580038784,1.85797904521745,2.32434278926385,8.86197635090921,5.82301181406808,2.70161101128642,9.00662797802758,2.8620892814743,6.52564403572108,2.22751591222347,0.95935927376026
4.68998647953203,2.19600175867246,9.28532699768051,1.54710664263467,2.72790856942527,8.72166085216811,4.96659842739835,3.5785895944443,9.26925563988217,3.52521949402485,4.61804323562698,4.09886849598937,1.79901598712703
4.57053055751445,2.10603492448733,9.14012848061009,1.65980094934465,2.73461489524592,8.61536262469858,4.69735166125606,3.36506952351726,9.17392030241237,3.54816647621437,4.47117907513797,4.32646621533482,1.7291355526522
4.57692202215386,2.17403047060434,9.08606965791596,1.58427552910509,2.86105539692811,8.70048283227395,4.65776258614813,3.30270896340696,9.13335453825973,3.56917129229002,4.47704180081759,4.29293263814308,1.72933784020975
4.8474387011163,5.02851570067978,4.29768175421303,5.07567948619488,4.74728697641572,5.84572991815082,5.90016840155528,5.65538352354729,4.76078878683736,2.55759864173946,2.38143690148253,4.94711525470103,4.8034851000248
5.63475602484609,6.47565825980788,7.37845446659078,2.52788618289069,3.77005467233445,5.89253564555028,5.97697545876715,1.85846627543619,7.18126327596053,1.34195214403783,4.41553068802874,3.67660078743732,2.84260408264285
6.87850148187411,5.55929549764024,5.80873181105448,3.55067959797757,5.7872576760106,3.04857129281598,4.71269704624401,2.92196047368241,4.09481481084151,0.759576989470662,2.87764912145028,5.93363661941885,4.20311878440116
7.51087569083523,4.6807847123863,4.22166186279222,4.72448756971039,7.33530988191998,5.6943820524068,5.20460687888185,3.7362433810882,3.70996247859851,6.08557274380765,3.72175570875331,6.50668351230603,4.70295122978764
