"fastcoef_sq","pref_flow_den","slowcoef_sq","soil_moist_max","soil2gw_max","fastcoef_lin","gwflow_coef","jh_coef","slowcoef_lin","sat_threshold","carea_max","smidx_coef","smidx_exp"
4.81184550897492,2.21568127361664,9.53763492615337,1.20399448853431,1.2250136219401,9.19187010631997,6.7822413897325,2.14702242223511,9.49248313621912,2.27854190931462,8.51232576716915,0.100263774902199,0.135504867588357
4.81184550903978,2.21568127358354,9.53763492608032,1.20399448856005,1.22501362202342,9.19187010633125,6.78224138976527,2.14702242223982,9.49248313632091,2.27854190903929,8.51232576733121,0.100263774713224,0.135504867663455
4.81184550899126,2.21568127362863,9.53763492622772,1.20399448845918,1.22501362195341,9.19187010640326,6.78224138974364,2.1470224222352,9.49248313624583,2.2785419093387,8.51232576710849,0.100263774909021,0.135504867572209
4.81184550908036,2.21568127357299,9.53763492608096,1.20399448853538,1.22501362207172,9.19187010637852,6.78224138978722,2.14702242224222,9.49248313638514,2.27854190891367,8.51232576738193,0.10026377462215,0.135504867692922
4.81184550898382,2.21568127362317,9.53763492619358,1.20399448849376,1.22501362194724,9.19187010636514,6.78224138973869,2.14702242223508,9.49248313623357,2.27854190932731,8.51232576713676,0.100263774905454,0.135504867579621
4.81184550908377,2.21568127361109,9.53763492626225,1.20399448839317,1.22501362204565,9.19187010655867,6.78224138980898,2.14702242224101,9.49248313639243,2.27854190906997,8.51232576723205,0.100263774686578,0.135504867616789
4.81184550920257,2.21568127362258,9.53763492645393,1.203994488135,1.22501362218626,9.19187010684303,6.78224138986511,2.14702242224508,9.49248313658283,2.27854190890888,8.51232576712941,0.100263774565058,0.135504867641216
4.81184550905482,2.21568127359562,9.53763492615414,1.20399448848729,1.22501362203414,9.19187010641368,6.78224138977656,2.14702242223987,9.49248313634545,2.27854190906597,8.51232576727228,0.100263774720464,0.135504867645932
4.81184549852763,2.21568126782819,9.53763488726993,1.20399452602927,1.22501361479925,9.19187005770516,6.78224138072817,2.14702242199133,9.49248311921117,2.27854190508843,8.51232578997625,0.100263780672699,0.135504876119641
4.81184550924934,2.21568127366337,9.53763492665092,1.20399448767274,1.22501362243047,9.19187010681134,6.78224138970334,2.14702242223586,9.49248313666193,2.27854190917417,8.51232576637595,0.100263775038632,0.135504867737422
4.81184550434412,2.21568127030769,9.53763490434848,1.20399450699217,1.22501362114192,9.19187007864862,6.78224138396584,2.14702242207273,9.49248312873586,2.27854190449265,8.51232577704893,0.100263778827208,0.135504874304083
4.81184550559695,2.21568127182133,9.53763491403452,1.20399449828567,1.22501362098917,9.19187008906057,6.78224138538331,2.14702242209916,9.49248313070242,2.27854191005412,8.51232576967151,0.100263780429165,0.135504871171031
4.81184551172394,2.21568127513472,9.53763493639254,1.20399447869793,1.22501362378771,9.19187011915644,6.78224139212705,2.14702242230523,9.49248314069771,2.27854191040256,8.5123257612449,0.100263773322065,0.135504865320126
4.81184550979243,2.21568127401972,9.53763492902893,1.20399448582783,1.22501362243401,9.19187011005883,6.78224139049221,2.14702242226135,9.49248313754284,2.2785419094167,8.51232576576515,0.100263774199244,0.135504866938204
4.81184550954694,2.21568127394997,9.537634928309,1.20399448640809,1.22501362238283,9.19187010895495,6.78224139018795,2.14702242224596,9.49248313715653,2.27854190960496,8.51232576576494,0.100263774699016,0.135504867140722
4.81184549005504,2.21568126231856,9.53763485123174,1.2039945584846,1.22501361103835,9.19187001248378,6.78224137185908,2.14702242175845,9.49248310543324,2.27854189861917,8.51232580888554,0.100263786209123,0.135504885778973
4.81184549803203,2.21568126710743,9.53763488282389,1.20399452866361,1.22501361590645,9.19187005173056,6.78224137915437,2.14702242194316,9.49248311842036,2.2785419033944,8.51232579053353,0.100263782033858,0.135504878282009
4.81184555690301,2.21568131347914,9.53763516140483,1.20399423542427,1.22501367378447,9.19187034816186,6.7822414098776,2.14702242158556,9.49248321503957,2.27854201140682,8.51232552980305,0.10026383650393,0.135504823054303
4.81184556567775,2.21568130832104,9.53763515442552,1.20399427296477,1.22501365626659,9.19187038818484,6.78224144146176,2.14702242354328,9.49248322852605,2.27854194729496,8.51232563211748,0.100263747813418,0.135504813016891
4.81184548292194,2.21568125967286,9.53763482934586,1.20399457209297,1.22501361193282,9.19186997558352,6.7822413600233,2.14702242124631,9.49248309394612,2.27854190684279,8.51232580134745,0.100263806853975,0.13550489395807
4.81184566058875,2.21568136687308,9.53763554638453,1.20399391084851,1.2250137048884,9.19187087590178,6.78224153395848,2.14702242614883,9.49248338240567,2.27854201564646,8.5123254141109,0.1002636936852,0.13550471355315
4.81184516823018,2.2156810481073,9.53763347409913,1.20399587808599,1.22501340624096,9.191868365847,6.78224109363546,2.14702241584939,9.49248258100378,2.27854158040563,8.51232671817859,0.100263850543762,0.135505214162095
4.8118447193763,2.21568086826127,9.53763220278787,1.20399747211737,1.22501279406226,9.19186694764327,6.78224096654838,2.14702241658784,9.49248184715777,2.27854152539088,8.51232803606961,0.100263729676547,0.135505253838521
4.81184509329234,2.21568098276337,9.53763295211804,1.20399576095505,1.22501385666127,9.19186722230379,6.78224057790617,2.14702239034791,9.49248246711356,2.27854179814383,8.5123257645557,0.100264824774097,0.135505681901214
4.8118449815737,2.21568086423469,9.53763247656356,1.20399686546731,1.22501324214217,9.19186728468823,6.78224096319652,2.14702241781016,9.49248226496763,2.27854116692184,8.51232759271648,0.100263670839277,0.135505449758935
4.81185645705279,2.21568525647438,9.5376640428755,1.20395928911822,1.22502654288135,9.19190474212819,6.78224616857997,2.14702208619731,9.49250032078338,2.27853986131194,8.51230091784097,0.10026144399092,0.135503538770386
4.82717077906587,2.22483429529207,9.54835601991001,1.17368654892122,1.24965401610166,9.19897460509048,6.78180413720104,2.14951178279082,9.48956815766029,2.28312034188564,8.46992678820995,0.121248858817759,0.150889446958557
