"fastcoef_sq","pref_flow_den","slowcoef_sq","soil_moist_max","soil2gw_max","fastcoef_lin","gwflow_coef","jh_coef","slowcoef_lin","sat_threshold","carea_max","smidx_coef","smidx_exp"
4.81184443844027,2.21568048444533,9.53763004207455,1.20399941525964,1.22501275398071,9.19186463151767,6.7822406547875,2.14702241620651,9.49248138547258,2.27854032549348,8.51232974167144,0.100263331439783,0.135505933296012
4.81184443836026,2.21568048439737,9.537630041754,1.20399941555529,1.22501275393833,9.19186463111417,6.78224065470922,2.1470224162043,9.49248138534255,2.27854032544698,8.51232974184344,0.100263331491968,0.135505933376326
4.81184443834896,2.21568048439111,9.5376300417103,1.2039994155936,1.22501275393402,9.19186463105656,6.78224065469667,2.1470224162039,9.49248138532433,2.27854032544361,8.51232974186115,0.100263331504035,0.135505933388185
4.81184443834426,2.21568048438846,9.53763004169209,1.20399941561019,1.22501275393167,9.19186463103314,6.78224065469193,2.14702241620374,9.49248138531668,2.27854032544167,8.51232974187003,0.100263331507873,0.135505933392805
4.81184443831299,2.21568048437031,9.537630041569,1.20399941572307,1.22501275391569,9.19186463087663,6.78224065466082,2.14702241620283,9.49248138526598,2.27854032542624,8.512329741933,0.100263331531004,0.135505933423785
4.81184443831862,2.21568048437322,9.53763004159019,1.20399941570377,1.22501275391826,9.19186463090413,6.78224065466655,2.14702241620302,9.492481385275,2.27854032542797,8.51232974192336,0.100263331525771,0.135505933418435
4.81184443779053,2.21568048408489,9.53763003957605,1.20399941752839,1.22501275366715,9.19186462829218,6.78224065412472,2.1470224161855,9.49248138442114,2.27854032525015,8.51232974285553,0.100263332000848,0.135505933931438
4.81184443837126,2.21568048440506,9.53763004180237,1.20399941550885,1.22501275394554,9.19186463117141,6.7822406547186,2.1470224162045,9.49248138536058,2.27854032545927,8.51232974181034,0.100263331490998,0.135505933364742
4.81184443784368,2.21568048410726,9.53763003976103,1.20399941733397,1.22501275370819,9.19186462851399,6.78224065415975,2.14702241618686,9.49248138450493,2.27854032527441,8.51232974272633,0.100263331985292,0.135505933898838
4.81184443906149,2.21568048488983,9.53763004485302,1.20399941259211,1.2250127543871,9.19186463478705,6.78224065531597,2.14702241621695,9.49248138649144,2.27854032623695,8.5123297397427,0.100263331418975,0.13550593262609
4.81184443807571,2.21568048423704,9.53763004066241,1.20399941656692,1.22501275378093,9.1918646297238,6.78224065443438,2.14702241619615,9.49248138488053,2.27854032532759,8.51232974240925,0.100263331700244,0.135505933642182
4.81184443843807,2.21568048445746,9.53763004211481,1.20399941520864,1.22501275399148,9.1918646315333,6.78224065477476,2.14702241620509,9.49248138547093,2.27854032555294,8.51232974158302,0.100263331500496,0.135505933288823
4.81184443895101,2.21568048477179,9.53763004421739,1.20399941329317,1.22501275423752,9.19186463418241,6.78224065529441,2.14702241621999,9.49248138630315,2.2785403258822,8.51232974048229,0.100263331151802,0.135505932743672
4.81184443799194,2.21568048419622,9.53763004034692,1.20399941680596,1.22501275378159,9.19186462926717,6.78224065431358,2.14702241619129,9.49248138474719,2.27854032534076,8.51232974244171,0.100263331864322,0.135505933747299
4.81184444377718,2.21568048781961,9.53763006426639,1.2039993948221,1.22501275674014,9.19186465912766,6.78224066002971,2.14702241634687,9.49248139415395,2.27854032940749,8.51232972930703,0.100263328436348,0.135505927634831
4.81184450901295,2.21568052934719,9.53763033706128,1.20399914392083,1.22501279005229,9.191864998203,6.78224072435702,2.14702241806053,9.49248150025373,2.27854037857925,8.51232957718544,0.100263292076932,0.135505857703556
4.81184441547028,2.21568047012881,9.53762994745426,1.20399950227172,1.22501274217378,9.19186451329918,6.78224063212746,2.14702241558939,9.49248134812937,2.27854030967416,8.5123297935205,0.100263345193453,0.135505957412669
4.81184451531195,2.21568053226937,9.53763035872436,1.2039991248112,1.22501279282429,9.19186502787502,6.78224073117513,2.14702241830966,9.49248151041152,2.27854037786465,8.51232956993051,0.100263284037774,0.135505852181006
4.81184451831125,2.21568053442496,9.53763037237613,1.20399911250934,1.22501279411275,9.19186504462753,6.78224073432099,2.14702241838193,9.49248151530206,2.2785403810519,8.51232956219625,0.100263282644307,0.135505848442085
4.81184446114905,2.2156804989484,9.53763013664761,1.20399932791673,1.22501276576503,9.19186474872467,6.78224067700892,2.14702241661551,9.49248142217224,2.27854034243008,8.51232968853199,0.100263318958107,0.13550590930765
4.81184464788667,2.21568031162317,9.53762909880178,1.20399919941421,1.225013888429,9.19186314735525,6.78224005258627,2.14702239484771,9.49248174083214,2.27853944612662,8.51232885686328,0.100263999040344,0.135506944124538
4.81184416960618,2.21568036358328,9.53762917650791,1.20400043744188,1.22501242362791,9.19186366434336,6.78224055856139,2.1470224133759,9.49248094378364,2.27854020317064,8.51233058233362,0.100263245439444,0.135506011987201
4.81184424276567,2.21568034076225,9.53762914222119,1.20400014873437,1.22501272582318,9.19186345647944,6.78224039230343,2.14702240926895,9.49248106638033,2.27854017409959,8.5123300845133,0.100263550714162,0.13550621949906
4.81184559027893,2.21568121832482,9.53763474538176,1.2039945732103,1.22501376549559,9.19187002167872,6.78224140734259,2.14702242744261,9.49248326962923,2.2785414957736,8.51232599754319,0.10026354175123,0.135505010520833
4.81184388652988,2.21568005235532,9.53762732430299,1.2040020302749,1.22501242969665,9.19186153950487,6.78224019237705,2.14702241021269,9.49248049338688,2.27853938211938,8.51233175390617,0.100263184621342,0.135506616237746
4.81184320409712,2.21567989106089,9.53762605538021,1.20400404561393,1.22501125546301,9.19186013032065,6.78224015649926,2.14702240932323,9.49247936186164,2.27853984673515,8.51233347747064,0.100263044884153,0.13550632239872
4.81285173282303,2.21673184062482,9.53928069723785,1.2005433385246,1.22777625748729,9.19402124295666,6.78172417946831,2.14674073269896,9.49431116674388,2.27924071944974,8.50862958601775,0.101659560406095,0.136289352366157
