"fastcoef_sq","pref_flow_den","slowcoef_sq","soil_moist_max","soil2gw_max","fastcoef_lin","gwflow_coef","jh_coef","slowcoef_lin","sat_threshold","carea_max","smidx_coef","smidx_exp"
4.84927845958245,2.22274635311511,9.60079305729277,1.097436635702,1.28579193939452,9.26018851238454,6.78466805519341,2.14422874332166,9.54965287667853,2.24945659448634,8.42678340455282,0.101915021201329,0.154468827323186
4.85334244726829,2.22496585599172,9.61212887233915,1.07897296057818,1.2961232483724,9.26865614445886,6.78218212443501,2.14470767062423,9.55720498559785,2.25224874961793,8.40401271882085,0.111467913976435,0.156793720024676
4.85361119585909,2.2245912702884,9.61222220969664,1.07846538140171,1.29626779383911,9.26895290518991,6.78218137571781,2.14474908265249,9.55769692373756,2.2517307323247,8.40413070500798,0.110989386096329,0.15696186249689
4.8536699513434,2.22478497732298,9.61218134068895,1.07846221584399,1.29662923886521,9.26888483016445,6.78222001064963,2.14472026298417,9.55780821712096,2.25138748870615,8.40394967854598,0.111041961110689,0.157077124923693
4.85368310270596,2.22473071275633,9.61213829637754,1.07852488853553,1.29662062259783,9.26893226044623,6.78225651158868,2.14474208608099,9.55788428793025,2.2512276989463,8.40412258262205,0.110891346793698,0.157059058032487
4.84949592668613,2.22272959564875,9.60109740604732,1.09660757899668,1.28556684759968,9.25993803321488,6.78482243820495,2.14373783104392,9.54925577838929,2.24985479761776,8.42651135226529,0.101737316707637,0.154618949030989
4.85381643580535,2.22395693630656,9.61247513740809,1.07817777288319,1.29592521063093,9.26977701268768,6.78214142994638,2.14499244187173,9.55822948707925,2.25161921729633,8.40473073973658,0.110351985288725,0.156905578231148
4.8540171369177,2.22459986186781,9.6122269318086,1.07795519671895,1.29719781960641,9.26915771794165,6.78225400760736,2.14475290612079,9.55848500847972,2.25042244501574,8.40389803559495,0.110586802038347,0.157377511772606
4.85397930230593,2.22466600176063,9.61230117655593,1.07782958686621,1.29719662245097,9.26905967746569,6.78213853552109,2.14472918217594,9.55835349054477,2.25076566846394,8.40354130887155,0.11091916362763,0.157408743113566
4.85405705351968,2.22461254840862,9.6122549697947,1.07781442961401,1.29731291169855,9.26913859591247,6.7822081038281,2.14474513227666,9.55853363814587,2.25040087322272,8.40371096769971,0.11066794294175,0.157453811895587
4.84948641075467,2.22274446061057,9.60117118095962,1.09658911513732,1.28556011509631,9.26005085960803,6.78482911588919,2.14376998045942,9.5492842174685,2.24991318818839,8.42646514739235,0.101772130115051,0.154568053511173
4.85405886346438,2.22459344228074,9.61223181612161,1.07784846814001,1.29728803074575,9.26911533709495,6.78222979228269,2.14472959702921,9.55853851297443,2.25034594858541,8.40379533830612,0.110609075722267,0.157433526021066
4.85510573197117,2.2236073121643,9.60849706299501,1.07780620644441,1.29770506305026,9.26322623739381,6.78206021542108,2.14262337956649,9.55699788435199,2.24690135399731,8.40631136175227,0.107963219167252,0.160584760747909
4.85409853046733,2.22474942787339,9.61234432679183,1.07757227429429,1.29753514964925,9.26903765685024,6.78211700848746,2.14468946561336,9.55851187410541,2.25051300985416,8.40322818550557,0.110980284822439,0.157579629504464
4.85419806690296,2.22463031858928,9.61231490821034,1.07750223141256,1.29763234151593,9.2691472769693,6.78217678835661,2.14471249677335,9.55874196776438,2.25012814988889,8.40342095160815,0.110685519062996,0.157626331799701
4.84975070680774,2.22283405807906,9.60138723215755,1.09649216104251,1.2870570278142,9.26128203423802,6.78461821374967,2.14455409225924,9.55095479197765,2.24837177210118,8.42580081382538,0.101949691312652,0.154755518560432
4.85429137298183,2.22450843465166,9.61228301645563,1.07745895454209,1.29770752102231,9.26927561553314,6.7822396841192,2.14474310006565,9.55896703162135,2.24975307493455,8.40364877162285,0.110377456735221,0.157661055362465
4.85432748778183,2.22333210157307,9.61275908868325,1.0771074300826,1.29630181468728,9.27037476152949,6.78202745404024,2.14509538075748,9.55915332182979,2.25085511782394,8.40461029232535,0.109749755276735,0.157278437119739
4.85524735781012,2.22402563770165,9.61245376949987,1.07593601824685,1.29927129479653,9.26995367953291,6.78229462327051,2.14479677948777,9.5607433052473,2.24726703845821,8.4033121336861,0.109258244681071,0.158528210743374
4.85486550560057,2.22426668547675,9.6124806171774,1.07591187015364,1.2989854888448,9.26921065195611,6.78186544492589,2.14472892249606,9.55996149335583,2.24878120428628,8.4021769867825,0.110632450464705,0.158451458338863
4.84954230887594,2.22275826964909,9.60123449894188,1.09640002714844,1.28572107526588,9.26006959333434,6.78478286955296,2.14377049061857,9.54938458980019,2.24986145683128,8.42622336453225,0.101867651648499,0.154643614207956
4.85551212270069,2.2245347471695,9.61287909606004,1.07471118071191,1.30035188510369,9.26966415337452,6.78183425916053,2.14461486588063,9.56082669995378,2.24763082153044,8.4011275108375,0.110567028595146,0.159172262469011
4.85586444848061,2.22457522549589,9.60966996957569,1.07447897259468,1.30101815602292,9.26338388404846,6.7810581552049,2.14256509878246,9.55841207720897,2.2464400458437,8.40094325503303,0.110615864980376,0.162041848036511
4.85577979476976,2.22407385105323,9.61281833058658,1.07443769655962,1.30036036123582,9.26988829505395,6.78207169109141,2.14458837537932,9.5613336356471,2.24671002302913,8.40183895059546,0.109584597777861,0.159228948747828
4.8568360934294,2.22298905370899,9.60999529078813,1.07380039101665,1.30065529556927,9.26534296660307,6.78158268798741,2.14292129215785,9.56021019072113,2.2443063207985,8.40348616947001,0.107625259345877,0.1620210777977
4.84976845340337,2.22270339372533,9.60126145931491,1.09632525895008,1.28620047909954,9.2605794378542,6.78483785240685,2.14396179471946,9.55001441548022,2.24901090545318,8.42639274629908,0.10146622003468,0.154801474195124
4.85650344072858,2.22378979239059,9.60992544711855,1.07383852092327,1.30118344227442,9.26452358613289,6.78128897242647,2.14276650774496,9.55961038866861,2.24504139100035,8.40195862975456,0.109095687139184,0.162184464556938
4.8564360359626,2.2236742737689,9.60999501276486,1.07390099803621,1.30084135024096,9.26464276370011,6.78131465214207,2.14278676768564,9.55948418048208,2.24535516688582,8.40217397321215,0.109016880823447,0.162028208677977
4.85663952302215,2.22365021184726,9.61006052486006,1.07355683858814,1.30128716738172,9.26481934062052,6.78126763965047,2.14282370634883,9.5598911702214,2.24485512089224,8.40192389268181,0.108932897219665,0.162245265801727
4.85639117727579,2.22421186768722,9.61000931552069,1.07360777451685,1.30166428056115,9.26435687052183,6.78102406285204,2.14275810459614,9.55951446841631,2.24535602741828,8.4008698602285,0.10995724484138,0.162361533148789
4.84955472547718,2.22276645062043,9.60141811794853,1.09604661725236,1.28557648705303,9.25995011237758,6.78477409645093,2.1436081147589,9.54916173526026,2.25028819696438,8.42590271027592,0.102039026309961,0.154633036967726
4.8565349746811,2.2236798318809,9.61012254025121,1.07357243366029,1.30106917503673,9.26471475385778,6.78125351618931,2.14278284867206,9.55964540634668,2.24528689146145,8.40181016697369,0.109134309569823,0.162134941740601
4.85609495963442,2.22438754623851,9.61022085191095,1.07352658939995,1.30115275244089,9.26392367143053,6.78095075479658,2.14258128499943,9.55876319211002,2.24666539246572,8.40025962364281,0.110727043108554,0.162094094836435
4.85649079178478,2.22363581519115,9.6100602171888,1.07373809512673,1.30090619355126,9.26471773366318,6.7812881773516,2.14279007562022,9.55957588276704,2.24531727863991,8.4020651736658,0.109015119899158,0.162064558220278
4.85667695006116,2.22358693734271,9.6102237545137,1.07331500247308,1.30123395892438,9.26497656660774,6.78123194421888,2.14282380178449,9.55992483140307,2.24502915292395,8.40176212944675,0.108978433453987,0.16221867090543
4.84986562124433,2.22273787826963,9.60135754797716,1.09607384022887,1.286463741152,9.26066145287954,6.78480360943385,2.1439669032391,9.55020197596044,2.24884620357834,8.42610055414268,0.101539294566861,0.15490336458224
4.85656380450018,2.22359546031282,9.61038136733003,1.07316188307154,1.30097418309503,9.26485295841893,6.78117395834213,2.14276010704606,9.55963814105075,2.24566963821097,8.40143845691898,0.109321299038735,0.162091357835571
4.85614743764631,2.22456878245267,9.61323236231943,1.07318036891489,1.30176000533571,9.26978193178432,6.78161651264539,2.14451977579231,9.56176183002587,2.24661336665983,8.39965188531395,0.110772328745361,0.159983357546897
4.85672230431558,2.22357745826987,9.61041263981878,1.07300386861963,1.30130469131752,9.26506887353767,6.78118867033563,2.14282231253975,9.55998403054153,2.2451927128154,8.40140900633996,0.109142222393502,0.1622395620134
4.85702354095582,2.22284217459677,9.61044241254327,1.07283215586363,1.30105461897214,9.26587362633179,6.78121745687528,2.1430531554238,9.56069840259787,2.24450202307018,8.40246326621472,0.108052533436764,0.162295526032644
4.84987814285238,2.22282032668014,9.60182906720806,1.09518586165023,1.28624583914668,9.26037457923846,6.78472649201421,2.14361748614558,9.54971787200949,2.24989531209284,8.42509780332327,0.102138808860022,0.15489070360502
4.85715593950931,2.22434919113957,9.61090751343769,1.07143087721554,1.30337232161296,9.26513870926494,6.78075537294331,2.14276693843379,9.56077520313219,2.24451781771399,8.39861903757656,0.110451241698213,0.163112673156155
4.85742104944023,2.22432641687087,9.61057079030541,1.07150115868482,1.30420763601679,9.2650941050596,6.78071942166759,2.14286755246178,9.56149400771061,2.24314460514682,8.39877543956569,0.110100132380728,0.163536135501337
4.85687201625682,2.22422437758683,9.61087322853942,1.07169448358674,1.30260700091587,9.26479202791699,6.78071837850692,2.14266069222362,9.56018175053666,2.24544420489238,8.39883384209042,0.110672997587137,0.162785280547364
4.85706196231294,2.22383523032352,9.61066470159248,1.07194357447979,1.30243123951378,9.2649055816622,6.7809503176771,2.14270344420885,9.56046047073956,2.24472255453753,8.39987815255429,0.109769802196698,0.162774867758478
4.84983303936999,2.22286409513493,9.60190190203168,1.09522639429909,1.28641306024805,9.26057806359517,6.78463538473963,2.14379211877794,9.54991115689435,2.24989766686162,8.42485689665575,0.102376558097782,0.15483664444039
4.85523169330825,2.22483827358117,9.61544515974053,1.06917393665156,1.29549071732137,9.26533697398478,6.78213364174425,2.14044791115131,9.55396942427806,2.25737480112453,8.39689146897201,0.113181181702626,0.158783098756845
4.85524078481862,2.224837255615,9.61544821388859,1.069115056953,1.29554982856339,9.26531260090412,6.78209403456876,2.14045492130807,9.5539979363934,2.25737312556232,8.39678185469026,0.113249652389561,0.158817335492419
4.85523824717813,2.22483721858282,9.61544665692195,1.0691599464663,1.29551115098391,9.2653411686502,6.78212754124186,2.14045193397064,9.55398604108747,2.2573587136739,8.39687322799237,0.113186300273993,0.158793426807711
4.85524291227617,2.22480155608986,9.61544788976217,1.0691463699179,1.2954828117859,9.26534504993505,6.78212436920274,2.14045470504486,9.55399667666696,2.25736376148783,8.39689980421404,0.113162621674177,0.158786611571912
4.8502933116439,2.22265607520829,9.60166145549198,1.09512269211163,1.28723915587233,9.26104194412269,6.7847059829501,2.14398183653813,9.55091143187036,2.24816479564953,8.42539678400711,0.101462288991616,0.155328208256534
4.85524736959923,2.22482857945297,9.61545036089826,1.06909974265385,1.29557230985244,9.26532668074279,6.78208146175247,2.1404673393658,9.5540251248254,2.25735549322856,8.39676212226323,0.113256716317882,0.158829713515474
4.85526362773664,2.22481851548849,9.61545853586218,1.06908448845844,1.29558455289708,9.26534575059655,6.78209190784655,2.14046315444416,9.55405393459763,2.25731362287642,8.3967825589392,0.113222699454808,0.158832918551049
4.85526847494242,2.22483863835223,9.61545347499671,1.06908218844219,1.29560885534825,9.26533666993479,6.78209941954993,2.1404579760124,9.55405119598113,2.25729170947178,8.39676896020962,0.113221871781582,0.15884382703681
4.85522908592201,2.22483760504284,9.61544518237516,1.06915916449706,1.2955009268071,9.26532292949377,6.78211767047017,2.14045043771115,9.55396932051619,2.25739097520111,8.39685266534929,0.113213016370367,0.158790432705944
4.84989734815372,2.22283591752638,9.60200381214763,1.09476246170065,1.286030659039,9.26012610457332,6.78472550662772,2.14336458328799,9.54935960028648,2.25043040048426,8.42475560504539,0.102311326651789,0.154914831568469
4.85522742058198,2.22483839988536,9.61544451658724,1.06916876382244,1.29549036965146,9.26532492905684,6.78212476600634,2.14044803530494,9.55396292433609,2.25739235580295,8.39687059350732,0.113201948214052,0.158784421889121
4.85522076078942,2.22483780069753,9.61544383398683,1.06915955247217,1.29549047311667,9.26530720558349,6.78210966143255,2.14044894071874,9.55395382785533,2.25741979856008,8.39683668743394,0.113235315119775,0.158787058959801
4.85520973985922,2.22478206132125,9.61545547502618,1.06920959297272,1.29536823543474,9.26537413811571,6.78213459450411,2.14045915995855,9.55393598316418,2.25746771334884,8.39699131130609,0.113143489004681,0.15873380751717
4.85554509428129,2.22485847193215,9.61548230299951,1.06867110706219,1.29635534595773,9.26552235297947,6.78202018012655,2.14053842762551,9.55465913502438,2.25647830646984,8.39636921145749,0.113159849563321,0.159192088248753
4.85002866042738,2.22272140904867,9.60193929992273,1.09463727218962,1.28675119072235,9.2604445015147,6.78442810954641,2.14374789547192,9.55013596225832,2.24973989835133,8.42431493856377,0.10252357025445,0.155168520025688
4.85542230985033,2.22446899591768,9.61548133799908,1.06887294808978,1.29561880541073,9.26560582046718,6.78204829751083,2.1405404666685,9.55449942764983,2.25688670924769,8.39705938560779,0.112842896256988,0.158881230907842
4.8553084857423,2.22483537687482,9.61546200704254,1.06898487544077,1.29573581607205,9.2653478200176,6.78205502965025,2.14047388860852,9.55414435785626,2.25720265631213,8.39663886221372,0.11326737884873,0.158910232125025
4.85560277646301,2.22483298337509,9.61551951029164,1.06851953684376,1.29646082180724,9.26556394000144,6.78197447509322,2.1405428674982,9.55475507842926,2.25641410645152,8.39623587220512,0.11318418237352,0.159260036155731
4.85550045661294,2.22415680522754,9.6157089808472,1.06857226050978,1.29535149003489,9.26595797096002,6.78198884187597,2.14062138555227,9.55460816333288,2.25717973291667,8.39711717031055,0.112714608439163,0.158850960103358
4.8505189096192,2.22289090066936,9.60269838309294,1.09279186904798,1.28811318310136,9.26077432536132,6.78404795263788,2.14373713580242,9.55097251250145,2.24953244422042,8.42198737620058,0.103463359187816,0.155753607437955
4.86327642168354,2.22437668888716,9.61701053802629,1.05761611568858,1.31504637790967,9.27304272498763,6.78024569174931,2.14333407978778,9.57153467192786,2.23503871627644,8.38766696487587,0.10966406288778,0.168062757366038
4.8632935937599,2.22435442902272,9.61701243972654,1.05759063545023,1.31505234272214,9.2730657453007,6.78022951701188,2.14334926547233,9.57154789798414,2.23505299283025,8.38764863580671,0.109662661225411,0.168077887792309
4.86376395404697,2.2243206901523,9.61685362366125,1.05762650141854,1.31553160844073,9.27359391012066,6.780375885776,2.14357990888998,9.57186773597483,2.23445204988112,8.38794390072272,0.109014314761118,0.168389217793529
4.86330315436722,2.22431108535272,9.61704871456791,1.05749117109448,1.31506966664616,9.27305655397717,6.78021074406935,2.14333399892884,9.57161509663118,2.23500985914986,8.3876014698425,0.109670397492699,0.16808965089991
4.85084624724727,2.22231975919548,9.6023683699417,1.09302970633394,1.28884041518153,9.26160249862854,6.7838599635922,2.1443785879125,9.5524118804464,2.24777663051055,8.42274079096062,0.102656019584622,0.156083302911003
4.86334867356308,2.22436215705404,9.61702751901732,1.05744748168951,1.3152380238493,9.2730454241925,6.78019484720308,2.14334670926659,9.57167919797296,2.23488783991094,8.38747808540947,0.109707198784878,0.168166264093351
4.8633976751909,2.22428492900098,9.61702537115492,1.05751647120606,1.31515956681395,9.27318998314486,6.78026889171879,2.14338083403262,9.57174316065557,2.23479288753468,8.38776267717765,0.109466954591821,0.168133319938382
4.8635010435487,2.22421302076054,9.61704740841547,1.05746820801934,1.31521981068814,9.27333717080903,6.78035754315541,2.14338984257689,9.57193055095929,2.23449552991929,8.38798554304821,0.109182000189607,0.16815767798686
4.85796747142674,2.2243627457431,9.61595992684119,1.06260286368895,1.30507113980531,9.26616716848904,6.77878630053493,2.14227620520787,9.56142729585204,2.25066342930787,8.38725143229032,0.116916212563461,0.163528602414782
4.85076926438529,2.2230114133208,9.60282658665546,1.09255765122169,1.28854834792342,9.26120565017635,6.78422080931617,2.14374818873788,9.55135682771954,2.24885315148403,8.42203708527663,0.103057016453975,0.155915293715602
4.85798201864939,2.22436240879185,9.61596241168137,1.06258972148213,1.30509300166563,9.26618111302327,6.77879355232677,2.14227436503172,9.56145031123943,2.25062135326036,8.38725873865408,0.116891862421348,0.163538154036778
4.85799018119824,2.22436428281692,9.61596378014899,1.06257399506617,1.30511308989111,9.26618114355544,6.77879141115497,2.14227237455553,9.56146337991173,2.25060159701236,8.38724371997238,0.116891973558854,0.163548187500423
4.85799314606669,2.22436193556453,9.61596657542389,1.06257445144259,1.30511275476474,9.26619863588829,6.77879411036332,2.14227750267898,9.56146912480731,2.25059607313493,8.38725365448527,0.116879776022214,0.163550099700268
4.85800043105333,2.22435766670143,9.61597500529062,1.06254976703925,1.3051304836141,9.2662252334129,6.77878117033843,2.14229090112441,9.56148476286834,2.25059829542706,8.38722400007351,0.116888276265788,0.163568144956341
4.84841535122441,2.22280936252955,9.6008084337923,1.09874216474816,1.2834647726426,9.25971440517759,6.78505898570405,2.14391448231692,9.54773621366529,2.2519429335887,8.42809412310143,0.102023175275188,0.153279404986707
4.85811176436007,2.22429274768587,9.61601187500692,1.06232416447703,1.30531025499881,9.26626459160207,6.77875279209143,2.14227745680713,9.56168727006445,2.25036168751177,8.3871117912331,0.116825737395047,0.163666933551004
4.85806002441062,2.22425110780789,9.61596659935556,1.06249248872446,1.30518131061192,9.26623425697028,6.77878631349131,2.14228136438588,9.56166028697542,2.25037250713885,8.3873294985239,0.116758777445323,0.163575627777741
4.85811683284047,2.22437197608527,9.61598740659672,1.06236014919419,1.3054240930627,9.26623548053864,6.77877233657509,2.14227985044432,9.56170568554186,2.25026217177102,8.38705952624216,0.116853756062306,0.163697416965744
4.85815076122542,2.22438862580713,9.61599645375128,1.0622592523463,1.30552732749126,9.26618705375928,6.7787554911483,2.1422572044165,9.56174989426161,2.25019856841035,8.38693198965327,0.11689618694504,0.163751232091166
4.84873019612382,2.22266505363223,9.60033588284355,1.09876405840467,1.28408931206349,9.25952874269466,6.7850362340623,2.1439259237861,9.54825805438282,2.25060961744792,8.42851213622474,0.10140401013683,0.153815951902032
4.85839377061685,2.22375716775136,9.61622563517692,1.0618754209592,1.30520666866354,9.26690115431947,6.7787525154185,2.14240789504858,9.56225612079503,2.24999029107325,8.38753418369837,0.116180328800004,0.163723312164634
4.85839178094076,2.22439229782252,9.61605202484099,1.0619298776021,1.30611883402088,9.26647125223825,6.77870909009566,2.14235851595745,9.56227178177379,2.24953036187044,8.38666801606667,0.116774793823804,0.164036140692859
4.85844989350789,2.22436545555055,9.61606439093884,1.06186650332483,1.30618654737212,9.26652831047214,6.77872952567071,2.1423554410735,9.56237380822838,2.24937512958437,8.38670835871723,0.116672648244739,0.164070319603581
4.86348968453733,2.22438678286175,9.61705524451361,1.05701246246001,1.31573462548179,9.27294142402553,6.78000582505212,2.14334460878983,9.57195652424481,2.23463006664871,8.38684337858074,0.109990634453072,0.168434414856643
4.84894047406344,2.22267810641227,9.60042315427882,1.09856283880439,1.28450821023369,9.25988074088371,6.78510907480351,2.14399594135188,9.54870743675562,2.24997911012972,8.42850629609873,0.101126419374679,0.153960300770844
4.85813246206775,2.22097180346585,9.61337200965218,1.06800876439807,1.3006977007314,9.26966888772587,6.7804033947535,2.14354922597729,9.5627513380739,2.24618640385798,8.39999752399622,0.107966643636264,0.162275158972808
4.86396582695829,2.22440635434804,9.61715993773035,1.05638090299554,1.31684526015786,9.27332918646978,6.78007024354929,2.14344182739303,9.57293732778857,2.23322104616149,8.38646386847512,0.109605186114169,0.168930969483135
4.85607166481968,2.22354701296202,9.6160317126534,1.0672139643117,1.29627623314716,9.26637839183921,6.7816116155745,2.14073997995822,9.55591324643021,2.25617005972,8.39627703479646,0.11262606985286,0.159387928663137
4.85611278258321,2.22410882558261,9.61589798379626,1.06723975107578,1.29691310687422,9.26616457920047,6.78168755955272,2.14070107490372,9.55580717223039,2.2558159874575,8.39576194311908,0.112865759616879,0.159673287228352
4.84889992512003,2.22268057921224,9.60057569985266,1.09843812811047,1.28406163701662,9.25979438690243,6.78524162061596,2.14377394014301,9.54829021972481,2.2505031165621,8.42862309566318,0.101044600947851,0.153815342720054
4.85888128505887,2.22384319770187,9.61636180978381,1.06057779247901,1.30692325897939,9.26691241243367,6.77818338416381,2.14261200500817,9.56331443360997,2.24903458722231,8.3855488703978,0.116992411018682,0.164629823748712
4.85925047573854,2.22436386432336,9.61624987753942,1.06058803954356,1.30810705768336,9.26718965093344,6.77852758673665,2.14255228668357,9.56398289900966,2.24731096332674,8.38562878202017,0.116413245874674,0.165026373442396
4.85943662038111,2.22426064530159,9.61632231850374,1.06027444497031,1.30856691652249,9.26741532092586,6.77840901702616,2.14268535480339,9.56448529766101,2.24684366227572,8.38533694882702,0.116416599646148,0.165241443144318
4.85935352470585,2.22440217531974,9.61630644050669,1.06022820156525,1.30831608942726,9.26698001277809,6.77853582362181,2.14240977547485,9.56402112859574,2.24719163347195,8.38527743783053,0.116482716837941,0.165142525704542
4.84890194916198,2.22263545884563,9.60051096036766,1.09845980029717,1.28475494279445,9.26003175635796,6.78488793965423,2.14422770547752,9.54899634799579,2.25004464673535,8.42801330754479,0.101553320518113,0.153962454167288
4.86048351536956,2.2244187631193,9.61646010427051,1.05860139769517,1.31089874162394,9.2677893440363,6.77832185076138,2.14255709602175,9.56620199034481,2.2441472771345,8.38411206204455,0.115928617278479,0.166406214838774
4.86345608663822,2.2234829492057,9.61712928146611,1.05847457685272,1.31369844741546,9.27434742847906,6.7811094590966,2.14353623430029,9.57209398045785,2.23422832333357,8.39100359403805,0.107187498125599,0.167361906137469
4.86308224036808,2.22415334852421,9.61695228130734,1.05810950013743,1.31419423641339,9.2730688962191,6.7804223769816,2.14335917583838,9.57109806388288,2.23560954373201,8.38850812437799,0.109320022001031,0.167682887562155
4.86297404523119,2.22439334098491,9.61694544548351,1.05799705742661,1.31438522619655,9.27270661579587,6.78025028008,2.14324589090614,9.57089976888962,2.2358942609649,8.38785614479309,0.109917356987054,0.167756782923964
4.84908197011484,2.22259596387303,9.60023758371458,1.09827247851167,1.28466743496482,9.25942339154476,6.78502461352072,2.14380413080811,9.54865451049778,2.24976352499541,8.42837584188864,0.101064171889275,0.154289588500106
4.8632539039739,2.22437151080283,9.6170049356427,1.05770865160956,1.31495559776796,9.27308309204167,6.78028728177738,2.14334124096658,9.57149383483082,2.23506790262688,8.38780909217169,0.109590925047597,0.168011737197077
4.86321403524231,2.22437729727218,9.61699813774123,1.05771322169708,1.31489503540408,9.27299714248606,6.78025932064088,2.14332051559955,9.57140624667194,2.23520723917268,8.38774707575756,0.109686428282961,0.167990092091324
4.86319288369195,2.22436387050861,9.61697462117594,1.05769241447212,1.31491110492536,9.27289077306886,6.78020169881074,2.14332096024006,9.57138666339039,2.23527653370368,8.38762611885788,0.109811961100249,0.16800267298434
4.8631336610228,2.22438784548259,9.61699202195131,1.05771221352118,1.31484505105935,9.27287659954647,6.7801628400028,2.14333327941883,9.57130966186328,2.23546190206356,8.38755025128569,0.109934620190523,0.167975880627777
4.84922355665533,2.22253907244612,9.60162913234031,1.09678525165393,1.28411501827343,9.26045747231996,6.78518413638949,2.14360947385843,9.54850230171714,2.25131699424245,8.42730600398133,0.10141452573486,0.153817736180147
4.86323742244767,2.22437665979985,9.61700284399693,1.05767177159349,1.31495594824629,9.2730113249963,6.78024916194162,2.14332652505691,9.57145581178829,2.23514696605473,8.38770568513956,0.109686692278013,0.168020126515604
4.86371325430594,2.22306639300137,9.61752118670779,1.0565072242256,1.31449120796897,9.2742384652526,6.77994982200313,2.14368221250571,9.5724642544975,2.23511983216198,8.38811705374447,0.108830772437421,0.168135113584467
4.8647456123477,2.22096336644773,9.61830022377328,1.05507731911264,1.3140063466867,9.27689651668762,6.78000955009065,2.14431697809834,9.57475973594815,2.23356238972912,8.39014972938257,0.106154018291104,0.168279255952144
4.85574676676711,2.22302908980372,9.61606870686445,1.06806784081284,1.29444730047092,9.26705576749871,6.7819258102585,2.14090582931479,9.55517272287076,2.25734681033378,8.39817450455588,0.111667541808232,0.158671825514874
4.85405462195294,2.22462188714861,9.61227212605169,1.07776891254377,1.29728348796744,9.26908416491393,6.78221338700799,2.14470338677554,9.55847529435272,2.25046915170373,8.40366791174911,0.110695511189691,0.157451034573188
4.85799569823271,2.23574394525534,9.61260373784075,1.0640816100758,1.32008885377892,9.25811115062563,6.77888812951863,2.14040396906246,9.56092576255618,2.24195057296405,8.3741746152152,0.125675011628628,0.168406274808566
4.85356404486335,2.24903695643965,9.60687881286629,1.07470819758069,1.32655018898211,9.24339113275139,6.78142695281023,2.13626206833065,9.55131247685984,2.24108148826829,8.36776757793136,0.135673785510583,0.167984487079211
4.86077703728643,2.23066567496804,9.61550953273247,1.05828908443149,1.31933918242977,9.26567902311265,6.77762099836366,2.14243280323959,9.56583890488546,2.24121321551589,8.37535841864161,0.121444465207298,0.170236204147598
4.85281230709255,2.22816058707811,9.61364391538486,1.07402965403405,1.29479173199821,9.26013710754213,6.78303474321145,2.13895450855171,9.54996273386474,2.2593236873226,8.39685681481381,0.11639003531215,0.15701213258373
4.85087802000168,2.22657355903797,9.60317726325911,1.09078524766768,1.29231325746414,9.25742723537538,6.78365443550637,2.14212270210294,9.55034618331834,2.24974676306556,8.41540329935829,0.108104864282214,0.15742855613469
4.84831668480402,2.23787469763326,9.6123483410932,1.07342563723977,1.30419264729163,9.24810158760984,6.77470230561003,2.13987617750173,9.5443193132115,2.26245035197052,8.37478128718396,0.135669701045019,0.161994343220887
4.85316265014075,2.23871978497476,9.61533723004912,1.06815348036725,1.30819180391326,9.25106023757737,6.78043945641987,2.13738044068716,9.54561210436005,2.26408182187822,8.37181274472955,0.134564731007773,0.163120706338738
4.85624092311366,2.23735637451756,9.61481547761824,1.0580604910968,1.3218670267799,9.25437098005702,6.7704834703787,2.14247931661851,9.55389132925739,2.259681769073,8.35258739825226,0.144732522969954,0.172386193677624
4.8463553786719,2.25470674653188,9.62072370246633,1.06125732781908,1.3241838166767,9.24271346067466,6.77084471901044,2.13147099122366,9.54465851325537,2.27526097713466,8.33607969549452,0.166239640202352,0.165522064024116
4.84958694319252,2.22522236862328,9.60287193028503,1.09327250110822,1.28843882259538,9.25882146966798,6.78415289343014,2.1428366150023,9.54853784099303,2.25202800715938,8.41925732174438,0.106373931518697,0.15550770920172
4.85518247567276,2.23891732161198,9.61386845059834,1.06424588949826,1.31935771868128,9.25617687946428,6.77447381643442,2.14262680018937,9.5526906071623,2.25770060157482,8.36116212168599,0.139265644577265,0.170217741615004
4.85843929670157,2.23826284525049,9.61969470660524,1.05082382884349,1.32420740770466,9.25602406321612,6.77272406110612,2.1393522294976,9.55924439015366,2.25664672215856,8.35090880881564,0.142346692476127,0.170658078620958
4.85158018424649,2.23838315296887,9.61229755200202,1.0770353442464,1.30839120841389,9.26014666098569,6.78111288447076,2.14195210449574,9.55149568633412,2.2557724823654,8.38329479629937,0.127300646553109,0.1608910967704
4.83215310363144,2.29693843731383,9.6467460602463,0.956027408035922,1.38251080746,9.10231409919457,6.71905577662397,2.09994475518217,9.47361319715083,2.3989652834801,8.06602913718724,0.372306685868247,0.184507349112386
4.93074702034185,2.30599873609417,9.43939289630297,1.19884428214787,1.47848446195472,9.14385266740033,6.73140765694877,2.19064891102497,9.36085603883455,2.38521587392753,8.25524789874666,0.320147290429292,0.297887978781436
3.63172266049744,4.86700761827793,8.68863340815522,3.86281336126907,1.92495297266582,7.75189979261736,7.04737051493868,2.1324261060804,7.04802151063111,3.86230375354189,6.59884405296431,2.45716835644038,0.391839546405991
4.83409321426643,2.31190067462575,9.47375296462806,1.13859808744236,1.42162382265419,9.17878870883031,6.69968636941688,2.11683008109445,9.56031891623481,2.36446151798546,8.36315323454976,0.236554831891282,0.223893137404096
4.93648039653938,2.32030742416376,9.40710361591983,1.13418149410076,1.43353538170532,8.980622108304,6.75828666003516,2.18783767873531,9.24915453216561,2.3615394629033,8.19439154218204,0.389018258612132,0.365487668764281
4.1457497090836,3.26787182680448,8.88191601392702,3.03784030824139,1.84801579008027,8.1226907773424,7.15503903453774,1.82990071056932,7.98389612108127,3.28682330281511,6.73003046695356,2.06527768631352,0.292855914316892
