"fastcoef_sq","pref_flow_den","slowcoef_sq","soil_moist_max","soil2gw_max","fastcoef_lin","gwflow_coef","jh_coef","slowcoef_lin","sat_threshold","carea_max","smidx_coef","smidx_exp"
4.86777482604838,2.22263381549875,9.61785092324117,1.04658682862875,1.326423605534,9.27275765030065,6.77621585967725,2.14405656231205,9.58055496479271,2.22621401235956,8.37557631203614,0.11286047866245,0.174547316228416
4.86576513326397,2.22318405125502,9.61764540626562,1.0489695738327,1.32291495827693,9.27121861504645,6.7761303559403,2.14371635286407,9.57681830287121,2.23148123440305,8.37620244514626,0.114899052241448,0.172771019674034
4.86673051359208,2.22302593557844,9.61775833512831,1.04777917404289,1.32475050294006,9.27190047331103,6.77613899008934,2.1438639793022,9.57860965662666,2.22895169289458,8.37567173776322,0.114084998611453,0.173675870440783
4.86727986354506,2.22060381790754,9.61793704212367,1.0461004118786,1.32347396355641,9.27138675081369,6.77501349817332,2.14388536556575,9.57910450979641,2.23035607686949,8.37534954770348,0.114280345641521,0.174075387274112
4.8363756738446,2.25050005098679,9.60541617101907,1.06368709809167,1.33893602764579,9.2418133575473,6.7274971696191,2.14243739368463,9.54789697613749,2.28492028791468,8.29329849938012,0.213742751880357,0.177328659836616
4.86577575303972,2.24591481499221,9.61430981986833,1.06205599819405,1.34264795846529,9.27245020488967,6.78297236231043,2.14134724721026,9.5722452463494,2.21503539160057,8.37143695357268,0.117062699062248,0.178020549643043
4.86021259240933,2.25220833592888,9.61498537943698,1.05077936450976,1.34012794681727,9.24960893015002,6.77602356239815,2.13718542884256,9.55282677178333,2.24405931334556,8.33587173952405,0.146771647257895,0.174820114871972
4.85591962447946,2.23849644325003,9.61718752966642,1.05595464864669,1.32204645968577,9.25619381271384,6.7735229632019,2.13965687159086,9.55781821805614,2.25550982671651,8.35652342775143,0.140536962109696,0.169845201364517
4.86619716344573,2.225371668723,9.61802327853244,1.04797592077014,1.32594896530752,9.27070353791765,6.77673403970579,2.14311694295473,9.57762064519003,2.22973152118666,8.37380726409053,0.115823951945507,0.173657087803046
4.86651907433578,2.22627650245519,9.61737816657866,1.04768488654232,1.32819964574404,9.26991497031437,6.77574077696851,2.14352826719136,9.57732503409084,2.22903848490815,8.37070565981289,0.117729277915818,0.175073689411633
4.86698798364268,2.22552075281719,9.61713439506462,1.04772906899674,1.32808349899938,9.27099129741842,6.77571821112964,2.14393370819012,9.57811564580574,2.22773109908706,8.37204220278274,0.116261369470122,0.175350306533593
4.8667845580437,2.22892136850295,9.61725933054097,1.047137188124,1.32977491855475,9.26602939207766,6.77640007639137,2.14159912440429,9.5757634129792,2.22938077215529,8.36782880828799,0.11997085266374,0.175550217954527
4.86313843702155,2.22582892677884,9.61748464156897,1.05166210559108,1.3205881178526,9.26826843459738,6.77613399924582,2.14283281038914,9.57188891885045,2.23779262497002,8.37441357078711,0.119247713204319,0.171055930987173
4.86330736748533,2.22518820306491,9.61753779711082,1.05117471246178,1.32045474304457,9.26850355356539,6.775702292894,2.14297650159569,9.57232144054617,2.23773777745984,8.3743130759467,0.119224254643389,0.171217103205086
4.85964547833196,2.22508320111403,9.6171401835205,1.05580152944147,1.31267600696134,9.26617264573462,6.77570217570244,2.14253564144453,9.56553163217682,2.24761935420342,8.3772000725069,0.121749301063725,0.167498748140962
4.86159123957503,2.2283802028015,9.61800852751018,1.04942391917343,1.3228618718628,9.26378135600514,6.7725186205792,2.14232178429619,9.56931649929266,2.24429541958831,8.36373476803366,0.129307639755464,0.172303698885163
4.85373654791913,2.22636369277755,9.61509037192166,1.04176995363964,1.31887124957746,9.24025044679021,6.75713561538511,2.14306301404389,9.55561815925303,2.27727844591234,8.32930126753,0.164655161534867,0.17411277900072
4.83888344093479,2.23416215438688,9.61194473470935,1.03830406670445,1.31387857640793,9.20574374283357,6.73825990517082,2.14154672010179,9.52824547076465,2.32938224436916,8.27911515167478,0.220058253238797,0.174347009580984
4.83949995426535,2.2303748224595,9.6122516201829,1.03717245700174,1.31137454423465,9.20767819275422,6.73788247563725,2.14208097342155,9.53041825277558,2.32866322380145,8.28267321195412,0.216929662704024,0.17371250897593
4.84228993558887,2.27934399547211,9.60985077104485,1.06156925157333,1.35003359041608,9.21749910881621,6.75971172664767,2.13638607528983,9.52388175597494,2.29112829023041,8.2819441831696,0.209999621825876,0.181329823426873
4.80718912434889,2.25624372293439,9.60468685467991,1.03440829388285,1.30786080769921,9.13491239599263,6.69830404857022,2.13842623842321,9.46900951781928,2.43727162442892,8.17039642464756,0.339743643351842,0.176481800220411
4.82433411773148,2.3957315897769,9.58332691604664,1.11041096112287,1.43789067639493,9.14068445942449,6.76722293190187,2.12991863331456,9.43928025226373,2.31245972077973,8.15802425847442,0.317349885960062,0.219760948155247
4.82638752865181,2.37753010046114,9.58737772825107,1.11822776672485,1.40017954972578,9.18087854897923,6.7874212330842,2.12407079008198,9.46261906823685,2.28241997474182,8.24318588508692,0.246478181403459,0.193125949242728
4.84636128488567,2.33912907261635,9.61372062507057,1.04982854923902,1.39167005293501,9.14164464737427,6.76772907770521,2.09317113899967,9.50426560765912,2.29846550275824,8.21931014410671,0.267426145472097,0.195130786614976
4.82144576846113,2.32977216409893,9.61847037693352,1.0682213293811,1.37936085052152,9.20436801768018,6.74643514991554,2.11222743879626,9.51283293075,2.30296029105029,8.22563243239217,0.273821863516814,0.178553564409296
4.82083567362179,2.33544621462055,9.63787554469941,1.01354809902834,1.37670459265508,9.13894976444901,6.72419208185119,2.11124886218591,9.46619935711079,2.41479390388742,8.10768527392971,0.365562432904849,0.18238867677375
3.63172266049744,4.86700761827793,8.68863340815522,3.86281336126907,1.92495297266582,7.75189979261736,7.04737051493868,2.1324261060804,7.04802151063111,3.86230375354189,6.59884405296431,2.45716835644038,0.391839546405991
