"fastcoef_sq","pref_flow_den","slowcoef_sq","soil_moist_max","soil2gw_max","fastcoef_lin","gwflow_coef","jh_coef","slowcoef_lin","sat_threshold","carea_max","smidx_coef","smidx_exp"
4.55458286893872,3.42492353917202,9.199795571967,2.14041824088556,1.6787272723671,9.14492868878442,7.18227007812879,2.12781317363925,8.76243517563394,2.12601950649844,8.45674489933821,0.266447202574758,0.208303992655752
4.56178907387515,3.42271226250543,9.19322509142275,2.15067038682322,1.67951284078878,9.14114556618049,7.18581988919809,2.12947966328583,8.75970737386467,2.12291130126796,8.45893070306731,0.268534199441749,0.215529232452755
4.55502987592842,3.42506285303657,9.19969220425979,2.14028934016131,1.67868337280452,9.14532821795109,7.18145309949445,2.12703018080473,8.76188355766233,2.12660036658768,8.45673276272845,0.266207200119289,0.208104024020409
4.42413399448423,3.62534891896839,9.14832296921776,2.37387229623411,1.69365838781158,8.97192261602515,7.17057944565404,2.12581620842144,8.53241757919715,2.34772905964969,8.2148535828292,0.556507861016358,0.210346586574304
4.42425903268426,3.6253059512506,9.1482484299121,2.37378244920988,1.69369378478794,8.97193224511731,7.17058565912455,2.12591580196413,8.53253552479407,2.34764532187824,8.21488495090694,0.556413837928227,0.210364105497132
4.42413823541427,3.625348148409,9.14831897351869,2.37388907725295,1.69365601275639,8.97192966545907,7.17058005332211,2.12581326108607,8.53243322794237,2.34771505379581,8.21484324748989,0.55652620901651,0.210345166632514
4.56129858170855,3.39224885837353,9.20887034698115,2.08283520910392,1.76860439319515,8.9515373119385,7.16403904143535,2.16280591639466,8.67393042403062,2.16626697962934,8.22516269444137,0.326914555789428,0.343682468495238
4.84902629339097,3.41097093252216,8.90365770598549,2.06474466286069,1.95172225188638,8.66596136839886,7.14301427179346,2.40956976984069,8.29534461164077,2.35915963695833,7.94585179472463,0.478782996748039,0.559970023326555
4.29537079639154,3.82496025794115,9.09555630868441,2.60490097817362,1.70950804602015,8.79813979130737,7.15820269635138,2.12593755071418,8.30409266760906,2.56795582103254,7.97314787723975,0.844358745500816,0.213851434229954
4.46894943890493,3.49637693381044,9.12254813854711,2.21967195978763,1.79403051772828,8.90485443774229,7.11270794816611,2.28865507485739,8.61774493839834,2.40733910694892,8.14766589176031,0.665592953385724,0.238661194064564
4.42353522652347,3.5035843052445,9.26465353059358,2.35151201600631,1.61311225347835,8.84018744466598,7.16724391374962,2.19197430653347,8.40900815035571,2.5552187741774,8.26771010775815,0.63526179194918,0.269193501275788
3.81068377016257,3.76032759825665,9.15762403778932,2.97577046416474,1.67355040488614,9.07481871199439,6.95223535835248,2.14209806139487,8.54761984188924,2.36246013464368,8.28039225995709,1.11865250403305,0.463741350346887
4.71426649665902,3.8140661673064,8.955592239336,2.37955280844255,1.97022595768639,8.92722466607428,7.18887951245518,2.17577938457773,8.46973156300356,2.17764613416011,7.97901505721086,0.626717181763024,0.402253013568753
4.52301109832449,3.83445367239069,8.91393088719616,2.50862922483268,1.80242056767804,8.5843496376253,7.39030953478045,2.22102382170147,8.06186169571356,2.39536283522103,8.17297009030285,0.405798689079668,0.376000156328678
4.43374867365623,3.85049836396261,8.95310151844293,2.54730237017171,1.77591956549986,8.6054589432525,7.3983174847234,2.19735741203487,8.07071776403989,2.42905678873481,8.19518823483352,0.452258075456512,0.332600644792705
4.5782629992628,4.09513991646069,8.62990763743687,2.71866151906834,1.90885538724805,8.11234413950138,7.61746395805938,2.35521494464034,7.45649045653017,2.57445010670916,8.08555686547547,0.359630440156995,0.549594928056363
4.4178078029769,4.00488594634449,8.79683700407734,2.73575438869664,1.86081691553593,8.38410830690097,7.40096056283852,2.32097829873751,7.74310369896127,2.61239346652014,7.95927645486195,0.645871468888681,0.425130295249997
5.15303928069371,3.39015691596137,8.60619394838866,1.987272647178,2.22455448571577,8.18158831309901,7.10223584363162,2.69212681991605,7.82166211522857,2.59791243094094,7.42444719471559,0.68947075380253,0.917737219319546
3.54199839460804,4.8651297952179,8.65930238754394,3.95711336987537,1.84847842922919,7.67735446676187,7.06444556908287,2.30617184859804,7.05293025012102,3.74458777645035,6.47919930246217,2.48825374207389,0.232927256729455
3.85445222313133,2.78279367783133,5.7538630093926,4.80252477704572,5.29953055917545,4.49475863501272,3.45871102996902,6.45075220983241,4.14839704398004,5.40196527510413,1.57121735600411,8.72232951093574,7.21950674943332
6.97316931447391,3.24697883509097,6.81168975311151,1.51203514902533,3.84974704466091,5.26684639679901,6.88069946892673,4.38731371865306,4.97993506992008,4.05279927289008,4.2880996748115,1.94409132137826,3.07087189148282
5.74518646040031,3.36674260202893,7.98706144116612,1.8318238301791,2.78935607610713,7.20478807006991,7.02586032187737,3.25722987053843,6.8944632376562,3.06709608859948,6.38837466456433,1.10218395295228,1.60092520096929
4.06564079108709,3.20229362172167,8.99737860895785,3.19152619580448,2.6392445801164,8.97689729067045,5.98714225005919,4.61640263398282,7.64909747503505,3.71931305504898,5.83729347283346,3.11135234145765,1.28883003665039
4.59827878551001,2.73352201742376,9.16037005306146,1.88156516130827,2.26100202837076,8.92478579664468,5.92051819271536,2.71904785184915,9.03696985621909,2.85483273089954,6.50273632035643,2.31483183637251,0.975559543770205
5.35045275683142,4.8436032187003,6.40393235334632,3.31404171787034,3.53797781802021,7.54959123850764,4.68366463377059,4.05167651800907,5.89794187472235,2.7473620099631,4.84975635305327,2.50804275993389,2.82382935289205
2.57289454914293,6.04380527662868,8.32946694259169,5.4774479975647,2.29590385935182,6.43694965227138,6.90368223722777,2.20830320272235,5.35961874004285,5.64001878203374,4.82556886422507,4.60130704724132,0.585778715572379
0.709191670535056,9.42101548179959,7.09536603158973,9.32498259299025,2.53601631030699,3.71692668006844,6.65043337506461,2.10190460912999,1.85759512725991,9.20072762770288,1.15325270160456,9.19687125419149,0.712968379474305
