"fastcoef_sq","pref_flow_den","slowcoef_sq","soil_moist_max","soil2gw_max","fastcoef_lin","gwflow_coef","jh_coef","slowcoef_lin","sat_threshold","carea_max","smidx_coef","smidx_exp"
4.8254088897308,2.21973617273837,9.5662436714597,1.16293625070661,1.24667517632425,9.22451581346859,6.7845268784847,2.14708545813194,9.51492374427666,2.27078075172651,8.47880142852229,0.10149858612994,0.139120919893664
4.82087561852797,2.21991453780562,9.5671978557822,1.16793788716065,1.23712880625593,9.22352926536845,6.78452359040401,2.14707714208335,9.50735977112256,2.28420689604405,8.48053872904987,0.105785142353733,0.133359313123764
4.82101274457975,2.21994874193273,9.56743649176006,1.16755025019039,1.23736807436624,9.22379477182903,6.78453361865133,2.14707581319268,9.50758465291146,2.28408920468452,8.48021421184314,0.105799245405628,0.133425214711573
4.82118188428278,2.21998686785664,9.56773642776616,1.16710186818445,1.23763358933181,9.2241703118223,6.7845699006106,2.14707857837651,9.50786477171431,2.28392877712061,8.47988558795562,0.105761187455489,0.133483341222778
4.82044531982094,2.22059354685974,9.5691308554904,1.16644485864659,1.23634793395168,9.22449953566985,6.78434861328921,2.14686727006366,9.50649218791782,2.28687705423465,8.47823534875696,0.107354550639275,0.132448630168082
4.82045280028225,2.22059402927068,9.56916860816216,1.16637632894059,1.23636112688157,9.22451288823354,6.78433341546128,2.14686253796626,9.50649757387409,2.28691970315076,8.4781516525167,0.107398134554995,0.13245323862977
4.82088243966332,2.22066068595875,9.56982650313813,1.16517832120078,1.23712416172809,9.22522064466492,6.78432147142217,2.1468519553012,9.50718865978316,2.28653146597248,8.47713198069914,0.107467164479762,0.132714001771295
4.82158837139731,2.22072207218665,9.57055956893604,1.16361389834368,1.23828131303069,9.2261192046969,6.78440230085373,2.14677697624666,9.50822354605516,2.28552597513209,8.47609446005186,0.107180039615398,0.133228766520966
4.83194487751587,2.22175113977021,9.58154540992662,1.14167479369352,1.25662049105926,9.24150374786608,6.78561664440657,2.14707601300015,9.52560331188897,2.26890017343224,8.4611067710096,0.102896786714663,0.140253008534874
4.82264399805511,2.22057394814346,9.57172711644616,1.16127743661679,1.23999623374005,9.22784107417036,6.7845036811648,2.14690781435019,9.51003082529897,2.28458025012299,8.47429315653955,0.107137275106953,0.133794203352548
4.83217834540554,2.22182536355573,9.58210325564615,1.14083857548928,1.25701110186638,9.24205031252901,6.78561219234949,2.14706589875943,9.52597135935435,2.26891125444477,8.46032170792916,0.103062702575735,0.140321284997995
4.83240510527978,2.22190251494366,9.58262501419188,1.14005246480348,1.25738439468402,9.24256137250821,6.78561984978985,2.14704674839807,9.52631454007611,2.26890149203879,8.45959954239873,0.103197562680951,0.140392931108647
4.82608360584908,2.22254241233935,9.58236254208831,1.14792632820498,1.24541131753579,9.23892973872373,6.78521485109704,2.14685351211255,9.5157732506239,2.2856963308179,8.46204381638168,0.10941192769784,0.133503590995381
4.82620120463808,2.22253967947336,9.58250353249118,1.1476326259165,1.24562969493016,9.23910442082379,6.78519884629443,2.1468660588273,9.51598375715543,2.28554269811294,8.46180362407587,0.109412843839882,0.133590031315104
4.82651070916692,2.22215735396533,9.58230785564234,1.14712131468701,1.24593323008194,9.2389372360132,6.78500571870236,2.14684620097816,9.51635815750052,2.28487481615174,8.46177667058954,0.109053989466036,0.134064706996217
4.83293907454003,2.22194980274211,9.58328153001079,1.13863578589182,1.25835225517394,9.24320844833149,6.78556542351854,2.14700374531495,9.52712679699954,2.26832552669593,8.4584020000247,0.103266487198738,0.140813305356719
4.82450143388225,2.22073911551529,9.57380848156641,1.1571760172595,1.24327406152258,9.23066197620922,6.78465223300814,2.14697853504088,9.51315393415572,2.28174896938207,8.47140228827235,0.106488516565578,0.135057486043487
4.82807035000677,2.22274529346929,9.58399650401684,1.1440696388613,1.24931496880865,9.2414178356327,6.78530538158338,2.14700049143569,9.51927406897159,2.28189493674988,8.4592761686907,0.108622526907369,0.135133142798015
4.8351634157327,2.22250728349403,9.58763002965637,1.13162971551166,1.26214458184645,9.24766206951489,6.78557742691204,2.14690331781969,9.5306224239681,2.26733777107634,8.45216511056142,0.104132343228616,0.141796700499041
4.82900054493777,2.22244931610286,9.5849481137304,1.14116031857464,1.25069145824579,9.24188162249019,6.78485749303651,2.14677231917352,9.52034834764008,2.28139309613184,8.45684530613215,0.108990066021293,0.136120251205504
4.82537767937899,2.22245480117985,9.58158204770811,1.14953814486554,1.24412455310719,9.23796218410126,6.78518355072333,2.14685985161698,9.51462652730203,2.28672410826446,8.46326896699209,0.109562270312047,0.132987399747265
4.82199472168388,2.2237159760791,9.58115266248455,1.15547159652226,1.23857457442933,9.23703133532955,6.78580306224562,2.14695847863451,9.50970544160166,2.29352198869403,8.46632812182311,0.111645695695541,0.129069349146841
4.82978596258939,2.22264849340345,9.58556411539358,1.13976457123832,1.25186116707405,9.24267901422887,6.78519320605183,2.14649461477595,9.52127085959505,2.28004841575443,8.45627740013972,0.108274684268476,0.1367008512722
4.84084817960154,2.22324600623308,9.59641507474585,1.11401793183613,1.27078468183635,9.25456995587922,6.78518940069308,2.14516042613194,9.53728806001252,2.2648840621202,8.43749578585397,0.10571832093863,0.14582364596752
4.82564259823746,2.22101092046279,9.57611928256496,1.15301130836887,1.2451416041165,9.23240924812028,6.78446179977089,2.14665587961746,9.51458091669996,2.28183021899368,8.46748390762405,0.107401692974242,0.13572420428983
4.82365651227073,2.23000205295447,9.58007989986648,1.13706845342424,1.2575986251878,9.21147935151323,6.77646443728047,2.14113707787594,9.50533320605559,2.29798148097045,8.42488722002524,0.139549463248673,0.140205879175127
4.75358608359335,2.35395836979983,9.50590151229455,1.35680481843179,1.34395357800476,9.11300490330639,6.83122803299129,2.10684574815856,9.34417800891587,2.39094531569825,8.22499876002236,0.350930492816112,0.164152058205586
