"fastcoef_sq","pref_flow_den","slowcoef_sq","soil_moist_max","soil2gw_max","fastcoef_lin","gwflow_coef","jh_coef","slowcoef_lin","sat_threshold","carea_max","smidx_coef","smidx_exp"
4.81215599456061,2.21583383399042,9.5386447384184,1.20279367463749,1.22541595866923,9.19298045836408,6.78234473251233,2.14702304795137,9.49299398112447,2.27869711876399,8.51130590143032,0.100397500417379,0.13541969009782
4.81246425450816,2.21592104720783,9.53934681906064,1.2018054465128,1.22588203352828,9.19376336057018,6.78239458484369,2.1470219033895,9.49349472689685,2.27859634328738,8.51049183447103,0.1004533175083,0.13548008048615
4.81290364345508,2.21600814824187,9.54005548013444,1.20065389868841,1.22661566726302,9.19461794780134,6.78245239039607,2.14702426649106,9.49421901909276,2.27813721083876,8.50961017123432,0.100392379182813,0.135687612492713
4.81361424825419,2.21718729093773,9.54677042205769,1.19508400650497,1.22620347738191,9.20201032295249,6.78360967851771,2.14703980303705,9.49538779530732,2.28210874249809,8.50499311431464,0.101314801034418,0.133245432067844
4.81451052036064,2.21704043226207,9.54683971792582,1.19338255225383,1.22822330911965,9.20206047748676,6.78325721315893,2.14704770589706,9.49688720071083,2.28024964994166,8.50345813858264,0.101349279185765,0.134468610115665
4.81148315695092,2.21567649060805,9.53738882239385,1.20468658699824,1.22433833961412,9.19149759333969,6.78223608627687,2.14701715378155,9.49188378694782,2.27923803816502,8.51278182093322,0.100437023180661,0.135181885383996
4.81462077437004,2.21837610947142,9.55375433344694,1.18894997432107,1.22627536739242,9.20982686424864,6.78482177573834,2.14705876002167,9.49703871351579,2.28554617514727,8.5000772126865,0.102023162117367,0.13100523558162
4.81596111709702,2.21749565565902,9.55056730144748,1.18813591995921,1.23051293920624,9.20592686087318,6.78333899247823,2.14704845036141,9.49926175435498,2.28049005916864,8.49865425710664,0.102288763791779,0.134681526445415
4.8194542828243,2.2190685519325,9.56177695856398,1.17448052211156,1.23513812551165,9.21807912674493,6.78428284512874,2.14707503758166,9.50502271889476,2.28238246313705,8.48682966945489,0.104121653750206,0.133883032743479
4.81597475127972,2.21750433243974,9.55062050731514,1.18807183118547,1.23053211826404,9.20597962773956,6.78334129065259,2.14704813794646,9.49928389962066,2.28050862845413,8.49859222670949,0.102305557068806,0.134676269636393
4.81950278007239,2.2191291348428,9.56216850793381,1.17404719665666,1.23517526895431,9.218416769241,6.78428271837708,2.14706429787061,9.50508711512161,2.28268781270817,8.48636026530957,0.10431999406196,0.1337958280165
4.82165444908164,2.21828811161254,9.55770233982487,1.17376366456537,1.240475405545,9.21368318660413,6.78340903595785,2.14656229559285,9.50788815379107,2.27370272138489,8.48735722623026,0.101823417345883,0.138762651654543
4.81956787039072,2.21954476824081,9.56425519268145,1.17222748367949,1.2350554336531,9.22037953875364,6.7843907838186,2.14709922117947,9.50525976579092,2.28447478969462,8.48427961491284,0.105290838609928,0.13303315141433
4.81217714228713,2.21614536231013,9.54047516722202,1.20174672195138,1.22478994856527,9.19518062366426,6.78283559227387,2.14705725771555,9.49305488162384,2.28008625166809,8.51065772502046,0.100420090922183,0.134413944134937
4.81601352013997,2.2177316741244,9.55179259474736,1.187027270265,1.2304650578306,9.20706308343167,6.78339240064076,2.14706067318373,9.49937321278445,2.28153342824011,8.49739586665348,0.102869668640605,0.134256962554006
4.81601195757198,2.21773089689315,9.55178658639731,1.18703463877514,1.23046300040373,9.20705709715913,6.7833922060855,2.14706067518242,9.49937067748538,2.28153105658151,8.49740296122218,0.102867672071375,0.13425757349721
4.81601861027708,2.21773328905928,9.55180419258068,1.18701029441467,1.23047328307867,9.20707520708804,6.78339283161472,2.14706049218973,9.49938130848944,2.28153239041659,8.49738087206817,0.102871797896851,0.134258326646165
4.81610560465993,2.2177672583059,9.55219836638706,1.18660864911461,1.23051626344671,9.20752423754346,6.78345961501923,2.14706463080697,9.49951330824158,2.28176933171581,8.49703747714583,0.102955462913853,0.134152982270792
4.81091196086823,2.21737235233407,9.54655239696837,1.20021991490442,1.21981164097334,9.2020123386682,6.78465476689801,2.14705499923908,9.4908866630693,2.28780503850817,8.50994245812332,0.100972327553384,0.129471610262652
4.81978746848324,2.21919328734431,9.56260094695886,1.17333820539982,1.23567191807312,9.21895788762039,6.78432486945098,2.14707256191004,9.50556865667663,2.28233867826998,8.4858203061332,0.104263166859355,0.133939034353206
4.81974718370765,2.21961350629501,9.56505023431169,1.17141120090494,1.23515093170267,9.22128542403048,6.78452460894189,2.14710734580309,9.50553225444724,2.28494208444718,8.48358253667039,0.105457673227014,0.132826059591718
4.81974766169157,2.21961381244247,9.56505179535078,1.17140893586773,1.23515181121065,9.22128668123897,6.78452448372871,2.14710725856673,9.50553296303718,2.28494242587642,8.48358020648001,0.105458369995455,0.132826178121121
4.81974064201349,2.21963636517528,9.56514723887503,1.17132081141755,1.23513446855577,9.22135215155996,6.78451779978099,2.14710292621041,9.50551909440955,2.28505132104208,8.48346378986467,0.105526075812832,0.132790515311021
4.81596276266169,2.21895542961677,9.55749664922427,1.18361191521229,1.22859911214922,9.21338328544762,6.78473946418529,2.14700812110868,9.49922060631787,2.28604715947744,8.49483167173637,0.103373791895944,0.131257213266781
4.81623494322078,2.2190611111945,9.55799279471716,1.18306801298226,1.22903157442475,9.21419086804989,6.78490248287171,2.14706853168218,9.49976993202194,2.28555652016365,8.49458295909417,0.103092343384587,0.131272362755852
4.82148085012625,2.21963130350035,9.56073161255966,1.17034383065247,1.24121233501241,9.21497220014614,6.78274690678393,2.14637960415513,9.50745541521885,2.27784318880542,8.48123940362574,0.105913483075454,0.138114045947657
4.84218556357112,2.23383475659373,9.55806730140163,1.14457942320495,1.27389207353408,9.20496875181688,6.78126354188975,2.15200051763027,9.48614233419612,2.28754356500729,8.42854767498957,0.142100217218138,0.166359203819295
