"fastcoef_sq","pref_flow_den","slowcoef_sq","soil_moist_max","soil2gw_max","fastcoef_lin","gwflow_coef","jh_coef","slowcoef_lin","sat_threshold","carea_max","smidx_coef","smidx_exp"
4.81184443844027,2.21568048444533,9.53763004207455,1.20399941525964,1.22501275398071,9.19186463151767,6.7822406547875,2.14702241620651,9.49248138547258,2.27854032549348,8.51232974167144,0.100263331439783,0.135505933296012
4.81183395024781,2.21567419946095,9.53758802686843,1.20403816693208,1.22500719963462,9.19181174481503,6.78223039424219,2.14702212687646,9.49246434271007,2.2785342311899,8.51235228608656,0.100270171333255,0.135516460230083
4.81185287580168,2.21568668262598,9.53766844383252,1.2039606199464,1.22501963130205,9.19190765472593,6.78224641108149,2.14702246265208,9.49249517961593,2.27855275506246,8.51229841844824,0.100266848877859,0.135497591725546
4.81184839670883,2.21568367230087,9.53764891221412,1.20398136320655,1.22501541413956,9.19188642968176,6.78224402976619,2.1470224475862,9.49248792723125,2.2785461885586,8.51231598976436,0.100264018607594,0.1355012759612
4.81185027357671,2.21568414503857,9.53765419854263,1.20397723167554,1.22501572103382,9.19189479215339,6.78224643395614,2.14702257304294,9.49249087250419,2.27854444414173,8.5123165001638,0.100259860488977,0.135499747630755
4.8118465544077,2.2156821516802,9.53763998924284,1.2039897895616,1.22501425501951,9.19187607121321,6.78224238117734,2.14702243360104,9.49248488246787,2.27854341158834,8.51232232325093,0.100263790852807,0.135503544114788
4.81184654783075,2.21568203402034,9.53763964269604,1.20398971624094,1.22501447336298,9.19187538753617,6.78224209389247,2.14702242781864,9.4924848340934,2.27854343291208,8.51232191072253,0.100264210799394,0.135503847872684
4.81184839603784,2.21568367192677,9.53764890970572,1.20398136605258,1.22501541334251,9.19188642694429,6.78224402950989,2.14702244757655,9.49248792611336,2.27854618789242,8.5123159922371,0.100264018185302,0.135501276297778
4.81185610528591,2.21568780388471,9.53767834168355,1.20395505218376,1.22501869256406,9.19192492784543,6.78225220371282,2.14702272948708,9.49250035404629,2.27854856802,8.51230324686997,0.100256406558907,0.135493569504095
4.81185026465012,2.21568414249998,9.53765417268609,1.20397723807676,1.22501572953393,9.191894738295,6.78224641229847,2.14702257203582,9.49249085838632,2.27854446360143,8.51231646757839,0.10025990394014,0.13549976215574
4.81189111068246,2.21570976443905,9.53782326148655,1.20382195739013,1.22503649901449,9.19210585593956,6.78228686554678,2.14702366997967,9.49255726707482,2.27857328891932,8.51222378269212,0.100235604477256,0.135456465345926
4.8118560840682,2.21568779361936,9.53767826038919,1.2039551003839,1.2250187028073,9.1919247973571,6.782252163204,2.14702272763462,9.49250031986776,2.2785485810229,8.51230322626475,0.100256470741749,0.135493603682347
4.81185027464648,2.21568414418761,9.53765418988214,1.20397721960578,1.22501573886185,9.19189476709799,6.78224642012347,2.14702257238363,9.49249087453959,2.27854444719372,8.51231646666219,0.100259887356445,0.135499761871662
4.81185026116134,2.21568414087938,9.53765416103207,1.20397725102761,1.22501572564329,9.19189472460234,6.78224641059339,2.14702257187921,9.49249085247913,2.27854446208891,8.51231647760741,0.100259903560419,0.135499763695012
4.81186774914116,2.21569512181429,9.53772656628058,1.20391057668966,1.22502476547908,9.19198494631439,6.78226359485695,2.1470230355014,9.49251929082755,2.27855696260129,8.51227636104843,0.100249834603229,0.135481318160454
4.81186781739813,2.21569511989886,9.53772665637419,1.20391057627473,1.22502474586949,9.19198521942851,6.78226372327682,2.14702304224103,9.49251939763911,2.27855674422329,8.51227662166828,0.100249521995446,0.135481271893618
4.81185615363358,2.21568780984595,9.53767839834066,1.2039549253829,1.22501879001562,9.19192498492261,6.78225219561353,2.14702272892979,9.49250043355387,2.27854851155972,8.51230312993179,0.100256420917615,0.135493610289023
4.81185028296315,2.21568414213325,9.5376541783524,1.20397719640472,1.22501577432567,9.19189473862921,6.78224640318123,2.14702257155922,9.49249088844935,2.2785444321016,8.51231642278056,0.100259913851705,0.135499787712301
4.81186789209014,2.21569520568235,9.53772710456258,1.20391018587857,1.22502475204719,9.19198572961007,6.78226381982763,2.14702303105788,9.49251950311121,2.27855691876266,8.51227634808019,0.100249516657117,0.135481134091813
4.81185559129676,2.21568731525195,9.53767585239788,1.2039578244451,1.22501811213071,9.19192252533521,6.78225200702285,2.14702282879857,9.49249962057994,2.27854747891386,8.51230587383514,0.100255710431282,0.135493971850197
4.8119086579606,2.21573526441301,9.53797701755573,1.20371501818649,1.22501086653302,9.19229751426405,6.7823300233583,2.14702467993021,9.49258529301345,2.27864308086916,8.51216952536755,0.100215069528779,0.135390167016331
4.81189479719266,2.2157103322495,9.53782848997967,1.20381236097956,1.22504309781724,9.19211186168955,6.78228692211878,2.14702366254522,9.49256331569778,2.27856921931978,8.51221592844594,0.100235639615774,0.135458757634411
4.81190862202448,2.21570997360697,9.53782842643702,1.20376827853859,1.22509067790336,9.19209232295464,6.78226768241705,2.14702272365905,9.49258639057113,2.27855439235944,8.51214876771992,0.10027017731348,0.135488366517493
4.81191500642967,2.21571259400532,9.53785919625751,1.20373076298137,1.22509820394871,9.19212151169293,6.7822670037311,2.14702318135891,9.49259729638757,2.27857324068156,8.5121101261776,0.100284561147344,0.13548382687623
4.81222995640453,2.21582614123731,9.53868589325918,1.20260896662515,1.22557872474829,9.19300130283998,6.7823082991594,2.1470209565341,9.49311247228744,2.27858671440705,8.51112456115667,0.10043068685429,0.135513382399041
4.81192948980652,2.21570795781047,9.53783101303075,1.20373590666129,1.22513257335188,9.19210101743087,6.78226579799234,2.14702277781152,9.49262053366627,2.2785053099772,8.51212893214236,0.100258329719516,0.135512723152725
4.81587377984929,2.21988600736617,9.54423331921535,1.1901745028246,1.23606685479368,9.20049190362835,6.78017491383176,2.14589568669708,9.49980077685095,2.28134199654202,8.49752876680019,0.105848140431696,0.13863944509325
