"fastcoef_sq","pref_flow_den","slowcoef_sq","soil_moist_max","soil2gw_max","fastcoef_lin","gwflow_coef","jh_coef","slowcoef_lin","sat_threshold","carea_max","smidx_coef","smidx_exp"
4.61027729229394,3.42474818508942,9.1783491789539,2.16269857026842,1.67689393057518,9.13669249407742,7.19067303863704,2.11305730356606,8.75162014967895,2.13680559010722,8.45877804893029,0.233072449455333,0.193192775409107
4.60844154912877,3.42072403194998,9.17303423661329,2.17738399300449,1.66055198975328,9.13596433253371,7.18487822097276,2.11614894802143,8.75045905136445,2.11984941745186,8.4721732996362,0.25330072347669,0.22376613705439
4.62263476869605,3.41116647902574,9.15242595180938,2.20567205697614,1.68829811607506,9.11933681972923,7.20196719003199,2.12708115539306,8.73722825393866,2.11750459804119,8.46668557662441,0.261465875818093,0.239830141242808
4.62847895083913,3.41769594635149,9.16528711621871,2.21135021301694,1.68212880613449,9.12461439836994,7.19748932076775,2.12647127983683,8.75055798114408,2.11342914903133,8.46999472534345,0.258083636546075,0.241142786966958
4.7114563177755,3.34345655834814,8.98571508431677,2.3546942070502,1.7871168469072,8.9995039126047,7.30533367839045,2.16852598097024,8.63675764418745,2.11316302020067,8.45271949025893,0.305727400614931,0.359858657942862
9.16110384789789,3.32861313605441,4.49068782420355,0.966055927500228,6.0632597898625,1.56162602704479,6.5340126613507,6.60223851995302,1.38841951447832,5.75968506835037,0.457855224949484,3.71446558486329,5.73562723606084
0.381393302203873,9.8282575840995,7.54083974240131,9.59286276471169,2.15592756594784,3.60601091660777,6.79942136029885,2.06721999466082,1.40583800295839,9.2093664387122,0.733545833730025,9.5436581301976,0.281864521797365
3.55474663150345,5.02513863630481,8.76838409341674,4.02964568233924,1.78839816863392,7.75416271494384,7.09214334650558,2.10448320968954,6.91695715629637,3.89474321858232,6.52982015034706,2.57152840974698,0.229447985361549
3.55193419990406,5.02611986382709,8.76922984170772,4.03205321385286,1.78869416114021,7.75430471974495,7.09217567743019,2.10239338592183,6.91357256065322,3.89928974809354,6.52980154480418,2.57196909726823,0.228569574052143
4.30452585256681,3.98705736841776,8.73023054670103,2.89991673033885,2.82433824609902,7.31985380303306,6.43277052907357,3.13935438851802,7.72043885588796,3.9163364878838,5.73804749706106,2.82527288704478,0.556537231435792
4.64302629874746,2.73581320976284,9.14823266299123,1.90403901795226,2.25041668835576,8.92246138780318,5.91325921242156,2.72412611766056,9.02963581523368,2.85121173191549,6.50512437214411,2.30634696682483,0.97586906046533
4.60320994426145,5.52573173869057,7.64960703372655,4.04957364505576,2.48393398685027,5.99647604575091,8.13739342330483,2.7507188600541,4.81777458085536,4.10133073990947,6.63533529622912,1.43335012259729,0.804983487688
7.00782958904572,3.26921818778718,6.80504045720779,1.52187980326831,3.85283862277868,5.27252285311541,6.87392941066917,4.38797089644799,4.98100597074574,4.04066974347236,4.2948728801196,1.93010526526991,3.04350592015033
6.96938950136251,3.27371521434436,6.80474452603958,1.54684393912756,3.83645575255357,5.28313341164846,6.87424396205872,4.37862906986092,4.99698393336136,4.01430358661881,4.34338210736908,1.9584461193372,3.069004096058
6.93594716976152,3.30322837102333,6.81158787314206,1.55360402832067,3.84072670397152,5.30510230835272,6.87456024134874,4.37423816197213,5.02038520501969,3.98775185781785,4.38516043803704,1.96681449250632,3.04294850723718
4.78588115646074,0.741718982182354,8.46412663999241,1.91510547088473,4.46029091545506,7.23583497015147,2.41975809539279,4.68124897393278,8.63095340919122,5.16288885411709,1.20762816635723,7.59289640877308,2.90774344386558
5.18120167239327,5.55053299918957,6.88342037589299,4.30853086263793,4.04681913265443,5.07211216349419,7.73983022639349,3.91594276835788,4.51788904672012,3.69150235610115,5.62966217524923,1.74553616260944,1.67505504688842
4.40820691891217,5.08316946499783,6.52860787161276,3.86422613870616,4.35169036299011,7.77454621758551,6.2206047787497,3.43255355428857,5.476090765978,2.61246766998462,4.67325228291211,2.45485643739395,2.03151636789743
4.67103926825729,2.03165281948756,9.13367296212117,1.6187344395067,2.81672707024525,8.73266500756522,4.63574213135145,3.31742520694373,9.33372453843063,3.55332857476532,4.52902876880774,4.41706862436509,1.77450699731321
4.66239369909759,2.05253670877789,9.11482134189197,1.63393882260297,2.82883579721162,8.72700699140863,4.61649742165311,3.31891801543671,9.3464659442599,3.56797597526668,4.50083534418346,4.42126252994657,1.79575237128569
4.3690681946375,3.47741103835083,5.09267750862978,6.082576735846,9.63708829128004,4.40336319975097,3.73578283131928,8.05349323066784,8.9689088203926,2.08910528874815,2.78638607525874,4.47864875769961,3.74347795820595
3.47497137050575,3.27112953922383,5.97940825266499,2.73919718305533,2.02190012465694,6.2755371923026,4.78073221459091,2.44729107113147,5.46328436251316,2.30244844369046,4.64619867371496,2.29222148458335,1.89295032464878
4.71391411245944,4.36910107138196,6.64296292601852,3.06329472644189,3.19149139298246,7.78941986184037,5.72321256257877,3.44838629652452,6.00447322534677,2.50107248429268,4.39627345433081,2.70093694665617,2.69006472198721
4.40072509523292,3.29831545793948,6.48561520208997,4.49512316080508,2.162157221922,6.24379953557137,6.13277278101393,2.59388528212491,9.04627946534757,3.28268817630186,5.38347897463475,3.75779518683818,4.20183381554251
4.05549393844625,4.47694059095986,3.84208775220921,4.07180646403852,4.85673391552377,4.42601563412533,5.97412653270665,6.21395022718353,4.11330659192288,2.47525135527585,2.60384257754289,6.71237719052599,3.7714561635448
5.28700862451996,5.75479155217776,0.249294132608223,8.64414546265932,8.45903751553974,8.04357008352739,7.12465686873645,2.37948812312055,7.68865237785076,7.68214839748648,3.82188185062304,8.48340000186776,3.96650545780894
6.48212444190325,3.57744920746738,6.38486344597354,2.16243562408973,3.49008741866709,5.44451737046437,6.89113146913158,2.86796979723115,5.18339847745441,2.86114603807949,6.36662127347619,3.20830144760837,3.41730038318182
