"fastcoef_sq","pref_flow_den","slowcoef_sq","soil_moist_max","soil2gw_max","fastcoef_lin","gwflow_coef","jh_coef","slowcoef_lin","sat_threshold","carea_max","smidx_coef","smidx_exp"
4.81941077922931,2.21904101142781,9.56161152733597,1.17468103883655,1.23507571306333,9.21791479572751,6.7842754499092,2.14707619084303,9.50495206987436,2.28232812484731,8.48702337883073,0.104070241923098,0.13389801495824
4.81948418235976,2.21908688359568,9.56188590016573,1.17434733464483,1.23518185505993,9.21818814813654,6.78428818674531,2.14707426181744,9.50507135114107,2.28241510764474,8.48670167109632,0.104154494359604,0.13387434424011
4.81944042816761,2.21907597544736,9.56181091976711,1.17445802863291,1.23510392207353,9.21808889124903,6.78428000265907,2.14706807607289,9.50499016081971,2.28246562848002,8.48678875814368,0.104160819393526,0.133858433866854
4.81959344524636,2.21915523919028,9.5623016517193,1.17384265444188,1.23533764994266,9.21860066955497,6.78430615874515,2.1470712243657,9.50524841938519,2.28255238628773,8.48621488968146,0.104283512861965,0.133836861340305
4.81961128228465,2.21917072093538,9.56238900218546,1.17374212307047,1.23536162889132,9.21868382821829,6.78430872942156,2.14707045461982,9.50527726093515,2.28259266754715,8.48611357359778,0.104315459238233,0.133824271115921
4.81954130263489,2.21911363531966,9.56206344089963,1.17411596961298,1.23526676906975,9.21836678970518,6.78429492397618,2.1470721043141,9.50516215541666,2.28244970383825,8.48648681637613,0.104201489824614,0.133870980779862
4.81954196825968,2.21913761221986,9.5621714160622,1.17401762179136,1.23525913046591,9.21845757244356,6.78429572398658,2.14707069318887,9.50516363265944,2.28254858116826,8.48636905232093,0.104260077194579,0.133833542454716
4.8195885725048,2.21915063845782,9.56229397812547,1.17385714082647,1.23532662982158,9.21859632065506,6.7843055004049,2.14707409682946,9.50524277529037,2.28255876327305,8.4862287135647,0.104282016979215,0.133832546505635
4.81950959959181,2.21910354242939,9.56198928766731,1.17422357493058,1.23521687406953,9.21828982405089,6.78429205293301,2.14707364040172,9.50511254285066,2.28245365753355,8.48658139627269,0.104187936643853,0.13386327463014
4.81951139047882,2.21910530127869,9.56199887941827,1.1742126761283,1.23521922086,9.21829876738815,6.78429229395126,2.14707350682315,9.50511538468927,2.28245849520882,8.48657024906178,0.104191636795023,0.133861756817326
4.81951900699639,2.21910647796006,9.56200666594505,1.17419748319319,1.23523322848485,9.21831037157772,6.78429348506961,2.14707394048158,9.50512858411983,2.28244474629392,8.48656020143953,0.104187749112939,0.133866955652355
4.81952301530801,2.21911128783155,9.56203967738844,1.1741622449756,1.235235621938,9.21834031788585,6.78429417459572,2.1470735186766,9.50513443418123,2.28247021099571,8.48652271293239,0.104203225117272,0.133858737974097
4.81952458726183,2.21911098385417,9.56203601609683,1.17416346695013,1.23523941198879,9.21833735158833,6.7842943159973,2.14707318439033,9.50513666875216,2.28246216638063,8.48652561652704,0.104199866776722,0.13386206967761
4.81952142734047,2.21910841412647,9.56202194811139,1.17417992214784,1.23523516831069,9.21832399143512,6.78429359035345,2.14707353585645,9.50513186999608,2.28245581586814,8.48654201857848,0.104194829881747,0.133863917345948
4.81952617792517,2.21911214998956,9.56204218049962,1.17415616130455,1.23524209835026,9.2183437051132,6.78429451388735,2.14707334582977,9.50513963636266,2.28246374286024,8.48651829021122,0.104201862095232,0.133861515462128
4.81964611761826,2.21917731055643,9.5624476634243,1.1736477178488,1.23541951435567,9.21875316528678,6.78431291927292,2.14707086024143,9.50533454852869,2.28256248339283,8.48603832184769,0.104314993212559,0.133839653015883
4.81965544767411,2.21919182640066,9.56252694597897,1.1735656154842,1.23542760337188,9.21882587685135,6.78431561472049,2.14706998364899,9.50534943366102,2.28261834496187,8.48595006710516,0.104350389522465,0.13381988523867
4.81965114629012,2.2191931819595,9.5625336132608,1.17356318779114,1.23541875769858,9.21882790832638,6.78431409224637,2.14706966757765,9.50534192011425,2.28263644941843,8.48594262404311,0.104359115168717,0.133813610301505
4.81955807935024,2.21919432217385,9.56258830211677,1.17358020657263,1.23522175384699,9.21878206654998,6.7842836184269,2.14705336941098,9.5051625197355,2.28300400917031,8.4858580056556,0.104527619982569,0.133705476433824
4.81994523881772,2.21923854422743,9.56302935747417,1.17271748271761,1.23592219152191,9.21937461101888,6.78431351404592,2.14706902032399,9.50582375614792,2.28240349512968,8.48523266366601,0.104404494166675,0.13396533682799
4.81995436532553,2.21932214871163,9.56335881878043,1.17244137921395,1.23590315641773,9.21967603565656,6.78434477552762,2.14706269392663,9.50583525713944,2.28268331017623,8.4849154653048,0.104550499896421,0.133843608035925
4.82012745617195,2.21932262717688,9.56345318016687,1.17216222405894,1.23621505208461,9.21986430330875,6.78436792057471,2.14706989748983,9.50612560284555,2.28230574029393,8.48477808730287,0.104413965577358,0.133991889107236
4.82061605009592,2.21973842292055,9.56563469985162,1.16954747859757,1.23693842845125,9.22188406256618,6.7844026215166,2.14702489680981,9.50689032602106,2.28317479576438,8.48214192909761,0.105214932333827,0.133770248938616
4.81742309119486,2.21896843817949,9.56039181544211,1.17821711132141,1.23144647092849,9.21591002546451,6.78410705583388,2.14710537567013,9.50173437135543,2.28640157740813,8.48907184627268,0.105347811281403,0.132134091020847
4.82474182246607,2.22064160855661,9.57348107108334,1.15704570412609,1.24384748078859,9.23038732510171,6.78454211355555,2.14697233711789,9.51359510980071,2.28062824924091,8.47152280088432,0.106107747201545,0.135529868749469
4.83049744574434,2.22334155979286,9.58211640605867,1.13888221479215,1.25654263649654,9.23618103972211,6.78309922872417,2.14573730492075,9.52141610354086,2.27709003432345,8.45198697278045,0.111373648642607,0.140748011409164
4.84218556357112,2.23383475659373,9.55806730140163,1.14457942320495,1.27389207353408,9.20496875181688,6.78126354188975,2.15200051763027,9.48614233419612,2.28754356500729,8.42854767498957,0.142100217218138,0.166359203819295
