"fastcoef_sq","pref_flow_den","slowcoef_sq","soil_moist_max","soil2gw_max","fastcoef_lin","gwflow_coef","jh_coef","slowcoef_lin","sat_threshold","carea_max","smidx_coef","smidx_exp"
4.811843369989,2.21567969761555,9.5376251690965,1.20400433422237,1.22501188613747,9.19185917198759,6.78223992359579,2.14702241026206,9.49247963856711,2.27853874340167,8.5123337130805,0.10026288484483,0.135506994855375
4.81184337002172,2.21567969763963,9.5376251692456,1.20400433407193,1.22501188616403,9.19185917215474,6.78223992361823,2.14702241026225,9.49247963862062,2.27853874344992,8.51233371295918,0.100262884858318,0.135506994822879
4.81184337015323,2.21567969804738,9.53762517213936,1.20400433168837,1.22501188559808,9.19185917506085,6.78223992397937,2.14702241027284,9.49247963876467,2.27853874588166,8.5123337107642,0.100262885643457,0.135506993630368
4.81184337031681,2.21567969787025,9.53762517062758,1.20400433272772,1.2250118863771,9.19185917373925,6.78223992385424,2.14702241026458,9.49247963910767,2.27853874388093,8.51233371191718,0.10026288492954,0.13550699449465
4.81184337014029,2.21567969772669,9.53762516978506,1.20400433352685,1.22501188626073,9.19185917275912,6.78223992369908,2.1470224102629,9.49247963881447,2.27853874362444,8.51233371251908,0.100262884907728,0.135506994705762
4.81184336760617,2.21567969599709,9.53762515894245,1.20400434481136,1.22501188394605,9.19185916067453,6.78223992216597,2.14702241026121,9.49247963468297,2.27853874039495,8.51233372171928,0.10026288383391,0.135506996821413
4.81184337424065,2.21567970073845,9.53762518844554,1.20400431467507,1.22501188960303,9.19185919366598,6.78223992649656,2.14702241028552,9.49247964551813,2.27853874966291,8.51233369729912,0.100262886615777,0.135506990652571
4.81184338700532,2.21567971011306,9.53762524653065,1.20400425599196,1.22501190000989,9.19185925874342,6.78223993520379,2.14702241035593,9.49247966638712,2.27853876845639,8.51233364992088,0.100262891932812,0.135506978037967
4.8118433677337,2.21567969544574,9.53762515615369,1.20400434664164,1.22501188485686,9.19185915785707,6.78223992174223,2.14702241025777,9.49247963487863,2.27853873759918,8.51233372359606,0.100262882943318,0.135506998280466
4.81184333856502,2.21567967227027,9.53762501786747,1.20400447787151,1.22501186689768,9.1918589974321,6.78223989580389,2.14702241012611,9.49247958750584,2.27853869594069,8.51233382081993,0.100262880967034,0.135507032960047
4.81184337403622,2.21567970086203,9.53762518835087,1.2040043157581,1.22501188888373,9.1918591942008,6.7822399270154,2.14702241029375,9.49247964525274,2.27853874939477,8.51233369897619,0.100262885591924,0.135506990127882
4.81184338714081,2.21567971109822,9.53762524963981,1.20400425616592,1.22501189836763,9.19185926453424,6.78223993750955,2.14702241040147,9.49247966690265,2.27853876842877,8.51233365282116,0.100262888690017,0.135506975572241
4.81184337426538,2.21567970075819,9.53762518856174,1.20400431456206,1.22501188961912,9.19185919379794,6.7822399265171,2.1470224102845,9.49247964555692,2.27853874969923,8.51233369721342,0.100262886619872,0.135506990624935
4.81184324757171,2.2156796058117,9.53762460521569,1.20400490627283,1.22501178437861,9.1918585454756,6.78223984214996,2.1470224100337,9.49247943865899,2.27853855384992,8.51233418223468,0.100262824292645,0.13550711662775
4.81184336295119,2.21567969231382,9.53762513657107,1.20400436679827,1.225011880598,9.1918591354895,6.78223991860809,2.14702241023812,9.49247962708027,2.27853873273708,8.51233373925664,0.10026288201145,0.135507002103232
4.81184343692635,2.2156797468513,9.53762547402847,1.20400402633064,1.22501194058452,9.19185951367076,6.78223996936701,2.14702241063142,9.49247974800524,2.27853884217446,8.51233346456725,0.100262912686731,0.135506928509918
4.81184337853283,2.2156797038951,9.53762520798332,1.20400429495034,1.22501189308855,9.19185921556292,6.78223992943707,2.14702241030469,9.49247965252902,2.27853875597546,8.51233368139627,0.100262888377969,0.135506986402348
4.81184306131574,2.21567947042307,9.53762376307518,1.2040057578472,1.22501163221722,9.19185760051554,6.78223971534574,2.14702240884106,9.49247913414852,2.27853828488428,8.51233486763801,0.100262749839667,0.135507298691319
4.81184342737561,2.21567973003608,9.53762539309104,1.20400414231425,1.22501190517098,9.19185947093492,6.78223999058498,2.14702241252003,9.49247973158514,2.27853875862566,8.5123336304788,0.100262817326677,0.135506931654774
4.81184394744072,2.21568010771256,9.53762773728401,1.20400177961532,1.22501232510107,9.1918621106286,6.7822403511217,2.14702241561798,9.49248058113936,2.27853949423928,8.51233174352168,0.100263005991734,0.135506422027109
4.81184352596904,2.21567982334034,9.53762592389518,1.20400360899493,1.22501198518459,9.19186003410336,6.78224005569174,2.14702241003548,9.49247989111446,2.27853899068321,8.51233315730603,0.100262919047139,0.135506808091485
4.81184310072158,2.21567958315608,9.53762436893319,1.20400530650471,1.2250115334251,9.19185827136014,6.78223983517997,2.14702240760235,9.4924791952172,2.27853868890778,8.51233450766725,0.100262819108748,0.135507041446573
4.81184291428925,2.21567883392706,9.53762069977774,1.20400727357909,1.22501260440727,9.19185357866124,6.78223862124108,2.14702235208097,9.49247885284148,2.2785367641545,8.51233523612494,0.100263462295999,0.135508982503574
4.81184447393434,2.21568087067427,9.53763177410672,1.20399877044765,1.22501203558532,9.19186702957962,6.78224138165178,2.1470224480936,9.49248147698614,2.27854116840208,8.51232986695042,0.10026272861442,0.135504858092238
4.81184164975153,2.21567729185207,9.53761265637938,1.20401258381704,1.22501337390929,9.19184282819888,6.78223587608049,2.14702218557391,9.49247669786226,2.2785348885112,8.51233703705946,0.100265805398353,0.13551231034474
4.81188925126269,2.21570416980505,9.53778900905401,1.20381577749694,1.22506752335988,9.1920382728976,6.78225675532989,2.14702285389826,9.49255549520193,2.27857528290079,8.5121722342251,0.100287228300228,0.135487612026503
4.81584722312406,2.21865309614712,9.53558545012991,1.20263783987171,1.23329175491216,9.19146574501175,6.78074315240468,2.14838763622151,9.48884074276288,2.28212487271948,8.50324287988852,0.107321024628744,0.140467916228514
