"fastcoef_sq","pref_flow_den","slowcoef_sq","soil_moist_max","soil2gw_max","fastcoef_lin","gwflow_coef","jh_coef","slowcoef_lin","sat_threshold","carea_max","smidx_coef","smidx_exp"
4.81191193733148,2.2157300698906,9.53793725613828,1.20368905275372,1.22506777255144,9.19220881718372,6.78228670513937,2.14702278777103,9.49259173861937,2.2786397620453,8.51207915588586,0.100291470944387,0.135439200732288
4.81190773403111,2.2157314711676,9.537931831283,1.20371073954245,1.22505526991122,9.19221326107351,6.78229464422647,2.14702291783068,9.49258599295601,2.27863409763906,8.51210985235959,0.100274297317679,0.135431430375971
4.81193787833479,2.21573907771457,9.53801677512041,1.20364433599418,1.22506021386719,9.19234759468984,6.78233324941935,2.1470249317143,9.49263330140159,2.2786061284282,8.51211797050961,0.100207565297787,0.135406876499453
4.811843369989,2.21567969761555,9.5376251690965,1.20400433422237,1.22501188613747,9.19185917198759,6.78223992359579,2.14702241026206,9.49247963856711,2.27853874340167,8.5123337130805,0.10026288484483,0.135506994855375
4.81191214951645,2.21573383960068,9.5379483620106,1.20369139556222,1.22506078027949,9.19223072284582,6.78229590822303,2.14702297301099,9.49259329069048,2.2786390798079,8.51209236541881,0.100278019473803,0.13542947002021
4.81191193732979,2.21573006989134,9.53793725614149,1.20368905275423,1.22506777254702,9.19220881718694,6.78228670514025,2.14702278777112,9.49259173861672,2.27863976205216,8.51207915588572,0.100291470945877,0.135439200728504
4.81190777073721,2.21573149013401,9.53793196430764,1.20371058241028,1.22505531652236,9.19221340214305,6.78229465444648,2.14702291828149,9.49258605361134,2.27863413453539,8.51210971115818,0.100274326124747,0.135431415939024
4.811937777056,2.21573904256377,9.53801646472183,1.20364451042587,1.22506024345453,9.1923470528301,6.78233306762884,2.14702492334068,9.49263313913685,2.27860625988098,8.51211781867367,0.100207893096896,0.135407002729415
4.81184213846406,2.21568110274216,9.53763041240845,1.20400552014509,1.22500627120715,9.19186708057826,6.78224310895719,2.14702262929015,9.49247775540119,2.27854347497073,8.51233772288299,0.100259930846696,0.135501546908216
4.81191197547439,2.21573009421621,9.53793742077258,1.2036888722028,1.22506781328818,9.1922089930121,6.78228672083703,2.14702278850891,9.49259180219367,2.27863982234477,8.51207899475307,0.10029150522216,0.135439172329131
4.81191193711662,2.21573007022045,9.53793725657934,1.20368905411314,1.2250677713953,9.19220881889989,6.78228670619858,2.14702278779064,9.49259173841078,2.27863976166871,8.51207915848098,0.100291469079656,0.135439199653597
4.81190776670815,2.21573148790539,9.53793194917201,1.20371059973994,1.22505531166952,9.19221338580927,6.78229465303039,2.14702291822546,9.49258604691583,2.2786341302897,8.51210972643195,0.100274323275752,0.135431417911632
4.81193780062324,2.21573905393718,9.53801654556372,1.20364447791406,1.2250602268305,9.19234720168931,6.78233312148573,2.14702492558939,9.49263317797838,2.2786062238655,8.51211787754917,0.100207796226876,0.135406962651908
4.81184443844027,2.21568048444533,9.53763004207455,1.20399941525964,1.22501275398071,9.19186463151767,6.7822406547875,2.14702241620651,9.49248138547258,2.27854032549348,8.51232974167144,0.100263331439783,0.135505933296012
4.81191269995059,2.21573395547278,9.53794933724835,1.2036898846415,1.22506166742295,9.19223188234471,6.78229599035736,2.14702297678269,9.49259419563785,2.27863859163582,8.51209120224181,0.1002779656912,0.135429687882287
4.81191193860797,2.21573007025999,9.53793725920364,1.20368904854944,1.2250677744358,9.19220882060989,6.78228670536598,2.14702278777515,9.4925917407121,2.27863976179303,8.51207915240708,0.100291471229406,0.135439200897964
4.81190780344258,2.21573150703825,9.53793208285615,1.20371044239446,1.22505535804366,9.19221352786581,6.78229466356061,2.14702291868307,9.49258610765561,2.27863416742319,8.51210958534535,0.100274351786642,0.135431403062174
4.8119369887109,2.21573877538871,9.53801406604846,1.20364588406738,1.22506045432495,9.19234288068452,6.78233167564166,2.14702485875534,9.49263187824909,2.27860727253291,8.51211668345768,0.100210403745662,0.135407963846016
4.81184550897492,2.21568127361664,9.53763492615337,1.20399448853431,1.2250136219401,9.19187010631997,6.7822413897325,2.14702242223511,9.49248313621912,2.27854190931462,8.51232576716915,0.100263774902199,0.135504867588357
4.81191212184913,2.21573018619333,9.53793803100955,1.20368818983257,1.22506798163248,9.19220963950636,6.78228677359183,2.14702279126075,9.49259204645448,2.27864003335896,8.51207837880746,0.100291639015767,0.135439077572711
4.81191193717981,2.21573007028799,9.53793725697888,1.20368905374914,1.22506777141484,9.19220881934404,6.78228670626361,2.14702278779161,9.49259173851467,2.27863976185519,8.51207915818374,0.100291469125403,0.135439199534914
4.81190775940559,2.21573148422428,9.53793192309125,1.20371063086303,1.22505530224225,9.19221335827862,6.78229465115252,2.14702291813954,9.49258603486799,2.27863412316639,8.51210975452785,0.100274317442873,0.135431420539786
4.81193783626621,2.21573906429486,9.53801664912915,1.20364440444146,1.22506022790047,9.19234737080331,6.78233317286077,2.14702492811125,9.49263323439623,2.27860618682505,8.51211790020517,0.100207706300954,0.135406928746388
4.81184550705387,2.2156812714669,9.53763491593288,1.20399449571964,1.22501362181363,9.19187009229215,6.78224138630107,2.14702242215836,9.49248313268281,2.27854190769792,8.51232577008556,0.100263777737166,0.13550487138896
4.8119317429108,2.21574114173697,9.53800214840914,1.20362108856046,1.22508939541675,9.19228920816302,6.78229963227212,2.14702311875166,9.49262562027254,2.27864170465131,8.51203153101796,0.10028640145547,0.135429473167543
4.81191193893536,2.21573007084574,9.537937261962,1.20368904666129,1.22506777421361,9.1922088241096,6.78228670614635,2.14702278779481,9.49259174133876,2.27863976288877,8.51207915130648,0.100291470947321,0.135439199749533
4.81190778716946,2.21573149862743,9.53793202386781,1.2037105120667,1.22505533738278,9.19221346531029,6.78229465902773,2.1470229184831,9.49258608076474,2.27863415105342,8.51210964795443,0.100274339011679,0.135431409469128
4.81193768844926,2.21573901519279,9.53801620205257,1.20364466723259,1.22506026244858,9.19234659825957,6.7823329174513,2.14702491618209,9.49263299834029,2.27860637272914,8.51211770073925,0.100208165936768,0.135407104246583
4.81184551417499,2.21568127571465,9.53763494026158,1.20399447498986,1.2250136263838,9.19187012662255,6.78224139431445,2.14702242244374,9.49248314504144,2.27854190561588,8.51232576187966,0.10026376877257,0.135504865197948
4.81191369493014,2.21573099131743,9.53794356403375,1.2036816267711,1.22507000875418,9.19221555094271,6.78228721797151,2.14702280824777,9.49259465149045,2.27864135380245,8.51207256009845,0.100292717438649,0.135438527494562
4.81191194646738,2.21573007625985,9.53793729331778,1.20368901607698,1.22506778078636,9.19220886170206,6.78228671209967,2.14702278796731,9.49259175430523,2.27863976969336,8.51207912858756,0.100291470915165,0.135439192841848
4.81190776000139,2.21573148414839,9.53793192417329,1.20371062794679,1.2250553037695,9.19221335834362,6.78229465034576,2.14702291812709,9.49258603572506,2.27863412387658,8.51210975072203,0.100274319368079,0.135431421324278
4.81193779360713,2.21573904967996,9.53801651907759,1.20364448173028,1.22506023718834,9.19234714749491,6.78233309955451,2.14702492472163,9.49263316612775,2.27860623915228,8.51211784529862,0.100207837165979,0.13540697942133
4.81184552731253,2.21568128847733,9.53763500963969,1.20399440986117,1.22501363050602,9.19187020310324,6.78224140785413,2.14702241998343,9.49248316259935,2.27854193071979,8.51232571486756,0.100263769239986,0.135504846854928
4.81187967727035,2.21572666877435,9.53789503700821,1.2037783522918,1.22500550371005,9.19216803670457,6.78229231541357,2.14702305021114,9.49253986761055,2.27867205804567,8.51216088353311,0.10028043078971,0.135413750099266
4.81191177982147,2.21573001639174,9.5379368087347,1.20368966928787,1.22506753114665,9.19220837088856,6.78228670139866,2.14702278772386,9.49259148406104,2.27863968910372,8.51207973246021,0.100291339705938,0.135439190210564
4.81190784296692,2.21573152106403,9.53793219688355,1.20371030242119,1.22505540785654,9.19221365774614,6.78229467631102,2.14702291953339,9.49258617242619,2.27863417465634,8.51210947344393,0.100274359219202,0.135431396783546
4.81193777320537,2.21573903996041,9.5380164389465,1.20364451065262,1.22506026264755,9.19234700213976,6.78233304619005,2.1470249224511,9.49263313406222,2.27860626570565,8.51211778325971,0.100207932392776,0.135407022960681
4.81184764276525,2.21568284374155,9.53764465546702,1.20398466209297,1.22501535753129,9.19188100234947,6.78224284639121,2.14702243399498,9.49248662427066,2.27854507100477,8.51231782871206,0.100264672987426,0.135502750764003
4.81197722009754,2.21574085871431,9.53806190363004,1.20353478566921,1.22514233794082,9.19238818722399,6.78232104121544,2.14702525307278,9.49269858585546,2.27856859831408,8.51200905948164,0.100231114023634,0.135442935103593
4.81191196928365,2.21573007514794,9.53793731699496,1.20368897731729,1.22506780912013,9.19220890477855,6.78228672189227,2.14702278897535,9.49259179091574,2.27863972710945,8.5120791215872,0.100291441434549,0.135439202653705
4.81190786279125,2.21573151030374,9.5379321709124,1.20371031276893,1.22505543434492,9.1922136575689,6.78229468567412,2.14702292085231,9.49258620357487,2.27863408758364,8.51210952517725,0.100274300733854,0.135431421529159
4.81193765779787,2.21573901331987,9.53801613185918,1.20364458033367,1.22506036283236,9.19234633995495,6.78233277496293,2.14702490947548,9.49263295209242,2.27860653522075,8.51211735618269,0.100208491445497,0.135407195051665
4.81184764319551,2.21568284418294,9.53764465760212,1.20398466052462,1.22501535762672,9.1918810052634,6.78224284708736,2.1470224340105,9.49248662505325,2.27854507129438,8.51231782802946,0.100264672415023,0.135502750016646
4.81201934540335,2.21574509517251,9.53812225444616,1.20341049894208,1.22522610444553,9.19244555843715,6.78231102489036,2.14702559597415,9.49276845963676,2.27853744264089,8.51188794987584,0.100256577183301,0.135475077251259
4.81191195694068,2.21573007414037,9.53793729808804,1.20368900092139,1.22506779569548,9.19220887346159,6.78228671447076,2.1470227883961,9.49259177075469,2.27863974642212,8.51207912650558,0.100291458075909,0.135439200936651
4.81190797978031,2.21573151131413,9.53793229991167,1.20371003635568,1.22505564029264,9.19221381677375,6.78229468283384,2.14702292342193,9.4925863951862,2.27863393438549,8.51210931301094,0.100274285002227,0.135431506848998
4.81193778292464,2.21573904443277,9.53801648089854,1.20364449952063,1.22506024404828,9.19234708036144,6.78233307630606,2.14702492375283,9.49263314867706,2.27860625234517,8.51211782371281,0.100207877514729,0.13540699739584
4.81186047239899,2.21569229523296,9.53770317547289,1.20392560482904,1.22502577147623,9.19194657870565,6.78225163645262,2.14702250568711,9.49250760246285,2.27856406219486,8.5122701617093,0.100270018019185,0.135489994899788
4.81199320220318,2.21574868318596,9.53811565024747,1.20347113827027,1.22516267595168,9.19244679971857,6.78232616234409,2.1470253991763,9.49272495621156,2.27857880869281,8.51195438289533,0.100239277344274,0.13543788931059
4.81191180545384,2.2157299043345,9.53793621840951,1.2036900565847,1.22506772544756,9.19220776552446,6.78228661104561,2.14702278676295,9.49259151975566,2.27863909854782,8.51208012313788,0.100291156811613,0.13543950038713
4.81190776908106,2.21573141699583,9.5379315763918,1.20371090198369,1.22505538086514,9.19221303880014,6.78229462416556,2.14702292040508,9.49258605094006,2.27863376181332,8.51211006643852,0.100274154354671,0.135431577091534
4.81193760346368,2.2157389578376,9.53801578859161,1.20364489625372,1.22506034459346,9.19234595823311,6.7823327221195,2.14702490763143,9.49263286063402,2.2786063697288,8.51211761841795,0.100208445855512,0.135407296386699
4.81185192739665,2.21568600115821,9.53766419830943,1.20396494550298,1.22501883358287,9.1919029077614,6.7822457858875,2.14702245812157,9.49249363131734,2.27855140721708,8.51230192120916,0.100266449346835,0.135498488528902
4.8120335242539,2.21579064643516,9.53835984697701,1.20318674081629,1.2252238483051,9.19266187430312,6.782321635155,2.1470241195682,9.49279257772646,2.2787393441287,8.51163543457429,0.100372350565761,0.135397809673291
4.8119119632212,2.21573007368716,9.53793730108937,1.20368898612914,1.22506781025646,9.19220887537063,6.78228671161217,2.14702278846831,9.49259178128539,2.27863973701552,8.51207911109167,0.100291461443999,0.135439208854091
4.81190819508985,2.21573159504998,9.53793294989945,1.20370930531133,1.22505586606467,9.19221460164114,6.78229479537647,2.14702292871514,9.49258674614607,2.27863394810465,8.51210880376881,0.100274237364467,0.135431433901254
4.81193781773953,2.21573904032195,9.53801640699593,1.20364428479785,1.22506051207904,9.1923468008028,6.78233290016306,2.14702491504035,9.49263321054482,2.27860627269726,8.51211734152344,0.100208226106377,0.135407190506411
4.81184765103457,2.21568285091722,9.53764469263841,1.20398463096934,1.22501536206153,9.19188105073945,6.78224285649747,2.14702243424098,9.49248663895445,2.27854507666022,8.51231781074073,0.100264666778744,0.135502739912908
4.81207287234343,2.21586310217718,9.53867721906826,1.20300185906853,1.22514082753699,9.19307590919051,6.78245162290905,2.14700492603338,9.49282766493816,2.27882624891989,8.51162807111922,0.100234528316931,0.135250141267132
4.81191196240762,2.21573008293753,9.53793734340499,1.20368895239742,1.22506780323274,9.19220891397474,6.78228671472071,2.14702278810344,9.49259178039621,2.27863977955359,8.51207907089019,0.100291482528692,0.135439190657045
4.81190778270648,2.21573150113113,9.53793202081603,1.20371053445467,1.22505531784001,9.19221347109301,6.78229467061103,2.14702291602264,9.49258606966128,2.27863414522079,8.51210968726339,0.100274313409082,0.135431399307762
4.81193760197731,2.21573898739018,9.53801594539475,1.20364478754718,1.22506030058199,9.1923461208723,6.78233274768175,2.14702490696975,9.49263285757731,2.27860651102032,8.51211751664694,0.100208485369953,0.135407219680026
4.81184765032896,2.21568284574426,9.53764467170919,1.20398464178743,1.2250153673072,9.19188102390683,6.78224284973246,2.14702243421058,9.49248663694045,2.27854506508876,8.51231781611056,0.100264669017299,0.135502751079325
4.81207660787165,2.21586537218996,9.53869168525767,1.20298567150999,1.22514488029606,9.19309148188092,6.78245322129561,2.14700478308607,9.49283360732858,2.27882990987619,8.51161450776915,0.100236378808801,0.135248098168852
4.81191228888197,2.21573035058158,9.53793884427052,1.20368754734069,1.22506795927782,9.19221066380347,6.78228703998799,2.14702275334185,9.49259226124374,2.2786401667867,8.51207813139509,0.100291386356028,0.135438812483424
4.81190805161373,2.21573156755996,9.53793267524681,1.20370957826209,1.22505575006171,9.19221414846238,6.78229467059571,2.14702292099651,9.49258651447776,2.27863417088955,8.51210880694897,0.100274491036652,0.135431457414462
4.81193768124381,2.21573903392117,9.53801613889864,1.20364406097971,1.22506079997421,9.19234589070456,6.78233241506528,2.14702489338607,9.49263300689247,2.27860687392472,8.51211621917941,0.100209344093567,0.13540747275378
4.81184764760487,2.21568284582145,9.53764466880889,1.20398464808795,1.22501536267619,9.19188102025138,6.78224284975532,2.1470224341414,9.49248663253432,2.27854506875159,8.51231782071098,0.10026466962176,0.135502749105429
4.81208980522424,2.21587071725345,9.53873077839852,1.20293632857981,1.22516328795788,9.19313396120766,6.78245622115314,2.14700490327694,9.4928553937804,2.27883437726798,8.51157174088555,0.100242726050879,0.135246650086223
4.81191209401876,2.21573020026708,9.53793798055893,1.20368838174862,1.22506784183861,9.19220966620207,6.78228686709425,2.147022770207,9.49259196803955,2.27863994624602,8.51207871629092,0.100291414678001,0.135439014349169
4.811907925282,2.21573161553382,9.53793266862765,1.20370991935341,1.2250553904844,9.19221422023513,6.78229480683085,2.14702290041789,9.49258627819133,2.27863431501703,8.51210926850136,0.100274280132205,0.135431240751713
4.81193795427168,2.21573902625948,9.53801649927312,1.20364405932002,1.22506072153584,9.19234698316102,6.78233292874476,2.1470249203446,9.49263343413869,2.27860600041273,8.51211726165882,0.100208093662436,0.135407287686439
4.81185193986177,2.21568600003584,9.53766420768281,1.20396490990003,1.22501886192426,9.19190291055909,6.78224577834616,2.14702245794145,9.49249365073031,2.27855139457463,8.51230188240356,0.100266461133476,0.135498504277925
4.81210215724068,2.21587745851227,9.5387774914972,1.2028821030076,1.22517866457135,9.19318355866067,6.7824599427307,2.14700519942796,9.49287595714157,2.27884878015212,8.51152258458919,0.10025331415619,0.135240817036204
4.81191277684333,2.2157306672106,9.53794060935794,1.20368573391073,1.22506837124908,9.19221273398978,6.78228740600539,2.14702270612727,9.49259299126996,2.27864036140813,8.51207691076204,0.100291226397889,0.135438504904404
4.81190781082574,2.21573149574146,9.53793203012215,1.2037104768893,1.22505537945071,9.1922134827817,6.78229466028398,2.14702291887149,9.49258611919928,2.27863409546003,8.51210963368045,0.100274318284,0.135431433116873
4.8119381599867,2.21573908765035,9.53801689220344,1.20364349624573,1.22506104226003,9.19234745875724,6.7823329813957,2.14702491799271,9.49263377012289,2.27860581402336,8.51211684775427,0.100208047262434,0.135407349240104
4.81184772756789,2.21568291521612,9.53764504932385,1.20398430157936,1.2250153944641,9.19188146842253,6.78224293652137,2.14702242539908,9.49248675049011,2.27854516871836,8.5123175954913,0.100264638819574,0.135502647339105
4.81224224222639,2.21588320480827,9.53900730022571,1.20239729752013,1.22550168146817,9.19337450581602,6.78238207703603,2.14702539202077,9.49313758436616,2.27882013277759,8.51096559069408,0.100458356210017,0.135356549516403
4.81188674622377,2.2157177349099,9.53784764570553,1.20379632840451,1.22503468997521,9.19211385478596,6.78228076887683,2.14702200425232,9.49254940135547,2.27861588682229,8.51217638114094,0.100271042977933,0.135447995855061
4.81190811744383,2.21573175762184,9.5379334903186,1.20370910795987,1.22505551777503,9.19221516187798,6.78229496623002,2.14702288244021,9.49258656445873,2.27863451523645,8.51210869291675,0.100274258786788,0.135431060638574
4.81193795080635,2.21573900745217,9.53801622252007,1.20364391358093,1.2250610795002,9.19234634530238,6.78233262908713,2.14702490184985,9.49263343310085,2.27860603122345,8.51211663941743,0.10020865003053,0.135407603956635
4.81184666656612,2.2156821342796,9.53764020683707,1.20398919413771,1.22501453179152,9.19187604892361,6.78224221359157,2.14702241964478,9.4924850168154,2.27854358941103,8.51232155170341,0.100264186615816,0.135503700806215
4.81250869084061,2.2160171106623,9.53992341550248,1.2013003652757,1.22585318755398,9.1943532356896,6.78245324671419,2.1470289456922,9.49357969260084,2.27902303898129,8.50999139905574,0.100637245502222,0.135274394428591
4.81191259394352,2.21573042441185,9.53793942703463,1.20368662699194,1.22506845872861,9.19221129024914,6.78228706230083,2.14702273903733,9.49259274111522,2.27863998587322,8.51207736091217,0.100291440589833,0.135438938773607
4.81191156267683,2.21573316740552,9.53794440723807,1.20369695690389,1.22505909705462,9.19222820656682,6.78229676536944,2.14702300870188,9.49259223348254,2.27863532087651,8.51209993238117,0.100273866551997,0.135429681224825
4.81193825303973,2.21573936939344,9.53801829202666,1.20364249773537,1.22506074624663,9.19234902388728,6.78233331494801,2.14702487561199,9.49263385602708,2.27860669857021,8.51211616730644,0.100208072309117,0.135406736479217
4.81185002431035,2.21568454198256,9.53765525760459,1.2039738189723,1.22501740142799,9.19189284851301,6.78224438688764,2.14702244868575,9.49249052317808,2.27854843154644,8.51230900841941,0.100265715411535,0.135500537242426
4.81287991089581,2.21587921764338,9.53935641863934,1.20128348790859,1.22666793201665,9.19397773512222,6.78241833856284,2.14702649556719,9.49417604369437,2.2774951442301,8.51032644051688,0.100048582074762,0.135940962308506
4.81191126219916,2.21573014934563,9.53793612698616,1.20369192000162,1.22506582630758,9.19220825637575,6.78228751649971,2.14702259251668,9.49259033938731,2.27863937672791,8.51208307170845,0.100289485228826,0.135438422845324
4.81190673254896,2.21573143672143,9.53793108662228,1.20371273207823,1.22505338926196,9.19221220270255,6.78229463938479,2.14702291174645,9.49258434306916,2.27863592412923,8.51211124303462,0.100274689022622,0.135430550683071
4.81193366129213,2.21573513089831,9.5379965246612,1.20366668874332,1.22505561918074,9.19232778205798,6.78233147267032,2.14702571694296,9.49262726633146,2.27859755285654,8.51213879898105,0.100202363371774,0.135410241729499
4.81184667508272,2.21568212984079,9.53764019719127,1.20398917403347,1.22501455890421,9.19187602704171,6.78224220081869,2.14702241916014,9.49248502931278,2.2785435727574,8.51232152155024,0.100264201542351,0.135503722631006
4.81286501989693,2.21586981232924,9.53929404594895,1.20135257604107,1.22665134958784,9.19391117038877,6.78241251816104,2.14702623238404,9.49415124173743,2.27747398838989,8.51038795023574,0.100035990751315,0.135951006574384
4.81189765052208,2.21572829295865,9.53791834968282,1.20372325074107,1.22504349475445,9.19218490896655,6.78228522120684,2.14702267504985,9.49256827434827,2.27865830430608,8.51210403584759,0.100295261960498,0.13543076359015
4.81190080219711,2.21573062648061,9.53792282404116,1.20372728221026,1.22504339677526,9.19220191345276,6.78229399648606,2.14702287432427,9.4925746208319,2.27864320056743,8.51212195962259,0.100276072384294,0.135427217797372
4.81194075274573,2.21574040609688,9.53802561955128,1.20363297795602,1.22506449384169,9.19235675447877,6.78233369663589,2.14702489847513,9.49263800747581,2.27860764311149,8.51210753294469,0.100209712437827,0.135406632213149
4.81184748108231,2.21568285682077,9.53764460219375,1.20398495186629,1.22501502735342,9.19188091132299,6.78224286980832,2.14702242872402,9.49248635325833,2.2785454071856,8.51231804380185,0.100264723822369,0.135502570910976
4.8128836067763,2.2158826462106,9.53937450911348,1.20126701341323,1.22666994935479,9.19399896413389,6.78242211036513,2.14702638438477,9.49418200636855,2.27749952350492,8.51031509407285,0.100047645969802,0.135936228039634
4.81188834823066,2.21571487315587,9.53783708431862,1.20380080586679,1.22504111678318,9.1921033595078,6.78227812761234,2.14702261065361,9.49255273425137,2.27860378674621,8.51218026989725,0.100269056428699,0.135455106349112
4.81191528318655,2.21573258161776,9.5379426935214,1.20369204609931,1.22506783251734,9.19222676536611,6.78229558426005,2.1470229443246,9.49259833678499,2.2786250722636,8.51209616561674,0.10027247266255,0.135435475018006
4.8119086579606,2.21573526441301,9.53797701755573,1.20371501818649,1.22501086653302,9.19229751426405,6.7823300233583,2.14702467993021,9.49258529301345,2.27864308086916,8.51216952536755,0.100215069528779,0.135390167016331
4.81187086952281,2.21569885061227,9.537744746794,1.20388174060094,1.22503580250346,9.19199350032619,6.78225771562338,2.14702255952497,9.49252460199095,2.27857442685009,8.51223511880007,0.100273098851609,0.13548252192143
4.81297820013624,2.21592703937086,9.53967032187774,1.20091353175107,1.22679304356101,9.19432844703435,6.78245445020181,2.14702701524215,9.49433784761734,2.27753230495225,8.51002093986024,0.100078532001643,0.135914111117289
4.81194154019267,2.21573431315994,9.53797884184675,1.20361695278174,1.22511704649725,9.1922611809227,6.78229058502136,2.1470228919854,9.49264016972738,2.27860300145482,8.51202716723388,0.100283262207551,0.13545532464768
4.81189973469253,2.21572963411162,9.53791381489821,1.20373678571428,1.22504238161134,9.1921931994548,6.78229405481096,2.14702246619924,9.49257223624988,2.27863624966461,8.51213253672855,0.100271358385376,0.135429586867991
4.81194515594504,2.21574018005367,9.5380269378848,1.20362530669949,1.22507344165377,9.19235909186143,6.78233318945007,2.14702490888392,9.49264524592298,2.27859811314607,8.51210211522045,0.100207947791765,0.135411581972811
4.81190862202448,2.21570997360697,9.53782842643702,1.20376827853859,1.22509067790336,9.19209232295464,6.78226768241705,2.14702272365905,9.49258639057113,2.27855439235944,8.51214876771992,0.10027017731348,0.135488366517493
4.81330785580965,2.21609067379074,9.54083840195568,1.19951553693391,1.22721891506328,9.19556364377466,6.78253743588521,2.14702995082115,9.49488283235269,2.27783785920451,8.50876610162443,0.100331396046537,0.135800081473424
4.81188959320678,2.21572141302481,9.53787507054712,1.20377025788514,1.22503511240093,9.19214185695629,6.78228254017722,2.14702279780068,9.49255513763794,2.27863576165719,8.51214994449917,0.100281121626234,0.135439330329682
4.81192113484298,2.2157333883312,9.53795019640504,1.20367835257056,1.22507771993192,9.19223632227388,6.78229630838948,2.14702289037385,9.49260779910217,2.27861704606446,8.51208651425533,0.100270504594513,0.135439014443296
4.81196747144068,2.21574375041477,9.53806011134784,1.2035686680117,1.22511091910291,9.19239951362616,6.78233565632969,2.14702496315444,9.49268179760255,2.27857281187996,8.51205941602774,0.100204007231206,0.135423386530185
4.81222995640453,2.21582614123731,9.53868589325918,1.20260896662515,1.22557872474829,9.19300130283998,6.7823082991594,2.1470209565341,9.49311247228744,2.27858671440705,8.51112456115667,0.10043068685429,0.135513382399041
4.81150202737811,2.21553272485288,9.53653916077277,1.20537375991873,1.22453155998858,9.19071922826738,6.7821799468071,2.1470188988382,9.49191670780393,2.27831720672322,8.51357627982064,0.100010884847796,0.135561772666952
4.81203047043407,2.21574712099468,9.53810411727898,1.20340006432864,1.22526501432608,9.19241880862477,6.78230225977676,2.14702320669255,9.49278566637603,2.27849291255281,8.51187065440529,0.100258770142004,0.135503619550992
4.8118884410529,2.21573327151975,9.53792670301455,1.20374610268493,1.2250161433383,9.19220576788699,6.7822981174923,2.14702348911773,9.49255535859485,2.27867314471974,8.51213656294842,0.100279445577506,0.135408760518247
4.81203398637548,2.21576908228616,9.53820629786592,1.20334420251089,1.22522115358454,9.19253958939776,6.78233877337317,2.14701551151573,9.49277929124717,2.27856101515602,8.51185584651438,0.100238236478666,0.135447815726769
4.81201454117277,2.21573543117562,9.53803198398695,1.20347239806294,1.22525239272305,9.19233740334407,6.78229094119718,2.14702313941653,9.49275968185997,2.27847029446092,8.51192812261328,0.100253327999249,0.135519513009438
4.8157273777705,2.21742933896037,9.55004389731188,1.18887528308636,1.23015542878411,9.20533941675797,6.78330022755966,2.14704862136579,9.49888030398722,2.28057608267411,8.49926313844147,0.102249505687248,0.134632921695138
4.81195678227907,2.21574282091614,9.5380370576376,1.20354956284127,1.22513576912498,9.19232281105779,6.78229524182526,2.14702308429414,9.4926654132971,2.27862067248355,8.5119664929492,0.100295948391135,0.135447985275559
4.81197112138304,2.21578185974318,9.53823763133181,1.20339657756317,1.22511067740455,9.19254414850651,6.78233285220333,2.14702268697001,9.49268970428129,2.27874995440254,8.5118397748863,0.100322748525765,0.13536619740593
4.81203163572615,2.2157665638521,9.5382196901099,1.20335446053447,1.22520811503593,9.19257693311266,6.78234818487947,2.14702537306983,9.49278792125002,2.2785601450994,8.5118794753742,0.100220077655297,0.135430085281357
4.8119999547219,2.21575453029796,9.53812872246022,1.20341872509288,1.22520232980897,9.1924281510492,6.78230295789434,2.14702329892499,9.49273634544765,2.27859737520163,8.51186182199576,0.100298243188898,0.135458545838195
4.81590690644678,2.21729060224872,9.54868954204069,1.18940967348534,1.23107976325321,9.20373330755543,6.78296250186856,2.14698700609939,9.49912166395977,2.27891329558181,8.49961579407552,0.102047189507664,0.135638295588156
4.81150562132725,2.21551480659498,9.53647124887348,1.20540036201407,1.22456037481474,9.19063522250614,6.78215756226265,2.14701836524968,9.49192023483622,2.27826722868473,8.51358852000861,0.100015308739438,0.135604728720405
4.81165313058291,2.21560727544172,9.53707240307791,1.20474996525985,1.22471823295387,9.19129795460827,6.78222932247075,2.14702201233288,9.49216705515543,2.27845060477702,8.51303042931964,0.100107524091532,0.135501824599239
4.81205247823493,2.21576842976543,9.53824585182757,1.20328492198522,1.225246162913,9.19258683932484,6.78233964801287,2.14701722360819,9.49281008832376,2.27855620998442,8.51181004526688,0.100239713785612,0.135451980340678
4.81234104625365,2.21598677280996,9.53927882848101,1.20200853764615,1.22571257951625,9.19360354082645,6.78238310092449,2.14700546375793,9.49325177406027,2.2788496144303,8.51053065627318,0.100583048876492,0.135404289052666
4.81306310774784,2.21612554462427,9.54012224082151,1.20015370513479,1.22716460827645,9.19437722586295,6.78233357327328,2.14693502609956,9.49437780451711,2.27789987166625,8.50885711800914,0.10071707988978,0.135972114921707
4.81985107625911,2.22162649467869,9.53354573116332,1.20127134552105,1.24157162368686,9.19107231803592,6.77924638121357,2.14975286218095,9.48520184695865,2.28571100203729,8.49415204669653,0.114379164412657,0.145428837601652
4.52825130702119,2.88254628811214,9.35540756941875,1.82671150592344,1.41656751799402,8.86176733158594,6.84990076858147,2.14216491014085,8.8983683250236,2.67692345986578,7.99711254064241,0.695536445663814,0.201043764643902
4.81587377984929,2.21988600736617,9.54423331921535,1.1901745028246,1.23606685479368,9.20049190362835,6.78017491383176,2.14589568669708,9.49980077685095,2.28134199654202,8.49752876680019,0.105848140431696,0.13863944509325
4.82717077906587,2.22483429529207,9.54835601991001,1.17368654892122,1.24965401610166,9.19897460509048,6.78180413720104,2.14951178279082,9.48956815766029,2.28312034188564,8.46992678820995,0.121248858817759,0.150889446958557
4.80998945744991,2.2247720004248,9.53909000243869,1.20844357417666,1.23528766919638,9.19097261781858,6.78560916499558,2.14451950437679,9.48615217051868,2.28422451137687,8.49036844792518,0.115860459391958,0.137880729445909
