"fastcoef_sq","pref_flow_den","slowcoef_sq","soil_moist_max","soil2gw_max","fastcoef_lin","gwflow_coef","jh_coef","slowcoef_lin","sat_threshold","carea_max","smidx_coef","smidx_exp"
4.77251428990958,2.42103189164991,9.60541591637955,1.0874781928538,1.37492576690772,9.07288325714254,6.74275260399387,2.08642906685178,9.38295985254906,2.44908291996855,8.09875586174659,0.416814094339172,0.173773883905927
4.75630905292383,2.36253654704264,9.67297911711124,1.01574482038157,1.31682440453739,9.08646175684476,6.71738306851861,2.04685491412025,9.44714222474771,2.51204751677484,8.08620027688716,0.455100088438048,0.109121531716803
4.78435269358051,2.25615875200656,9.67584373046903,0.960154499832145,1.27836352032378,9.09669388622304,6.69586409533661,2.07638034228014,9.48373446106359,2.51499709565698,8.11842907709613,0.405339951400466,0.126296185397663
4.82122303228476,2.44853109389337,9.63856826071857,1.04156684392052,1.47787121016,9.05794247414976,6.79239502902178,2.02515501767069,9.48145268698381,2.27648544647298,8.07896890396509,0.383140669561327,0.180125357704945
4.78758735039479,2.36858268933726,9.62052291298632,1.00941202193118,1.39100262565929,9.03970108054629,6.66973328540709,2.09216837555268,9.39862894989241,2.50635427948654,7.96982964870169,0.514032962141586,0.201468105405238
4.7459506995528,2.45174132763095,9.5874398734781,1.11202131228328,1.37089499401336,8.99682884633599,6.71325518089733,2.10569976574326,9.29390084618055,2.59082407159533,7.98358790104586,0.541502098462495,0.174203111975931
4.74429913758528,2.54672880512015,9.59178432605681,1.15483342657188,1.44893899385633,9.00775150245055,6.76669004343302,2.06644934344837,9.31089038800713,2.46746067175511,7.99962667265974,0.51525016343593,0.181448651228056
4.7514863662539,2.41244359381429,9.65233715927763,1.01901842749882,1.36137783083019,9.03005534283049,6.70017807060572,2.05485786960317,9.39098652511595,2.55008067928856,7.98983438146216,0.529359082821153,0.145082957243065
4.70991478778536,2.47135045459026,9.63512736969846,1.05579473153056,1.37330825444054,8.99831801565122,6.64506914636524,2.07757633950046,9.29221882992146,2.68804221023929,7.85100304231441,0.680849059767081,0.160835873184526
4.73729047421083,2.41364277606178,9.6718651980901,1.00307230394298,1.3648017205524,9.02696973071028,6.68598472501727,2.03457083273092,9.40705622311611,2.57026242540968,7.95322035933961,0.573834646732582,0.132544516852952
4.73301070527391,2.43448039610534,9.65104881451347,1.04031703213198,1.35629852546675,9.02332493415789,6.70383486941372,2.05195190991575,9.37137511863078,2.57803112479809,7.98333522596695,0.552245677939706,0.133222325097196
4.71365671446392,2.4951846040801,9.64258462022122,1.03916964709975,1.41571758942088,8.93568301526599,6.6421245236243,2.07190091351069,9.27939300067874,2.70947608601929,7.76533284088873,0.750486464864086,0.179383175969163
4.62547626828116,2.66540477870798,9.60027802259785,1.15860336237657,1.52019020136224,8.84301192746351,6.53220919970955,2.11423559451328,9.10619256062298,2.92614906028638,7.45399748261665,1.11847483109871,0.231652423351764
4.67504714592204,2.66515432216344,9.61970444430476,1.14152884029373,1.48761486016861,8.8959487386659,6.73118918746378,2.02895466971418,9.2110041076432,2.65912948094771,7.7724881457376,0.756497307573706,0.162159669516035
4.72451248389469,2.809986555513,9.50393221885117,1.32800670232196,1.62020667549919,8.92802072977584,6.84975707510054,2.06509303496661,9.15168389325499,2.38640678018038,7.91251328443894,0.576506264295364,0.248761152530081
4.69166473830242,2.63917701017367,9.62599402979931,1.10368560559597,1.51087135779304,8.91791792946374,6.69248227547073,2.03147919853046,9.24891937968713,2.62411955509938,7.7420221233299,0.769292762599627,0.192148299012906
4.75569825351094,2.64543356274524,9.60839016402085,1.04385708909884,1.60641451095899,8.89182733576547,6.72742970064778,2.01547972120759,9.30619582414377,2.46465111960989,7.72340502818403,0.697313234872818,0.239114234203536
4.70064202214101,2.43562602578221,9.64176811216178,0.95849187378214,1.3763817831807,8.88497805908554,6.5698849816694,2.07364721016612,9.3063333415175,2.78634095641725,7.71561439719289,0.810146884522058,0.192841994402324
4.78270632912578,2.65063400901654,9.63722349741288,1.016041464747,1.53439369405807,8.86201878693139,6.87106098993453,1.95555819357855,9.28523573750148,2.41245760873692,7.9064122260525,0.486694058575702,0.165207836191549
4.61121581923531,2.8027051069818,9.51136357533272,1.33565639137435,1.50373786935896,8.93015655828072,6.6676267188441,2.10254228027306,9.03068497307153,2.75374420016247,7.70887948055601,0.870421570510381,0.212337761682872
4.61138379610491,3.1185358661918,9.43536575489521,1.35350716059333,1.93164323936305,8.54948666699609,6.59346979371221,2.11439231601618,8.79338941189841,2.86102075411997,7.00204025929153,1.42535992760781,0.454557457410611
4.69902711642046,2.68235985502109,9.55854902703661,1.14655029541733,1.60476322973609,8.81879284036915,6.6372716187359,2.09128546383465,9.14220295688942,2.6950927244548,7.54805208477819,0.925730247542909,0.291027132717065
4.6092815064156,3.10087633156926,9.5060660500222,1.39465557032395,1.76058923274428,8.8117852168216,6.77627302780118,2.01846159984129,8.97550346512727,2.59724877455203,7.55583091559226,0.965508839596364,0.269145171023089
4.5786401981345,3.10055959048929,9.47841726424379,1.42854903493656,1.7150293018443,8.68866141948428,6.79485032204362,2.03629664887744,8.86520122912018,2.7505720339962,7.47944556952529,1.03961748440436,0.252036900427556
4.56936716673824,3.08390591971591,9.56204866526796,1.32154445165258,1.71223855111604,8.67746768563499,6.7718450407811,1.98226503394647,8.93111818590971,2.80354496502389,7.40787025632303,1.11772270493622,0.20564093682158
4.77877986011564,3.24801402674638,9.23543542314694,1.50309476656563,2.06465111373685,8.52384047664789,6.61160979994344,2.14359321675076,8.71819175919789,2.69729254026383,7.13099600139007,1.15269426508721,0.497212133647419
7.51087569083523,4.6807847123863,4.22166186279222,4.72448756971039,7.33530988191998,5.6943820524068,5.20460687888185,3.7362433810882,3.70996247859851,6.08557274380765,3.72175570875331,6.50668351230603,4.70295122978764
