"fastcoef_sq","pref_flow_den","slowcoef_sq","soil_moist_max","soil2gw_max","fastcoef_lin","gwflow_coef","jh_coef","slowcoef_lin","sat_threshold","carea_max","smidx_coef","smidx_exp"
4.611859165989,3.38716046728783,9.17665070065693,2.14837436595374,1.70833496187686,9.12527011654492,7.12051215806974,2.14622080251938,8.76743060738072,2.17591152132397,8.35114643611895,0.347105290963856,0.236576744525684
4.61184554589791,3.38749351493676,9.17666361519608,2.14851062830558,1.70804574660628,9.12536978187197,7.12113778941292,2.14592791252354,8.76728481441411,2.17555383511047,8.35211927137436,0.34609266070691,0.236200423023588
4.61185088602117,3.38749375811732,9.17666302140261,2.14851533553147,1.70805500411537,9.12536718866576,7.12114228304511,2.14592967782807,8.76728512203816,2.17555640735272,8.35211546917099,0.346088889866834,0.236197201170138
4.61184644225687,3.38749547985529,9.17666621038277,2.14850345768901,1.70805372606958,9.1253701374196,7.12114061891373,2.14592640293152,8.76728538135665,2.17556211449165,8.3521127307246,0.346082783619986,0.236185494624347
4.61184171388765,3.38766229540729,9.17667436744359,2.14856940011951,1.70791251046683,9.12541785577809,7.12145721114781,2.14578119006585,8.76720803025093,2.1753871232213,8.35260205910056,0.345566446812583,0.235985327800416
4.61176779822783,3.38771686087848,9.17656048275234,2.14871501724375,1.70826385373965,9.12495272454413,7.12111151842632,2.14610237038218,8.76699969065192,2.17590936249626,8.35168697298205,0.346462559786711,0.236178660228229
4.6115753339807,3.38822145230525,9.17658183745792,2.14908893483531,1.70779978524046,9.12513266127905,7.1217450325504,2.14562939984814,8.76669141324542,2.17564300164322,8.35260808380092,0.345631295965523,0.235802881636741
4.61180434818273,3.38882364820376,9.17670212923886,2.14905899779996,1.70694111513855,9.12575785617525,7.12366076811026,2.14475852589136,8.76669989886207,2.17414621424572,8.35597326919593,0.342030648470874,0.234675123068095
4.61180654563372,3.38901345299556,9.17633951149751,2.14935139575487,1.70740704991146,9.12490354563729,7.12325713435212,2.14519888325888,8.76588929176862,2.17499351439261,8.35456643808825,0.343308298129671,0.235161107887201
4.60966381135849,3.39363911848937,9.17600347606612,2.15330607813322,1.7057427763154,9.12357924013217,7.12659487845638,2.14325211265064,8.76241397335583,2.17585207634821,8.35701716198722,0.341467846864472,0.232753223962301
4.61185320155907,3.39236189565869,9.17652261780436,2.15081482519614,1.70405046809377,9.12660250409153,7.1307914781356,2.14161874637419,8.7648826501646,2.17027483511259,8.36659531668696,0.330887077663421,0.230642265406115
4.61254102924612,3.37209912940333,9.17625961170268,2.14244558861302,1.72052492013137,9.12097594119241,7.09314168502658,2.15913516382638,8.77365937272309,2.1910588591465,8.30902054714492,0.392070749403165,0.253496116202292
4.64734561280033,3.388085856518,9.14010509055638,2.13966826085772,1.74119846151433,9.06659459830229,7.11851957946799,2.17981655897658,8.70918894848525,2.20246880879456,8.29345833743857,0.369201304385816,0.277929847989365
4.64832482583193,3.39419750657034,9.13998774752939,2.14233268842083,1.73421785751985,9.06791385026509,7.13310817389003,2.1733294866294,8.70481180207531,2.19547094471528,8.31375127773489,0.345556044178629,0.270665304131679
4.61647499966427,3.38853314206261,9.17209207629321,2.14776543235005,1.71117987021561,9.11822759874598,7.12303109876716,2.14918802133466,8.75934947262952,2.17788354754532,8.34783291971808,0.34531743773383,0.240196596626346
4.61630262286249,3.38927235626358,9.17213427487508,2.14807999094616,1.71059613330605,9.11850044055921,7.12427980529799,2.14856445269887,8.75915488552307,2.17708253005204,8.34991712752338,0.343364453297407,0.239431175619625
4.61337670144705,3.40459608167582,9.13715936826157,2.16347891477611,1.7297506607687,9.10501914866362,7.10261077488325,2.16473012133148,8.72334462849549,2.1788079368871,8.29540015867354,0.37748561498166,0.27246036948027
4.55978426666003,3.45098319550163,9.19251752699663,2.21975414361959,1.95496827731326,9.06112647300552,7.01304012352892,2.32415219230007,8.64603504441495,2.2491866821159,8.16307445763092,0.489870155666587,0.129207370785472
4.54070481166536,3.38225776664643,8.97692920255099,2.18619605479225,1.72596772009426,8.94787570737556,6.97866096663777,2.16296497562305,8.55993331347013,2.18137595827083,8.12631417676941,0.461548000470792,0.337388595213592
4.60534088710675,3.44434633336431,9.09409444041604,2.20361257023173,1.78742257747328,9.08430337939935,7.10025289845211,2.18274466694871,8.66274669775498,2.18518545200311,8.24830946962129,0.400175923085019,0.287764358369551
4.6294330102498,3.46029701993149,9.10524115249504,2.21800228729272,1.776775189889,9.00027073533844,7.1502236425703,2.19665708611085,8.63225989468139,2.21750996144853,8.2820130085943,0.373960300206266,0.275096277468769
4.08166679353268,4.22518685996568,8.97366049938482,3.09146909457383,1.73677313499677,8.44535729689372,7.14176657884477,2.1073276399529,7.83339738133888,3.02087569618284,7.49312402203026,1.39689565954812,0.204276743707639
4.55076595472736,3.41912003950398,8.15608202222438,3.13550600950547,3.68266303640224,7.94764898172956,6.29187004652395,3.61474803481816,8.81384754620825,2.14443348037583,6.98686424910673,1.35148294727066,1.10245605566661
4.63341418058609,3.06117874637484,9.08779750286098,2.12100627960944,2.04839932716143,8.8905185204373,6.54168801030604,2.45895388657689,8.74839465039431,2.54439544652102,7.47166060400015,1.23857507550144,0.565049585803599
4.54172030991051,3.53747837692243,8.51046726146233,2.39417495483234,2.0900944443446,8.54214669781716,7.00352428511209,2.6422506684949,8.17973618381033,2.19866427636167,7.67309530860119,1.10000196284343,0.662167683484357
5.28700862451996,5.75479155217776,0.249294132608223,8.64414546265932,8.45903751553974,8.04357008352739,7.12465686873645,2.37948812312055,7.68865237785076,7.68214839748648,3.82188185062304,8.48340000186776,3.96650545780894
6.48212444190325,3.57744920746738,6.38486344597354,2.16243562408973,3.49008741866709,5.44451737046437,6.89113146913158,2.86796979723115,5.18339847745441,2.86114603807949,6.36662127347619,3.20830144760837,3.41730038318182
