"fastcoef_sq","pref_flow_den","slowcoef_sq","soil_moist_max","soil2gw_max","fastcoef_lin","gwflow_coef","jh_coef","slowcoef_lin","sat_threshold","carea_max","smidx_coef","smidx_exp"
4.55458286893872,3.42492353917202,9.199795571967,2.14041824088556,1.6787272723671,9.14492868878442,7.18227007812879,2.12781317363925,8.76243517563394,2.12601950649844,8.45674489933821,0.266447202574758,0.208303992655752
4.56888709260923,3.42938158283744,9.19648780533628,2.13629341770973,1.6773224863645,9.15771362211798,7.15612676183013,2.10275740293469,8.74478340054241,2.1446070293543,8.45635652782571,0.258767123999751,0.201904996324768
9.39175576000909,3.06903413100992,4.42358393425602,0.883652057165092,6.02076681695472,1.38876410481359,6.57912885972468,6.64681426366688,1.19743496420621,5.97957903928173,0.119454450284783,3.62173544018176,5.93343979030988
9.34223416297861,3.14679055348682,4.45098258334031,0.9152534912251,6.04534497915643,1.43820568330114,6.54199620215147,6.64232234385365,1.236250692391,5.90116290203847,0.198363262357212,3.65063561239694,5.8837698059661
9.31699723478509,3.19219979059966,4.34885904876348,0.906040598059729,6.12124248732722,1.38436621392639,6.55663105312311,6.64547996123598,1.29054742372296,5.8903258349026,0.183263960242671,3.60939420408485,5.77878882590992
9.26567766017473,3.20168183277423,4.46158971626275,0.92964099248763,6.04664694467558,1.48145156261559,6.55417717676361,6.63591871286232,1.28898615174317,5.85626159385677,0.282455225520858,3.66381990934725,5.8349604833886
4.74447242250938,0.638787664252044,9.06801580651235,1.07615550601287,4.00467945511699,8.39800672458678,2.07508468243034,4.48230263496129,9.93758429212953,4.97107300414409,0.563407308277695,8.53768788430001,3.23878435786143
4.72936653522389,0.659317452178986,9.04209349634485,1.10500592257639,4.00782629638174,8.26435712022548,2.1352625364751,4.49275188647887,9.86057389797455,5.04127240410286,0.640710583411082,8.45998573776578,3.27732619711356
4.74298731072791,0.695600802041697,9.07874233996584,1.11516843750809,4.01421827992882,8.25644366213975,2.10656411528749,4.50983826145578,9.84291921362182,4.95221115263717,0.590082823828886,8.46258997566971,3.27271097953635
4.66988214792167,3.38954311250655,9.09466788325894,2.30445257588815,1.69129636711398,9.08439872712163,7.2390670552376,2.1544770079846,8.71879034732557,2.07628822281082,8.49171775900374,0.299839152446614,0.323907829407799
9.17469097141915,3.32521628392076,4.50466709244155,0.965810633456135,6.06934028933713,1.56067630754956,6.51767794563008,6.61261105333443,1.37539965551852,5.75398210516203,0.437500955305507,3.71734726009719,5.74267303956421
4.85223974358171,0.778360191083503,8.87459802158868,1.15694042759315,3.91209457711469,8.00653527891625,2.19340323891172,4.40301584189295,9.77207076231818,5.24612711922278,1.00999677394111,8.66497538276342,3.43047125934532
4.86435074241956,0.828612850976856,8.80202537487877,1.28086006980292,3.89438600871375,7.99482232173352,2.13300560550447,4.74054990200236,9.695013630239,5.08032940182512,0.695605806279206,8.28621561680519,3.17905395852923
4.76948567757313,2.37933375362026,9.4901883724199,0.297761223872991,4.55479513886467,2.95640462971503,6.59887690393898,3.2475809418123,5.93028312432773,3.41393864668722,1.04611434263915,2.20140250544419,4.5404152195193
0.380218886394957,9.8385356926557,7.55267228399108,9.61094801203926,2.15652296659026,3.60873436048777,6.80816983893703,2.06391028666926,1.40187208965674,9.22072520733859,0.716222771049754,9.54838827270597,0.273666998049403
0.38035459615645,9.83851103475537,7.55254442162121,9.61148500464213,2.15644696482427,3.60895994237327,6.8081892843152,2.06381597193745,1.40237284950352,9.22027702001441,0.715892040191898,9.54897540871084,0.273621559912145
0.384220108796091,9.83716072568654,7.55028702621013,9.60807290726374,2.15765566983393,3.60904249143703,6.80836866999329,2.0670972800355,1.40564634875808,9.21804559865197,0.717226549537567,9.54537953388577,0.274227603579896
0.407189708183892,9.82551103947802,7.53196735944557,9.5721420374945,2.17121965081585,3.59630632915177,6.79719196969032,2.09780320683816,1.42895504723587,9.1970005390441,0.719192545762763,9.51303188939169,0.297063057842977
0.504244971615992,9.18574856335553,7.03782283427474,9.40719875684481,2.35773189981547,3.27463180069423,6.71097204194511,2.84124787347441,1.92441547358226,8.60029258630607,0.546562511834034,9.15367336057127,0.306797048950562
5.42771536813869,6.59791413436607,3.08259390863516,4.64227126284435,6.79516092565415,5.42632041172697,5.09962691921611,5.16405421653978,4.78327262009813,2.11890869327426,0.127181634867048,5.24628164394698,4.48384210480403
7.10952091246359,9.65120558932199,5.29254224987093,5.96657132179739,6.34270623747571,5.66166432542224,7.28802102735114,2.89527254865492,4.07917737354792,2.95204554908526,0.8130674253005,6.03076686958702,3.31148832726376
6.14632264472411,6.26228289822858,3.60806913472563,4.48766519485512,5.39722836367332,5.95425378823085,2.18505918941239,5.97553986237889,3.03344857381075,3.36870451342777,1.24276780676832,4.74963831729302,5.43935471312835
3.18444798839802,4.56817785338673,7.9638366372487,3.40847774331875,3.5235791981459,5.30374067211047,6.06927599872601,4.70128359312952,6.4473913798643,6.62713311370616,3.51148077809179,6.65277921555021,0.694019215196747
3.85445222313133,2.78279367783133,5.7538630093926,4.80252477704572,5.29953055917545,4.49475863501272,3.45871102996902,6.45075220983241,4.14839704398004,5.40196527510413,1.57121735600411,8.72232951093574,7.21950674943332
3.57669871323545,2.97966370427132,8.79496164594869,4.2426341507234,3.5997618878657,8.80886589255649,4.79201442198959,7.10499209432639,6.53575977443616,5.31260660359952,3.2178420463287,5.95625748034055,2.36935608064502
0.591206229347137,8.66268701408534,7.45913831321639,8.81447775424384,2.91308044633655,3.72897061575834,6.62509439632676,2.28879323180545,1.95680230445177,9.15401805756905,1.19439282911192,8.93616689190787,0.963253438489006
0.709191670535056,9.42101548179959,7.09536603158973,9.32498259299025,2.53601631030699,3.71692668006844,6.65043337506461,2.10190460912999,1.85759512725991,9.20072762770288,1.15325270160456,9.19687125419149,0.712968379474305
