"fastcoef_sq","pref_flow_den","slowcoef_sq","soil_moist_max","soil2gw_max","fastcoef_lin","gwflow_coef","jh_coef","slowcoef_lin","sat_threshold","carea_max","smidx_coef","smidx_exp"
4.81191193733148,2.2157300698906,9.53793725613828,1.20368905275372,1.22506777255144,9.19220881718372,6.78228670513937,2.14702278777103,9.49259173861937,2.2786397620453,8.51207915588586,0.100291470944387,0.135439200732288
4.81191193732979,2.21573006989134,9.53793725614149,1.20368905275423,1.22506777254702,9.19220881718694,6.78228670514025,2.14702278777112,9.49259173861672,2.27863976205216,8.51207915588572,0.100291470945877,0.135439200728504
4.81191193711662,2.21573007022045,9.53793725657934,1.20368905411314,1.2250677713953,9.19220881889989,6.78228670619858,2.14702278779064,9.49259173841078,2.27863976166871,8.51207915848098,0.100291469079656,0.135439199653597
4.81191193860797,2.21573007025999,9.53793725920364,1.20368904854944,1.2250677744358,9.19220882060989,6.78228670536598,2.14702278777515,9.4925917407121,2.27863976179303,8.51207915240708,0.100291471229406,0.135439200897964
4.81191193717981,2.21573007028799,9.53793725697888,1.20368905374914,1.22506777141484,9.19220881934404,6.78228670626361,2.14702278779161,9.49259173851467,2.27863976185519,8.51207915818374,0.100291469125403,0.135439199534914
4.8119119407541,2.21573007147103,9.53793726734467,1.20368903920945,1.22506777703192,9.19220882931931,6.78228670609412,2.14702278779899,9.49259174426675,2.27863976410884,8.51207914413198,0.100291472814985,0.135439199845468
4.81191194646738,2.21573007625985,9.53793729331778,1.20368901607698,1.22506778078636,9.19220886170206,6.78228671209967,2.14702278796731,9.49259175430523,2.27863976969336,8.51207912858756,0.100291470915165,0.135439192841848
4.81191162252633,2.21572996256303,9.53793636089007,1.20369028446261,1.225067290898,9.19220792287724,6.78228669659874,2.14702278765709,9.4925912297113,2.27863961653872,8.51208030643944,0.10029121033222,0.135439180767531
4.81191196928365,2.21573007514794,9.53793731699496,1.20368897731729,1.22506780912013,9.19220890477855,6.78228672189227,2.14702278897535,9.49259179091574,2.27863972710945,8.5120791215872,0.100291441434549,0.135439202653705
4.81191195694068,2.21573007414037,9.53793729808804,1.20368900092139,1.22506779569548,9.19220887346159,6.78228671447076,2.1470227883961,9.49259177075469,2.27863974642212,8.51207912650558,0.100291458075909,0.135439200936651
4.81191167379107,2.21572973844856,9.53793518023968,1.20369105905626,1.22506767949982,9.19220671214904,6.78228651589264,2.14702278573527,9.49259130110054,2.27863843542694,8.51208108779479,0.10029084454357,0.135439801120663
4.81191198932577,2.21573007715387,9.5379373455994,1.20368891814514,1.22506784911762,9.19220893184137,6.78228671702576,2.14702278914598,9.49259182415999,2.27863971236233,8.51207906370236,0.100291453808342,0.135439218054585
4.81191198769863,2.21573009565462,9.53793743023065,1.20368885068171,1.22506783507018,9.19220900904959,6.78228672324284,2.14702278841625,9.49259182238165,2.27863979743847,8.5120789832994,0.100291495977729,0.135439181660492
4.81191264064733,2.21573063094272,9.53794043196169,1.20368604056824,1.22506814716033,9.19221250870705,6.78228737377739,2.14702271889306,9.4925927840767,2.27864057190468,8.51207710430919,0.1002913036324,0.13543842531325
4.81191209401876,2.21573020026708,9.53793798055893,1.20368838174862,1.22506784183861,9.19220966620207,6.78228686709425,2.147022770207,9.49259196803955,2.27863994624602,8.51207871629092,0.100291414678001,0.135439014349169
4.81191361657004,2.21573126420076,9.53794396213654,1.20368241370833,1.22506897110287,9.19221664907967,6.78228810581219,2.1470226244639,9.49259424412915,2.27864096114755,8.51207466304311,0.100290983716122,0.135437810155211
4.81188674622377,2.2157177349099,9.53784764570553,1.20379632840451,1.22503468997521,9.19211385478596,6.78228076887683,2.14702200425232,9.49254940135547,2.27861588682229,8.51217638114094,0.100271042977933,0.135447995855061
4.81191325077042,2.21573077860326,9.53794159748992,1.20368419987075,1.22506914606193,9.19221376159839,6.78228741840309,2.14702269028403,9.49259374381966,2.27864021007773,8.51207556334336,0.10029141210001,0.135438677893617
4.81191452594677,2.21573218410798,9.53794904705155,1.2036780550385,1.22506899552043,9.19222263154784,6.78228931993205,2.14702250546516,9.49259554113504,2.2786426855988,8.51207191837692,0.100290572535137,0.135436223352808
4.81188336392754,2.21572651569685,9.53789944278631,1.20375744736901,1.2250192181136,9.19216099903321,6.78228373621511,2.14702256230906,9.49254481028575,2.27867684694345,8.51212891321419,0.100299054841339,0.135422327526702
4.8118647593447,2.2156996760913,9.53773691205789,1.20391255762044,1.22501446217105,9.19199790011572,6.7822695490261,2.14702243351658,9.49251373009195,2.27856781182372,8.51228138131351,0.100246643777742,0.135471013044626
4.81194154019267,2.21573431315994,9.53797884184675,1.20361695278174,1.22511704649725,9.1922611809227,6.78229058502136,2.1470228919854,9.49264016972738,2.27860300145482,8.51202716723388,0.100283262207551,0.13545532464768
4.81186724929693,2.21571275582918,9.53781288451489,1.20385146165715,1.22500245340656,9.19207489501269,6.78227837415587,2.14702280781072,9.49251853686511,2.27863176164568,8.51222073051735,0.100270774172811,0.135439461005766
4.81203047043407,2.21574712099468,9.53810411727898,1.20340006432864,1.22526501432608,9.19241880862477,6.78230225977676,2.14702320669255,9.49278566637603,2.27849291255281,8.51187065440529,0.100258770142004,0.135503619550992
4.81200162744152,2.21575557161183,9.53813685869586,1.20341007156941,1.22520376685466,9.19243680321568,6.78230377745193,2.14702338079765,9.49273908818343,2.2786015832984,8.51185382741741,0.100300427702614,0.13545677089752
4.81150562132725,2.21551480659498,9.53647124887348,1.20540036201407,1.22456037481474,9.19063522250614,6.78215756226265,2.14701836524968,9.49192023483622,2.27826722868473,8.51358852000861,0.100015308739438,0.135604728720405
4.81985107625911,2.22162649467869,9.53354573116332,1.20127134552105,1.24157162368686,9.19107231803592,6.77924638121357,2.14975286218095,9.48520184695865,2.28571100203729,8.49415204669653,0.114379164412657,0.145428837601652
