"fastcoef_sq","pref_flow_den","slowcoef_sq","soil_moist_max","soil2gw_max","fastcoef_lin","gwflow_coef","jh_coef","slowcoef_lin","sat_threshold","carea_max","smidx_coef","smidx_exp"
4.82577866793427,2.49567663651918,9.52489188466119,1.24863637439848,1.50008664149743,9.11956938139989,6.8850157189883,2.0826312910933,9.47477387304609,2.06429188787013,8.35683546253477,0.156651450865349,0.184504259413974
4.81187934566724,2.28242856592453,9.62797795515174,1.01460470396982,1.39305055269756,9.15617799786471,6.66929177296039,2.09177930352379,9.54008982992874,2.32262195758877,8.11830332936132,0.370349595752145,0.188167612500862
4.74217821723326,2.3340987574509,9.56811191435277,1.11498790648043,1.37647329398117,9.14898047928722,6.58134109944466,2.13757988780238,9.44992301017182,2.46103911458005,8.04646506141204,0.516389571534077,0.185672690661215
4.82512400969406,2.45889981125422,9.55061240240584,1.15496689056795,1.43477118109213,9.11712676028544,6.81803228483435,2.09344588641619,9.41129324235023,2.23543013602905,8.25192856470195,0.21977196586886,0.181460263917678
4.68312200687838,2.42862009253766,9.58396222352152,1.09829797581769,1.45275932077934,8.93057306257846,6.57493160885174,2.13036000745672,9.29137558207811,2.6525300054932,7.78969819762755,0.813906364641239,0.280662924603624
4.71774761295387,2.56540303558215,9.60041000123577,1.21077084971685,1.40006982429948,9.10635614169487,6.79530293822274,2.04578541247834,9.36141020066277,2.40086707054256,8.17017765123716,0.414180176269299,0.105163830221219
4.76161835582857,2.49779374059093,9.53079612549793,1.11893651327798,1.50706435583369,9.01936424690493,6.59612110446908,2.13583724011702,9.27788427356639,2.52548327008172,7.79535340297912,0.676552635792976,0.289761985081868
4.75825450862388,2.68087994797743,9.48803133718102,1.3040293345794,1.67627798977667,8.92073336320142,6.77325183886092,2.14289264451571,9.2801625524428,2.34888796955389,7.91291346477303,0.564283982423343,0.25944884342146
4.69546151876928,2.58405071709702,9.58595936806206,1.2131526706531,1.43254199055286,9.04446084087523,6.75055465835961,2.08357324277352,9.29627846442975,2.49577065822418,8.01886731131102,0.547183309136986,0.139525664621619
4.73831693129409,2.6885339629813,9.46293186311815,1.32408870099138,1.5729322247726,9.02501476634056,6.68207463834149,2.14024634685106,9.19080173118816,2.42620426462254,7.89228040396598,0.624748493825184,0.284311409714859
4.68245859569938,2.65118720989948,9.62032873801057,1.13312483163815,1.53817258548407,8.99919911981878,6.65709302063042,2.01674006824887,9.30966682862189,2.53319912712247,7.77580079346026,0.756706018079909,0.190572308951933
4.71269697250823,2.74803529098313,9.47934660301542,1.39139963218113,1.55906178789892,9.0626014669014,6.79175335262502,2.12105021192613,9.21520368561755,2.39821815014013,8.03491559649257,0.527159225487572,0.208143162179335
4.70272286980867,2.76308055068127,9.54368228868334,1.26133724926654,1.59501370869702,8.91819816566253,6.7793568144785,2.04886997313152,9.19988845932875,2.4746761223268,7.83937061390581,0.673641544060655,0.20824889291731
4.7825635646817,2.67045560394045,9.60912942569674,1.06469894462993,1.67513765195287,8.80658526336673,6.74527153112426,2.03904533582978,9.26917076241588,2.48103914820016,7.63607492340391,0.777234428004085,0.281555082809806
4.69064014338539,2.65479789254126,9.62609792793052,1.13026222434186,1.49982821085711,8.94914189032434,6.72308479078473,2.01744374105591,9.27611133709028,2.57115325172036,7.82107880229104,0.70390182429623,0.151246531651762
4.63446217618845,2.62210582174584,9.52219394565491,1.06245509258308,1.48308605791787,8.76915459309522,6.47935128035062,2.07181635116743,9.02555183351076,2.93340261452585,7.33763296878638,1.10009817245346,0.260895068920138
4.6708113095525,2.70970822334555,9.62588065606174,1.14373170056116,1.52408681261798,8.90570975120376,6.72880431455703,1.99404983259627,9.24298209793894,2.59591111761801,7.76072451345914,0.764728974405464,0.144579993834907
4.68527803699008,2.62161410775904,9.65863351975501,1.04362815132668,1.48583667901831,8.90528005337372,6.68569893426561,1.99492273851165,9.27781922258164,2.64464410409343,7.72673188881405,0.772363251866571,0.141409347714787
4.87245545636694,2.18600610730843,9.5662862718194,1.02356168626218,1.38747425044691,9.21772956884267,6.62139454355103,2.16462207250271,9.5835286923805,2.23200159301548,8.19218663434414,0.277342487971907,0.243707690749587
4.7223169433598,2.82855485085508,9.40718337290816,1.52775693806326,1.52706573679626,9.07701325265787,6.9370955853487,2.12586433952375,9.11653292386876,2.248805587182,8.28105074586416,0.285561279555394,0.215077502914775
4.71294383147534,2.86746885110667,9.48750221772805,1.35877289840281,1.6526575728368,8.89796977853226,6.83688185339521,2.06753531038064,9.10470826567184,2.43002392080482,7.83962293311116,0.654563687221069,0.259640227270306
4.87066896711332,2.35647752897791,9.50762596000171,1.12792583504361,1.47790539229005,9.03847437073136,6.71406954137639,2.19862544159375,9.41540007961233,2.34054973589835,8.06626001795447,0.385491453405458,0.263880888358769
4.70222563646208,2.84221895534832,9.49595814328075,1.33315058101315,1.62144738230112,8.90524124501496,6.82103735330504,2.06411347339175,9.10881137856929,2.4510378618886,7.84601460423925,0.647331289626488,0.248861848285662
4.6442188855776,2.71127833895787,9.68617849481316,1.06882679219015,1.5705414873629,8.8582061481041,6.64022236080624,1.96971131853578,9.25029442338056,2.71778947711744,7.55817380110518,0.951434229461138,0.174781262778413
4.61588643609917,2.78813223574859,9.56303982760409,1.18459294756596,1.54894252179222,8.82517558180993,6.60605192731118,2.07891653718852,9.02726641902782,2.87191706251354,7.48377332225812,1.03585958130007,0.241464631003112
4.61143224306246,3.11961654819154,9.44196104825325,1.34449164243527,1.92798198402916,8.54264046451251,6.60055279258645,2.10756316934734,8.79489392964085,2.86319430645747,7.00316448038272,1.42101537560999,0.44813284562382
3.63172266049744,4.86700761827793,8.68863340815522,3.86281336126907,1.92495297266582,7.75189979261736,7.04737051493868,2.1324261060804,7.04802151063111,3.86230375354189,6.59884405296431,2.45716835644038,0.391839546405991
