"fastcoef_sq","pref_flow_den","slowcoef_sq","soil_moist_max","soil2gw_max","fastcoef_lin","gwflow_coef","jh_coef","slowcoef_lin","sat_threshold","carea_max","smidx_coef","smidx_exp"
4.8431712953784,2.22449880753051,9.60537499748802,1.10039530655306,1.2756911307291,9.26103181759067,6.78353773613691,2.1449990197261,9.54100752405012,2.27000593167322,8.42137645369505,0.112719006596704,0.14628612047478
4.85266633444091,2.22399455797199,9.60881493805241,1.08439017153771,1.29541505999412,9.2682235275749,6.78242391924182,2.14600917077004,9.55800807783823,2.2484530947208,8.41025041634607,0.108466454528179,0.156571744998275
4.84497297442363,2.22428362826265,9.60631685309889,1.09777170852132,1.27856971321912,9.26276590968,6.78386377828527,2.14511300493203,9.54393338755526,2.26632413840014,8.42056496767275,0.111154748158709,0.147817019003151
4.85384523278941,2.22398441271682,9.6090063039384,1.08302830732798,1.2991269380652,9.27002450305989,6.78190856451167,2.14706429089853,9.56156336065276,2.24434575257867,8.40857926050113,0.108257415672568,0.15796738734715
4.84639296058305,2.22418481227999,9.6072611324394,1.09251111220003,1.28186900167691,9.26131282722843,6.78250431561303,2.14434069371657,9.54530236044115,2.2657167439937,8.41455687943595,0.113484993176428,0.150237735850449
4.85361119585909,2.2245912702884,9.61222220969664,1.07846538140171,1.29626779383911,9.26895290518991,6.78218137571781,2.14474908265249,9.55769692373756,2.2517307323247,8.40413070500798,0.110989386096329,0.15696186249689
4.85381416638839,2.2245955660781,9.61222457075262,1.07821028906033,1.29673280672276,9.26905531156578,6.78221769166259,2.14475099438664,9.55809096610864,2.25107658867022,8.40401437030146,0.110788094067338,0.157169687134748
4.85435846391513,2.22409929122635,9.61035963634582,1.07813579392306,1.29698642844468,9.26608957129186,6.78212079556945,2.14368623110949,9.55734740404478,2.24931604316101,8.40522103338013,0.10947630263179,0.1587733116224
4.85432748778183,2.22333210157307,9.61275908868325,1.0771074300826,1.29630181468728,9.27037476152949,6.78202745404024,2.14509538075748,9.55915332182979,2.25085511782394,8.40461029232535,0.109749755276735,0.157278437119739
4.85473782216985,2.22458324789214,9.61094608963616,1.07647217699819,1.29864297493101,9.26616839461919,6.78161976546136,2.14365709071748,9.55805450047326,2.2490853890842,8.40253698002051,0.110802625538352,0.1595018552667
4.85485307774675,2.22448940826345,9.61122153080379,1.07599598540083,1.29871027314,9.26643828831022,6.78156606525719,2.14366518382596,9.55823005792379,2.24919806239521,8.4021951643254,0.110858214602441,0.159527978666663
4.85502361591084,2.22413277202865,9.61110861123075,1.07618318971896,1.29855457204003,9.26679783444501,6.78174801392994,2.14376792516907,9.55859055210982,2.24854294960526,8.40315233911006,0.110003133459888,0.159495035587434
4.85290902815131,2.22444590744799,9.61069910657809,1.08327736833307,1.29302285749864,9.26962585393066,6.78420797432039,2.1446147532319,9.55618013835857,2.25056525216734,8.41175943020198,0.106528829698363,0.155320136904819
4.8548793167527,2.22458002637053,9.61272728600803,1.0758228751583,1.29901389958741,9.26936741848712,6.7818989441816,2.1446344292224,9.55972937688171,2.24917204949226,8.40189129516097,0.110880857420845,0.158472610021894
4.85508407548138,2.21848324881037,9.61012675906948,1.08017365228234,1.29392419702018,9.27455693933623,6.78235544419307,2.14691475830512,9.56393895286829,2.24347371368193,8.41581266349595,0.100725416935062,0.156678984223533
4.85551612264966,2.22445884357963,9.61139650000102,1.07498327004326,1.30023771492795,9.26702350512475,6.7814503986927,2.14380831755714,9.55959546572409,2.24743766873576,8.40145307228684,0.110544759238528,0.160248998999113
4.85442599033886,2.2247142629517,9.61383521179261,1.07379021917735,1.29590881120125,9.26713275304702,6.78213770514329,2.14260200198028,9.55584743006548,2.25455192894351,8.40045627984912,0.112119519242945,0.157889598994654
4.85441597832425,2.22471453549296,9.61383302184174,1.07381246693694,1.29587913347789,9.2671300553867,6.78214551857518,2.14259901168562,9.55582537579645,2.25457526544239,8.40048369622096,0.112112350608052,0.157874460728346
4.8584523948095,2.22447284965556,9.61461732471159,1.06802800842597,1.30566006828062,9.27100932524531,6.78120544636484,2.14404917406241,9.56462241086085,2.24339186257748,8.39588967040734,0.11032602366087,0.1625198751446
4.85498537899034,2.21724780813704,9.61288639917964,1.07738704438927,1.28993394655308,9.2747852292047,6.78215414054426,2.14633071318933,9.5607969681477,2.25129235737726,8.41381004904299,0.102695045409586,0.155979421413533
4.85580068852866,2.22447777655266,9.61409299492281,1.07051968823394,1.30069044186511,9.26756702437268,6.78048639343639,2.14351072860401,9.55958015182464,2.25116616466853,8.39568721249018,0.113940679827591,0.160255024998656
4.8633976751909,2.22428492900098,9.61702537115492,1.05751647120606,1.31515956681395,9.27318998314486,6.78026889171879,2.14338083403262,9.57174316065557,2.23479288753468,8.38776267717765,0.109466954591821,0.168133319938382
4.85806002441062,2.22425110780789,9.61596659935556,1.06249248872446,1.30518131061192,9.26623425697028,6.77878631349131,2.14228136438588,9.56166028697542,2.25037250713885,8.3873294985239,0.116758777445323,0.163575627777741
4.85925047573854,2.22436386432336,9.61624987753942,1.06058803954356,1.30810705768336,9.26718965093344,6.77852758673665,2.14255228668357,9.56398289900966,2.24731096332674,8.38562878202017,0.116413245874674,0.165026373442396
4.86371325430594,2.22306639300137,9.61752118670779,1.0565072242256,1.31449120796897,9.2742384652526,6.77994982200313,2.14368221250571,9.5724642544975,2.23511983216198,8.38811705374447,0.108830772437421,0.168135113584467
4.85843929670157,2.23826284525049,9.61969470660524,1.05082382884349,1.32420740770466,9.25602406321612,6.77272406110612,2.1393522294976,9.55924439015366,2.25664672215856,8.35090880881564,0.142346692476127,0.170658078620958
4.83409321426643,2.31190067462575,9.47375296462806,1.13859808744236,1.42162382265419,9.17878870883031,6.69968636941688,2.11683008109445,9.56031891623481,2.36446151798546,8.36315323454976,0.236554831891282,0.223893137404096
