"fastcoef_sq","pref_flow_den","slowcoef_sq","soil_moist_max","soil2gw_max","fastcoef_lin","gwflow_coef","jh_coef","slowcoef_lin","sat_threshold","carea_max","smidx_coef","smidx_exp"
4.60247507093016,3.22458078491357,9.43838555503632,1.44443275380728,1.86151701913712,8.61176258703952,6.78400302016304,2.05860597263077,8.78637657885986,2.71983852436807,7.32145335744093,1.14062293541297,0.346696326898183
4.65719572204121,3.2864397802226,9.23661128220993,1.96152606012976,1.70656886889434,9.15830382415744,7.18690905073646,2.14504015947551,8.85777419903119,1.99621282347457,8.49799631285161,0.105913909964648,0.276044293990214
4.51322704308709,3.04483669635972,9.27846687018197,1.88216578817059,1.34031111605832,9.21840242233997,6.93638211727829,2.12039103582539,8.86158182809153,2.4032599365838,8.39195822084727,0.320465921492093,0.130762653981381
4.61027729229394,3.42474818508942,9.1783491789539,2.16269857026842,1.67689393057518,9.13669249407742,7.19067303863704,2.11305730356606,8.75162014967895,2.13680559010722,8.45877804893029,0.233072449455333,0.193192775409107
4.53829212895612,3.44589547602363,9.23604200099471,2.08354704079318,1.65072824510887,9.19062833333322,7.12797235267137,2.08720215942011,8.76598349115112,2.15697754393518,8.45502226371354,0.245686854241213,0.161126687362828
4.60434454436969,3.22202946791576,9.4399402090138,1.43893125506921,1.86172080678576,8.61210129156898,6.7839887352469,2.05692580708824,8.78864888246135,2.71888113528487,7.32071977473626,1.13918120018315,0.346582654906925
4.62807757183143,3.31976721543633,9.2290599409146,2.00475902706124,1.71986848168216,9.12216552567075,7.1820596096867,2.14082851267568,8.80883600815844,2.05194912300802,8.45003840574917,0.167038896977213,0.287391977837832
4.52733651466899,3.16177522651396,9.24192594086631,1.93746899782099,1.48190492289626,9.17363976860289,6.9495144465902,2.13946542776529,8.80600451175539,2.36706150394179,8.33342269079764,0.362332977581484,0.180159166208928
4.60660580596359,3.41669987881055,9.16771929427268,2.19206941574057,1.64421004893138,9.13523617099001,7.17908340330849,2.1192405924768,8.74929795304994,2.10289324479651,8.48556855034212,0.273528997498046,0.254339498699672
4.61065613317366,3.41668995604836,9.16010994973173,2.19817230457441,1.65371948186792,9.12949568155129,7.17533065572892,2.12745461796204,8.74277741916317,2.1047494198951,8.48635405042136,0.273518697511313,0.256802164414119
4.60419985262245,3.22219587155031,9.43991149995282,1.43910773082856,1.86176165281064,8.61176749353921,6.78386381967001,2.05706125720903,8.78841350068728,2.71924807732712,7.32018109061678,1.13974538758032,0.346697592288076
4.59481069981164,3.3636238879379,9.21505383005828,2.0607559125124,1.72196354933706,9.08425348236512,7.17849453750171,2.14348565125796,8.76282745355304,2.09826913172833,8.39604255225175,0.232381637296401,0.283498914155914
4.52706925389934,3.16597985750871,9.24294131121785,1.93747574304707,1.47644612160817,9.17643306305666,6.95797212865277,2.13560051697365,8.80627875431627,2.36304995067044,8.34681045769157,0.348254411379508,0.173707334966811
9.4053818857975,3.11368819048494,4.43173173546168,0.881061036268204,6.02878331498217,1.40835321215339,6.55718578270129,6.66288448932993,1.21039179181252,5.94453389683749,0.130967711308919,3.6271380810845,5.89381906489154
9.38149234259058,3.12883486588446,4.55263822892075,0.84307399520206,5.89847832218915,1.45365652359296,6.40577923463486,6.74198708124846,1.03357069868232,5.80183685297219,0.11652099536564,3.67394551284017,5.81477493664202
4.60339982234629,3.22249229289729,9.44015695368953,1.43971714696058,1.86155266019531,8.61115254436943,6.78331376125671,2.05727434941363,8.78809625655621,2.72047557013953,7.31878594384101,1.14168688776382,0.346729717122297
4.59479587435042,3.36373374964766,9.21501614391339,2.0609624266778,1.72165701212673,9.08491176900504,7.17855832265104,2.14336576298445,8.76312594943577,2.09812994988169,8.39683619793471,0.232176413912101,0.283042762449635
4.52703970785871,3.16485643102388,9.24314036873628,1.93696609455996,1.47536287879567,9.17660902204351,6.95766671729167,2.13559697835488,8.80661345975038,2.36354628504311,8.34689962217784,0.34823923524454,0.173509893469637
9.33217319676143,3.13073054987817,4.44176975780647,0.901618462514545,6.02870145617576,1.43103065230691,6.56940452080896,6.63801754724504,1.24466991367278,5.92571392844111,0.20119566439605,3.64336324117635,5.88366869341633
9.33495930862746,3.12778586248577,4.43915346789322,0.899186880599066,6.0273402253934,1.42840776207414,6.57539570617331,6.63383489781238,1.24624733254002,5.93434172095309,0.201648465661587,3.64380301345239,5.8867317979129
4.60358423591581,3.22331026965505,9.43939188001928,1.44085172076667,1.86206935790988,8.61175780798932,6.78384934320127,2.05751565645235,8.78805951836279,2.71927573672322,7.32000564180612,1.14028696269412,0.346793478597875
4.59480037223069,3.36380697544362,9.21497478971875,2.06113310877509,1.72143990846753,9.08537263747156,7.17861363077043,2.14328559609818,8.76333430322746,2.09802229975614,8.39740799382507,0.232035019975374,0.282733513928258
4.52670283713947,3.165129498612,9.24320126527765,1.93742904714385,1.47523800650604,9.17652795980664,6.95754915373243,2.135546061428,8.80638460857745,2.36394117882279,8.34643121531633,0.348856471113274,0.173444468008239
4.73547273055098,0.646605760164563,9.09962662996966,1.04539946327284,3.98924409155911,8.33009384414044,2.09240085939442,4.51560982141065,9.91815112381131,5.00376390473413,0.572488987273369,8.56060825123213,3.29467449592674
4.78500215081756,0.767296487887209,9.08555041019156,1.02658637689005,3.93760202932533,8.23780675560347,1.98912737704488,4.42070449161708,9.85897901582791,4.94742051530956,0.5568491756015,8.42104512616864,3.33445356971316
4.60496132000187,3.22309966917978,9.43832355700063,1.43985344998013,1.86258849680912,8.6115858667365,6.78533277546092,2.05658068999751,8.78679975875182,2.71828161803135,7.32182267695597,1.13711926444078,0.346529014441404
4.59495750064585,3.36408159078009,9.2147867280714,2.06113997485868,1.72202953517875,9.08450952832351,7.17854856909137,2.14344830687054,8.76275475302143,2.09821853619088,8.3961435340931,0.232587758968072,0.283364761896924
4.52723451084829,3.17356088228228,9.24144891481271,1.941019985551,1.4834130254065,9.17496831508093,6.96005245318234,2.13559948837997,8.80375904931102,2.36003362859582,8.34621207755364,0.34837760565864,0.175008343424154
9.26528853355945,3.18975686323611,4.45545645201144,0.915138640900765,6.03724335901166,1.47496844571544,6.57003707938899,6.62923573146746,1.29147245698944,5.87261047083918,0.284752325731967,3.6600999875146,5.83155751577468
9.24932773868787,3.18900688834568,4.44365015623068,0.910113344720932,6.02935302449689,1.47455843787926,6.59048515983747,6.62232465145957,1.30530691767288,5.88372698756634,0.299919847381683,3.6526693017274,5.82660680277892
4.60422011061793,3.22114195249038,9.44080342456185,1.43759786862678,1.86145863934898,8.6120148296389,6.78335664824474,2.05672867145764,8.7895434063395,2.7194456133776,7.31963584463275,1.14026920504962,0.346547573273534
4.59453386176797,3.36412714494742,9.2149219833315,2.06140833016553,1.72168551931031,9.08457718961647,7.1785328327385,2.14336119439054,8.76268012923857,2.09856528091284,8.39636169250113,0.232740951291296,0.28303992549116
4.52502008124834,3.16924977642192,9.24215615898015,1.94123179846324,1.47642223760119,9.17378927243668,6.95819168820365,2.13538775265431,8.80263847492761,2.3663081176183,8.34361751262032,0.352208267709432,0.173504685088637
4.71818159223159,0.688373538745235,9.06192338951125,1.07580822946537,4.01346154549185,8.31877781182725,2.05391143999773,4.51859543839663,9.94363393546987,5.03305870573685,0.516102138024792,8.56899606239509,3.33716524387171
4.46496391522293,3.41715549501174,8.97471318071708,2.22597783846913,1.90414738571941,8.75346593217615,7.18649124934156,2.36058483293918,8.7299859947529,2.19897245119823,8.29173536110775,0.419933577460215,0.640480337836571
4.60541100452683,3.22023336167453,9.44010746782629,1.43750892421986,1.86156323548588,8.61204218421148,6.78407398465454,2.05758674160934,8.78947268812272,2.71820444856324,7.32124102797438,1.13843265064214,0.347293502625128
4.59454022661505,3.36412493186518,9.2149158055721,2.06141867616431,1.72168625556414,9.0845730999572,7.17853708623273,2.14336338618812,8.76267780426054,2.09856181450514,8.39636375747525,0.232743443226353,0.2830471396813
4.5270528270033,3.16326543164207,9.24348980023768,1.93614151919536,1.47373111707158,9.17704912840636,6.9574706019726,2.13547388564189,8.80721014395989,2.36395598007836,8.34753529943955,0.347657365735904,0.173069025565135
4.74494480443837,0.677056590061973,9.06851299978446,1.09868951553163,4.00366884334129,8.28122439206786,2.09260736910365,4.55114927103333,9.86600500852687,5.02834250265099,0.617372840373734,8.48571397089059,3.26275119234343
9.3233144093129,3.23652032428962,4.42930951595692,0.764624424121142,6.05562556790216,1.38026692711546,6.52910232917585,6.60272893347187,1.29629089804797,5.85007119071169,0.188922617945925,3.64207752857865,5.77913081303568
4.60725621167362,3.22109075084463,9.43905241785122,1.43543250156247,1.8630776052572,8.6094127598662,6.78450736794258,2.05740537412396,8.78694559621702,2.71886122372139,7.31899475640645,1.13792588422442,0.348284551110432
4.59427136075504,3.36452070808984,9.21482811391877,2.0618545846182,1.72171388822444,9.08424257261425,7.17850731855458,2.14335623675935,8.76223384831637,2.09900093904466,8.395887064536,0.233305855948178,0.283037020099392
4.52708502246966,3.16427564338606,9.24327132261073,1.93661695512163,1.47480275329207,9.17681506140993,6.95762821271655,2.13554617629703,8.80687882524282,2.36359735201656,8.34722911805926,0.347904851495334,0.173347075075436
4.6633786842327,3.3784696671136,9.08528615505705,2.30522167162717,1.75519455421849,9.06872611977208,7.24743927954538,2.16296942196333,8.69637476334678,2.09351396715381,8.46361765829495,0.30618960686366,0.318595515453344
4.67141243637348,0.696738978010087,9.05082400074205,1.14590850946793,3.92767400581128,8.22743794792857,2.12942591350481,4.59739781534579,9.78567971139272,5.14767307480229,0.645994735187669,8.48849690998448,3.23200664391809
4.60431705883884,3.22196977334287,9.4399728902412,1.43883155074077,1.8617869523823,8.61176757608349,6.78375116478959,2.05720508370268,8.78862496545376,2.71918164742508,7.32012076941823,1.13974178256461,0.346811594340036
4.59428260592772,3.36454684418328,9.21480379046234,2.06192597883315,1.72162940307013,9.0844229155409,7.17852991762347,2.14332869169951,8.7623177183357,2.09895323532685,8.39611783885005,0.233246331622153,0.282921587035519
4.52695375526455,3.16450347295257,9.24322914138636,1.93686467971883,1.47478916996113,9.17666046983933,6.95767778255205,2.13551076345561,8.8066469920896,2.36378065852506,8.3470820381928,0.348103241876754,0.173310879333938
4.68675541280502,3.40458753641658,9.13673081269438,2.32793429579037,1.7305173144562,9.08983643433492,7.22952780248841,2.1605299197384,8.74969367216849,2.07721217111436,8.4768542531711,0.292660649775588,0.323846098349945
4.72560325960593,0.69579487013456,9.05013087854429,1.14437007790421,3.93088343529062,8.188694589369,2.03682100266212,4.51508768340507,9.89303183690101,5.00107422672779,0.548538196829188,8.37695227023834,3.3064673443995
4.60414587326786,3.22126184230509,9.44047224492612,1.43826526982757,1.86156833221296,8.61182704542542,6.78311386882778,2.057565891902,8.78940696069226,2.71948328321416,7.31961982667347,1.14055507855271,0.346945356225766
4.59333942535333,3.36514107343848,9.21379142199054,2.06258845461535,1.72270560630017,9.08279974369615,7.17759034996053,2.14557265674421,8.76162298984771,2.10221965224771,8.39390992272172,0.237892445684723,0.282329550600787
4.5270196780841,3.16438932486806,9.24325021104627,1.93674126618698,1.47479582718442,9.17673785717111,6.95765344568753,2.13552847747811,8.80676312088229,2.36368850966186,8.34715584609094,0.348004063079968,0.173329133003862
9.16110384789789,3.32861313605441,4.49068782420355,0.966055927500228,6.0632597898625,1.56162602704479,6.5340126613507,6.60223851995302,1.38841951447832,5.75968506835037,0.457855224949484,3.71446558486329,5.73562723606084
9.48331671801586,3.42556406697418,4.28527114533337,0.800519471769117,6.2028011469257,1.59251105306471,6.62108741881917,6.69866791666056,1.03967653824825,5.54459771336485,0.175229681719799,3.58212654411229,5.55781184740647
4.60645258099146,3.218621115628,9.4408313835698,1.43448080469547,1.86144319436013,8.61286213207772,6.78430378446689,2.05652993007772,8.78982914358044,2.71814157997661,7.32202400311464,1.1363079773484,0.346518332822249
4.59332208411091,3.36458996906578,9.21485677321111,2.06298933804485,1.72107862915366,9.08599191931935,7.17823396353406,2.14317527658531,8.76325938633584,2.09832801565843,8.39796814935984,0.233462814101495,0.28270320228251
4.52701743390939,3.164417910473,9.24325117412698,1.93675357006408,1.47477202652189,9.17674750266262,6.9577058696713,2.13550283713538,8.806752728713,2.36365845921258,8.34723697549335,0.347919110220618,0.173297119725226
5.01866488055051,3.10762998440318,8.4184426850866,2.90131027192339,2.15046947754706,8.58939449127394,7.66090523297925,2.32874872427206,8.29449232434198,2.07614765579172,8.407753312833,0.483235706051012,0.798709582253562
9.02713610139055,3.4415556312318,4.53052230422409,1.01894654538439,6.1311201780326,1.66148048982768,6.419079849298,6.67053170621718,1.34163849270963,5.52056530926961,0.49473907179812,3.67347733818444,5.63230954749723
4.60542429503109,3.22243303281269,9.43767860515239,1.44363765046021,1.8601058145933,8.61985318499303,6.78823971449273,2.05608344362339,8.78967724061691,2.71081818520268,7.33637883258595,1.12578743532492,0.343854716739879
4.59493290674283,3.36929831183493,9.21045164355044,2.06610050182169,1.72253561935856,9.0788164408119,7.18215601293156,2.14478879163135,8.75382305348136,2.10121123043645,8.39631732328628,0.232290612821996,0.28434220501858
4.52619725922843,3.16834096880827,9.24427806295223,1.93717493854471,1.46823730732718,9.17906856607493,6.96591589706803,2.13157268158027,8.8064496883468,2.36094840039854,8.35993063845705,0.334784336175032,0.166580504250119
4.81754978499546,0.98842366229334,8.86296836728395,1.34215943456716,3.88726312938046,8.02841803843755,2.36857371852617,4.39912879702368,9.59237255063219,5.04843869990637,0.544231492217358,8.13313664304467,3.132560736772
0.380282220765356,9.83849681166368,7.5527533797767,9.61108124659169,2.15661500233601,3.60859083354927,6.80831262443362,2.0636359388147,1.40136529320005,9.22128677099885,0.716170895781227,9.54865502308028,0.273521496220783
4.6065101120719,3.21517570668104,9.43856241158882,1.4374476046287,1.8647762264069,8.6139196273859,6.77661248525789,2.06238754318999,8.79149421486457,2.71918326774631,7.31424121879946,1.14652945829201,0.352102017578085
4.56050220184134,3.41155498937998,9.19885559242994,2.12136027038423,1.72271723105062,9.04663300774362,7.17706597585664,2.14587286411323,8.71346356631854,2.1459935741807,8.34544797701453,0.297773251112848,0.277458869972279
4.52679546914009,3.1700999633365,9.24390701612429,1.93746704949573,1.47084339584595,9.17914767305401,6.96638568430519,2.13176046791525,8.80648427590266,2.3591703878167,8.36015391616961,0.334211568646523,0.167269084325143
0.380576409064764,9.83828320631899,7.55250171465041,9.61074629913405,2.1567787344791,3.60859771983496,6.80827322913818,2.0642183440784,1.40175199020503,9.22065456736322,0.716081531014031,9.54820249266422,0.273553246690684
0.379970484959769,9.83878895330287,7.55300070307738,9.6115886656106,2.15653617179301,3.60874782572011,6.80835188863985,2.06352186543397,1.40129884532446,9.22132652122959,0.71611936035673,9.54899984166792,0.273329329693765
4.57890084777689,3.26805075030987,9.36418090949337,1.49463011610301,1.90782888219028,8.60424654078318,6.73829067431643,2.09396752945189,8.74571098784766,2.67782141601978,7.3644557109641,1.09993439392616,0.39494450813489
4.56055510424549,3.41053982645909,9.20058971163851,2.12136309165196,1.71593990123118,9.06393113839443,7.17635732311284,2.14289248162697,8.72490890059526,2.1411544814317,8.36273313929094,0.292172943661086,0.267043904596485
4.5268586664387,3.17019002366621,9.24392289989657,1.93751082044052,1.47084301532206,9.17908912062623,6.96649478425288,2.13174782347809,8.80641145218061,2.35920533118287,8.36026759436481,0.334055193756981,0.167166907644723
0.391826135462305,9.83435829622987,7.54911872148647,9.60111617307955,2.15559476445391,3.60802970063051,6.80814390543974,2.07257763914925,1.41529037277762,9.20246844931832,0.716155953185535,9.5464397425792,0.277066891928309
0.383943743664347,9.83331479938942,7.55122162909566,9.6077386827851,2.15773386540835,3.6111609557698,6.80620957925325,2.06646775740616,1.40695701074727,9.2149760357361,0.720174909458383,9.54051958437131,0.275745078447353
4.59638919088268,3.22614645562547,9.45068758252093,1.44128479650954,1.85400522277347,8.62584771868363,6.78433320994558,2.04578819628762,8.80183699055104,2.71173741925243,7.33219889072255,1.13462605460719,0.336319545871265
4.55716909351651,3.41158232749894,9.20256115877077,2.12635220110353,1.71744969791494,9.04661405737333,7.17540385144257,2.14637469377823,8.71024091110063,2.1559403246695,8.34791632972562,0.306192717887355,0.274688063195617
4.52577728001628,3.17166225288218,9.24352830226664,1.93929335033596,1.47094689538852,9.17782775227264,6.96633620708227,2.13172591248521,8.80473537329216,2.36085111485048,8.35832063621507,0.336432332072179,0.16725420034824
0.381393302203873,9.8282575840995,7.54083974240131,9.59286276471169,2.15592756594784,3.60601091660777,6.79942136029885,2.06721999466082,1.40583800295839,9.2093664387122,0.733545833730025,9.5436581301976,0.281864521797365
0.402836092884357,9.82171249632331,7.54692580498446,9.5890056977242,2.17751444431299,3.59720307178177,6.80011221567778,2.08787556205424,1.42288612317351,9.20847891345377,0.722163361306275,9.52164742875174,0.287097546661661
4.60323614378678,3.22543493149249,9.43813531796938,1.44388356550316,1.8616196126298,8.61270024242882,6.78603150139532,2.05591479955815,8.78555060107408,2.7184361195948,7.32355237966065,1.13731158424127,0.345392198570977
4.5800137567944,3.40697220950597,9.18204333148764,2.11252521304138,1.74035263580474,9.01832416339564,7.17266828361477,2.16336377650901,8.68868815866821,2.15884836380631,8.31242514379936,0.310056920372137,0.299721862026756
4.52529064765152,3.1411444079397,9.25001956793197,1.92528049696053,1.44854942281407,9.18526091498662,6.9547880815676,2.13247245480979,8.81774056318388,2.36997788418798,8.35801126080901,0.339808586542258,0.164731908153043
4.4911892425152,1.58599566319004,8.00892799795521,1.6862344530264,3.98049118311437,7.81598449258057,2.78297357001398,4.37177817408112,8.83339158127121,5.36283560606869,0.588199045167537,7.61434120634699,3.19521245714291
4.91617478492106,3.30037547202513,9.26287254517046,2.59279055836541,1.87031372872034,8.91190984862276,6.93188761742327,2.45481000676718,8.56281034556821,2.4384894400915,8.56374211726211,0.777968770903434,0.673398934171233
4.55965459463217,3.28421759422082,9.44127321674726,1.51067140153245,1.88326782313159,8.64665879533625,6.76689898744102,2.0206450140537,8.82194479957156,2.69182321380068,7.32161843275246,1.16366961772906,0.320318349289527
4.57075112953054,3.40752114566688,9.19163823657346,2.11533129706967,1.73100397008534,9.03470582229941,7.1739807444109,2.15433398618325,8.7036824908047,2.1512705371832,8.32997921865629,0.303261659314396,0.288281649585822
4.52752970053414,3.18105730391106,9.24020964224741,1.94453382370813,1.48967909185557,9.17366387214417,6.96301170927359,2.13539064264549,8.80152032337278,2.35641710011801,8.34692657133543,0.347157357796311,0.175768775293967
2.34333693504791,3.12555919963712,2.79109721105729,3.28632495037009,2.39959020038251,3.4158382136152,2.38238102587334,2.77534154978615,2.17727077197638,2.5020036425844,0.806828797087809,4.31091397166866,3.53156115059789
0.535608738625605,9.59770191225204,7.40915842439043,9.49324604941394,2.20145527842338,3.69289729766873,6.82461172708395,2.2955160063612,1.63929031357135,9.02800733760647,0.794516223824938,9.42539537623916,0.514346829263723
4.4426294846124,3.31204018571722,9.52659208327001,1.52706961470718,1.77865904092089,8.78246212641551,6.80378855560813,1.93039929708597,8.95109565321354,2.6076891923087,7.54762566111806,1.03407975242581,0.196973109880342
4.56376721340741,3.40775500631042,9.19862739332417,2.11683589577049,1.72513797127709,9.0448673727272,7.17483323296819,2.14793088347814,8.7142047642166,2.14594116662684,8.34076915292955,0.298673711702491,0.280765993697386
4.53028143601036,3.29476608116171,9.21804491028544,1.99593414368759,1.59425859931421,9.15310133337575,6.99389834910043,2.13627176187874,8.76525994104713,2.31126302438507,8.33748304335391,0.349053878123153,0.195072790702319
4.81755093262493,5.3134539576745,4.10757667308315,3.96389088261535,4.70608885538973,6.44214722960333,4.2557520865205,4.78371528948298,3.25732630101459,2.86533937847813,0.333768859731331,5.16880144385701,5.18693666856531
8.53508400812958,9.65444963026463,2.68325453151864,5.83511059275434,9.10142680409038,7.66743386595604,9.85185209084782,6.13790398943524,1.41042903263202,1.11904199030321,7.49119154937224,3.14584014086542,0.351148007533212
4.61449081637266,3.3699206879689,9.3284060741919,1.56618616338999,1.9287760945481,8.49695032310323,6.8725272169745,2.09094587769816,8.64522039213519,2.71919693146413,7.32620600838165,1.08045255361801,0.363470969597111
4.56024939540828,3.42181217954413,9.19168745260365,2.13095658175286,1.72371035650095,9.03789480714365,7.18227251289093,2.14740310351249,8.69906601890073,2.15112859510711,8.34403396219199,0.299240954348562,0.278497365023872
4.56441002916175,3.23097329938156,9.19507242390959,1.95733904009719,1.56474497066745,9.10774460319406,6.97603250471717,2.16842609384441,8.72881508771847,2.36254967537611,8.28858476737549,0.366504915095738,0.223060427536819
4.2061365455304,6.74159074490624,3.87886656427162,5.56575370714391,7.02648679540505,6.41239994109359,5.25053651886236,4.75204980501108,2.20056138227704,3.08812974986202,0.887726516893931,4.67664042533258,3.86983996038576
6.52074144879357,6.4434385118103,4.5686933736552,4.97364837019209,5.34168664974763,4.01899610204811,4.73683336716836,5.31294084191374,5.37056570543721,1.67823663439093,1.15704024931432,3.73486109348115,4.51444623974076
4.70100794514761,3.39510353923025,9.49293272226262,1.50976213899348,1.78735078834994,8.71335890591963,6.90131596508117,1.89405374662741,8.69690886670467,2.57990156705387,7.49212184839311,0.890199660062121,0.292596422469906
4.693454971702,3.54504318297875,8.86443658085392,2.21465672610821,1.9431352274402,8.90901022318626,6.86844773654362,2.37959447645977,8.41582888488951,2.17090601052005,7.97411675957824,0.505022662814458,0.593517274705516
4.54678618118264,3.23018895178693,9.21328828219492,1.9610395654929,1.54584733038152,9.13733446984421,6.97971089909664,2.15020648316575,8.75747095769685,2.34920866806906,8.32136462353376,0.350454453543189,0.200894304850106
5.1854621809245,4.32544805314147,4.1433884112105,5.89398074609484,5.38319728923102,5.15898995281409,4.65060419277968,4.93233955620074,3.16249857754559,3.49783632929,1.44004319355348,5.40803717981417,5.97428675742893
7.68028467077623,8.19214428439516,4.74098749122508,2.83192162799306,6.71297367540662,4.89965194174128,6.27325678211339,2.83409890276893,3.81642157777108,2.52074272802027,1.45863868168302,4.48920134328544,4.50961519733633
4.62599709370733,2.9843952694407,9.27543525280554,1.65863224973326,2.10069706174888,8.74996997823656,6.31353550881147,2.37535282960128,8.90513107114644,2.77740623071419,6.91467710311762,1.71849342457482,0.662797996890406
4.4178078029769,4.00488594634449,8.79683700407734,2.73575438869664,1.86081691553593,8.38410830690097,7.40096056283852,2.32097829873751,7.74310369896127,2.61239346652014,7.95927645486195,0.645871468888681,0.425130295249997
4.51500596718929,3.26199410278716,9.15873745397917,2.02097511483216,1.56732802575905,9.114064886024,6.92734838038381,2.17238890942207,8.70164140506547,2.36336116080201,8.22558691713354,0.457373293515332,0.273318301732325
4.78588115646074,0.741718982182354,8.46412663999241,1.91510547088473,4.46029091545506,7.23583497015147,2.41975809539279,4.68124897393278,8.63095340919122,5.16288885411709,1.20762816635723,7.59289640877308,2.90774344386558
4.26999182356254,0.607337715350082,8.2928324521911,2.35002598925149,4.96342469200946,6.83276484420684,3.38698640566047,4.37483892504495,8.28951790450335,5.26337626104618,1.7767565762294,7.10755416115254,3.36456142025887
4.88893962750387,3.75716159092123,8.87599215809066,1.90605118934752,2.60328057557641,8.19833949008654,6.57191920549719,2.23796095624564,8.34376931053949,2.60188428463853,6.69248030659844,1.40046049687257,0.773109975419919
4.86298668604616,3.38760093227663,8.90229893310112,2.04154028810898,1.98924602958105,8.57502371388337,7.13826980903669,2.42608910078207,8.25021526999361,2.38286857503163,7.8366687623348,0.503173628264896,0.627748705372443
4.49795133130035,3.20455389438872,9.16762862509425,2.03825701455888,1.58278508284304,9.15249813380433,6.91831271234746,2.19385850601009,8.71447150789393,2.38491580779348,8.22265796965445,0.403642115159096,0.283134301789219
4.3690681946375,3.47741103835083,5.09267750862978,6.082576735846,9.63708829128004,4.40336319975097,3.73578283131928,8.05349323066784,8.9689088203926,2.08910528874815,2.78638607525874,4.47864875769961,3.74347795820595
5.49977821371853,7.04126737980956,3.47386050950277,3.83028686792304,5.62691091143175,5.56309278531483,6.22044100135968,3.79005407862665,3.92488817432155,2.65618480224894,1.84264792328639,3.51804161116961,3.30461981681722
4.88814608738783,3.64973056334767,8.89627332591203,1.73622062381874,2.50188022874582,8.18620132200026,6.67274733811459,2.51827620812764,8.37388463447751,2.69793289811766,6.50206963593821,1.49472992076579,0.901144371704513
4.31359230943947,3.30488709108058,9.0992131640799,2.65413949688402,2.18165159855418,9.01161936486497,6.58103585768795,3.38127271191153,8.18295818699135,2.93195109774881,7.0896700857939,1.70453835953662,0.784217943562192
4.67727901275107,3.22413384457249,9.08317528132209,1.92882587731151,1.66630205526027,8.92635704604652,6.96563666101388,2.27367690956724,8.55193064586824,2.45032811458146,8.09691004682253,0.441533812450761,0.356078495109613
4.19484438450225,3.17993103706841,3.80351110990725,6.7981769058696,2.68010439491262,3.35236290015273,5.08646215871937,3.06852997177301,9.34326097764519,4.46248310780722,2.28138939892737,7.24206137617831,8.14932813238535
3.64679914011362,8.06042532863704,6.03962247457546,8.13224083576087,7.82473504665779,1.74200563165151,10,2.79698101750884,7.53313916342944,3.97947039125015,5.84873766522237,4.39936562159349,2.34434736213159
4.6193119009395,3.33416355605477,9.11898541240247,1.6655108280261,2.04224603671634,8.43803540065954,6.72728591625265,2.28327817404576,8.53751350549242,2.71007520682996,7.00945203661745,1.37989644284916,0.626151222496231
4.57991130665093,3.07050128893162,9.18070888613171,1.99915897963592,1.99253032268136,8.98556361785209,6.54772382901604,2.4325953208447,8.87689437758337,2.4997109356741,7.42239150955538,1.30627810699405,0.627582697122101
4.3736074784411,3.17207163527641,9.20032560453289,1.82314422579353,1.57366063255154,8.57680292858294,6.5912150167151,2.25960634865673,8.93860582647688,2.85213496182277,7.94078347843584,1.1021587602839,0.380838522661987
4.05549393844625,4.47694059095986,3.84208775220921,4.07180646403852,4.85673391552377,4.42601563412533,5.97412653270665,6.21395022718353,4.11330659192288,2.47525135527585,2.60384257754289,6.71237719052599,3.7714561635448
4.2490960732624,3.46625627734273,9.01075655928881,3.29000220696618,1.41261190157471,8.29231490921833,6.95859350698017,2.66090003373428,8.21204708088567,2.63476212551747,8.68049227927282,1.48933397122776,0.949946838857107
4.89033190660702,3.55944036834949,8.92282867856887,1.8507535031989,2.33149957734174,8.05172949577712,6.60542890618211,2.16044605367043,8.19461246576903,2.33309852064258,7.05241651211064,1.50897431048982,0.780036511286696
4.20799802546159,3.0951371191354,7.47745536429728,3.45963878750465,3.51179458808371,6.77055003703611,5.31682024764287,4.29844749983633,6.43260797146384,3.77327720777639,4.95663202737922,4.51002694427566,3.74955629995366
4.05403492947658,4.02062359632765,8.90856357619473,2.84653865134169,1.69809393677024,8.42963111968661,6.94506967414105,2.2173661610972,7.96069551025117,3.1130044196387,7.45038321467469,1.42943074673934,0.23933911085167
5.28700862451996,5.75479155217776,0.249294132608223,8.64414546265932,8.45903751553974,8.04357008352739,7.12465686873645,2.37948812312055,7.68865237785076,7.68214839748648,3.82188185062304,8.48340000186776,3.96650545780894
5.68033807415265,9.04215236671704,4.51194686379517,8.93435785909932,5.39377997420655,0.713412562052723,6.00636961280538,1.51119007017155,5.84228066418559,4.17480400625058,8.63763495229924,4.7790068530867,8.43575782738073
7.51087569083523,4.6807847123863,4.22166186279222,4.72448756971039,7.33530988191998,5.6943820524068,5.20460687888185,3.7362433810882,3.70996247859851,6.08557274380765,3.72175570875331,6.50668351230603,4.70295122978764
3.63172266049744,4.86700761827793,8.68863340815522,3.86281336126907,1.92495297266582,7.75189979261736,7.04737051493868,2.1324261060804,7.04802151063111,3.86230375354189,6.59884405296431,2.45716835644038,0.391839546405991
3.30077937382208,6.71437563768669,0.626494548812861,5.88671308588944,7.47532067425133,4.02210861680131,1.68540810068877,0.55845890837624,9.71406559709227,9.93159676271023,8.16598872380774,6.94571822106946,3.50777299614137
8.35397159151255,3.73015022984535,3.59137771299317,2.16217267791105,5.303280906759,1.75234224685131,6.59158989962611,3.62288229089625,1.61517680522986,3.58548648605175,4.27446449802209,6.18353044576141,6.64140799095453
2.3287999985838,5.44988765955068,6.7695782759562,8.64451562239578,3.02171062442447,5.36483243405195,8.28648848038857,1.08040190112361,3.93634672233073,5.84945182917535,2.79315957155388,6.83459912143835,0.638177741778063
