"fastcoef_sq","pref_flow_den","slowcoef_sq","soil_moist_max","soil2gw_max","fastcoef_lin","gwflow_coef","jh_coef","slowcoef_lin","sat_threshold","carea_max","smidx_coef","smidx_exp"
4.81184213846406,2.21568110274216,9.53763041240845,1.20400552014509,1.22500627120715,9.19186708057826,6.78224310895719,2.14702262929015,9.49247775540119,2.27854347497073,8.51233772288299,0.100259930846696,0.135501546908216
4.81184224436558,2.21568110854638,9.53763055607192,1.20400517294872,1.22500650118524,9.19186717815716,6.78224305579772,2.14702262274932,9.49247792437614,2.27854342671289,8.5123373476325,0.100260050796486,0.135501650031551
4.81184367344992,2.21568200677937,9.53763647882831,1.20399972723319,1.22500723280742,9.19187456374437,6.7822444662319,2.14702266085513,9.49248024805816,2.27854444767872,8.51233408151672,0.100259216960637,0.135500136234537
4.81184110114292,2.21567628441491,9.53760541320285,1.20402267196356,1.22501142520219,9.19183879516827,6.78223782865455,2.14702245916296,9.4924757298873,2.27852608354736,8.51235122958324,0.100257321202915,0.135513114764552
4.81184168359995,2.21568047022591,9.53762692460601,1.20400836106561,1.22500637435185,9.19186303686531,6.78224239735652,2.14702261195722,9.4924769741258,2.27854180400924,8.51233985299287,0.100259770069476,0.135502786751447
4.8118423123657,2.21567984524464,9.53762480707833,1.20400830182049,1.2250085177584,9.19186048345625,6.78224150805299,2.14702264669357,9.49247803008373,2.27853904985413,8.51233939886385,0.10025991196571,0.135504834493984
4.81184226638489,2.21568080627177,9.53762911304819,1.20400607093754,1.22500691916626,9.19186559094499,6.78224276531128,2.14702261814634,9.49247792890787,2.27854220889403,8.512338138438,0.100259787520891,0.135502398647569
4.81184418934669,2.21568267727851,9.53763983543231,1.20399630388243,1.2250078037216,9.19187790261673,6.78224471970948,2.14702263831938,9.49248113951102,2.27854630794945,8.51233059799389,0.100260380610104,0.135499355377073
4.81183836103257,2.21567058675511,9.53757606697011,1.20404856416839,1.2250119988774,9.19180871740026,6.78223415809416,2.14702279523458,9.4924713122739,2.27850611565825,8.51237613953271,0.100249171487572,0.13552305237708
4.81184431967861,2.21568263296557,9.5376400012751,1.20399563053913,1.22500819312403,9.19187775984728,6.78224447133791,2.14702263424268,9.49248131737668,2.27854648394203,8.51232964266432,0.100260916474795,0.1354995985901
4.81184431996416,2.21568263316459,9.53764000243686,1.20399562939296,1.22500819338151,9.19187776123838,6.7822444715554,2.14702263424882,9.49248131786694,2.27854648418081,8.51232964181125,0.100260916473835,0.135499598343642
4.81184429763129,2.21568268411894,9.53763998683677,1.20399594739485,1.22500803670554,9.19187800869366,6.78224466727753,2.14702263181942,9.49248131240817,2.27854626107807,8.51233021483753,0.100260501683127,0.135499457840155
4.81184421589622,2.21568267651364,9.53763985969879,1.20399622652845,1.22500786337849,9.19187791616742,6.78224470551759,2.14702263675229,9.49248118188052,2.2785462843701,8.51233051480648,0.100260405318767,0.135499386132279
4.81184420273362,2.21568268062678,9.53763986670504,1.20399626343154,1.22500782104645,9.19187794061147,6.7822447241578,2.14702263864718,9.49248116136197,2.27854630225617,8.51233056916067,0.100260377925376,0.135499355876749
4.81184407760723,2.21568265616321,9.53763969393544,1.20399647801325,1.22500766135925,9.19187764168449,6.782244646033,2.14702263040664,9.49248095142084,2.27854654313779,8.51233060503062,0.100260555219536,0.135499327246837
4.81184044587469,2.21567768061949,9.53761241312671,1.20401986256989,1.22500764806501,9.19184707229871,6.78223980224249,2.14702263192368,9.49247485999242,2.27853270825265,8.51234959297388,0.100257598582113,0.135508405296992
4.8118386016064,2.21567593262487,9.53760225247787,1.20402916728622,1.22500679683167,9.19183542007054,6.78223795863285,2.14702261286907,9.49247180331984,2.27852883955505,8.51235676081956,0.100257045560189,0.135511263286936
4.81184662020472,2.21568440454234,9.53765042800595,1.20398553953735,1.22500990844198,9.1918899055908,6.7822463555005,2.14702264422738,9.49248514553985,2.27854940205417,8.51232201190995,0.100261181810772,0.135497145523828
4.81184635213602,2.21568425901898,9.53764941597842,1.20398672248771,1.22500957388135,9.19188883921908,6.78224627934253,2.14702264097195,9.49248470238699,2.2785490900012,8.5123230852759,0.100260948914433,0.13549726719536
4.81184625803592,2.21568425679327,9.53764930383584,1.2039870237774,1.22500936363556,9.19188877232101,6.7822463315596,2.1470226475218,9.49248455284348,2.27854914346566,8.51232341563711,0.100260840858568,0.135497166314857
4.81185858516855,2.21569373094007,9.53770597646325,1.20393161994717,1.22501855102647,9.19195386549248,6.78225603342561,2.14702269707209,9.49250488609873,2.27856618498231,8.51228060928758,0.100263518168073,0.13548397036909
4.8118505593123,2.21568741347552,9.53766840194961,1.20396794534537,1.22501286969378,9.1919105760115,6.7822494465541,2.14702265240615,9.49249163882584,2.27855470601621,8.5123084612317,0.100261969175939,0.135492988930968
4.81187443550651,2.21570626973179,9.53778074951536,1.20385912611166,1.22502983023456,9.1920396416404,6.78226887417099,2.1470227705183,9.49253104923518,2.27858969954998,8.5122244829588,0.100267309934659,0.135466048795644
4.81186063644771,2.21569398406951,9.53770877001364,1.2039264572409,1.22502212149088,9.19195719693303,6.78225612146397,2.14702269496709,9.49250823869703,2.27856377777827,8.51227658306546,0.10026330620024,0.135485235182333
4.81202150506957,2.21577225339269,9.53825859139692,1.20325866024754,1.22523887218513,9.19253788595516,6.78229334503541,2.14702471429708,9.49277473933531,2.27869599413674,8.51167271488125,0.100386125249723,0.135439838601774
4.81192173392514,2.21571871507159,9.53787803625124,1.20370395384766,1.22511326150762,9.19213778102146,6.78226672734904,2.14702210704585,9.49260805824408,2.27857286108055,8.51208124702461,0.100292568113469,0.135486312941068
4.52825130702119,2.88254628811214,9.35540756941875,1.82671150592344,1.41656751799402,8.86176733158594,6.84990076858147,2.14216491014085,8.8983683250236,2.67692345986578,7.99711254064241,0.695536445663814,0.201043764643902
