"fastcoef_sq","pref_flow_den","slowcoef_sq","soil_moist_max","soil2gw_max","fastcoef_lin","gwflow_coef","jh_coef","slowcoef_lin","sat_threshold","carea_max","smidx_coef","smidx_exp"
4.81184550705387,2.2156812714669,9.53763491593288,1.20399449571964,1.22501362181363,9.19187009229215,6.78224138630107,2.14702242215836,9.49248313268281,2.27854190769792,8.51232577008556,0.100263777737166,0.13550487138896
4.81184550705411,2.21568127146602,9.53763491592877,1.20399449572218,1.22501362181503,9.19187009228793,6.78224138630038,2.14702242215837,9.49248313268314,2.27854190769381,8.51232577008816,0.10026377773592,0.135504871391185
4.81184550705399,2.21568127146636,9.53763491593035,1.20399449572128,1.22501362181443,9.19187009228958,6.78224138630068,2.14702242215837,9.49248313268298,2.27854190769541,8.51232577008727,0.100263777736345,0.135504871390286
4.81184550705416,2.21568127146621,9.53763491592977,1.20399449572146,1.22501362181486,9.19187009228903,6.78224138630058,2.14702242215837,9.49248313268323,2.27854190769451,8.51232577008756,0.100263777736062,0.135504871390746
4.81184550705404,2.21568127146633,9.53763491593024,1.20399449572124,1.22501362181457,9.19187009228944,6.78224138630063,2.14702242215837,9.49248313268306,2.27854190769523,8.51232577008722,0.100263777736347,0.135504871390415
4.81184550705388,2.21568127146689,9.53763491593283,1.20399449571967,1.22501362181365,9.19187009229211,6.78224138630107,2.14702242215836,9.49248313268282,2.27854190769787,8.51232577008559,0.100263777737148,0.135504871388988
4.81184550705403,2.21568127146632,9.53763491593017,1.20399449572131,1.22501362181457,9.19187009228937,6.78224138630062,2.14702242215837,9.49248313268304,2.2785419076952,8.51232577008728,0.100263777736337,0.135504871390434
4.81184550705394,2.21568127146666,9.53763491593176,1.20399449572033,1.22501362181402,9.191870092291,6.78224138630089,2.14702242215836,9.49248313268291,2.27854190769679,8.51232577008627,0.100263777736819,0.135504871389572
4.81184550705532,2.21568127146607,9.53763491593009,1.20399449571976,1.22501362181687,9.19187009228992,6.78224138630068,2.14702242215839,9.49248313268509,2.27854190769178,8.51232577008695,0.100263777734973,0.135504871391876
4.81184550705425,2.21568127146577,9.53763491592772,1.20399449572272,1.22501362181554,9.19187009228688,6.78224138630021,2.14702242215838,9.49248313268336,2.27854190769253,8.51232577008881,0.100263777735514,0.135504871391852
4.81184550705068,2.21568127146416,9.53763491591691,1.20399449573501,1.22501362181142,9.19187009227406,6.78224138629845,2.14702242215835,9.49248313267752,2.27854190769229,8.51232577009784,0.100263777735874,0.135504871392926
4.81184550705402,2.2156812714664,9.53763491593057,1.20399449572104,1.22501362181446,9.19187009228979,6.78224138630069,2.14702242215837,9.49248313268303,2.27854190769556,8.51232577008702,0.100263777736445,0.135504871390234
4.81184550705497,2.21568127146502,9.5376349159247,1.20399449572388,1.22501362181756,9.19187009228402,6.78224138629971,2.14702242215839,9.49248313268448,2.27854190768811,8.5123257700905,0.100263777734079,0.135504871394099
4.81184550706656,2.21568127146235,9.53763491592157,1.20399449571067,1.22501362183972,9.19187009228559,6.78224138629917,2.14702242215855,9.49248313270303,2.27854190765599,8.51232577008697,0.100263777722891,0.135504871408745
4.81184550265336,2.21568126820321,9.53763489658794,1.20399451506329,1.2250136181215,9.19187007022536,6.78224138310568,2.14702242216544,9.49248312545767,2.2785419022646,8.51232578526311,0.100263776641218,0.135504875577176
4.81184550717214,2.2156812715534,9.5376349164446,1.2039944952041,1.22501362191619,9.19187009287485,6.78224138638473,2.14702242215789,9.49248313287666,2.27854190783771,8.51232576967967,0.100263777767072,0.135504871281052
4.81184551129716,2.2156812755461,9.53763494033174,1.20399447327138,1.22501362348065,9.1918701198275,6.78224139050021,2.14702242220278,9.4924831396024,2.27854191783604,8.51232575244343,0.100263779628459,0.135504864440458
4.81184550639627,2.21568127117294,9.53763491400734,1.20399449794485,1.22501362107357,9.19187009003419,6.78224138597363,2.14702242218549,9.49248313165451,2.27854190768531,8.51232577168574,0.100263777839388,0.135504871553846
4.81184550756173,2.21568127174007,9.53763491761226,1.2039944938657,1.22501362237599,9.19187009424577,6.78224138657679,2.14702242214827,9.49248313350326,2.27854190785844,8.51232576868625,0.100263777735124,0.135504871174507
4.81184551067774,2.21568127376579,9.53763493015774,1.2039944809831,1.22501362519484,9.19187010869561,6.7822413886504,2.14702242216819,9.49248313861208,2.27854191072552,8.51232575878994,0.100263778157448,0.135504868741495
4.81184556251925,2.2156813122921,9.53763516118865,1.20399425284944,1.22501366551387,9.19187037411646,6.78224142824374,2.14702242216514,9.4924832235799,2.27854197645592,8.51232558319011,0.10026378788377,0.135504816820971
4.81184564245762,2.21568136283351,9.53763546920672,1.20399393259529,1.22501374283347,9.19187073087225,6.78224147950934,2.14702242233859,9.49248335513559,2.27854203708356,8.51232533784188,0.100263795748835,0.135504761102891
4.81184549315884,2.21568126161686,9.53763485344712,1.20399455625436,1.22501361291854,9.19187001938677,6.78224137483249,2.14702242206856,9.49248311013558,2.27854188989658,8.51232581430366,0.100263777404815,0.135504886222486
4.81184529552148,2.21568113599047,9.53763403993428,1.20399543809632,1.22501340348092,9.19186913011961,6.78224128059414,2.14702241805122,9.4924827823506,2.27854164110904,8.51232657110364,0.1002636521154,0.135505024609289
4.81184529886784,2.2156811422633,9.53763423793882,1.20399533456479,1.22501331209049,9.1918693909933,6.78224133882325,2.14702242981247,9.49248281149107,2.27854177876789,8.51232654978613,0.100263621266664,0.135504899036381
4.81184251812845,2.21568012685312,9.53762619680395,1.20400622883417,1.22500902121068,9.19186123350151,6.78224120964043,2.147022415769,9.49247822178963,2.27854049804453,8.51233672581225,0.100261338650491,0.135504809546216
4.8117295039963,2.21624944196248,9.53772585856933,1.20427256326272,1.22565574990901,9.19181399987974,6.78245187243072,2.14686598979845,9.49208744761247,2.27889707008131,8.51095343763031,0.101238570217537,0.135653362689916
