"fastcoef_sq","pref_flow_den","slowcoef_sq","soil_moist_max","soil2gw_max","fastcoef_lin","gwflow_coef","jh_coef","slowcoef_lin","sat_threshold","carea_max","smidx_coef","smidx_exp"
4.81184213846406,2.21568110274216,9.53763041240845,1.20400552014509,1.22500627120715,9.19186708057826,6.78224310895719,2.14702262929015,9.49247775540119,2.27854347497073,8.51233772288299,0.100259930846696,0.135501546908216
4.81184215170175,2.21568110346769,9.53763043036638,1.20400547674554,1.22500629995442,9.19186709277562,6.78224310231226,2.14702262847255,9.49247777652306,2.2785434689385,8.51233767597668,0.100259945840419,0.135501559798633
4.81184223440068,2.21568115924448,9.53763079155969,1.2040051580881,1.22500633130717,9.19186754827614,6.78224319378686,2.14702263126297,9.49247791119225,2.27854353576498,8.51233749529759,0.100259886228817,0.135501458741111
4.81184207363149,2.21568080159671,9.5376288499581,1.20400659213374,1.22500659333184,9.19186531274013,6.78224277893828,2.1470226186572,9.49247762880658,2.27854238800677,8.51233856705175,0.100259767743959,0.135502269899237
4.81184208160605,2.21568102367763,9.53762997643314,1.20400587526016,1.22500628410024,9.19186657511414,6.78224302000711,2.14702262712354,9.49247765774177,2.27854326610055,8.51233798914672,0.100259910749543,0.13550170188862
4.81184214933291,2.21568102414856,9.53763006207531,1.2040056939998,1.22500641161661,9.19186666825813,6.78224300890068,2.14702263037787,9.49247777256885,2.27854319840094,8.51233782763179,0.100259929666634,0.135501752382327
4.81184214645911,2.21568108421276,9.53763033119843,1.20400555456962,1.2250063117046,9.19186698747618,6.78224308747933,2.14702262859367,9.49247776624536,2.27854339584094,8.51233774885517,0.100259921888833,0.135501600141926
4.81184226664423,2.21568120115068,9.53763100134744,1.20400494412867,1.22500636698931,9.19186775695566,6.78224320962921,2.14702262985448,9.49247796690806,2.2785436520319,8.51233727757742,0.100259958956909,0.13550140993752
4.81184166628512,2.21567978824378,9.53762361922865,1.204010900648,1.22500698716594,9.19185978518101,6.78224199009932,2.14702265003321,9.49247695001028,2.27853880505667,8.5123425249642,0.100258585926805,0.135504235091824
4.81184241111588,2.21568129402008,9.53763161101678,1.20400428394435,1.22500651144676,9.19186841548688,6.78224327925478,2.14702262990922,9.49247820064813,2.27854385109214,8.51233671285565,0.100260054050208,0.135501303368452
4.81184227480782,2.21568119839356,9.53763101178522,1.20400490197308,1.22500639134305,9.19186774811951,6.78224319411958,2.14702262960007,9.4924779780553,2.27854366304636,8.512337217816,0.100259992448392,0.135501425122931
4.81184227341201,2.21568120157821,9.53763101081022,1.2040049218482,1.2250063815508,9.19186776358547,6.78224320635222,2.14702262944823,9.49247797771413,2.27854364910244,8.51233725363014,0.100259966523973,0.135501416341463
4.8118426578221,2.21568149618503,9.53763277423103,1.20400319674093,1.22500666924999,9.19186978947555,6.78224350809729,2.14702263115569,9.49247861202102,2.27854417732057,8.51233592086386,0.100260049464714,0.135501006714232
4.81184239649776,2.21568129997774,9.53763159419552,1.2040043630559,1.22500646493707,9.19186843808241,6.78224331085727,2.14702263045978,9.49247818114629,2.27854382838141,8.5123368286677,0.100259986731531,0.135501273029283
4.81184219906229,2.21568115128657,9.53763070245616,1.20400523757847,1.22500631464941,9.19186741061283,6.78224315699081,2.14702262932504,9.49247785527681,2.27854357085095,8.5123375004501,0.100259950358347,0.135501477543798
4.81184192689039,2.21568067497682,9.53762816249823,1.20400731294819,1.22500644331439,9.19186457954331,6.78224269561786,2.14702262961934,9.4924773934751,2.27854212913097,8.51233920664435,0.100259639313623,0.135502404206813
4.81184125424965,2.21567981021284,9.5376233724258,1.20401143193037,1.22500640261328,9.19185916545133,6.78224182137611,2.14702262518488,9.49247626738086,2.27853981611681,8.51234248236713,0.100259209525069,0.135503976002896
4.81184070726502,2.21567988610351,9.53762326434378,1.20401228600247,1.22500538048384,9.191858866903,6.78224184366319,2.14702262021812,9.49247538673144,2.2785410641302,8.51234293467635,0.100259581762567,0.135503380504703
4.81184424530004,2.21568268088057,9.53763991419343,1.2039961213164,1.22500792254425,9.19187795989867,6.78224469414986,2.14702263513105,9.49248122889409,2.27854628248596,8.51233040407944,0.100260439880565,0.135499407051788
4.81183988504746,2.2156791510965,9.53761897415604,1.20401640963506,1.22500483844574,9.19185405848179,6.78224116396069,2.14702262370167,9.49247402761296,2.27853942198312,8.51234628953112,0.100259148036884,0.135504468056888
4.81184662020472,2.21568440454234,9.53765042800595,1.20398553953735,1.22500990844198,9.1918899055908,6.7822463555005,2.14702264422738,9.49248514553985,2.27854940205417,8.51232201190995,0.100261181810772,0.135497145523828
4.81184625803592,2.21568425679327,9.53764930383584,1.2039870237774,1.22500936363556,9.19188877232101,6.7822463315596,2.1470226475218,9.49248455284348,2.27854914346566,8.51232341563711,0.100260840858568,0.135497166314857
4.8118503618163,2.21568741684112,9.53766819443585,1.20396857004613,1.22501241111681,9.19191047303537,6.7822495711914,2.14702266318112,9.49249132074996,2.27855482997652,8.51230916608528,0.100261724507384,0.135492758638653
4.81185138745589,2.21568754340583,9.53766959121104,1.203965988693,1.22501419634902,9.19191213875564,6.78224961521058,2.14702266212862,9.49249299704911,2.2785536263745,8.51230715297422,0.100261618523468,0.135493391045275
4.81188698011544,2.21570389040479,9.53778745715556,1.2038188051707,1.22506442145165,9.19203478192248,6.78225566797675,2.14702315054189,9.49255200138472,2.27858160476223,8.51217147088255,0.100291479447452,0.135486119831606
4.81192173392514,2.21571871507159,9.53787803625124,1.20370395384766,1.22511326150762,9.19213778102146,6.78226672734904,2.14702210704585,9.49260805824408,2.27857286108055,8.51208124702461,0.100292568113469,0.135486312941068
4.52825130702119,2.88254628811214,9.35540756941875,1.82671150592344,1.41656751799402,8.86176733158594,6.84990076858147,2.14216491014085,8.8983683250236,2.67692345986578,7.99711254064241,0.695536445663814,0.201043764643902
