"fastcoef_sq","pref_flow_den","slowcoef_sq","soil_moist_max","soil2gw_max","fastcoef_lin","gwflow_coef","jh_coef","slowcoef_lin","sat_threshold","carea_max","smidx_coef","smidx_exp"
4.76445410801329,2.21812455200953,9.59976852157779,0.994602279542382,1.24598597630633,9.02793650102849,6.62611829713696,2.13930620647962,9.40340851094317,2.62068373406815,8.04151899207947,0.491085268505165,0.16532646389551
4.73216644294583,2.36314770012256,9.58404482202001,1.04780394760742,1.33826857441769,8.96644578730733,6.61615795292072,2.12587303761699,9.31323232742989,2.66995724755285,7.88652949428308,0.641043641355112,0.194159251871251
4.7483670248332,2.28638872751699,9.59426519561054,1.01943340421042,1.28970858177622,9.00276968716637,6.61723300494498,2.13309635770613,9.36133589935531,2.64850360173224,7.96340577104288,0.568683649079976,0.178747150791882
4.73133676895524,2.34471595338737,9.58508002583671,1.04492684072846,1.32066474044587,8.97419191845032,6.61028338143769,2.12971333621037,9.31941130157763,2.67928799332346,7.9001216949743,0.63396919999829,0.187689229145395
4.72994912344489,2.34058405389624,9.58584102188187,1.0391464928038,1.32004513333864,8.97467900467516,6.60051868603013,2.13073421439734,9.31969792120569,2.68604799531932,7.88870490322429,0.644502422657999,0.191150127371506
4.72738509839168,2.39060376151383,9.58132027847589,1.0652296009817,1.35353390104279,8.96613875565544,6.62365514134652,2.12073536293522,9.30480368405032,2.66050300532349,7.88196807570827,0.648660393559482,0.195341881085951
4.7059523818148,2.38071626099128,9.57507037217372,1.07300726968207,1.32778801900321,8.96586545118024,6.58815276310505,2.13118631487521,9.28573438154092,2.72029206837315,7.85493627804726,0.695385941981095,0.192075431117459
4.73009649809741,2.38363626686575,9.58627172247146,1.05504471056556,1.35379158181058,8.96379017691754,6.62133678094115,2.11890772264612,9.31169784785752,2.66134365523653,7.87693096231986,0.651265863307655,0.194916940659453
4.72913927233968,2.37551174327993,9.57776543326512,1.06457611738723,1.33483518436987,8.97687504163529,6.62585878673585,2.12600911058413,9.30478888925911,2.66143069866324,7.90739692559693,0.623336696849195,0.190767510542628
4.72190009257682,2.38140221425289,9.59101056883522,1.05558827704271,1.33686881343472,8.97316306143332,6.61961133537673,2.11427533273893,9.31420268421035,2.67206679099948,7.89007363691984,0.648305614010915,0.181970972230184
4.72133852297517,2.38194382971835,9.58471366034306,1.05476142588827,1.34091016616022,8.95597613600494,6.61419032141143,2.12177962237591,9.29773432169515,2.69183976718001,7.86585495485256,0.666542380535566,0.190167667463112
4.70633959641571,2.47142246662134,9.56394804236377,1.06642590129685,1.41230053234538,8.87608956878393,6.5886062902036,2.12589423801228,9.21500996472964,2.75469288807188,7.70713351980896,0.798616800154717,0.230569397515301
4.71353894708357,2.39321577221829,9.59033570754778,1.05773507704822,1.3316602740825,8.9647589913638,6.61449359764388,2.11153422604907,9.30077794367408,2.69294797530008,7.87648545080681,0.665310095029636,0.176877476618288
4.71318678260728,2.38036388401257,9.58547763238235,1.04044305775954,1.34701731577441,8.92594078970594,6.58107113102462,2.12615435411025,9.28032228023687,2.74322837097902,7.79314455040762,0.736945031549649,0.201138283871266
4.71257608531657,2.40176684310808,9.615498477056,1.02779805641292,1.36248444868987,8.95094929292776,6.60454636647639,2.09735974766599,9.31515445464538,2.70647829433907,7.81680452287792,0.716099717288065,0.180004236742901
4.72249725771643,2.37528722314943,9.60403602316901,1.04702887414991,1.32084186169545,8.9849977476867,6.63741480385707,2.10224938646024,9.33111111493889,2.65902129938858,7.92704473553557,0.615459307354311,0.16225465024579
4.69133218801651,2.57302128807852,9.56529955948,1.10645302762512,1.4836687457543,8.85455474178064,6.60679609846681,2.10039431195263,9.18897756488025,2.7333253064997,7.64689171641322,0.860999204983525,0.239667736591191
4.69064094899154,2.56340556515721,9.56944797179315,1.0955809888779,1.47567491213911,8.8549196886058,6.59867958564806,2.09836349103624,9.19252765661993,2.74349136768374,7.63988208571686,0.868124065103448,0.236936581617916
4.66649552865921,2.62310550434351,9.55542970186662,1.14543029065569,1.48804607809345,8.8420606562592,6.61230825325358,2.09699410241065,9.14667633284162,2.76630938470654,7.62722042016928,0.895615736206546,0.232683469840918
4.63890558230277,2.66743196671598,9.55030476207558,1.17089124806303,1.49488391363767,8.82083402717381,6.60350352560346,2.09344538695423,9.10501414930315,2.81811230829591,7.57654613125842,0.95922526417381,0.229323740581852
4.66389570237228,2.67631525528561,9.5538497056706,1.16644621218537,1.5153034845906,8.83068931842513,6.64418279544062,2.0826926661343,9.12716929425054,2.7455282353264,7.62651928110383,0.889973623969864,0.228807373816067
4.64318974581621,2.68967710342071,9.57497982158868,1.16887657647665,1.50929354293483,8.8562785651808,6.62292619037835,2.06299756784439,9.14841198622825,2.75840980567881,7.61626695256469,0.929138386530301,0.210151917621591
4.6616864800608,2.68837786508773,9.58211471599838,1.13792550351678,1.53907144289649,8.83959830505687,6.60837035188982,2.07831246088878,9.13117427463525,2.78569132650764,7.54920225120833,0.967541521006306,0.237624716640211
4.64032546798578,2.5268344051924,9.70496183189203,1.02529454974028,1.3236307278406,8.89100773719262,6.56590334728612,2.10037385876462,9.18662031542635,2.72968196371619,7.71167098099266,0.783447139610102,0.155878875019074
4.58383246969314,2.89644071370033,9.56803945840232,1.26611726788468,1.61771092660059,8.81000667866172,6.65936384208724,2.02057029480131,9.06949227819684,2.74890286926161,7.50998119322331,1.04316083829091,0.218119683131942
4.55657942040729,3.01827945837487,9.60971777785282,1.19415422734913,1.73461274029958,8.60548935449728,6.63810956741556,1.97268686123205,8.96627972554059,2.92692583174215,7.15683722499293,1.34230580718825,0.240950523950159
5.18180637910071,2.60915384750458,8.79191475820129,1.30518395918025,1.83980329099894,8.11320660799087,6.68570762099163,2.31681471758738,8.31685154388008,2.70166421081905,7.5642096466512,1.22858809871207,0.988385458889366
