"fastcoef_sq","pref_flow_den","slowcoef_sq","soil_moist_max","soil2gw_max","fastcoef_lin","gwflow_coef","jh_coef","slowcoef_lin","sat_threshold","carea_max","smidx_coef","smidx_exp"
4.81184443844027,2.21568048444533,9.53763004207455,1.20399941525964,1.22501275398071,9.19186463151767,6.7822406547875,2.14702241620651,9.49248138547258,2.27854032549348,8.51232974167144,0.100263331439783,0.135505933296012
4.81184443828024,2.21568048434942,9.53763004143345,1.20399941585094,1.22501275389595,9.19186463071068,6.78224065463094,2.1470224162021,9.49248138521253,2.27854032540049,8.51232974201544,0.100263331544152,0.13550593345664
4.81184443823505,2.21568048432436,9.53763004125864,1.20399941600421,1.22501275387869,9.19186463048021,6.78224065458075,2.1470224162005,9.49248138513961,2.27854032538698,8.51232974208628,0.100263331592422,0.135505933504078
4.81184443821626,2.21568048431378,9.5376300411858,1.20399941607054,1.22501275386933,9.19186463038654,6.78224065456177,2.14702241619983,9.49248138510903,2.27854032537922,8.51232974212182,0.100263331607772,0.135505933522556
4.81184443809116,2.21568048424118,9.53763004069343,1.20399941652207,1.22501275380539,9.1918646297605,6.78224065443736,2.14702241619621,9.49248138490624,2.27854032531753,8.51232974237368,0.100263331700296,0.135505933646479
4.8118444381137,2.21568048425281,9.53763004077819,1.20399941644488,1.22501275381569,9.19186462987052,6.78224065446026,2.14702241619697,9.49248138494233,2.27854032532445,8.51232974233512,0.100263331679365,0.135505933625077
4.81184443600132,2.21568048309949,9.53763003272165,1.20399942374334,1.22501275281122,9.19186461942269,6.78224065229293,2.1470224161269,9.49248138152686,2.27854032461314,8.51232974606379,0.100263333579675,0.135505935677091
4.81184443846227,2.2156804844607,9.53763004217129,1.20399941516675,1.22501275399512,9.19186463163213,6.78224065480626,2.1470224162069,9.49248138550863,2.27854032551805,8.51232974160525,0.100263331437844,0.135505933272844
4.81184443621392,2.21568048318896,9.53763003346156,1.20399942296567,1.22501275297538,9.19186462030993,6.78224065243307,2.14702241613231,9.49248138186202,2.2785403247102,8.512329745547,0.100263333517449,0.135505935546689
4.81184443984275,2.21568048543025,9.5376300482726,1.20399940933327,1.22501275487825,9.19186463886341,6.78224065600101,2.1470224162318,9.49248138777035,2.27854032707341,8.51232973746997,0.100263331293798,0.13550593179554
4.81184443787119,2.21568048412466,9.53763003989138,1.20399941728289,1.22501275366591,9.19186462873692,6.78224065423782,2.14702241619021,9.49248138454853,2.27854032525469,8.51232974280307,0.100263331856335,0.135505933827725
4.8118444385915,2.21568048458977,9.53763004287668,1.20399941446436,1.22501275410855,9.19186463238718,6.78224065489312,2.14702241620523,9.49248138572603,2.27854032582431,8.51232974097378,0.100263331578266,0.135505933106627
4.81184444064325,2.21568048584709,9.53763005128698,1.20399940680247,1.2250127550927,9.19186464298361,6.7822406569717,2.14702241626486,9.49248138905493,2.27854032714134,8.51232973657085,0.100263330183488,0.135505930926024
4.81184443770364,2.21568048404301,9.53763003926039,1.20399941776098,1.22501275366723,9.19186462782365,6.78224065399622,2.14702241618048,9.49248138428185,2.27854032528103,8.51232974286799,0.100263332184491,0.135505934037957
4.81184444911409,2.2156804911939,9.53763008645823,1.20399937438456,1.22501275949958,9.19186468673764,6.78224066527191,2.14702241648723,9.49248140283532,2.27854033332151,8.51232971694261,0.100263325432912,0.13550592197365
4.81184450901295,2.21568052934719,9.53763033706128,1.20399914392083,1.22501279005229,9.191864998203,6.78224072435702,2.14702241806053,9.49248150025373,2.27854037857925,8.51232957718544,0.100263292076932,0.135505857703556
4.81184441547028,2.21568047012881,9.53762994745426,1.20399950227172,1.22501274217378,9.19186451329918,6.78224063212746,2.14702241558939,9.49248134812937,2.27854030967416,8.5123297935205,0.100263345193453,0.135505957412669
4.81184451531195,2.21568053226937,9.53763035872436,1.2039991248112,1.22501279282429,9.19186502787502,6.78224073117513,2.14702241830966,9.49248151041152,2.27854037786465,8.51232956993051,0.100263284037774,0.135505852181006
4.81184428907401,2.21568039118923,9.53762942525693,1.20399998037763,1.22501267909305,9.1918638594473,6.7822405058686,2.14702241211925,9.49248114269928,2.27854022269423,8.51233007569192,0.100263423713157,0.135506091800119
4.81184442888132,2.21568047819055,9.53763000194647,1.2039994525862,1.22501274889176,9.1918645822679,6.78224064557669,2.14702241615107,9.49248137015159,2.27854031786228,8.51232976492511,0.100263336132979,0.135505943350333
4.81184422227694,2.21568065335043,9.53763095880598,1.20399965515606,1.22501161631576,9.19186608169443,6.7822412500974,2.14702243735941,9.49248101921807,2.27854120168101,8.51233063948046,0.100262669239521,0.135504929307059
4.81184412679273,2.21568038343816,9.53762927739119,1.20400051139804,1.22501224362853,9.19186383772988,6.78224064081408,2.14702241638164,9.49248087188044,2.27854033047663,8.51233074324782,0.100263148546646,0.135505867776001
4.81184402531912,2.21568018330395,9.53762815169275,1.20400096545563,1.22501268664459,9.19186216843418,6.78224010823859,2.14702240175074,9.49248071188432,2.27854000679858,8.51233047734604,0.100263782629994,0.135506528988233
4.81184327134081,2.21567972237919,9.53762518005123,1.20400432287919,1.22501180269935,9.1918590058544,6.78223982738375,2.14702240290914,9.49247947711748,2.27853911184317,8.51233344964081,0.100263210703975,0.135506948017658
4.8118437206286,2.21567996964005,9.53762677179533,1.20400271127792,1.22501219816008,9.19186096216933,6.78224015729718,2.14702241080304,9.49248022103619,2.27853926278273,8.51233237252263,0.100263059561592,0.135506652865685
4.81183950122768,2.21567811100349,9.5376140959383,1.20401793608551,1.22500675999469,9.19184662753658,6.78223866179111,2.14702238867781,9.49247329128887,2.27853841055317,8.51234468452425,0.100262185112892,0.135507489546216
4.81285173282303,2.21673184062482,9.53928069723785,1.2005433385246,1.22777625748729,9.19402124295666,6.78172417946831,2.14674073269896,9.49431116674388,2.27924071944974,8.50862958601775,0.101659560406095,0.136289352366157
