"fastcoef_sq","pref_flow_den","slowcoef_sq","soil_moist_max","soil2gw_max","fastcoef_lin","gwflow_coef","jh_coef","slowcoef_lin","sat_threshold","carea_max","smidx_coef","smidx_exp"
4.82084110770869,2.21806434580142,9.55570064643234,1.17742583339976,1.23935287328708,9.21263606939692,6.78365757345095,2.14704494946046,9.50727510135807,2.27273413684461,8.490949450125,0.100668713428301,0.138266799678353
4.8254088897308,2.21973617273837,9.5662436714597,1.16293625070661,1.24667517632425,9.22451581346859,6.7845268784847,2.14708545813194,9.51492374427666,2.27078075172651,8.47880142852229,0.10149858612994,0.139120919893664
4.82093375207203,2.21933404672485,9.56172119426905,1.17265656649793,1.23862096688458,9.21855924936383,6.78426926058796,2.1470917070283,9.50761119138798,2.27788458766731,8.4857388309752,0.103002232222622,0.1357718145738
4.82528106513207,2.22033734677447,9.57016735661531,1.15958323924607,1.24569421244957,9.22787593007315,6.78464221309178,2.14703130244609,9.51461379335627,2.2753680494387,8.474826917904,0.103735350952592,0.1374137003588
4.82560696845762,2.22043704942211,9.57030863671757,1.15911034450908,1.24641380597573,9.22816296530739,6.78469487043713,2.14703060830578,9.51518874749635,2.27447123832312,8.47455197741068,0.103477150557425,0.137738197749024
4.8229787410263,2.21862406347513,9.56007875255056,1.17102313434627,1.2427515238268,9.21764454315561,6.78398218864193,2.14706669966781,9.51080450303354,2.27148211172932,8.48574206372344,0.100853616423446,0.138886734981185
4.82323509590678,2.21861807116355,9.55964967061797,1.17103831311524,1.2434318038974,9.21729948873835,6.78394178167457,2.14704743039711,9.51122975230842,2.27021620187698,8.48595826691259,0.100423047988269,0.139414541842574
4.82278494868106,2.21883072394693,9.56094449432736,1.17054571129439,1.24226118616195,9.21833429968349,6.78403961838134,2.14704741336529,9.51048028299232,2.27285112543838,8.48498236464377,0.101465439758003,0.138315817961315
4.82316826754214,2.21860943948954,9.56109232825549,1.16966228490314,1.24278475458974,9.21842866993035,6.78388850173446,2.14702692323908,9.51098286403124,2.27226661298544,8.48446727499295,0.101305163380515,0.138757126832011
4.82360636112384,2.21875470040681,9.56060236061163,1.16967374687983,1.24402598670542,9.21824034128667,6.78396075946406,2.14702309299038,9.51180664019602,2.27028759025224,8.48469414466406,0.100682816412614,0.13948483506194
4.82294114430579,2.21896091354717,9.56152786169855,1.16991608929705,1.24249536398551,9.21898721905315,6.78410975722938,2.14705735598449,9.51076803987335,2.27289555151842,8.48443375360555,0.101527179378903,0.138244909025235
4.82311145067976,2.21891005856858,9.56115826464136,1.17009154371138,1.24292344996663,9.21880748050333,6.78412054842373,2.14709931713161,9.51111281297398,2.27190436762211,8.48482162345225,0.101091385546515,0.138575160127402
4.82299315371442,2.21903529273295,9.56203284842535,1.16948328527017,1.24251432697658,9.21955777898394,6.78415286219604,2.14710596068784,9.51091917140284,2.27314012733821,8.48403091102884,0.10163274905573,0.138073422066581
4.82286429528208,2.21912906432341,9.56216884926241,1.16944385350005,1.24230322957025,9.21948671203004,6.78412308238121,2.14703785458539,9.51063870134986,2.27368608484147,8.48377769656041,0.101944288667825,0.137931161142
4.82363862046702,2.21876785221068,9.56092894584297,1.16943824198546,1.24395713473568,9.21866602963866,6.78402682563507,2.14705396585858,9.51188744895562,2.27049238672313,8.48454893929358,0.100681950722552,0.139333067968395
4.82342169118931,2.21886920462036,9.56155497642281,1.16911752236785,1.24341761939159,9.21907716703106,6.78402502536771,2.14703259176625,9.51149607796629,2.27183204240136,8.48393528012133,0.101287014846293,0.13884263127005
4.82567660812378,2.22078817098049,9.57230587174579,1.15727081698244,1.24622852645287,9.22994287070178,6.784782867614,2.14700004671401,9.51526862247332,2.27635488979766,8.47248729993133,0.104466203735658,0.137025226596774
4.82324338211621,2.21922680226751,9.5629924117719,1.16823613200258,1.24290231057839,9.2203890683015,6.78416415146954,2.14703653776755,9.51125532444878,2.27356094496129,8.48274902917495,0.102050503594498,0.138032165943758
4.8228297606994,2.21952150129946,9.56426725418344,1.16782090937961,1.24186839476796,9.22149625883574,6.78430623822323,2.14705616363594,9.5106259093847,2.27575019657851,8.48195976893651,0.102851871630672,0.136985531512846
4.82627233352661,2.22118932960485,9.57474684485686,1.15439369154776,1.24707375409683,9.23238847084842,6.7848894962118,2.14700936663172,9.51627632867008,2.27724978457896,8.46967066245279,0.105258135751783,0.136741253475112
4.82387915991446,2.21925652002527,9.56392537781374,1.16671155137771,1.24386111181782,9.22165214415742,6.78427012685592,2.14708071156339,9.51232521367263,2.27277252973749,8.4817705150614,0.101760499661822,0.138317509222214
4.82402644389295,2.22015506044091,9.56898539395293,1.1621068436617,1.24333570503215,9.22617844381947,6.78451527982475,2.14699663624106,9.51247728478781,2.27768050092475,8.47654729253092,0.104317930618447,0.136457561623106
4.83217834540554,2.22182536355573,9.58210325564615,1.14083857548928,1.25701110186638,9.24205031252901,6.78561219234949,2.14706589875943,9.52597135935435,2.26891125444477,8.46032170792916,0.103062702575735,0.140321284997995
4.82740279606111,2.22179362110436,9.57966085785292,1.1482223784431,1.2484219469365,9.23684586981819,6.78486017771304,2.14687403882657,9.51790104917806,2.27977741052578,8.46357391621561,0.107222890503102,0.136237863404944
4.83084464365512,2.22065517601725,9.57605786058909,1.14572188261794,1.25506877756172,9.23360301263807,6.78442348707202,2.1461026877962,9.52228158068529,2.2688090994824,8.46422261798948,0.103193517183466,0.142045222822937
4.82453270100076,2.22486911284642,9.57316178566309,1.15000235206543,1.25213690075603,9.21799758249091,6.78049565788259,2.14411126800394,9.51012847516612,2.28438111634848,8.45184432427376,0.120524024689306,0.139663399534396
4.78949748666207,2.2868472712691,9.53607259187712,1.2598705345692,1.29531437716451,9.16876035838749,6.80787745573799,2.12696560314525,9.42955087659626,2.33086303371238,8.35190009427233,0.226214539473026,0.151636489049625
