"fastcoef_sq","pref_flow_den","slowcoef_sq","soil_moist_max","soil2gw_max","fastcoef_lin","gwflow_coef","jh_coef","slowcoef_lin","sat_threshold","carea_max","smidx_coef","smidx_exp"
4.82021954252037,2.22051822895451,9.56859360048681,1.1672357474429,1.23598988905893,9.22396601301533,6.78433327249692,2.14688632987375,9.50614985655927,2.28687198900935,8.47895041684783,0.10722736666341,0.132391769500661
4.82046315426857,2.22055628628191,9.56894995510695,1.16657841465558,1.23641982309,9.22435387524525,6.78433293115952,2.14687769204976,9.50653625223276,2.28663326802135,8.47840315355782,0.10724799822478,0.132544142846683
4.82044531982094,2.22059354685974,9.5691308554904,1.16644485864659,1.23634793395168,9.22449953566985,6.78434861328921,2.14686727006366,9.50649218791782,2.28687705423465,8.47823534875696,0.107354550639275,0.132448630168082
4.82042823013647,2.22058822849839,9.56908906862641,1.1664976964365,1.23632387870917,9.22444924288341,6.78434275940118,2.14686633525209,9.50646271830984,2.28688240077183,8.47827582204108,0.107354822927208,0.132448727581297
4.82039055903006,2.22060045845129,9.56914292431021,1.16650567462996,1.23623851222009,9.2244875467858,6.78434898959992,2.14686704907171,9.50640242024154,2.28703392866152,8.47825249500548,0.107408132156341,0.132379924566755
4.8203878664219,2.22058353905382,9.56904442103613,1.16660319265432,1.236249741997,9.22440943868118,6.7843473177584,2.14687238990119,9.50640556670551,2.28692785627931,8.47836607588459,0.107349387185634,0.132413576412567
4.82038965270196,2.22058053943487,9.56906164933188,1.16656037755112,1.23626820203845,9.2244110142777,6.78432546514257,2.14687697913054,9.50641725992409,2.2869524311141,8.47829604359053,0.107394164621473,0.132419968315507
4.82045280028225,2.22059402927068,9.56916860816216,1.16637632894059,1.23636112688157,9.22451288823354,6.78433341546128,2.14686253796626,9.50649757387409,2.28691970315076,8.4781516525167,0.107398134554995,0.13245323862977
4.82022629583623,2.22058583252356,9.56898499456786,1.1668542263793,1.23593673713343,9.22427522186925,6.78434067485642,2.14686494411602,9.50613061170819,2.28730349721756,8.4785031439045,0.107462789011554,0.132252982697453
4.82071511648271,2.22058980992095,9.56924221784523,1.16603802969698,1.23686655902476,9.22477377859932,6.78436793453356,2.14689271713261,9.5069693399238,2.28623698946812,8.47803011628505,0.107143611594236,0.132701191756237
4.82060727957895,2.22062426502467,9.56943543411902,1.1659266643913,1.23663372970865,9.22480454279869,6.78433321013676,2.14686317842728,9.50675326916069,2.28680189575244,8.47776226155573,0.107433341478848,0.132531480685292
4.82044947252855,2.22062696623139,9.56932579283263,1.16626280116419,1.2363267493028,9.22466708723304,6.78435421424189,2.14686368757909,9.50649410158193,2.28707922174688,8.47802149313454,0.107465339844934,0.132377269105835
4.82088243966332,2.22066068595875,9.56982650313813,1.16517832120078,1.23712416172809,9.22522064466492,6.78432147142217,2.1468519553012,9.50718865978316,2.28653146597248,8.47713198069914,0.107467164479762,0.132714001771295
4.82088761928721,2.22075679108709,9.57028726798756,1.16484764564342,1.2369699503492,9.22566819797887,6.78442910163435,2.14681153166495,9.50713081208956,2.28699012401863,8.4768482058339,0.10756827050443,0.132490919204333
4.82171009171051,2.22075547851431,9.57081447010776,1.16320099979081,1.23863062466127,9.22642328337496,6.78433412870103,2.14685776181109,9.50855428445495,2.28541154313004,8.47558268970819,0.10735757008528,0.13329583462114
4.82158837139731,2.22072207218665,9.57055956893604,1.16361389834368,1.23828131303069,9.2261192046969,6.78440230085373,2.14677697624666,9.50822354605516,2.28552597513209,8.47609446005186,0.107180039615398,0.133228766520966
4.82142341260315,2.22099855041621,9.57197551264338,1.16249374324431,1.23783512469739,9.22719529813362,6.78439177653756,2.14676671740708,9.50795039176528,2.28751139064125,8.47448437801644,0.108277183371937,0.132519731010243
4.82201696542872,2.22091322785068,9.57169686670139,1.16203859883762,1.23910141518643,9.22730136164803,6.78439315909015,2.14683138452314,9.50901421725485,2.28555137072727,8.47450145853254,0.107584730882542,0.133305439056088
4.82218496305272,2.22071940543566,9.57104184535542,1.16224433820736,1.23930707172325,9.22659832971731,6.78436167549811,2.14667806533578,9.50905129229672,2.28467150353982,8.47510021955456,0.107046638703027,0.133788307817303
4.82257555774176,2.22082600125412,9.57134548414342,1.16180521433222,1.24020104872858,9.22740857871218,6.78449827241647,2.14687249836248,9.50998066299064,2.28355489170751,8.47487743245862,0.106684027768179,0.134012496788639
4.81351719961772,2.22003831581981,9.56325499066627,1.1804388735139,1.22355075566871,9.21632713043617,6.78395405204505,2.14686555648521,9.49516406829859,2.29903749527603,8.48794094640656,0.110141543128918,0.126782250768089
4.82516247454812,2.22143002801686,9.57593334904694,1.15412889072895,1.24472213613332,9.23221790758395,6.78453416183657,2.14677521507244,9.51408531225,2.28183913214792,8.46815774820736,0.107401762506981,0.135321440855139
4.83038871714674,2.22245056702121,9.58432959282504,1.13994710798838,1.25351922749969,9.24171983137486,6.78499506478911,2.14659818044519,9.52236598134785,2.27713058947119,8.45675819765238,0.107432486982647,0.138008894756018
4.84954230887594,2.22275826964909,9.60123449894188,1.09640002714844,1.28572107526588,9.26006959333434,6.78478286955296,2.14377049061857,9.54938458980019,2.24986145683128,8.42622336453225,0.101867651648499,0.154643614207956
4.8234856057227,2.22087731973269,9.57312395068329,1.15831838506575,1.24137018385435,9.22851883461509,6.7842972337227,2.14644317871539,9.51082542638389,2.2839477543211,8.47182344325631,0.10735359722685,0.134605074954913
4.84592340714326,2.23126411015478,9.6043757698808,1.09246287458942,1.29230140992007,9.2540801929382,6.77928219666054,2.14453052793463,9.54257178898973,2.26539912428786,8.39997798652655,0.124900739568715,0.156122407975977
4.23694955190426,3.54556568667349,9.14667985656567,2.48106864784876,1.59809019525233,8.50326621954047,6.91541349997659,2.1372302430986,8.29150079966671,3.06946059966942,7.50981054541408,1.28583681034698,0.26902434552415
