"fastcoef_sq","pref_flow_den","slowcoef_sq","soil_moist_max","soil2gw_max","fastcoef_lin","gwflow_coef","jh_coef","slowcoef_lin","sat_threshold","carea_max","smidx_coef","smidx_exp"
4.81184443844027,2.21568048444533,9.53763004207455,1.20399941525964,1.22501275398071,9.19186463151767,6.7822406547875,2.14702241620651,9.49248138547258,2.27854032549348,8.51232974167144,0.100263331439783,0.135505933296012
4.81184443715998,2.21568048367812,9.53763003694574,1.20399941999007,1.22501275330269,9.19186462506177,6.78224065353499,2.14702241617119,9.49248138339216,2.27854032474955,8.51232974442344,0.100263332274731,0.135505934581038
4.81184443761939,2.21568048396146,9.53763003881092,1.20399941823791,1.22501275357266,9.19186462736784,6.78224065396049,2.14702241618245,9.49248138414072,2.27854032506746,8.51232974333081,0.10026333205034,0.135505934128279
4.81184443754423,2.21568048391915,9.53763003851953,1.20399941850323,1.22501275353521,9.19186462699316,6.78224065388457,2.14702241617977,9.4924813840184,2.27854032503643,8.51232974347296,0.100263332111738,0.135505934202188
4.81184443564736,2.21568048281215,9.5376300310256,1.2039994253591,1.2250127525782,9.19186461746034,6.78224065198634,2.14702241612413,9.49248138094188,2.27854032408587,8.51232974728941,0.100263333523884,0.135505936099748
4.81184443321511,2.21568048136513,9.5376300213328,1.20399943422351,1.22501275134043,9.19186460516331,6.78224064955163,2.14702241605385,9.49248137698859,2.27854032278897,8.51232975229027,0.100263335273084,0.135505938561056
4.81184442868445,2.21568047906198,9.53763000466294,1.20399944919444,1.22501274930275,9.19186458313776,6.7822406448092,2.14702241588808,9.4924813696897,2.2785403219721,8.51232975924086,0.100263339999351,0.135505942820328
4.81184443861626,2.21568048456832,9.53763004284848,1.20399941451656,1.22501275409602,9.19186463243338,6.7822406549376,2.14702241620959,9.49248138576094,2.27854032569008,8.51232974114189,0.100263331424273,0.135505933110669
4.81184443398757,2.21568048193259,9.53763002484857,1.20399943067171,1.22501275197006,9.19186460910218,6.78224065007863,2.14702241605811,9.49248137825147,2.27854032392692,8.51232974942257,0.100263335595115,0.135505937797366
4.81184444124523,2.21568048641517,9.53763005447064,1.20399940340691,1.22501275577579,9.19186464620915,6.78224065721452,2.14702241625709,9.49248139006812,2.27854032865333,8.5123297332685,0.100263331147812,0.135505930295069
4.81184443388756,2.21568048187996,9.53763002460913,1.20399943144566,1.22501275146235,9.19186460927165,6.78224065039001,2.14702241607614,9.49248137808015,2.27854032358313,8.51232975072449,0.100263334772199,0.135505937549716
4.8118444408599,2.21568048675641,9.53763005490857,1.20399940253514,1.22501275602621,9.1918646454299,6.78224065647733,2.14702241618596,9.49248138952779,2.27854033078672,8.51232973050883,0.100263333655505,0.135505930265866
4.81184445606409,2.21568049565943,9.53763011577399,1.20399934760232,1.22501276287668,9.1918647232452,6.78224067226109,2.14702241667333,9.49248141413141,2.27854033867632,8.5123297008667,0.100263321389421,0.135505914336112
4.81184443254722,2.21568048122681,9.53763001956126,1.2039994352704,1.22501275147293,9.19186460196553,6.78224064845727,2.14702241599828,9.49248137594672,2.27854032379386,8.51232975124385,0.100263337397447,0.135505939231578
4.81184448113553,2.21568051143961,9.53763021960926,1.20399925175932,1.22501277605619,9.19186485239755,6.78224069672515,2.1470224173294,9.49248145492356,2.2785403568056,8.51232964275614,0.100263307412298,0.135505888006567
4.81184450901295,2.21568052934719,9.53763033706128,1.20399914392083,1.22501279005229,9.191864998203,6.78224072435702,2.14702241806053,9.49248150025373,2.27854037857925,8.51232957718544,0.100263292076932,0.135505857703556
4.81184452996522,2.21568054167502,9.53763041985788,1.20399906768247,1.22501280113723,9.19186510302865,6.78224074495021,2.14702241864966,9.49248153428572,2.27854038944712,8.51232953376722,0.100263277451329,0.135505837022519
4.81184415051871,2.21568030577589,9.53762885787897,1.20400050092498,1.22501260888208,9.19186314793467,6.78224036827604,2.14702240828543,9.49248091756577,2.27854013162113,8.51233038149701,0.100263511163,0.135506236760541
4.81184507780818,2.21568088407625,9.5376326840814,1.20399699376111,1.22501307524356,9.19186793688234,6.78224129154785,2.14702243364526,9.49248242472645,2.27854076801217,8.5123283076972,0.100262939260182,0.1355052547085
4.81184429910753,2.21568040012749,9.53762947303158,1.20399993054589,1.22501268781066,9.19186390942086,6.78224051214507,2.14702241067319,9.49248115737528,2.27854024039415,8.51233003321093,0.100263430821083,0.135506082317472
4.81184401863727,2.21568083020917,9.53763192794047,1.20399984694684,1.22501048498537,9.19186759710787,6.78224185780955,2.14702245887329,9.49248067336746,2.27854208728233,8.51233150823214,0.100261999948627,0.135503911827338
4.81184392853526,2.2156802593653,9.53762842286031,1.20400135769922,1.2250121069303,9.19186283909677,6.78224049040743,2.14702241145841,9.49248054731111,2.27854009669236,8.51233136541383,0.100263139557747,0.13550606185826
4.81184376746249,2.21567980657681,9.53762586415061,1.20400228517183,1.22501327070782,9.19185905738505,6.78223927010871,2.14702237624942,9.49248029836754,2.27853918367465,8.51233068374585,0.100264550618643,0.135507655602492
4.81184549689737,2.21568120936557,9.53763460118335,1.2039949213539,1.22501353901457,9.19186994693565,6.78224147561689,2.14702242881493,9.49248311598761,2.27854150019633,8.51232641470284,0.100263372613308,0.135504911967242
4.8118397858857,2.21567807821443,9.53761466382835,1.20401736831007,1.22500689433033,9.19184758774275,6.78223890684982,2.14702242334275,9.4924737518776,2.27853811995155,8.51234469599559,0.100261695159891,0.135507396056628
4.81188412041167,2.21569958778697,9.53775837523008,1.20385054767395,1.22506079890731,9.19200961750228,6.78225678177296,2.14702264140758,9.49254643852626,2.27855577578637,8.5122097808758,0.100272391973874,0.135493287150816
4.81285173282303,2.21673184062482,9.53928069723785,1.2005433385246,1.22777625748729,9.19402124295666,6.78172417946831,2.14674073269896,9.49431116674388,2.27924071944974,8.50862958601775,0.101659560406095,0.136289352366157
