"fastcoef_sq","pref_flow_den","slowcoef_sq","soil_moist_max","soil2gw_max","fastcoef_lin","gwflow_coef","jh_coef","slowcoef_lin","sat_threshold","carea_max","smidx_coef","smidx_exp"
4.79435860056789,2.3029080551142,9.60112184581009,1.15317556249987,1.24797749761251,9.20692811049792,6.80423725496935,2.11727453920126,9.44002839686455,2.36600523963199,8.39352786535389,0.177885065620724,0.11823894136017
4.76783016393048,2.3111381364033,9.617621105898,1.12619140827982,1.24624013826746,9.16082520450425,6.74574083308845,2.12033985999982,9.40266887138778,2.49149183691394,8.26141231209525,0.318383758847276,0.121179559150527
4.78195124253802,2.30918661540667,9.61815702775556,1.10528265226609,1.26849341362734,9.1498749326368,6.75020490510945,2.11473609827637,9.41733888114109,2.46271354420675,8.24598354201556,0.312064221345607,0.131159520587758
4.77876235193135,2.30736561225083,9.62356517392806,1.10681130556007,1.26118713110724,9.15603884766697,6.75257155735397,2.11221380584629,9.42108281731339,2.46462915535603,8.25751643824414,0.307738949345222,0.125103343296325
4.76883744247478,2.31457601234276,9.62037259154527,1.09198027734367,1.26943586679482,9.12913694157247,6.71706003410849,2.11630011405832,9.4007395167919,2.51551652801954,8.18611160799649,0.37601505615068,0.13864943873636
4.77589281441477,2.30831655259815,9.63015072816557,1.08969846551689,1.26726587710214,9.14619960687624,6.74295056071012,2.10634685539961,9.42385464302877,2.47705907113724,8.22807154159584,0.331403810505747,0.125060972690155
4.77293321349704,2.34953483750898,9.6125437746432,1.12152938877231,1.29140643874812,9.14024694960612,6.75467268787443,2.10885903654252,9.39866099090013,2.46058052721513,8.22315323775846,0.334272346240423,0.136930397317222
4.77569420007405,2.33298466099136,9.61356903814762,1.13622397697781,1.27222992490865,9.16363966838884,6.7650986572077,2.11433360965925,9.40450761983185,2.45087367598902,8.266222388596,0.300945765887622,0.126384073106216
4.76799526541758,2.35121590056591,9.61824788690994,1.11563424368208,1.289078033568,9.13405215923304,6.74980797105191,2.10454939192552,9.39721289916035,2.47669905281882,8.208725658286,0.35120129419049,0.13186145246613
4.78584924712615,2.27505166401754,9.62985177380741,1.07779239140559,1.25004679109727,9.155219879202,6.73892296868688,2.11391981116634,9.43799583000288,2.47224100049281,8.2490423075666,0.307867305738565,0.12467297619414
4.76936886140215,2.32668052791819,9.61930514031633,1.11937706274655,1.26519195335964,9.15138473328657,6.74862116451424,2.11212606372545,9.40467632940637,2.47997146936493,8.24149805087314,0.328720927175029,0.125014206222054
4.76818020023259,2.32987466723188,9.61923552037751,1.11858503046914,1.26819053561058,9.14766648165317,6.7466587680454,2.11135830863862,9.4021709543044,2.4836099011546,8.23318680602642,0.336141837068438,0.126478142793063
4.77115777015037,2.33112571320135,9.62073988543595,1.10575790145766,1.27828483251346,9.13556488784743,6.74152016688367,2.10720603073546,9.40913384676041,2.4796240039531,8.21586979153503,0.347501161102846,0.132519817586409
4.76475446788521,2.40328625660519,9.59847842193767,1.12913892897954,1.3345573527816,9.08164148930471,6.74885583111214,2.10701356253097,9.35012360722823,2.50053979332972,8.1273101830713,0.412504935695232,0.152895849518918
4.75817177541631,2.46332367999238,9.58614758675668,1.16696692793385,1.37190317973545,9.08063859898172,6.77099783631783,2.09805045545451,9.3349953721449,2.4546183434942,8.13352344259401,0.407521969082272,0.166223538684265
4.75455346079349,2.38008144839124,9.61190153792048,1.13042003496265,1.30956449305493,9.11151303339624,6.72835476233889,2.11233485250021,9.36406507940938,2.52021379475486,8.14255844036721,0.421979938335365,0.144165214747951
4.76244068689652,2.32661477569147,9.62246099775584,1.10293934940495,1.26372316009723,9.13207899643252,6.72999304708166,2.11091888722702,9.39782557652693,2.51382340805505,8.20472797622216,0.365778462760324,0.128139517528674
4.77548122330109,2.40693536685064,9.62049566990153,1.10367020674561,1.33127342053571,9.08753083205333,6.7867497843596,2.07614131822422,9.37422996213824,2.45142419940722,8.17506732883493,0.351742337299556,0.134788885388627
4.75452235138898,2.37866465476169,9.6189463744685,1.098913935236,1.31017857447079,9.09821292045057,6.719825854134,2.10117128158797,9.37012910631152,2.53002720100893,8.11814588206287,0.433607667950201,0.144242218847877
4.74393639740419,2.40957048028134,9.60385385655342,1.11157025750971,1.34205253165349,9.05051716274546,6.69851864810742,2.11060481301209,9.33078638960944,2.57240799048772,8.03759806617808,0.512265957853812,0.171585519775322
4.75840671374743,2.48388034838503,9.59860012121818,1.12115580971284,1.41193238038202,9.04031737979655,6.75472132371344,2.07643920515007,9.34692512027809,2.45827179586183,8.04919126720316,0.466032128887551,0.177611267566992
4.72378071791581,2.54309310690668,9.61256018034215,1.11450351657376,1.43127031353816,8.98441599790422,6.73697089572882,2.05769186828298,9.29698198009613,2.55410620045813,7.93562200374209,0.586655700956439,0.167966776710981
4.68174294387413,2.69299047670949,9.53054549814699,1.22981671573859,1.56295190217406,8.85234147186558,6.65024748928108,2.12337233834857,9.09619039319903,2.71687445644187,7.62691620919265,0.889309836187199,0.282663994324879
4.68109921717606,2.72769538803436,9.54396711732052,1.28740279030617,1.50662450669707,8.92755777587885,6.78965340168529,2.07231200409806,9.13577379869805,2.58041377453015,7.87523901731101,0.661562628666164,0.191812743744731
4.66859866533436,2.69752202805961,9.58983488558298,1.2238679299662,1.47923934469175,8.91914644506962,6.75879293693478,2.05130244697315,9.16689352864874,2.64751840096891,7.83464128420914,0.718053231891746,0.163410247986053
4.77877986011564,3.24801402674638,9.23543542314694,1.50309476656563,2.06465111373685,8.52384047664789,6.61160979994344,2.14359321675076,8.71819175919789,2.69729254026383,7.13099600139007,1.15269426508721,0.497212133647419
6.14169499037241,3.55090830201811,6.91353888958588,2.90598288128209,4.35511782441385,7.38363265477467,5.97367974143786,2.91133622396999,6.54646116557378,4.2673278318881,5.91025578524995,3.4617488033226,2.43836255684679
