"fastcoef_sq","pref_flow_den","slowcoef_sq","soil_moist_max","soil2gw_max","fastcoef_lin","gwflow_coef","jh_coef","slowcoef_lin","sat_threshold","carea_max","smidx_coef","smidx_exp"
4.85796747142674,2.2243627457431,9.61595992684119,1.06260286368895,1.30507113980531,9.26616716848904,6.77878630053493,2.14227620520787,9.56142729585204,2.25066342930787,8.38725143229032,0.116916212563461,0.163528602414782
4.85799704701163,2.22436207919725,9.61596489108404,1.06257685281653,1.30511525321559,9.26619621316168,6.77880150728325,2.1422726052254,9.56147424793872,2.25057732972973,8.3872676856935,0.116865636301302,0.1635477489808
4.85798201864939,2.22436240879185,9.61596241168137,1.06258972148213,1.30509300166563,9.26618111302327,6.77879355232677,2.14227436503172,9.56145031123943,2.25062135326036,8.38725873865408,0.116891862421348,0.163538154036778
4.85799018119824,2.22436428281692,9.61596378014899,1.06257399506617,1.30511308989111,9.26618114355544,6.77879141115497,2.14227237455553,9.56146337991173,2.25060159701236,8.38724371997238,0.116891973558854,0.163548187500423
4.85799314606669,2.22436193556453,9.61596657542389,1.06257445144259,1.30511275476474,9.26619863588829,6.77879411036332,2.14227750267898,9.56146912480731,2.25059607313493,8.38725365448527,0.116879776022214,0.163550099700268
4.85800043105333,2.22435766670143,9.61597500529062,1.06254976703925,1.3051304836141,9.2662252334129,6.77878117033843,2.14229090112441,9.56148476286834,2.25059829542706,8.38722400007351,0.116888276265788,0.163568144956341
4.85806431972838,2.22436493607681,9.61597757551998,1.06246779568912,1.30527807133622,9.26623642240775,6.77878564894409,2.14228050262379,9.56160569875707,2.25039978941929,8.38717500630235,0.116846255460678,0.163626749291962
4.85811176436007,2.22429274768587,9.61601187500692,1.06232416447703,1.30531025499881,9.26626459160207,6.77875279209143,2.14227745680713,9.56168727006445,2.25036168751177,8.3871117912331,0.116825737395047,0.163666933551004
4.85806002441062,2.22425110780789,9.61596659935556,1.06249248872446,1.30518131061192,9.26623425697028,6.77878631349131,2.14228136438588,9.56166028697542,2.25037250713885,8.3873294985239,0.116758777445323,0.163575627777741
4.85811683284047,2.22437197608527,9.61598740659672,1.06236014919419,1.3054240930627,9.26623548053864,6.77877233657509,2.14227985044432,9.56170568554186,2.25026217177102,8.38705952624216,0.116853756062306,0.163697416965744
4.85815076122542,2.22438862580713,9.61599645375128,1.0622592523463,1.30552732749126,9.26618705375928,6.7787554911483,2.1422572044165,9.56174989426161,2.25019856841035,8.38693198965327,0.11689618694504,0.163751232091166
4.85823768322695,2.22464658088023,9.61594382815175,1.0621738427567,1.30603547431846,9.26608781223421,6.77874842879195,2.14222390493709,9.56187853597252,2.24979816584441,8.38656081843011,0.117040842571942,0.163946423479325
4.85839377061685,2.22375716775136,9.61622563517692,1.0618754209592,1.30520666866354,9.26690115431947,6.7787525154185,2.14240789504858,9.56225612079503,2.24999029107325,8.38753418369837,0.116180328800004,0.163723312164634
4.85839178094076,2.22439229782252,9.61605202484099,1.0619298776021,1.30611883402088,9.26647125223825,6.77870909009566,2.14235851595745,9.56227178177379,2.24953036187044,8.38666801606667,0.116774793823804,0.164036140692859
4.85844989350789,2.22436545555055,9.61606439093884,1.06186650332483,1.30618654737212,9.26652831047214,6.77872952567071,2.1423554410735,9.56237380822838,2.24937512958437,8.38670835871723,0.116672648244739,0.164070319603581
4.85935352470585,2.22440217531974,9.61630644050669,1.06022820156525,1.30831608942726,9.26698001277809,6.77853582362181,2.14240977547485,9.56402112859574,2.24719163347195,8.38527743783053,0.116482716837941,0.165142525704542
4.85928251389617,2.22283235866615,9.61689605022841,1.06009475764299,1.30586497924242,9.26856985101286,6.77841759505993,2.14278443780807,9.56374705949838,2.24899536086243,8.38709564921926,0.115308254105984,0.164371049423539
4.86048351536956,2.2244187631193,9.61646010427051,1.05860139769517,1.31089874162394,9.2677893440363,6.77832185076138,2.14255709602175,9.56620199034481,2.2441472771345,8.38411206204455,0.115928617278479,0.166406214838774
4.85767824446055,2.22488233571471,9.61569568614551,1.06366102126271,1.30470757005595,9.2659054987689,6.77926665757362,2.14207556889928,9.56079004073025,2.25064213809893,8.38816346955898,0.116600538452718,0.163151736191095
4.85743373510793,2.22422896581866,9.61587921875191,1.06335808627348,1.30351642456745,9.26570670998652,6.7789619621688,2.14203773505397,9.56027636914796,2.25217461142715,8.38817927482705,0.116916448835568,0.162792430533753
4.85753411083685,2.22441859115371,9.61584725155632,1.0632675606502,1.30389389191558,9.26567982153253,6.77898439541103,2.14202263031261,9.56034743840808,2.25186501980989,8.38792803181178,0.116954477952581,0.162975523671454
4.85765646826848,2.22439817971881,9.61587855517269,1.06304009971236,1.30433595798534,9.26575871864462,6.77886287938749,2.14211890174677,9.56073113851417,2.25149818078079,8.38757446286595,0.117084058090202,0.163160040273881
4.85883964155295,2.22269488259292,9.61665709536019,1.06100912141664,1.30488489099577,9.26812728613975,6.77861773593588,2.1427340739969,9.5632223708738,2.24966183345218,8.38814416516648,0.115196548682279,0.163821022653065
4.86077703728643,2.23066567496804,9.61550953273247,1.05828908443149,1.31933918242977,9.26567902311265,6.77762099836366,2.14243280323959,9.56583890488546,2.24121321551589,8.37535841864161,0.121444465207298,0.170236204147598
4.85624092311366,2.23735637451756,9.61481547761824,1.0580604910968,1.3218670267799,9.25437098005702,6.7704834703787,2.14247931661851,9.55389132925739,2.259681769073,8.35258739825226,0.144732522969954,0.172386193677624
4.85518247567276,2.23891732161198,9.61386845059834,1.06424588949826,1.31935771868128,9.25617687946428,6.77447381643442,2.14262680018937,9.5526906071623,2.25770060157482,8.36116212168599,0.139265644577265,0.170217741615004
3.63172266049744,4.86700761827793,8.68863340815522,3.86281336126907,1.92495297266582,7.75189979261736,7.04737051493868,2.1324261060804,7.04802151063111,3.86230375354189,6.59884405296431,2.45716835644038,0.391839546405991
