"fastcoef_sq","pref_flow_den","slowcoef_sq","soil_moist_max","soil2gw_max","fastcoef_lin","gwflow_coef","jh_coef","slowcoef_lin","sat_threshold","carea_max","smidx_coef","smidx_exp"
4.811843369989,2.21567969761555,9.5376251690965,1.20400433422237,1.22501188613747,9.19185917198759,6.78223992359579,2.14702241026206,9.49247963856711,2.27853874340167,8.5123337130805,0.10026288484483,0.135506994855375
4.81184337025075,2.21567969780819,9.53762517028927,1.20400433301885,1.2250118863499,9.19185917332482,6.78223992377532,2.14702241026355,9.49247963899515,2.27853874378768,8.5123337121099,0.100262884952732,0.135506994595407
4.81184337498246,2.21567971124141,9.53762526527511,1.20400425433795,1.22501186866438,9.19185926899484,6.78223993569081,2.14702241060545,9.49247964446079,2.27853882237544,8.51233363992944,0.100262910292971,0.135506955915113
4.81184337234973,2.21567969946048,9.53762518015234,1.20400432346872,1.22501188784203,9.19185918466366,6.78223992548384,2.14702241028072,9.49247964246354,2.27853874684971,8.51233370474455,0.100262885414604,0.135506992229537
4.81184337240966,2.21567969939375,9.53762518011346,1.20400432309404,1.22501188810965,9.19185918433213,6.78223992524838,2.14702241027548,9.49247964252477,2.27853874696596,8.51233370409773,0.100262885851185,0.135506992461562
4.81184335092633,2.21567968466782,9.53762508786408,1.20400441893433,1.2250118686061,9.19185908148313,6.78223991215718,2.14702241025525,9.49247960749398,2.27853871934788,8.51233378219068,0.100262876757466,0.135507010583676
4.81184338699561,2.21567971010715,9.53762524649264,1.20400425603318,1.2250118999997,9.19185925870116,6.78223993519888,2.14702241035587,9.49247966637117,2.27853876844662,8.51233364995497,0.100262891928618,0.135506978044158
4.81184391424936,2.21568009734306,9.53762764579631,1.20400183205276,1.22501232984249,9.19186194683681,6.78224029487217,2.14702241326439,9.49248052837926,2.27853954476668,8.51233169294309,0.100263111552354,0.135506456958266
4.81184335168487,2.21567968006441,9.5376250643612,1.20400443478006,1.22501187568011,9.19185905760623,6.78223990858776,2.14702241022621,9.49247960863122,2.27853869659577,8.51233379817558,0.100262869524829,0.135507022516067
4.81184324429308,2.21567959623443,9.53762456418035,1.20400490881894,1.22501180917829,9.19185847376563,6.7822398124282,2.14702240971825,9.49247943432202,2.27853855355774,8.51233414403819,0.100262869333645,0.13550714727406
4.811843402105,2.21567972339472,9.53762532193866,1.2040041877117,1.22501190789507,9.19185934835601,6.78223995077312,2.14702241051403,9.49247969162406,2.27853879096046,8.51233360121662,0.100262890713676,0.1355069572954
4.81184343833448,2.21567975135356,9.53762549007694,1.20400402320011,1.22501193484566,9.19185954083694,6.7822399790713,2.14702241081822,9.49247975148124,2.27853884312406,8.51233347301373,0.100262900117675,0.135506917982807
4.81184343814928,2.21567974770511,9.53762547934753,1.20400402086095,1.22501194163144,9.19185951961604,6.78223997015718,2.14702241061952,9.49247974997601,2.27853884377662,8.51233346017778,0.100262913137601,0.13550692742829
4.81184288031982,2.21567933040013,9.53762291357323,1.2040066224242,1.22501147910203,9.19185666593962,6.78223959781245,2.14702240934862,9.49247883893464,2.27853798519465,8.51233558969719,0.10026264263609,0.135507481944874
4.81184325712216,2.21567961259524,9.53762464749684,1.20400485664023,1.22501179729354,9.191858586681,6.782239843613,2.14702240987746,9.49247945434961,2.27853857238224,8.51233413286921,0.100262839402843,0.135507111081049
4.81184363747665,2.21567989436591,9.53762638763161,1.20400310385895,1.22501210371322,9.19186053738303,6.78224010650112,2.14702241173801,9.49248007589161,2.27853913810683,8.5123327199981,0.100262996104533,0.135506729733514
4.81184340390255,2.21567972254109,9.53762532345098,1.20400417833776,1.22501191372937,9.19185934495169,6.78223994678137,2.14702241043107,9.49247969398669,2.27853879331082,8.51233358731415,0.100262898869485,0.135506961303234
4.81184307252548,2.21567947848898,9.53762381365181,1.20400570605471,1.22501164171225,9.19185765665436,6.7822397225269,2.14702240888752,9.49247915240184,2.2785383015393,8.51233482520478,0.100262755263131,0.135507288073325
4.81184316694801,2.21567956738899,9.53762431802594,1.20400512438773,1.22501177662083,9.19185812243922,6.78223972877465,2.14702240537745,9.49247930839368,2.27853858232338,8.51233420597078,0.100262983506304,0.135507209293226
4.81184088614697,2.21567792803138,9.53761410006278,1.20401535874582,1.22500998712276,9.19184652902158,6.78223809606952,2.1470223882934,9.49247558416694,2.27853547792057,8.51234224685036,0.100262321623848,0.135509458551911
4.81184173790833,2.21567830017225,9.53761693436307,1.20401212499705,1.22501095208703,9.19184978194059,6.78223845595469,2.147022422161,9.49247700739048,2.2785359033888,8.51233967737208,0.1002625048763,0.135509121709184
4.81184163057128,2.21567869745554,9.53761872525552,1.20401129513114,1.22501009035941,9.19185183743588,6.7822389764905,2.14702240079107,9.49247679490403,2.27853747210978,8.51233919801795,0.10026252884614,0.135508009673619
4.81184225036955,2.21567665653417,9.53760996553879,1.20401319106558,1.22501549453073,9.19183980222762,6.78223507873823,2.14702218260179,9.49247764854093,2.27853143540234,8.51233745690544,0.100265423592049,0.135514520505166
4.8118503618163,2.21568741684112,9.53766819443585,1.20396857004613,1.22501241111681,9.19191047303537,6.7822495711914,2.14702266318112,9.49249132074996,2.27855482997652,8.51230916608528,0.100261724507384,0.135492758638653
4.81186455928975,2.21569249657347,9.537708934782,1.2039121626579,1.2250353463294,9.19195093125037,6.78224938846697,2.14702288991602,9.49251487839296,2.27856253986648,8.51225459688277,0.100275705147074,0.135493833369911
4.81193513253639,2.21572864199454,9.53795284901151,1.20362722077152,1.22512316058229,9.19221737380762,6.782273587064,2.14702329753445,9.49263135183675,2.2786118223999,8.5120107553697,0.100311571755626,0.135468229197632
4.81584722312406,2.21865309614712,9.53558545012991,1.20263783987171,1.23329175491216,9.19146574501175,6.78074315240468,2.14838763622151,9.48884074276288,2.28212487271948,8.50324287988852,0.107321024628744,0.140467916228514
