"fastcoef_sq","pref_flow_den","slowcoef_sq","soil_moist_max","soil2gw_max","fastcoef_lin","gwflow_coef","jh_coef","slowcoef_lin","sat_threshold","carea_max","smidx_coef","smidx_exp"
4.81296809375659,2.21593862349629,9.53974932596926,1.20083826506234,1.22677397321805,9.19437885218403,6.7824414077743,2.14702818521016,9.4943239856953,2.27765441025427,8.50990471890154,0.100160666585228,0.135880398533172
4.81394152945153,2.21623368061644,9.54175139725464,1.19790547079289,1.22836903365035,9.19663838986785,6.78258124800435,2.14702724982678,9.49593197402627,2.27704859464823,8.50748071219451,0.100270024497317,0.136182080040332
4.8135850060885,2.21689474330847,9.5449035750799,1.1966292382219,1.22652616478586,9.20020561597952,6.78344390733835,2.14702315039542,9.49533669239867,2.28022784286169,8.50670177303015,0.100466756826292,0.134040334687777
4.81526778207139,2.21734959240291,9.54897749606837,1.19101216024352,1.22905305439012,9.20473318148694,6.78371056714848,2.14706180316066,9.49812118685311,2.28016333237816,8.50186845959016,0.101095261624161,0.134237753781281
4.81489796026258,2.21823263246371,9.55289471165478,1.18948761426979,1.22685396255363,9.20929711812324,6.78490503828639,2.14705380705781,9.49746981495464,2.28377540519014,8.50113446526586,0.101057319528281,0.131608330944633
4.81182475281133,2.21575420255766,9.53801212062023,1.20374878366767,1.22488505120767,9.19224896586053,6.78229707158866,2.14702321153677,9.49245181248408,2.27894015764471,8.51206475767485,0.10039712452643,0.135303180864393
4.81463440304207,2.21838818316388,9.55386926529838,1.18880015412411,1.2262999902409,9.20990876976985,6.78480225337523,2.14705855311857,9.49706161125385,2.28565826788479,8.49988932925189,0.102122001648083,0.130989081339499
4.81484718633155,2.2184207872111,9.55411118173943,1.18833283816638,1.22667937043275,9.21023000284717,6.78482766009741,2.1470590753268,9.49741322933683,2.28532272158957,8.49956182424825,0.102040346717458,0.131132210234433
4.81942913001192,2.21905247946978,9.56168012054341,1.17459761278862,1.23510224856248,9.21798313382977,6.78427863411823,2.14707570858663,9.50498189019104,2.28234987054667,8.48694295189713,0.104091305032224,0.133892097278708
4.81948796460916,2.21908655425193,9.56188915456549,1.17433928254168,1.23518819888556,9.21819272621958,6.78428800145916,2.14707437593623,9.50507750985462,2.28240846018305,8.48669668765137,0.104152492854589,0.133877506793119
4.81946018941056,2.2190722769286,9.56180040750164,1.17445230688357,1.23514629356643,9.2181023098892,6.78428375142111,2.14707491562237,9.50503230636251,2.28239089119043,8.48680238755171,0.104129089283475,0.13388064479419
4.81951103075698,2.2191058661816,9.56200026476071,1.17421158095351,1.23521867097732,9.2182993119729,6.78429208966538,2.14707332273143,9.50511466540475,2.28246039619723,8.48656847621426,0.104192850580666,0.133861143037081
4.81956051159273,2.21954233138582,9.56423710888017,1.17225305173888,1.23504397477418,9.22036062651798,6.78439004367677,2.14709945390378,9.50524803134977,2.28447506792566,8.48430217718985,0.105287433727962,0.133031799998441
4.81956163267803,2.21954148499878,9.56423173889771,1.17225648046546,1.23504698075656,9.22035636189556,6.78439002555683,2.14709939145543,9.50524978068578,2.28446631112554,8.48430740449563,0.105283306518845,0.13303521968659
4.81954624704974,2.21953487422609,9.56418499031814,1.17231806429751,1.23502410673845,9.22030909190061,6.78438840119347,2.14709984928394,9.5052251466165,2.28445744862654,8.48436446724294,0.105270837219477,0.133035829254592
4.81570913439126,2.21878034371359,9.55649545071817,1.18503151930143,1.22809256202976,9.21260743007013,6.78485919855116,2.14703756938719,9.49881525395909,2.28558302049356,8.49643521797346,0.102740497424315,0.131235381391979
4.8196504190406,2.21957297675642,9.56447092826343,1.17192964110692,1.23518175967367,9.22060423045995,6.7843997685359,2.14709759827826,9.50539210426946,2.28448981036974,8.48401147978641,0.105339098782191,0.133042056179127
4.81965542369494,2.21958185996513,9.5645304927423,1.17186954766629,1.23518245848401,9.22065847239686,6.7844009730417,2.14709756915023,9.5054002852653,2.28454037891396,8.48394531869754,0.105368764338298,0.133024376700778
4.81974681547044,2.21961340146341,9.56504950265295,1.17141244419632,1.23515028213764,9.2212847619248,6.78452464894968,2.14710739130066,9.50553170695865,2.28494221924344,8.48358368622806,0.105457464556587,0.132825859314121
4.81974722584221,2.21961347112971,9.56505017171877,1.17141127812507,1.23515097641713,9.22128547861547,6.78452465801785,2.14710737020293,9.50553234550813,2.28494190866012,8.4835827090922,0.105457527305798,0.132826082447446
4.81789892722799,2.21773006239787,9.55200829007635,1.18432958722097,1.23432118399301,9.20793755550988,6.78337382299877,2.14704217442305,9.50247494754,2.27670230341639,8.49593224391902,0.10150626910795,0.136432965023009
4.81972065049685,2.21959029113432,9.56460846684537,1.17170977345642,1.23529668587572,9.220746189843,6.78440216588593,2.14709249871214,9.50550017431776,2.28445487631223,8.48382375388943,0.105357676612224,0.133072270414122
4.81742309119486,2.21896843817949,9.56039181544211,1.17821711132141,1.23144647092849,9.21591002546451,6.78410705583388,2.14710537567013,9.50173437135543,2.28640157740813,8.48907184627268,0.105347811281403,0.132134091020847
4.8179245353074,2.21924741531457,9.56025076112006,1.17858656397626,1.23200759038976,9.21657802939352,6.78484530662489,2.14697119181195,9.50236919977371,2.28388959032115,8.49084320276601,0.103262006398228,0.132441900770575
4.82953188441484,2.22196415173006,9.58390151458705,1.14059804901827,1.2514385677449,9.24034006667762,6.78457731106393,2.14633370535439,9.52048541080308,2.28031260893163,8.45675851537817,0.108668086226426,0.137330231799035
4.81426593072502,2.21779644103716,9.54512942601592,1.19264648053044,1.230545307865,9.19681291330599,6.78171971705636,2.14629320922848,9.49565665474069,2.2805898232661,8.4989522265348,0.105295268672576,0.136244294463287
4.78949748666207,2.2868472712691,9.53607259187712,1.2598705345692,1.29531437716451,9.16876035838749,6.80787745573799,2.12696560314525,9.42955087659626,2.33086303371238,8.35190009427233,0.226214539473026,0.151636489049625
