"fastcoef_sq","pref_flow_den","slowcoef_sq","soil_moist_max","soil2gw_max","fastcoef_lin","gwflow_coef","jh_coef","slowcoef_lin","sat_threshold","carea_max","smidx_coef","smidx_exp"
4.45843044676972,3.53875983025756,9.18090643720475,1.95679920803202,1.71599500380946,9.08661370134398,6.94619722957148,2.11639939148722,8.63827157618258,2.36349261063067,8.34292458447533,0.265201500597315,0.171477299424181
4.60278676083934,3.41705498927712,9.15925034656724,2.19103518239305,1.65669689490404,9.12258495429464,7.17259638396901,2.12209029886147,8.73258809308813,2.11184956320993,8.47591800001411,0.274794897607803,0.263830338356776
4.54159683353312,3.4500827756495,9.23835873788408,2.08554242855995,1.60350841239278,9.18841437672511,7.11628756565148,2.09097981183231,8.77498827430555,2.13659059237168,8.47324947178978,0.248634358090727,0.182273720432896
4.61006344819311,3.41644277959635,9.16992141288575,2.19208223076139,1.64550858233702,9.13461042412637,7.18110616155445,2.12038491803009,8.74953392172873,2.103650783061,8.48341537270151,0.273796638249472,0.253160937311814
4.60660580596359,3.41669987881055,9.16771929427268,2.19206941574057,1.64421004893138,9.13523617099001,7.17908340330849,2.1192405924768,8.74929795304994,2.10289324479651,8.48556855034212,0.273528997498046,0.254339498699672
4.61065613317366,3.41668995604836,9.16010994973173,2.19817230457441,1.65371948186792,9.12949568155129,7.17533065572892,2.12745461796204,8.74277741916317,2.1047494198951,8.48635405042136,0.273518697511313,0.256802164414119
4.68556716020876,3.40778819378107,9.12297309380247,2.24384548751043,1.6558397833254,9.08054269821353,7.24168893758283,2.14269010012421,8.74626159136121,2.09624668471577,8.48076104222327,0.223405548518967,0.246405896525454
4.62013612091993,3.43477091541588,9.15691742808459,2.18691211090588,1.66022601356876,9.13284903351232,7.15204589250478,2.11432446785293,8.72888072566051,2.13714787551535,8.47128440130087,0.273865559345025,0.256737516671924
4.67116813074584,3.40784938913657,9.0289618298931,2.19505550356231,1.90183397014688,9.07910000491684,7.0091846409253,2.20098931699113,8.72280268804186,2.12051879465811,8.55354974642645,0.246108682173651,0.258139855368683
4.46496391522293,3.41715549501174,8.97471318071708,2.22597783846913,1.90414738571941,8.75346593217615,7.18649124934156,2.36058483293918,8.7299859947529,2.19897245119823,8.29173536110775,0.419933577460215,0.640480337836571
4.57417831349831,3.40813890194629,9.16586587982868,2.19928482874471,1.65950646690924,9.09701508762751,7.22488301656632,2.17220184027059,8.76789164327119,2.07467451749821,8.47669474303911,0.290155054757817,0.276628331018743
4.66988214792167,3.38954311250655,9.09466788325894,2.30445257588815,1.69129636711398,9.08439872712163,7.2390670552376,2.1544770079846,8.71879034732557,2.07628822281082,8.49171775900374,0.299839152446614,0.323907829407799
4.6760180593741,3.38036753745441,9.10493579940476,2.3000111131275,1.68184975483335,9.08589440594003,7.24993233939735,2.14760469858725,8.72856468799247,2.0654410171313,8.4976911030878,0.298507961268235,0.318987607310187
4.46173326152385,3.29008650717866,9.18644930765438,2.37558989739958,1.67287404576814,9.18695124484935,7.17336501553334,2.21405519352017,8.65172378121804,2.19935129820891,8.50145345375881,0.357896866408629,0.279571976728267
4.73234574808936,3.24330387514392,8.98812097113158,2.51589470958626,1.79072911471383,8.93341711159511,7.52354003763841,2.25102706211604,8.69125123922338,1.965705871896,8.41786788093146,0.326172340895827,0.487187660999282
4.75056845645695,3.3701045351263,8.87949914617698,2.45597667020747,1.78629146108661,8.92162939951365,7.31210451623163,2.25681347410012,8.66189097314084,2.05429831246442,8.48951136342674,0.406988209348959,0.553370615840147
4.79176994408628,3.31523115782944,8.93684704600878,2.52889169022793,1.81244103061202,8.94460994960285,7.3552214193995,2.24251433691876,8.63577081869687,2.00966343880896,8.49044026095258,0.369639863335621,0.497211376613927
4.76857240682902,3.30802191260554,8.91618064139315,2.5433216934853,1.69789357880087,8.90310936765942,7.28619272675619,2.30261682024043,8.63959021285073,1.99754824637178,8.54321332527386,0.367610300368191,0.570140669698879
4.83852340123092,3.36746689643539,9.03973636128343,2.57431693855434,1.76308655108744,8.98683057872851,7.31939846528558,2.2376353324689,8.74240863634029,1.97705984673004,8.51691345070488,0.342581949159477,0.507712542407129
5.01866488055051,3.10762998440318,8.4184426850866,2.90131027192339,2.15046947754706,8.58939449127394,7.66090523297925,2.32874872427206,8.29449232434198,2.07614765579172,8.407753312833,0.483235706051012,0.798709582253562
4.79298249224938,3.56091957534633,9.27552562560893,2.43583851863706,1.94607859002094,8.63348587887945,7.47315349982984,2.59802358753601,8.89478252412852,1.85610069428955,8.0877996525652,0.636438322848093,0.417180862393359
5.297362145463,3.15904276765249,9.2920198262356,3.10402946370442,2.04267937961571,8.6309774073042,6.72411809515528,2.82619550652645,8.36864198313974,2.69961438468434,8.6906891788869,1.31319819141517,1.20681821404971
3.72441620251525,4.74988252803354,6.6828081882201,3.70860605354644,3.64372390652695,7.57338432382913,4.70234586477487,4.38082383410445,7.16692530216408,1.94273974802996,7.75144580204782,1.06090988429182,2.61981622351598
4.19484438450225,3.17993103706841,3.80351110990725,6.7981769058696,2.68010439491262,3.35236290015273,5.08646215871937,3.06852997177301,9.34326097764519,4.46248310780722,2.28138939892737,7.24206137617831,8.14932813238535
4.2490960732624,3.46625627734273,9.01075655928881,3.29000220696618,1.41261190157471,8.29231490921833,6.95859350698017,2.66090003373428,8.21204708088567,2.63476212551747,8.68049227927282,1.48933397122776,0.949946838857107
5.68033807415265,9.04215236671704,4.51194686379517,8.93435785909932,5.39377997420655,0.713412562052723,6.00636961280538,1.51119007017155,5.84228066418559,4.17480400625058,8.63763495229924,4.7790068530867,8.43575782738073
3.30077937382208,6.71437563768669,0.626494548812861,5.88671308588944,7.47532067425133,4.02210861680131,1.68540810068877,0.55845890837624,9.71406559709227,9.93159676271023,8.16598872380774,6.94571822106946,3.50777299614137
