"fastcoef_sq","pref_flow_den","slowcoef_sq","soil_moist_max","soil2gw_max","fastcoef_lin","gwflow_coef","jh_coef","slowcoef_lin","sat_threshold","carea_max","smidx_coef","smidx_exp"
4.82600445700707,2.22247976768338,9.58194246524432,1.14843446806231,1.24535749568372,9.2385872759953,6.78519849351717,2.14689061108652,9.51571050324707,2.28539118340793,8.46254933077891,0.109230783808566,0.13356928740606
4.82606465171434,2.22254078616718,9.58234124616238,1.14798124579159,1.24537755025412,9.23891774280566,6.78521875410064,2.14685913486268,9.51575029125587,2.28571118801817,8.46209293617056,0.10940441702855,0.133485308459342
4.82608360584908,2.22254241233935,9.58236254208831,1.14792632820498,1.24541131753579,9.23892973872373,6.78521485109704,2.14685351211255,9.5157732506239,2.2856963308179,8.46204381638168,0.10941192769784,0.133503590995381
4.82614469129831,2.22253884949876,9.58239630314206,1.14781130284297,1.24553308088841,9.23898749057945,6.78520794757714,2.14685917624277,9.51588210228262,2.28557013307142,8.46196231378187,0.109387776560749,0.133563591539463
4.82614532960311,2.22253958394816,9.58239960810947,1.14780617687603,1.24553381907991,9.23898851334129,6.78520759863347,2.1468582531365,9.51588176471751,2.28557367789025,8.46195639550599,0.109390631983522,0.133563745854186
4.82620120463808,2.22253967947336,9.58250353249118,1.1476326259165,1.24562969493016,9.23910442082379,6.78519884629443,2.1468660588273,9.51598375715543,2.28554269811294,8.46180362407587,0.109412843839882,0.133590031315104
4.82641150834901,2.22251155405374,9.58250530215857,1.14730108517182,1.24601672645863,9.23913132854598,6.78518034730245,2.14683234232287,9.51627825577123,2.28505650525366,8.4616353642011,0.109265403255981,0.133852896179102
4.82631327037668,2.22260772415397,9.58290970132736,1.14709546351296,1.24576710167282,9.23945167912124,6.78521389991426,2.14683168720074,9.51610684346851,2.28573478892288,8.46128163340409,0.109565868647067,0.1335706281659
4.82617803975879,2.22265902799545,9.58304314534836,1.14719743656219,1.24541875718044,9.23950634776322,6.78527703425821,2.14680337659876,9.51581988612732,2.28625130376757,8.46131603534968,0.109684592999078,0.13333629833857
4.82624169925634,2.22272320923524,9.58353518290851,1.14662997200848,1.24542853826418,9.23990690164251,6.78528116064059,2.1467642931634,9.51586303189714,2.28667809475359,8.46073287861985,0.109923681439585,0.133228909608131
4.82628929128163,2.22263591403215,9.58342879576183,1.14664788870769,1.2454630505241,9.23984320904387,6.78526610047297,2.1467669942027,9.51593652041336,2.28648197198102,8.46087700733026,0.109784613075816,0.133314573732019
4.82656367166518,2.22271606102845,9.5837564980314,1.14594577740909,1.24605658413772,9.24018684723652,6.78523657401548,2.14676505972748,9.51639436001647,2.28610956421632,8.46020445839111,0.109858865208198,0.133544763224972
4.82746637584468,2.2226764373711,9.5839361018237,1.1446478632089,1.24794193241158,9.24082330458387,6.7852100362826,2.14685560907136,9.51804116394086,2.28378026886343,8.45947286237592,0.109231794368652,0.134521684746749
4.8277733921121,2.22275830048926,9.58441328021725,1.1438591526134,1.24837403704977,9.24134009986994,6.78529837666646,2.14678409928325,9.51842195238209,2.28352998684545,8.45893214234756,0.109137516834653,0.134672975499321
4.82802643453336,2.22257529911885,9.58392542903732,1.14371976704341,1.24911358027368,9.24089325739241,6.78505498920057,2.14684690640063,9.51895577384865,2.28243825088161,8.4588318208452,0.108995035295381,0.135268322829033
4.82903869922387,2.2230708273887,9.58662427992225,1.14027595475636,1.25053716223611,9.2437729997091,6.78542000908975,2.14675547175704,9.5204330594165,2.28258389613743,8.45590637084333,0.109315748582943,0.135258473863969
4.83714221285351,2.22360045463463,9.59509743359682,1.12083273386821,1.26534585542966,9.25322026367507,6.78493514696541,2.14637773427413,9.53313434732822,2.27150748626254,8.44048412366906,0.108626302292745,0.141886627509857
4.82537767937899,2.22245480117985,9.58158204770811,1.14953814486554,1.24412455310719,9.23796218410126,6.78518355072333,2.14685985161698,9.51462652730203,2.28672410826446,8.46326896699209,0.109562270312047,0.132987399747265
4.82524700852583,2.222456745048,9.58208507171761,1.148992373743,1.2435856112387,9.23802762843326,6.78511682311976,2.14669000069532,9.51412347744202,2.28799427881087,8.46260543549417,0.11008943689516,0.132710854329035
4.83004444590125,2.22300290385911,9.5871517134786,1.13829031442146,1.2522594596618,9.24442472252974,6.78537605114514,2.14661078126389,9.5218517094891,2.28076888272295,8.45469331130226,0.108803310445013,0.136284805988044
4.82552460036506,2.22267390698756,9.5835382155463,1.14719665015285,1.24378908417697,9.23918292359007,6.78515325832507,2.14655535590644,9.51433285951393,2.28906791729564,8.46079533364986,0.110753299966639,0.13250274946515
4.82199472168388,2.2237159760791,9.58115266248455,1.15547159652226,1.23857457442933,9.23703133532955,6.78580306224562,2.14695847863451,9.50970544160166,2.29352198869403,8.46632812182311,0.111645695695541,0.129069349146841
4.83454753475761,2.2235958665309,9.59297148008167,1.1269020382296,1.26053654037379,9.25110880821772,6.7852910113843,2.14663658821763,9.52924833358802,2.27532359015095,8.44528939837601,0.108833020075704,0.139393672309505
4.82978596258939,2.22264849340345,9.58556411539358,1.13976457123832,1.25186116707405,9.24267901422887,6.78519320605183,2.14649461477595,9.52127085959505,2.28004841575443,8.45627740013972,0.108274684268476,0.1367008512722
4.83591824161485,2.22229989742533,9.59071374744816,1.12514679441106,1.26216718512651,9.24759451973575,6.78446945737935,2.14551156162134,9.5297252880666,2.27191560638536,8.44552360572251,0.107269347710517,0.142498744523352
4.84138647153438,2.22751704615476,9.6018657641187,1.10399831855969,1.27772723791734,9.25369722706994,6.78188980149152,2.1444035198811,9.53755919125475,2.27160087842711,8.41783453184626,0.118441665920606,0.147667488516287
4.8409017751004,2.24634927430432,9.57246948927303,1.10994600177538,1.31217430371037,9.24047104040058,6.7625748944569,2.13795678506819,9.54583537209629,2.29361982825128,8.40682064890873,0.143677962920348,0.165687874707109
