"fastcoef_sq","pref_flow_den","slowcoef_sq","soil_moist_max","soil2gw_max","fastcoef_lin","gwflow_coef","jh_coef","slowcoef_lin","sat_threshold","carea_max","smidx_coef","smidx_exp"
4.81184213846406,2.21568110274216,9.53763041240845,1.20400552014509,1.22500627120715,9.19186708057826,6.78224310895719,2.14702262929015,9.49247775540119,2.27854347497073,8.51233772288299,0.100259930846696,0.135501546908216
4.81184213847052,2.21568110274251,9.53763041241722,1.2040055201239,1.22500627122119,9.19186708058421,6.78224310895395,2.14702262928975,9.49247775541151,2.27854347496779,8.51233772286008,0.100259930854017,0.135501546914511
4.81184213848224,2.21568110274941,9.5376304124635,1.2040055200797,1.22500627122853,9.19186708064131,6.78224310896431,2.14702262929,9.49247775543052,2.27854347497521,8.5123377228323,0.10025993084857,0.135501546903748
4.81184213845954,2.21568110266926,9.53763041204233,1.20400552036972,1.22500627131036,9.19186708015708,6.78224310887095,2.14702262928686,9.49247775538834,2.27854347470021,8.512337723049,0.100259930819688,0.135501547095743
4.81184213847291,2.21568110274114,9.53763041241375,1.20400552012348,1.22500627122565,9.19186708058191,6.7822431089537,2.14702262928974,9.49247775541506,2.27854347495875,8.51233772286244,0.100259930850067,0.135501546918589
4.81184213930494,2.21568110256992,9.53763041264236,1.20400551865357,1.22500627278767,9.19186708101685,6.78224310883499,2.14702262931366,9.49247775676275,2.27854347328204,8.51233772190042,0.10025993049622,0.135501547830972
4.8118421384702,2.21568110274134,9.53763041241116,1.20400552012865,1.22500627122191,9.19186708057779,6.78224310895305,2.14702262928976,9.49247775541088,2.27854347496333,8.51233772286453,0.100259930852555,0.135501546916973
4.81184213857996,2.21568110281815,9.53763041288991,1.20400551966586,1.22500627129731,9.19186708114284,6.78224310904453,2.14702262929099,9.49247775559085,2.27854347508393,8.51233772253152,0.100259930845956,0.13550154680458
4.81184213835363,2.2156811024215,9.53763041075653,1.2040055214428,1.22500627139248,9.19186707880162,6.7822431086816,2.14702262929492,9.4924777552123,2.27854347382841,8.51233772403819,0.100259930523837,0.135501547569232
4.81184214060062,2.21568110423687,9.53763042178134,1.20400551046608,1.22500627309806,9.19186709101319,6.7822431102844,2.14702262929459,9.49247775889,2.27854347790624,8.51233771496924,0.100259931816544,0.135501545011856
4.81184213860286,2.21568110283588,9.53763041300145,1.20400551952286,1.22500627133676,9.19186708123536,6.78224310903752,2.14702262929011,9.49247775562765,2.27854347515182,8.51233772236972,0.10025993091326,0.135501546794793
4.81184213900413,2.21568110312894,9.53763041476349,1.20400551776561,1.22500627166626,9.19186708325817,6.78224310933116,2.14702262928997,9.49247775629023,2.27854347564504,8.51233772100416,0.100259931000702,0.135501546410778
4.8118421390714,2.21568110318191,9.53763041509395,1.20400551750138,1.2250062716686,9.19186708368636,6.78224310942658,2.1470226292935,9.49247775640019,2.27854347571304,8.51233772087805,0.100259930926283,0.135501546300877
4.81184214086925,2.21568110450457,9.53763042314195,1.20400550964337,1.22500627298702,9.1918670930241,6.78224311085861,2.1470226293061,9.49247775935909,2.2785434779626,8.51233771495639,0.10025993112548,0.135501544438296
4.81184214335577,2.21568110602487,9.53763043332091,1.2040055000006,1.22500627444285,9.1918671055074,6.78224311310917,2.14702262935289,9.49247776339078,2.27854347986681,8.51233770881992,0.100259930062126,0.135501541985356
4.81184213841806,2.21568110263803,9.53763041186682,1.20400552056424,1.22500627126146,9.19186707997286,6.78224310885344,2.14702262928988,9.49247775532186,2.27854347463958,8.51233772322519,0.100259930781927,0.135501547123025
4.81184213830634,2.21568110245481,9.53763041089018,1.20400552137453,1.22500627129315,9.19186707888464,6.78224310867859,2.14702262928942,9.49247775513203,2.27854347410199,8.51233772389376,0.100259930661618,0.135501547469222
4.81184212804202,2.21568109367912,9.53763035953946,1.20400557014299,1.22500626473897,9.19186702007174,6.78224309972995,2.14702262923409,9.49247773812855,2.27854345660658,8.51233776178776,0.10025992778188,0.135501560553825
4.81184213629361,2.21568110119189,9.53763040301248,1.20400552953558,1.22500626942285,9.1918670697625,6.78224310737429,2.14702262928808,9.49247775182655,2.27854347243037,8.51233773012209,0.100259930452654,0.135501548934301
4.81184212270088,2.2156810867773,9.53763032089724,1.20400560480272,1.22500626361489,9.19186697788412,6.78224309378192,2.14702262929412,9.49247772924472,2.27854343629645,8.51233779147465,0.100259921654113,0.135501572594969
4.81184216977104,2.21568112425644,9.53763054524683,1.20400538456025,1.22500629872179,9.19186723190554,6.78224312984535,2.14702262938838,9.49247780692759,2.27854351123189,8.51233761597494,0.100259939235081,0.135501519877937
4.81184209501395,2.21568106966198,9.53763021353589,1.20400571614811,1.22500623776662,9.19186685326334,6.78224307589724,2.14702262912801,9.49247768371266,2.27854341438242,8.51233787608302,0.100259919330831,0.135501592378857
4.8118439099124,2.21568230622727,9.53763735878357,1.20399841134331,1.22500803575515,9.19187513969313,6.78224427827042,2.14702270461147,9.49248073148038,2.27854471568846,8.51233225492204,0.100260075863258,0.135500265447332
4.81184102018188,2.21568023696967,9.53762483623622,1.2040103256826,1.22500605380988,9.19186020062999,6.78224176158137,2.14702259845646,9.49247594593192,2.27854194032178,8.51234060794074,0.100260574975006,0.135503248343231
4.81184134746295,2.21568258909994,9.53763634539591,1.20400565382543,1.22500132309658,9.19187591037376,6.78224641481482,2.14702285009051,9.49247659330509,2.27854764597752,8.51234107465721,0.100256740744453,0.135496272337152
4.81184486509684,2.21568193910738,9.53763666470005,1.20399710997506,1.22501021651556,9.19187437219318,6.78224381501305,2.14702263391872,9.49248221209329,2.27854227632258,8.51233120992198,0.100259879959832,0.135501900655872
4.7763932845337,2.29903925091341,9.51485255703473,1.28184376836738,1.24895142705551,9.15060461195422,6.79070031641023,2.14641541439649,9.418214076604,2.32834097308261,8.44793457510291,0.174669495198835,0.143694324125177
