"fastcoef_sq","pref_flow_den","slowcoef_sq","soil_moist_max","soil2gw_max","fastcoef_lin","gwflow_coef","jh_coef","slowcoef_lin","sat_threshold","carea_max","smidx_coef","smidx_exp"
4.86631674204696,2.22498760951349,9.61778725457664,1.04788940061995,1.32576158310339,9.26986535209511,6.77703296030344,2.1428816392748,9.57730628663573,2.22921283054262,8.37393905852728,0.115298917665673,0.17371979923643
4.86631956983216,2.22498812045575,9.61778756988782,1.04788243988714,1.32577256278938,9.26986419325195,6.7770292550075,2.14288107685135,9.57731406563484,2.22920366708593,8.37392800061306,0.115303400195379,0.1737248870802
4.86631578720206,2.22498523473543,9.61778496465796,1.04786679550533,1.32577611950667,9.26983984783662,6.77701230912093,2.14288355209997,9.57730543894273,2.22923221884306,8.37388534265674,0.115339930614457,0.173731785644199
4.86632060854753,2.22498410060919,9.61778472360703,1.04785863107893,1.32578756127771,9.26984036794119,6.77701028712252,2.14288478512634,9.57731531865868,2.22922016685155,8.37387729241322,0.115339707789006,0.173737951983871
4.86631956944911,2.22498545126182,9.61778618795651,1.04787409959134,1.32577496053554,9.26985476274456,6.77702268299388,2.14288327319479,9.57731233713964,2.22921351799255,8.37391085815057,0.115316221859349,0.173728924357391
4.8663222429458,2.22498521471971,9.61778614897482,1.04787116510082,1.32578049686954,9.26985655051763,6.77702296200675,2.14288381214729,9.57731775907213,2.22920560181808,8.37390973580478,0.11531358890496,0.173731584831582
4.86632040895147,2.22498548413295,9.61778629553657,1.04787489679518,1.32577551403914,9.26985708640979,6.77702420299711,2.1428833466316,9.57731400849739,2.22920983153047,8.37391438099089,0.115312540906197,0.173728858113125
4.86632283565537,2.22498412210853,9.61778631369702,1.04787124081589,1.32577962903048,9.26985804689465,6.77702352739117,2.14288396591928,9.57731841630552,2.22920435331424,8.37391231707068,0.115311068642172,0.173731313373126
4.86632975212745,2.22498323809823,9.61778728265934,1.04787478393264,1.32578401084939,9.26987456620341,6.77703322264322,2.14288446758785,9.57733005741972,2.229178347798,8.37393553705243,0.115285386786454,0.173731879292801
4.86634921625143,2.22497279600869,9.61778379483338,1.0478164425351,1.32584363376576,9.26984896037384,6.77700322317533,2.14289235515317,9.57736965497658,2.22915088562799,8.37384752366487,0.115325787234072,0.173769494070953
4.8639857541405,2.23313657826616,9.61562370889296,1.05317992836003,1.32952541818767,9.26667130505582,6.77726793375973,2.14255678937574,9.57177577883701,2.23167067814763,8.36862463498123,0.121659658326181,0.174321052649783
4.86525756714894,2.22617607542181,9.61741394475171,1.04862404369376,1.32566788526346,9.26869907848495,6.77621987297961,2.14291325346911,9.5752681397012,2.23185255395608,8.3714411433233,0.118155382354709,0.173611345076644
4.8659133926769,2.2259427766899,9.61763708452441,1.04805448460633,1.32629293878692,9.26892330351007,6.77669582427467,2.14273650773171,9.57635687041285,2.230223684234,8.37212630498419,0.117033584094557,0.173888644695283
4.86272484788148,2.23118418016193,9.61629407899024,1.04808505148354,1.32827521694175,9.26206710002621,6.77238575312639,2.14177792195769,9.56874697983604,2.24012654901795,8.35774435749834,0.130649152143452,0.175109359806861
4.86415228386139,2.23088021232376,9.617210156937,1.04853137221577,1.32916235570312,9.26402179548808,6.77541440274684,2.14165138409223,9.57203174779243,2.23478066669884,8.36336878482193,0.1253343559119,0.174689553074528
4.8662345941735,2.22508384772412,9.61776988967091,1.04789652966348,1.32584312952967,9.26969498365441,6.77692671281781,2.14287796221467,9.57718121132708,2.2294059748965,8.37363066667691,0.115647913539625,0.173783819366485
4.86626991961642,2.22508217685104,9.61776465709487,1.04786157174734,1.32582206141695,9.26968557606645,6.7769665851391,2.14286648885603,9.57717926336147,2.22938918961812,8.3736528992709,0.115558791207071,0.173756040272793
4.86630641299905,2.22502556127897,9.61777642467982,1.04783893335639,1.32583726955322,9.26977497242078,6.77697363056081,2.14288249937613,9.57728478149971,2.22927176241764,8.37374050071373,0.115456915239016,0.173764040131414
4.86631188622248,2.22508508617289,9.61779663998879,1.04782817843018,1.32582300308385,9.26972241591812,6.77704241885453,2.14281652549954,9.57722595253618,2.22926078789073,8.37375154703291,0.115425388024275,0.173714582322198
4.86639137359405,2.22536220153982,9.61773925509391,1.04780526738622,1.3262210926146,9.26956027665577,6.77707070104749,2.14276370916804,9.57726288100058,2.2290095516419,8.37345631878418,0.1155679861329,0.173907537554044
4.86642832940492,2.22501642781424,9.61780392497383,1.04779660912859,1.32600736284942,9.26996951799883,6.77708228772263,2.14289122992839,9.57753932452387,2.2288499986646,8.37393194517128,0.115160165695527,0.17381490271804
4.8669498561393,2.22569870375021,9.61788646951084,1.04760123616941,1.32717082075536,9.27006080834368,6.77761435413476,2.14257538344875,9.57784407875599,2.22725039183513,8.37393414254385,0.114588511035754,0.174295258915183
4.86350607285561,2.23648004656859,9.61808116016271,1.04625351251687,1.33455069284437,9.25682314957117,6.77496236305472,2.13917314761202,9.56910097927074,2.23754950211445,8.35205950945653,0.134604355386007,0.176270311847529
4.85907233567482,2.24447347870699,9.61703223354569,1.04874942608909,1.33500064489177,9.24974831891398,6.77011158018831,2.13816754448826,9.5586805133126,2.25256729497838,8.33777326212429,0.151023213052018,0.176884760411487
4.8186298412544,2.30783953728036,9.60933841566288,1.06802330460127,1.35274746644892,9.18233599870437,6.74342849403703,2.12721549346684,9.49265305124062,2.34235426284436,8.22428010988943,0.27789699988127,0.178513844357074
4.82960681976145,2.33266997441152,9.60936041470523,1.084500047877,1.37373145582295,9.19800545035427,6.77611177170571,2.12379667841268,9.49642390729483,2.29879627498233,8.25626592459837,0.238250764421259,0.178030658522138
4.63317912483077,2.92450306881563,8.47160852296179,1.70037674091371,2.17572215703719,8.52166969181006,6.13505873363658,1.93207246661783,9.48875747569639,3.26128104079936,8.18752185789035,1.12341043983876,0.618569517108727
