"fastcoef_sq","pref_flow_den","slowcoef_sq","soil_moist_max","soil2gw_max","fastcoef_lin","gwflow_coef","jh_coef","slowcoef_lin","sat_threshold","carea_max","smidx_coef","smidx_exp"
4.74793496670171,2.72419323109213,9.5472668627387,1.21467007527481,1.60653050039462,8.90860495711604,6.80309989681307,2.05397882830085,9.21265174934924,2.42144282285876,7.84819616231722,0.617125310100261,0.246149330806309
4.71421589894841,2.76191108394467,9.55647247543101,1.17754233329558,1.63059859243961,8.85302321220334,6.76262502443359,2.03760243636731,9.16958906105268,2.50736574168344,7.71072417229855,0.735657842181702,0.260930367088005
4.75569825351094,2.64543356274524,9.60839016402085,1.04385708909884,1.60641451095899,8.89182733576547,6.72742970064778,2.01547972120759,9.30619582414377,2.46465111960989,7.72340502818403,0.697313234872818,0.239114234203536
4.79162835243012,2.65295968723301,9.64948745158342,1.02698061376535,1.65759365689362,8.82382306669898,6.76431727253348,2.00626579509133,9.31997748124487,2.45832186683471,7.68620087669864,0.73046265720703,0.242076304434291
4.77540564725064,2.66220842211632,9.59399078443695,1.02682937029193,1.66300390476191,8.78815579406651,6.70733385654166,2.03941776251261,9.24854354238351,2.52868843116666,7.55909522439813,0.836987508377679,0.296579778260638
4.77394110647501,2.68554135765722,9.6158162513292,1.05923144180977,1.66804758764223,8.81088708633286,6.74905977587475,2.02433258540351,9.26696050196396,2.48825798155914,7.64377202697457,0.771270398940212,0.265471879239971
4.70222563646208,2.84221895534832,9.49595814328075,1.33315058101315,1.62144738230112,8.90524124501496,6.82103735330504,2.06411347339175,9.10881137856929,2.4510378618886,7.84601460423925,0.647331289626488,0.248861848285662
4.67160859617938,2.8711549697484,9.54209816787152,1.2927699601329,1.64956263552618,8.87706924944091,6.80327206151184,2.02308394549713,9.14726272531531,2.46800441522124,7.77305353701743,0.721363920681649,0.233855275574818
4.71228322927877,2.84859280378683,9.52035131849661,1.27039626252149,1.67047665847753,8.83402438086648,6.79830256375971,2.05481908666783,9.10636904360858,2.49599921637668,7.71586970926885,0.747795579073725,0.271488781633823
4.7376760399688,2.67575868460427,9.61346470088841,1.0604847644682,1.61213795541936,8.80976084702405,6.68390585543941,2.02477744927157,9.23785830984678,2.5983750420761,7.58943182602526,0.856355263336698,0.235178038860372
4.73396546128113,2.63900801883526,9.63256834550953,1.00654398064355,1.59846786312371,8.81118043218839,6.65377489392141,2.01616452762875,9.25865686742326,2.62424997546261,7.5569153587683,0.876970507129806,0.235088083362456
4.69451185999983,2.909226232715,9.50670201132008,1.298495341574,1.70296970187277,8.79775207309018,6.79400477697973,2.05649294716223,9.05429292912894,2.53325702749074,7.64853114912826,0.815046544356143,0.285210050788752
4.70014575480356,2.87895785527251,9.49308766637089,1.35720230043113,1.64677320769905,8.90080611738743,6.83854657480338,2.06204580164739,9.1000171759834,2.4332838948888,7.84788687285702,0.65012239065814,0.252509510872452
4.70109000108766,2.89577987993387,9.46059757496365,1.4413433293691,1.63388285060376,8.94743650243564,6.89641425338801,2.07620724163238,9.09071603716074,2.35137073750199,7.97683040656065,0.535887218490467,0.251372974253853
4.70486356184672,2.87591951597161,9.49104124372516,1.35289710708178,1.64934787232413,8.89897758631207,6.83850480550535,2.06475028434252,9.09936423941471,2.43142106961743,7.84738850512752,0.647087625265509,0.25567439808225
4.675667394524,2.97334276199471,9.49371190821411,1.32719361111769,1.73404158029496,8.75987875074274,6.79320682903489,2.05562658885724,9.00037400295272,2.57095919649914,7.58349105307912,0.879406098932039,0.296439523964303
4.81719216266169,2.61671797678877,9.67099198865479,0.914727813985053,1.74374480351112,8.70456556961742,6.68744316543544,2.02411184335871,9.32568977548253,2.54063547354156,7.4239536844906,0.937343545907909,0.316960834813303
4.68064266197873,2.96458892639599,9.44814256787343,1.46201211640408,1.66047964031514,8.92674244963932,6.87638450001159,2.0753535327712,9.0395582540276,2.4034107446418,7.913193482775,0.610561260297618,0.252918633865659
4.66055619647838,2.95040448537535,9.4681829805505,1.48435463134843,1.63249843438312,8.9290132802401,6.87193208624579,2.05905786093233,9.06344088055209,2.41840567284774,7.91345237412946,0.633195440842528,0.22705290331059
4.67795269624896,3.01074447112122,9.4277375727174,1.50287572153081,1.69878464527898,8.88733459994848,6.87066380997736,2.08109179246043,8.99676478199444,2.43860501875089,7.8310497039051,0.692002064341876,0.273131123734302
4.67614760786236,2.99045103398798,9.4560884723126,1.48307480088443,1.67275846524288,8.89117130140088,6.87492555224215,2.07219507594454,9.02405900709843,2.4357536619366,7.86781411805681,0.667866803589398,0.244606431660297
4.74090843669561,2.70979072700563,9.67323925119941,0.976680559834632,1.54982190597151,8.84352647712044,6.75783818904637,1.92962570679049,9.21121205650846,2.57268237371421,7.61817005535659,0.804921140177325,0.22911551638223
4.67063719602752,3.0446671522653,9.38052914236462,1.63862926494508,1.66461805334739,8.9957023504061,6.9903451233868,2.09977574252253,8.98713736959848,2.26183123755323,8.12105304251947,0.427508877892492,0.264239440703548
4.65782720179038,3.05916222772272,9.39698839875135,1.68319221242846,1.60457615432224,9.02315000809993,6.97478297293562,2.08186265629779,9.00098332107852,2.31450359456513,8.16751113526937,0.449067801694755,0.181426617337214
4.65692726678888,2.90866232318144,9.37111429346124,1.59325144213113,1.7846970556112,8.96735719231434,6.6388982854146,2.23890882529977,9.05153493506958,2.48173623754195,7.63002442315987,0.968905468399879,0.421331835413742
4.86463648811185,3.54413019408918,7.20938494157493,3.10016980608166,3.35153502415598,8.65516468712555,6.88101587284937,2.13576809214487,8.77858246987549,3.77399830992578,6.77544130708415,2.64926418025008,1.18881091084647
6.48212444190325,3.57744920746738,6.38486344597354,2.16243562408973,3.49008741866709,5.44451737046437,6.89113146913158,2.86796979723115,5.18339847745441,2.86114603807949,6.36662127347619,3.20830144760837,3.41730038318182
