"fastcoef_sq","pref_flow_den","slowcoef_sq","soil_moist_max","soil2gw_max","fastcoef_lin","gwflow_coef","jh_coef","slowcoef_lin","sat_threshold","carea_max","smidx_coef","smidx_exp"
4.81184550705387,2.2156812714669,9.53763491593288,1.20399449571964,1.22501362181363,9.19187009229215,6.78224138630107,2.14702242215836,9.49248313268281,2.27854190769792,8.51232577008556,0.100263777737166,0.13550487138896
4.81184550705481,2.21568127146335,9.53763491591646,1.20399449572978,1.22501362181922,9.19187009227526,6.78224138629832,2.1470224221584,9.49248313268413,2.27854190768148,8.51232577009598,0.100263777732182,0.135504871397858
4.81184550705395,2.21568127146534,9.5376349159252,1.20399449572555,1.22501362181513,9.19187009228475,6.78224138630029,2.14702242215839,9.49248313268286,2.27854190769053,8.5123257700921,0.100263777733989,0.135504871392381
4.8118455070552,2.2156812714649,9.53763491592444,1.203994495724,1.22501362181782,9.19187009228409,6.78224138629986,2.14702242215841,9.49248313268484,2.27854190768709,8.51232577009118,0.100263777733321,0.135504871394348
4.81184550705475,2.2156812714648,9.53763491592348,1.20399449572498,1.22501362181746,9.1918700922826,6.78224138629948,2.14702242215839,9.49248313268411,2.27854190768767,8.51232577009133,0.100263777734034,0.135504871394445
4.81184550705395,2.21568127146673,9.53763491593212,1.20399449572007,1.22501362181395,9.1918700922914,6.78224138630096,2.14702242215836,9.49248313268293,2.27854190769705,8.51232577008605,0.100263777736876,0.135504871389408
4.81184550705456,2.21568127146462,9.5376349159224,1.20399449572601,1.22501362181735,9.19187009228142,6.78224138629933,2.14702242215839,9.4924831326838,2.27854190768717,8.51232577009221,0.100263777733866,0.135504871394736
4.81184550705443,2.21568127146496,9.53763491592393,1.20399449572511,1.22501362181675,9.19187009228298,6.78224138629958,2.14702242215838,9.49248313268361,2.27854190768884,8.51232577009124,0.100263777734392,0.135504871393856
4.81184550705966,2.21568127146357,9.53763491592173,1.20399449572011,1.22501362182659,9.19187009228324,6.78224138629951,2.14702242215847,9.49248313269194,2.27854190767333,8.51232577009113,0.100263777728395,0.135504871400623
4.81184550705504,2.21568127146495,9.53763491592444,1.20399449572398,1.22501362181774,9.19187009228379,6.78224138629968,2.14702242215839,9.49248313268459,2.27854190768769,8.51232577009068,0.100263777733917,0.135504871394294
4.81184550700099,2.21568127143011,9.53763491571014,1.20399449594529,1.22501362176711,9.1918700920364,6.78224138626456,2.14702242215804,9.49248313259544,2.27854190764069,8.51232577026123,0.100263777726454,0.135504871434619
4.811845507055,2.21568127146501,9.53763491592469,1.20399449572385,1.22501362181761,9.19187009228403,6.78224138629972,2.14702242215839,9.49248313268452,2.27854190768803,8.51232577009051,0.100263777734038,0.135504871394128
4.81184550706172,2.2156812714554,9.53763491588384,1.20399449574338,1.22501362183948,9.19187009224397,6.78224138629295,2.14702242215855,9.49248313269484,2.27854190763586,8.51232577011464,0.100263777717454,0.135504871421173
4.81184550710462,2.21568127144868,9.53763491588764,1.20399449568373,1.22501362191797,9.19187009226592,6.78224138629346,2.14702242215912,9.49248313276371,2.27854190753017,8.51232577009119,0.100263777680064,0.135504871468099
4.81184548945087,2.21568125841569,9.53763483856954,1.20399457308408,1.22501360703952,9.19187000404187,6.78224137352226,2.14702242218666,9.49248310378094,2.27854188598106,8.51232583078533,0.100263773358359,0.135504888132924
4.81184550752602,2.21568127181644,9.53763491799617,1.20399449364735,1.22501362221828,9.19187009463986,6.78224138663844,2.14702242215643,9.49248313345689,2.27854190827353,8.51232576845159,0.100263777861775,0.135504870948431
4.8118455267343,2.21568128979473,9.53763502544489,1.20399439401548,1.22501363074961,9.19187021602541,6.78224140506602,2.14702242233164,9.49248316480638,2.27854195160611,8.5123256901694,0.10026378598046,0.13550484101103
4.81184550442348,2.21568127029103,9.53763490823072,1.20399450462049,1.22501361885338,9.19187008326029,6.78224138499129,2.14702242226688,9.4924831285696,2.27854190764748,8.51232577648627,0.100263778146053,0.135504872048502
4.81184551517776,2.21568127584461,9.53763494283585,1.20399446603627,1.22501363080016,9.19187012358389,6.78224139071803,2.14702242199686,9.49248314580741,2.27854191029904,8.51232574767576,0.100263777714467,0.135504867939917
4.81184550104495,2.21568126960114,9.53763490278516,1.20399451311682,1.22501361324848,9.19187007626502,6.7822413843339,2.14702242215933,9.49248312283344,2.2785419115626,8.51232578268043,0.100263779063243,0.135504870627479
4.81184561798463,2.2156813531173,9.53763540644443,1.20399400997923,1.22501370921411,9.19187065594077,6.7822414701864,2.14702242217192,9.49248331447699,2.27854204521393,8.51232539629466,0.100263798030374,0.135504762252982
4.8118457758352,2.21568145285527,9.53763601465065,1.20399337768099,1.22501386174188,9.19187136047556,6.7822415714735,2.14702242252615,9.49248357423019,2.27854216489298,8.51232491209855,0.100263813354085,0.135504652186026
4.81184554171811,2.21568129665363,9.5376350738795,1.20399434264285,1.22501364436694,9.19187027562491,6.78224141478404,2.14702242237671,9.49248318903779,2.27854195413605,8.51232565663636,0.100263780410076,0.13550483375391
4.8118450420639,2.21568097283778,9.53763299636575,1.20399655236221,1.22501314647084,9.19186797430363,6.78224114674935,2.14702241392854,9.49248236312685,2.278541337637,8.5123275039754,0.10026352147948,0.135505210086143
4.8118446743088,2.21568075465605,9.53763220397307,1.20399785109008,1.22501238291546,9.19186728711364,6.78224119639252,2.14702245277477,9.49248184791451,2.27854139199425,8.51232888887742,0.100263151860142,0.135504981969746
4.81185752599949,2.21568589344236,9.53767005607477,1.20394729679021,1.22503207903403,9.19190583137286,6.78224213748796,2.14702244784066,9.49250288010494,2.27854761119458,8.51228174254898,0.100273543263229,0.135505064615773
4.81161350093874,2.21681761245805,9.53781680120579,1.2045506308058,1.22629787800438,9.19175790746733,6.78266235856036,2.14670955743854,9.49169176254213,2.27925223246469,8.50958110517507,0.102213362697908,0.135801853990871
