"fastcoef_sq","pref_flow_den","slowcoef_sq","soil_moist_max","soil2gw_max","fastcoef_lin","gwflow_coef","jh_coef","slowcoef_lin","sat_threshold","carea_max","smidx_coef","smidx_exp"
4.8254088897308,2.21973617273837,9.5662436714597,1.16293625070661,1.24667517632425,9.22451581346859,6.7845268784847,2.14708545813194,9.51492374427666,2.27078075172651,8.47880142852229,0.10149858612994,0.139120919893664
4.8254954273756,2.21915453317766,9.56648401007864,1.16189873640652,1.2462166358924,9.22422127046378,6.78411943001797,2.14700889701771,9.5146906267044,2.27179908912627,8.47798509986089,0.10194161333273,0.139247453985668
4.81645861441326,2.21893192071134,9.55719871707839,1.18237688228926,1.23056675744491,9.21260268525907,6.78401164269123,2.14709795592466,9.5002986384993,2.28498842360811,8.49267623342811,0.104505878315304,0.132422709253935
4.82580504718444,2.22113792610587,9.57437360197544,1.15528443831156,1.2461524356272,9.23181011714619,6.78486286238956,2.14697575847962,9.51545375071604,2.27816172491972,8.47030252629908,0.105455714984911,0.136355475604384
4.82588242331665,2.22104234472886,9.57432468276323,1.15515661050418,1.24622831941515,9.23176832094354,6.78481458049155,2.14697079401733,9.51554735080231,2.27799475442942,8.4702957879275,0.105366001391449,0.136474144524662
4.82627233352661,2.22118932960485,9.57474684485686,1.15439369154776,1.24707375409683,9.23238847084842,6.7848894962118,2.14700936663172,9.51627632867008,2.27724978457896,8.46967066245279,0.105258135751783,0.136741253475112
4.82314225412938,2.21982535527199,9.56672076362095,1.16543706893363,1.24190199129009,9.22402253941852,6.78452523444436,2.14708130010764,9.51114175769961,2.27749382388528,8.47967007878608,0.103641864241836,0.136240116508714
4.82293084500652,2.22016510100452,9.56770613981093,1.1646562898236,1.24151815160291,9.22451435085107,6.78443014697299,2.1469739980491,9.51071065907537,2.27885022743863,8.47847654051949,0.104448360342468,0.135787079261717
4.82594432651676,2.22184016922261,9.57836807203188,1.15160538325827,1.2457818765815,9.23536992793496,6.7850388567433,2.14691463529609,9.51561350066997,2.28192902786881,8.46617317134038,0.107433821341375,0.134929533299883
4.82759742616009,2.22119233307091,9.57590389342664,1.15135041097247,1.24926817169915,9.23359741384873,6.78486004226827,2.14679003645395,9.51809730193585,2.27541458374047,8.467539414331,0.104886635199208,0.137910885582932
4.82402644389295,2.22015506044091,9.56898539395293,1.1621068436617,1.24333570503215,9.22617844381947,6.78451527982475,2.14699663624106,9.51247728478781,2.27768050092475,8.47654729253092,0.104317930618447,0.136457561623106
4.83217834540554,2.22182536355573,9.58210325564615,1.14083857548928,1.25701110186638,9.24205031252901,6.78561219234949,2.14706589875943,9.52597135935435,2.26891125444477,8.46032170792916,0.103062702575735,0.140321284997995
4.82450793216986,2.22049019172071,9.57060684179266,1.16026384438003,1.24408703048623,9.2279827048975,6.78469655547879,2.14702819707096,9.51335397465505,2.27779835156262,8.4749051732409,0.104552315376347,0.136314271453502
4.82455021709561,2.22049972320168,9.57068182579419,1.16015174887854,1.24415340922762,9.22807658989582,6.78470562596861,2.14702888836692,9.51342400435576,2.27775824467164,8.47482301726902,0.104542800888813,0.136328803081303
4.82436607598015,2.22065139295246,9.57103043272525,1.15998749649408,1.24383199538259,9.22815889585771,6.78465030413826,2.14697606128871,9.51308085840664,2.27849531395015,8.47441045746935,0.104941141684759,0.136070125317629
4.82447535594075,2.22066817772721,9.57120434463718,1.15967086213262,1.24402605232669,9.22833917310647,6.7846435186715,2.14697223259809,9.51325497637298,2.27840891688461,8.4741346154549,0.104969295144881,0.136136468218432
4.82465183887425,2.22068352428419,9.57138761108666,1.15927975641835,1.24431534015234,9.22856381311447,6.78466372602939,2.14695348783446,9.51351369794098,2.27815754417451,8.47387523529308,0.10489751392879,0.13626515940585
4.82887496235016,2.22144453293804,9.57795950595103,1.14847961600254,1.25138646334323,9.23665693250614,6.78523975339807,2.14702588573988,9.52052853130251,2.27353094917598,8.46570464865434,0.104176250849787,0.138304242069629
4.82910507623211,2.22152022052476,9.57849930808366,1.14766845155752,1.25176841515561,9.2371857448272,6.78524135608971,2.14701125343885,9.52088414539608,2.27353160847926,8.46495103434891,0.104326638832931,0.138374203356516
4.82937206086223,2.22154386442399,9.57882756599312,1.14696011210169,1.25225234540057,9.23750928273884,6.78521414295405,2.14698975189729,9.52129027385779,2.27324362580783,8.46435226316189,0.104361101091824,0.138584390480552
4.82515324053335,2.22093852081058,9.57409104177092,1.15623022778553,1.24471324857489,9.2312360466777,6.78475754769885,2.14697714676025,9.51430384243588,2.27995534715089,8.47085240728572,0.105972115775244,0.135706480823935
4.82740279606111,2.22179362110436,9.57966085785292,1.1482223784431,1.2484219469365,9.23684586981819,6.78486017771304,2.14687403882657,9.51790104917806,2.27977741052578,8.46357391621561,0.107222890503102,0.136237863404944
4.82537767937899,2.22245480117985,9.58158204770811,1.14953814486554,1.24412455310719,9.23796218410126,6.78518355072333,2.14685985161698,9.51462652730203,2.28672410826446,8.46326896699209,0.109562270312047,0.132987399747265
4.84084817960154,2.22324600623308,9.59641507474585,1.11401793183613,1.27078468183635,9.25456995587922,6.78518940069308,2.14516042613194,9.53728806001252,2.2648840621202,8.43749578585397,0.10571832093863,0.14582364596752
4.82564259823746,2.22101092046279,9.57611928256496,1.15301130836887,1.2451416041165,9.23240924812028,6.78446179977089,2.14665587961746,9.51458091669996,2.28183021899368,8.46748390762405,0.107401692974242,0.13572420428983
4.82453270100076,2.22486911284642,9.57316178566309,1.15000235206543,1.25213690075603,9.21799758249091,6.78049565788259,2.14411126800394,9.51012847516612,2.28438111634848,8.45184432427376,0.120524024689306,0.139663399534396
4.75358608359335,2.35395836979983,9.50590151229455,1.35680481843179,1.34395357800476,9.11300490330639,6.83122803299129,2.10684574815856,9.34417800891587,2.39094531569825,8.22499876002236,0.350930492816112,0.164152058205586
