"fastcoef_sq","pref_flow_den","slowcoef_sq","soil_moist_max","soil2gw_max","fastcoef_lin","gwflow_coef","jh_coef","slowcoef_lin","sat_threshold","carea_max","smidx_coef","smidx_exp"
4.61956093023197,3.15044701449139,9.47718717607027,1.34208006802301,1.8585548973991,8.54046563982524,6.7334013616775,2.0431201988549,8.80700052081092,2.79466087583208,7.177882137833,1.23608965802637,0.365189708920735
4.60419985262245,3.22219587155031,9.43991149995282,1.43910773082856,1.86176165281064,8.61176749353921,6.78386381967001,2.05706125720903,8.78841350068728,2.71924807732712,7.32018109061678,1.13974538758032,0.346697592288076
4.60480542857464,3.22121461661242,9.44000948388955,1.43830832752421,1.86166244414826,8.61190483887534,6.78396890216227,2.05732399940919,8.788943094405,2.71872626294518,7.32071105929558,1.13908901911123,0.346995547456602
4.60481207382677,3.2223144521815,9.4387950525526,1.44137269064439,1.86093373370197,8.61581033926612,6.78605176708137,2.05657235041621,8.7890453706521,2.7150331312649,7.32827996160137,1.13276641145262,0.345276154513977
4.59470992177011,3.21492355606064,9.41531472234513,1.50120388152979,1.81357240924474,8.68238502606292,6.80565362891592,2.06694435022964,8.79077905582034,2.67459285789955,7.44864225367083,1.04064492343795,0.325148298915049
4.58500199225004,3.20824151839585,9.39105213267104,1.56322483110542,1.76333096210859,8.7536614343412,6.82942938026565,2.07582048440192,8.79318734446102,2.62941225090401,7.58038346191625,0.938176940494455,0.301817297862849
4.58521588419376,3.2069726341043,9.3908550669924,1.56296647626808,1.76470441454469,8.75315657492406,6.82731805649179,2.07679578541732,8.79337745836429,2.63016414582396,7.57728462716187,0.941395197884673,0.303439428191604
4.59336632610098,3.23721067474899,9.4403009211198,1.45659894685236,1.86708859105969,8.62055899165653,6.7796751528589,2.04808856752027,8.79706112226721,2.71213095425454,7.3208054104901,1.14539826088296,0.340251759122702
4.62065780599499,3.24377229008204,9.45248883968206,1.48224024591485,1.85587435259878,8.65282559667589,6.84740177349563,2.04229206485309,8.81668501238147,2.64295177084935,7.43645941006984,1.03978230292624,0.316534064546108
4.60317631156153,3.2396519458025,9.41181890715774,1.51666105224579,1.84419663260216,8.67100247286479,6.83323381668063,2.06790498512021,8.78541099943423,2.64146440153526,7.45496694568752,1.02611749951243,0.33877657128523
4.62840187575374,3.26542278847029,9.45316680553027,1.45677133286979,1.84315893669547,8.63716534663431,6.8132268560228,2.01630937956362,8.76553734219163,2.68441144975881,7.36316628006086,1.07735895570077,0.333172299833533
4.60469549092826,3.23371163756798,9.41761931619461,1.51966130562636,1.83380761492043,8.67706747896514,6.82532453284661,2.0660025243474,8.79666269495523,2.65137521190264,7.45950438170758,1.03515925316686,0.323710954204352
4.60202332892486,3.25729298723961,9.38368356454857,1.59441259117753,1.82667898604432,8.7300000217077,6.88258288540451,2.07875948693173,8.78215435195825,2.56391345963608,7.5894302620145,0.912792439356235,0.330902568559199
4.59321223831891,3.27209994854876,9.37785548811553,1.61206994355964,1.82724882873322,8.71829932194032,6.88346599297524,2.07964671878489,8.76607663024065,2.57721820677212,7.57614430851059,0.929619279272383,0.329647535472025
4.60488481147032,3.24039652920802,9.40063284133353,1.59607378472083,1.80180845911858,8.74280384504825,6.86566869397052,2.07416404634082,8.81047850797498,2.58402458194237,7.60279589272388,0.929153174880678,0.296533823569358
4.60816323500475,3.23442058248824,9.40216133508295,1.58985866054942,1.78438164489785,8.74586074569287,6.87252117013489,2.06285258816578,8.81996700651052,2.57991747822546,7.6170482121011,0.918804041902572,0.300781599255863
4.5510755919614,3.21337488296951,9.30377006252353,1.73868237269372,1.72227336782684,8.88213281367177,6.85108826600874,2.12545988160956,8.75144250429061,2.5520819425603,7.77141953013561,0.77169375136971,0.314915947038647
4.58972665941452,3.27626478849208,9.38197127309452,1.60276741103021,1.81898542197493,8.74288062781233,6.86479612366521,2.07614848291696,8.77585706319869,2.58854336329879,7.58533221541122,0.936054600059989,0.314383059329698
4.59451830876372,3.2810596545432,9.40638726356849,1.59290415271749,1.76161998139913,8.75170625457,6.93975942096063,2.0349296444039,8.78631700364997,2.55250021913817,7.70010130513483,0.812225988738932,0.258813273371105
4.58295660318408,3.31589417552726,9.31948153012811,1.77943459730204,1.79214023326825,8.82933759597755,6.98056998025559,2.10172980286128,8.75146812722063,2.43209901137197,7.83334450249445,0.718102950877494,0.312376186298703
4.5470168211467,3.36130929293598,9.33121103427579,1.80848554116052,1.76940947280311,8.8554248211259,6.94992478057552,2.0865401666918,8.73703316290699,2.49322493230527,7.83202582509806,0.773527092819783,0.270698258059619
4.6055244581431,3.29394840944966,9.28613230875099,2.06590839021789,1.61927933468947,9.13598196915127,7.11054079649395,2.12424307564732,8.8792228905488,2.17952010974349,8.45284457423142,0.297093354531356,0.142415722277965
4.54055147638494,3.44921001789328,9.20314451002564,2.10687380975165,1.69392438657899,9.12237306977534,7.10581084231096,2.13584476870729,8.72185451400414,2.21176206818098,8.36167775363489,0.345195088612826,0.220796285049274
4.45889608103096,3.26354148131544,9.26956233201636,2.04662361385629,2.02170662568241,8.81169342920209,6.68244983867898,2.71916698456028,8.48568584383932,2.82559958753797,7.20492558820534,1.42214187355847,0.565457767925134
4.20799802546159,3.0951371191354,7.47745536429728,3.45963878750465,3.51179458808371,6.77055003703611,5.31682024764287,4.29844749983633,6.43260797146384,3.77327720777639,4.95663202737922,4.51002694427566,3.74955629995366
4.89033190660702,3.55944036834949,8.92282867856887,1.8507535031989,2.33149957734174,8.05172949577712,6.60542890618211,2.16044605367043,8.19461246576903,2.33309852064258,7.05241651211064,1.50897431048982,0.780036511286696
3.95248961322227,4.9682857546185,5.03320302438284,3.662910408359,4.66854116353099,6.31693805517026,4.23463596017939,1.30776008279263,9.25123954888977,6.32542242001867,7.74308490721226,4.04273180432489,1.92723529421472
