"fastcoef_sq","pref_flow_den","slowcoef_sq","soil_moist_max","soil2gw_max","fastcoef_lin","gwflow_coef","jh_coef","slowcoef_lin","sat_threshold","carea_max","smidx_coef","smidx_exp"
4.86326546782819,2.2243762227584,9.61700816879607,1.05763575842084,1.31501778669588,9.27303819544342,6.78024849647927,2.14333236519708,9.57151238478635,2.23506758252574,8.38768611982414,0.10966496833014,0.168048952837205
4.85997378233151,2.22444499163997,9.61636618128628,1.06259340810012,1.30716170402107,9.27041080617187,6.78094124282284,2.1425739909553,9.56471954546397,2.24400560792993,8.3915872995629,0.111038405310652,0.164281865100815
4.8599807227191,2.22443398194329,9.61635970223266,1.06258799632479,1.30714735628532,9.27037445682727,6.78094559615791,2.14256661119565,9.56469869231429,2.2440215539593,8.39158194984173,0.111040199916645,0.164281820429633
4.85967565912081,2.22443216406377,9.61632659450642,1.06224544451986,1.30710246514867,9.269598778212,6.78033367566083,2.14258482725553,9.56427104103434,2.24522867423727,8.39019048019753,0.112445633657829,0.164359183672253
4.86289542449085,2.22422544018019,9.61690470788799,1.0599683404597,1.31302774100267,9.27447488658724,6.78148962601906,2.14361638982113,9.57091878620935,2.23507782576241,8.39162123494586,0.107295583288746,0.166858052353119
4.86218977508862,2.22415870875591,9.61682630756109,1.05966956709938,1.31242771312964,9.27299116976,6.78050293335808,2.14358517078221,9.56978312807482,2.23768109628804,8.38955497592719,0.109727709324071,0.166756262772628
4.86223590676492,2.22415820983594,9.61683239981189,1.05965400937084,1.31247710861338,9.2730475536398,6.78054467015442,2.14358023955855,9.56985624159892,2.23753952568967,8.38962824032776,0.109617074151402,0.166773302770405
4.86115655894194,2.22456218634543,9.61674981927993,1.05885904002616,1.3122540165114,9.27045266109226,6.77887799285587,2.14334699274509,9.5682688180172,2.24137669513094,8.38551222320891,0.113979398096257,0.166879797486365
4.86737503632645,2.22395610943527,9.61790554901199,1.04779847299266,1.32641118104829,9.27301923334294,6.7769581088159,2.14359522456285,9.57980548278339,2.22608684369289,8.37641085549024,0.11261848450872,0.174077373532017
4.86685293517443,2.22454518441199,9.61776138027664,1.04766302304758,1.32648720727047,9.27148985275707,6.77636575364491,2.14352826268102,9.5786186161218,2.22806732849338,8.37420225992978,0.114875626297043,0.174216345148221
4.8576751422642,2.22155360157358,9.61611888734457,1.06429200832802,1.29912624898511,9.2680256511035,6.78021696071873,2.14211035358943,9.56002213458359,2.25253343415879,8.394552275114,0.112017342689817,0.161336984014145
4.86304629895155,2.22425985584767,9.61695728649756,1.05767032316989,1.31458330418284,9.27251725447436,6.78029180342174,2.14324763065003,9.57107832926016,2.23567796507677,8.3875816495267,0.109884433166965,0.167867903345242
4.85393994472421,2.22492400600654,9.61500102279421,1.06919732660531,1.29477585071734,9.26242764672168,6.7803055717028,2.14056518788713,9.55190867609117,2.26152129257916,8.39312691883065,0.117741405351371,0.1586995156135
4.86606690434857,2.22449674911695,9.61761524453317,1.05261633671962,1.32232768054383,9.27420215954886,6.77953548475936,2.14377021398088,9.57721215679523,2.22768143706876,8.38279711442805,0.109425839466257,0.171577019420926
4.86606965479799,2.22449555172006,9.61761469173226,1.05260721896006,1.3223371374269,9.27419775876012,6.77953048561101,2.14377130041713,9.57721789301343,2.22767782270649,8.3827824530668,0.1094331750859,0.171582912218502
4.86686558708704,2.22158662459042,9.6175548478963,1.0518600181824,1.3194409580576,9.27656457717446,6.77781912465359,2.14549560042849,9.57605807410354,2.23320010150411,8.38288816559282,0.109369658924752,0.171752627090498
4.85272592863724,2.24711166775228,9.60819930688543,1.07052746173076,1.32515992086196,9.24318410580783,6.777527762558,2.13747557292783,9.55033914032601,2.24883356340236,8.36066311060626,0.141685054927115,0.168763596779927
4.85498220704535,2.24874160892909,9.60747694574889,1.07440757311403,1.32766890034261,9.24704374711096,6.78259670438792,2.13680404835048,9.55371451539225,2.23721184658364,8.37058473371203,0.131778760768431,0.168533937836587
4.86512555854475,2.23827277262217,9.60553539711942,1.07451144338132,1.32197957764209,9.26663543788122,6.78179788124631,2.14602528158776,9.55314177020168,2.24691529882834,8.38125655345593,0.116457908612291,0.172352346452016
4.85748037936867,2.23694878283472,9.61196702541979,1.06834646695813,1.31769248314784,9.2585602380105,6.78174337023633,2.13961617406036,9.55899249236665,2.24079017815727,8.38048006376608,0.12179263155097,0.166530525626057
4.85623938210286,2.22910321720692,9.61237911018652,1.07541397406915,1.30066163114029,9.26785877660814,6.78311282310828,2.14280564826703,9.55387127575205,2.25310497793657,8.39809411246725,0.112198827818099,0.160436825159255
4.86197976823601,2.22879078495307,9.61599494508962,1.05788666823007,1.31834356110437,9.26854105561385,6.77910458829128,2.14256539016552,9.56824766215049,2.23783814303878,8.38010596727207,0.116349031818416,0.169301458875299
4.86409425308837,2.23093078324331,9.61774510382272,1.04868506223099,1.32983223827002,9.26699180242129,6.77431623905569,2.14163810906476,9.57448244564514,2.23292452199379,8.36451228104586,0.12505526928536,0.174642216608963
4.86272484788148,2.23118418016193,9.61629407899024,1.04808505148354,1.32827521694175,9.26206710002621,6.77238575312639,2.14177792195769,9.56874697983604,2.24012654901795,8.35774435749834,0.130649152143452,0.175109359806861
4.8294452895156,2.28503727030536,9.62443923613658,1.06487889721732,1.33334984665751,9.21238872590589,6.76144094154161,2.11960961725023,9.51780464172439,2.31545437174359,8.28447327116489,0.222814312074564,0.162995175211028
4.84396078332169,2.27992271272673,9.62775432003274,1.03038804011144,1.35177627073103,9.20498166653422,6.7501507549867,2.12741182239916,9.52244040625558,2.32138414105702,8.24057687579014,0.240391864914089,0.178485455972218
4.74657645358114,2.5744740302278,9.04398735212404,1.38148507450691,1.74144193052913,8.89604024899096,6.45799998822971,2.03732322878656,9.52673851058018,2.75264332436464,8.28955457872663,0.617224422574706,0.391425691104771
