"fastcoef_sq","pref_flow_den","slowcoef_sq","soil_moist_max","soil2gw_max","fastcoef_lin","gwflow_coef","jh_coef","slowcoef_lin","sat_threshold","carea_max","smidx_coef","smidx_exp"
4.81184213846406,2.21568110274216,9.53763041240845,1.20400552014509,1.22500627120715,9.19186708057826,6.78224310895719,2.14702262929015,9.49247775540119,2.27854347497073,8.51233772288299,0.100259930846696,0.135501546908216
4.81184213847699,2.21568110274287,9.53763041242598,1.20400552010271,1.22500627123523,9.19186708059017,6.78224310895071,2.14702262928936,9.49247775542182,2.27854347496484,8.51233772283718,0.100259930861338,0.135501546920805
4.81184213850041,2.21568110275666,9.53763041251855,1.20400552001432,1.2250062712499,9.19186708070435,6.78224310897142,2.14702262928984,9.49247775545986,2.27854347497968,8.51233772278162,0.100259930850445,0.13550154689928
4.81184213845954,2.21568110266926,9.53763041204233,1.20400552036972,1.22500627131036,9.19186708015708,6.78224310887095,2.14702262928686,9.49247775538834,2.27854347470021,8.512337723049,0.100259930819688,0.135501547095743
4.81184213848176,2.21568110274011,9.53763041241905,1.20400552010186,1.22500627124414,9.19186708058556,6.7822431089502,2.14702262928933,9.49247775542892,2.27854347494677,8.5123377228419,0.100259930853438,0.135501546928961
4.81184213930494,2.21568110256992,9.53763041264236,1.20400551865357,1.22500627278767,9.19186708101685,6.78224310883499,2.14702262931366,9.49247775676275,2.27854347328204,8.51233772190042,0.10025993049622,0.135501547830972
4.81184213847635,2.21568110274052,9.53763041241388,1.20400552011221,1.22500627123666,9.19186708057731,6.78224310894889,2.14702262928937,9.49247775542057,2.27854347495592,8.51233772284608,0.100259930858414,0.135501546925729
4.81184213869585,2.21568110289415,9.53763041337138,1.20400551918662,1.22500627138746,9.19186708170743,6.78224310913186,2.14702262929183,9.49247775578051,2.27854347519712,8.51233772218006,0.100259930845217,0.135501546700944
4.8118421382432,2.21568110210084,9.53763040910462,1.2040055227405,1.2250062715778,9.19186707702498,6.78224310840601,2.14702262929968,9.49247775502341,2.27854347268608,8.5123377251934,0.100259930200978,0.135501548230247
4.81184214273717,2.21568110573158,9.53763043115424,1.20400550078707,1.22500627498897,9.19186710144812,6.78224311161161,2.14702262929903,9.4924777623788,2.27854348084174,8.5123377070555,0.100259932786393,0.135501543115496
4.81184213874167,2.2156811029296,9.53763041359445,1.20400551890064,1.22500627146636,9.19186708189247,6.78224310911785,2.14702262929006,9.49247775585411,2.27854347533291,8.51233772185645,0.100259930979823,0.135501546681369
4.81184213900413,2.21568110312894,9.53763041476349,1.20400551776561,1.22500627166626,9.19186708325817,6.78224310933116,2.14702262928997,9.49247775629023,2.27854347564504,8.51233772100416,0.100259931000702,0.135501546410778
4.8118421390714,2.21568110318191,9.53763041509395,1.20400551750138,1.2250062716686,9.19186708368636,6.78224310942658,2.1470226292935,9.49247775640019,2.27854347571304,8.51233772087805,0.100259930926283,0.135501546300877
4.81184214086925,2.21568110450457,9.53763042314195,1.20400550964337,1.22500627298702,9.1918670930241,6.78224311085861,2.1470226293061,9.49247775935909,2.2785434779626,8.51233771495639,0.10025993112548,0.135501544438296
4.81184214335577,2.21568110602487,9.53763043332091,1.2040055000006,1.22500627444285,9.1918671055074,6.78224311310917,2.14702262935289,9.49247776339078,2.27854347986681,8.51233770881992,0.100259930062126,0.135501541985356
4.81184213837207,2.21568110253391,9.5376304113252,1.2040055209834,1.22500627131576,9.19186707936747,6.78224310874969,2.14702262928962,9.49247775524252,2.27854347430843,8.5123377235674,0.100259930717158,0.135501547337834
4.81184213830634,2.21568110245481,9.53763041089018,1.20400552137453,1.22500627129315,9.19186707888464,6.78224310867859,2.14702262928942,9.49247775513203,2.27854347410199,8.51233772389376,0.100259930661618,0.135501547469222
4.81184211761998,2.21568108461609,9.53763030667048,1.2040056201409,1.22500625827078,9.19186695956523,6.78224309050271,2.14702262917803,9.4924777208559,2.27854343824242,8.51233780069252,0.100259924717065,0.135501574199433
4.81184213412315,2.21568109964163,9.53763039361652,1.20400553892607,1.22500626763854,9.19186705894674,6.78224310579139,2.147022629286,9.4924777482519,2.27854346989001,8.51233773736119,0.100259930058611,0.135501550960385
4.81184212289694,2.21568108696625,9.53763032199123,1.20400560378819,1.22500626371314,9.19186697912247,6.78224309396907,2.14702262929442,9.49247772956924,2.27854343673359,8.51233779066892,0.100259921743263,0.135501572292424
4.81184219883504,2.21568114410377,9.53763066786568,1.20400525918897,1.22500632446135,9.19186737167417,6.78224314912377,2.1470226294785,9.49247785477556,2.27854354427806,8.51233751718216,0.100259946855959,0.135501495119355
4.81184209414629,2.21568106801974,9.53763020493033,1.2040057224109,1.22500623879361,9.1918668430422,6.7822430738226,2.14702262910385,9.49247768224024,2.2785434099862,8.5123378802866,0.100259919444962,0.135501595922943
4.81184391287068,2.21568230724808,9.53763736636403,1.20399840168893,1.2250080397787,9.19187514848733,6.78224427918327,2.14702270463731,9.49248073632611,2.278544715089,8.51233224741655,0.100260075948585,0.13550026542069
4.81184101741012,2.21568023456298,9.53762482224969,1.20401033888283,1.22500605209275,9.19186018457122,6.78224175910463,2.14702259844818,9.49247594133817,2.27854193554029,8.51234061814687,0.100260574249953,0.135503251957149
4.81184327530163,2.2156798828876,9.537626197513,1.20400390352225,1.22501128906811,9.19186037057394,6.78224021780308,2.14702241799057,9.49247947707383,2.278539774108,8.51233348025248,0.10026292236981,0.135506298986166
4.8118448599448,2.21568193566734,9.53763664348192,1.20399713153689,1.22501021200336,9.19187434767916,6.78224381146629,2.14702263388597,9.49248220360142,2.27854227119819,8.51233122645531,0.100259879238783,0.135501904937689
4.74094443060334,2.38239739908465,9.49207470166102,1.35968201658968,1.27289658290387,9.10934214333018,6.79915752386326,2.14580819950283,9.3439503978068,2.37813847119449,8.38353142732284,0.249079059550975,0.151887101342138
