"fastcoef_sq","pref_flow_den","slowcoef_sq","soil_moist_max","soil2gw_max","fastcoef_lin","gwflow_coef","jh_coef","slowcoef_lin","sat_threshold","carea_max","smidx_coef","smidx_exp"
4.81184550897492,2.21568127361664,9.53763492615337,1.20399448853431,1.2250136219401,9.19187010631997,6.7822413897325,2.14702242223511,9.49248313621912,2.27854190931462,8.51232576716915,0.100263774902199,0.135504867588357
4.81184550900735,2.21568127360009,9.53763492611684,1.20399448854718,1.22501362198176,9.19187010632561,6.78224138974889,2.14702242223746,9.49248313627002,2.27854190917695,8.51232576725018,0.100263774807712,0.135504867625906
4.81184550898309,2.21568127362263,9.53763492619054,1.20399448849674,1.22501362194675,9.19187010636162,6.78224138973807,2.14702242223515,9.49248313623248,2.27854190932666,8.51232576713882,0.10026377490561,0.135504867580283
4.81184550902764,2.21568127359482,9.53763492611716,1.20399448853484,1.22501362200591,9.19187010634924,6.78224138975986,2.14702242223866,9.49248313630213,2.27854190911415,8.51232576727554,0.100263774762175,0.13550486764064
4.81184550897937,2.2156812736199,9.53763492617347,1.20399448851403,1.22501362194367,9.19187010634255,6.7822413897356,2.14702242223509,9.49248313622635,2.27854190932097,8.51232576715296,0.100263774903827,0.135504867583989
4.81184550902935,2.21568127361386,9.53763492620781,1.20399448846374,1.22501362199287,9.19187010643932,6.78224138977074,2.14702242223806,9.49248313630578,2.2785419091923,8.5123257672006,0.100263774794389,0.135504867602573
4.81184550908874,2.21568127361961,9.53763492630365,1.20399448833465,1.22501362206318,9.1918701065815,6.78224138979881,2.14702242224009,9.49248313640098,2.27854190911175,8.51232576714928,0.100263774733629,0.135504867614786
4.81184550901487,2.21568127360613,9.53763492615375,1.2039944885108,1.22501362198712,9.19187010636682,6.78224138975453,2.14702242223749,9.49248313628229,2.2785419091903,8.51232576722072,0.100263774811332,0.135504867617145
4.81184550375128,2.21568127072242,9.53763490671165,1.20399450728179,1.22501361836967,9.19187008201256,6.78224138523034,2.14702242211322,9.49248312771515,2.27854190720152,8.5123257785727,0.100263777787449,0.135504871853999
4.81184550911213,2.21568127364,9.53763492640214,1.20399448810352,1.22501362218528,9.19187010656565,6.78224138971792,2.14702242223549,9.49248313644053,2.2785419092444,8.51232576677255,0.100263774970416,0.135504867662889
4.81184550434412,2.21568127030769,9.53763490434848,1.20399450699217,1.22501362114192,9.19187007864862,6.78224138396584,2.14702242207273,9.49248312873586,2.27854190449265,8.51232577704893,0.100263778827208,0.135504874304083
4.81184550559695,2.21568127182133,9.53763491403452,1.20399449828567,1.22501362098917,9.19187008906057,6.78224138538331,2.14702242209916,9.49248313070242,2.27854191005412,8.51232576967151,0.100263780429165,0.135504871171031
4.81184551172394,2.21568127513472,9.53763493639254,1.20399447869793,1.22501362378771,9.19187011915644,6.78224139212705,2.14702242230523,9.49248314069771,2.27854191040256,8.5123257612449,0.100263773322065,0.135504865320126
4.81184550938368,2.21568127381818,9.53763492759115,1.20399448718107,1.22501362218705,9.1918701081894,6.78224139011236,2.14702242224823,9.49248313688098,2.27854190936566,8.51232576646715,0.100263774550722,0.13550486726328
4.81184550954694,2.21568127394997,9.537634928309,1.20399448640809,1.22501362238283,9.19187010895495,6.78224139018795,2.14702242224596,9.49248313715653,2.27854190960496,8.51232576576494,0.100263774699016,0.135504867140722
4.81184549951498,2.2156812679676,9.53763488869255,1.20399452350946,1.22501361648922,9.19187005940187,6.78224138079579,2.14702242199678,9.49248312082618,2.2785419039669,8.51232578802734,0.100263780555661,0.135504876683665
4.81184549803203,2.21568126710743,9.53763488282389,1.20399452866361,1.22501361590645,9.19187005173056,6.78224137915437,2.14702242194316,9.49248311842036,2.2785419033944,8.51232579053353,0.100263782033858,0.135504878282009
4.81184553293896,2.21568129354789,9.5376350437791,1.20399436197929,1.22501364786228,9.19187022724092,6.78224139980505,2.14702242191034,9.49248317562935,2.27854196036072,8.5123256484861,0.100263805703065,0.13550484532133
4.81184556567775,2.21568130832104,9.53763515442552,1.20399427296477,1.22501365626659,9.19187038818484,6.78224144146176,2.14702242354328,9.49248322852605,2.27854194729496,8.51232563211748,0.100263747813418,0.135504813016891
4.8118454812075,2.21568125858256,9.53763482219858,1.20399457861367,1.22501361108885,9.19186996663838,6.78224135829384,2.14702242120062,9.49248309115607,2.27854190561744,8.51232580520665,0.100263807910895,0.135504895813862
4.81184566058875,2.21568136687308,9.53763554638453,1.20399391084851,1.2250137048884,9.19187087590178,6.78224153395848,2.14702242614883,9.49248338240567,2.27854201564646,8.5123254141109,0.1002636936852,0.13550471355315
4.81184516823018,2.2156810481073,9.53763347409913,1.20399587808599,1.22501340624096,9.191868365847,6.78224109363546,2.14702241584939,9.49248258100378,2.27854158040563,8.51232671817859,0.100263850543762,0.135505214162095
4.81184511417561,2.21568107093895,9.53763356447062,1.20399598032584,1.22501320800118,9.19186852698162,6.78224117814044,2.14702241941147,9.49248249168845,2.27854171735275,8.51232690161938,0.100263752289373,0.135505060713439
4.81184502072555,2.21568094314999,9.53763269040409,1.20399604324777,1.22501378318816,9.19186692023849,6.78224053720642,2.14702238984347,9.49248234859176,2.27854175301161,8.51232598095782,0.10026481752654,0.135505722756127
4.81183456705156,2.21567729458974,9.53760583455149,1.20402966390318,1.22500070493073,9.19183550106344,6.78223661625549,2.14702275840352,9.49246596167083,2.27854396207874,8.51235060070311,0.100266103664301,0.135506190525803
4.81182937584328,2.21566836853568,9.53755760785116,1.20407116957749,1.22500116519244,9.19178358569334,6.78222962041002,2.14702238860285,9.49245660732743,2.27851530603529,8.51238802361414,0.100256302154599,0.13552265925018
4.82717077906587,2.22483429529207,9.54835601991001,1.17368654892122,1.24965401610166,9.19897460509048,6.78180413720104,2.14951178279082,9.48956815766029,2.28312034188564,8.46992678820995,0.121248858817759,0.150889446958557
