"fastcoef_sq","pref_flow_den","slowcoef_sq","soil_moist_max","soil2gw_max","fastcoef_lin","gwflow_coef","jh_coef","slowcoef_lin","sat_threshold","carea_max","smidx_coef","smidx_exp"
4.81184443844027,2.21568048444533,9.53763004207455,1.20399941525964,1.22501275398071,9.19186463151767,6.7822406547875,2.14702241620651,9.49248138547258,2.27854032549348,8.51232974167144,0.100263331439783,0.135505933296012
4.8118444381202,2.21568048425352,9.53763004079235,1.20399941644224,1.2250127538112,9.19186462990369,6.78224065447437,2.14702241619768,9.49248138495248,2.2785403253075,8.51232974235944,0.10026333164852,0.135505933617268
4.81184443823505,2.21568048432436,9.53763004125864,1.20399941600421,1.22501275387869,9.19186463048021,6.78224065458075,2.1470224162005,9.49248138513961,2.27854032538698,8.51232974208628,0.100263331592422,0.135505933504078
4.81184443799225,2.21568048418224,9.53763004029704,1.20399941688144,1.22501275375796,9.19186462925542,6.78224065433604,2.14702241619314,9.49248138474549,2.27854032526495,8.5123297425722,0.10026333177576,0.1355059337491
4.81184443774205,2.21568048403703,9.53763003931232,1.2039994177845,1.22501275363008,9.19186462800334,6.78224065408721,2.14702241618592,9.49248138433991,2.27854032514158,8.51232974307593,0.100263331960809,0.135505933996946
4.81184443713398,2.21568048367528,9.53763003688912,1.2039994200006,1.22501275332064,9.19186462492908,6.78224065347853,2.14702241616835,9.49248138335158,2.27854032481735,8.51232974432615,0.100263332398108,0.135505934612273
4.81184443600132,2.21568048309949,9.53763003272165,1.20399942374334,1.22501275281122,9.19186461942269,6.78224065229293,2.1470224161269,9.49248138152686,2.27854032461314,8.51232974606379,0.100263333579675,0.135505935677091
4.81184443848427,2.21568048447607,9.53763004226804,1.20399941507387,1.22501275400953,9.1918646317466,6.78224065482503,2.14702241620728,9.49248138554467,2.27854032554263,8.51232974153905,0.100263331435906,0.135505933249676
4.81184443398757,2.21568048193259,9.53763002484857,1.20399943067171,1.22501275197006,9.19186460910218,6.78224065007863,2.14702241605811,9.49248137825147,2.27854032392692,8.51232974942257,0.100263335595115,0.135505937797366
4.81184443984275,2.21568048543025,9.5376300482726,1.20399940933327,1.22501275487825,9.19186463886341,6.78224065600101,2.1470224162318,9.49248138777035,2.27854032707341,8.51232973746997,0.100263331293798,0.13550593179554
4.81184443616392,2.21568048316264,9.53763003334184,1.20399942335265,1.22501275272153,9.19186462039466,6.78224065258876,2.14702241614132,9.49248138177636,2.27854032453831,8.51232974619796,0.100263333105991,0.135505935422864
4.81184443904518,2.2156804850231,9.53763004528306,1.20399941207851,1.22501275449208,9.19186463499573,6.78224065520996,2.14702241620137,9.49248138648638,2.27854032681679,8.51232973888079,0.100263331993714,0.135505932538475
4.81184444725218,2.21568049005238,9.53763007892427,1.20399938143098,1.22501275842869,9.19186467738143,6.78224066352429,2.14702241643992,9.492481399802,2.2785403320849,8.51232972126907,0.100263326414602,0.135505923816062
4.81184443696701,2.2156804836407,9.53763003644623,1.20399942026233,1.22501275335376,9.19186462412964,6.78224065320494,2.14702241615445,9.49248138309111,2.27854032506858,8.51232974406454,0.100263332929199,0.135505934779903
4.8118444597879,2.21568049794247,9.5376301308419,1.20399933350948,1.22501276501845,9.19186474195761,6.78224067575633,2.14702241676796,9.49248142019807,2.27854034114954,8.51232969221379,0.100263319426041,0.135505910651289
4.81184450901295,2.21568052934719,9.53763033706128,1.20399914392083,1.22501279005229,9.191864998203,6.78224072435702,2.14702241806053,9.49248150025373,2.27854037857925,8.51232957718544,0.100263292076932,0.135505857703556
4.81184434656028,2.21568042717925,9.53762966359338,1.20399976330796,1.22501270675299,9.19186415864371,6.78224056414732,2.14702241373805,9.49248123609972,2.27854026221619,8.5123299490677,0.100263386454462,0.135506029762643
4.81184459218363,2.21568058009341,9.53763067537417,1.20399883436276,1.22501283166787,9.19186542423238,6.78224080756275,2.14702242041282,9.49248163535046,2.27854043023582,8.51232939818959,0.100263236635764,0.135505771066
4.81184506529274,2.21568087606479,9.53763263167161,1.20399704222683,1.22501306862477,9.19186787202984,6.78224127940182,2.14702243333095,9.49248240436112,2.27854075830173,8.5123283375906,0.100262945706906,0.135505268007438
4.81184440360709,2.21568046336587,9.53762989981381,1.2039995440812,1.22501273743819,9.19186445099347,6.78224061912689,2.14702241482318,9.49248132844825,2.27854030421865,8.51232981455631,0.100263356285108,0.135505970551377
4.81184401863727,2.21568083020917,9.53763192794047,1.20399984694684,1.22501048498537,9.19186759710787,6.78224185780955,2.14702245887329,9.49248067336746,2.27854208728233,8.51233150823214,0.100261999948627,0.135503911827338
4.8118450778492,2.21568079061146,9.53763219703117,1.20399698154037,1.2250134662688,9.19186709369632,6.78224094795778,2.14702242447289,9.49248243414813,2.27854064475467,8.5123278261899,0.100263444726466,0.135505667200653
4.81184523154975,2.21568115976281,9.53763424378352,1.20399626136987,1.22501255537976,9.19187017723245,6.78224196426561,2.14702245255204,9.49248267426487,2.27854125658121,8.51232847049043,0.100262205537193,0.135504397241513
4.81184338371069,2.21567975056776,9.53762542712339,1.20400391859703,1.22501201122571,9.1918592345579,6.78223980645778,2.14702240232647,9.49247966129949,2.27853911178977,8.51233304548325,0.10026331793563,0.13550699907764
4.8118449815737,2.21568086423469,9.53763247656356,1.20399686546731,1.22501324214217,9.19186728468823,6.78224096319652,2.14702241781016,9.49248226496763,2.27854116692184,8.51232759271648,0.100263670839277,0.135505449758935
4.81188412041167,2.21569958778697,9.53775837523008,1.20385054767395,1.22506079890731,9.19200961750228,6.78225678177296,2.14702264140758,9.49254643852626,2.27855577578637,8.5122097808758,0.100272391973874,0.135493287150816
4.81285173282303,2.21673184062482,9.53928069723785,1.2005433385246,1.22777625748729,9.19402124295666,6.78172417946831,2.14674073269896,9.49431116674388,2.27924071944974,8.50862958601775,0.101659560406095,0.136289352366157
