"fastcoef_sq","pref_flow_den","slowcoef_sq","soil_moist_max","soil2gw_max","fastcoef_lin","gwflow_coef","jh_coef","slowcoef_lin","sat_threshold","carea_max","smidx_coef","smidx_exp"
4.81184550705387,2.2156812714669,9.53763491593288,1.20399449571964,1.22501362181363,9.19187009229215,6.78224138630107,2.14702242215836,9.49248313268281,2.27854190769792,8.51232577008556,0.100263777737166,0.13550487138896
4.81184551474617,2.21568124239411,9.53763478143547,1.20399457875648,1.22501366755548,9.19186995390016,6.78224136371184,2.14702242247013,9.49248314352451,2.27854177295373,8.51232585547626,0.100263736906966,0.135504944282765
4.81184549811582,2.21568126387288,9.53763486589068,1.2039945647058,1.22501360223607,9.19187005720789,6.7822413944185,2.14702242255439,9.49248311806396,2.27854186763144,8.51232585653132,0.100263734868553,0.135504874143438
4.81184551413407,2.21568126954397,9.53763491402145,1.203994489917,1.22501363323398,9.19187009548809,6.78224138767247,2.14702242236999,9.4924831438812,2.27854188635311,8.51232577341323,0.100263766650569,0.135504879075415
4.81184559500534,2.21568123190359,9.53763480769775,1.2039944465419,1.2250138119226,9.19187000790555,6.78224136279028,2.1470224234507,9.49248327127045,2.27854159902599,8.51232578542009,0.100263682290992,0.135505025939034
4.81184551724748,2.21568125772933,9.5376348593469,1.20399452367093,1.22501365181958,9.19187003920552,6.78224137847534,2.1470224224957,9.49248314826714,2.27854183162819,8.51232580808674,0.10026375009996,0.135504908702424
4.81184552055403,2.215681257958,9.53763486207592,1.20399451547914,1.22501365905597,9.19187004157296,6.78224137750074,2.14702242243134,9.49248315369526,2.27854182701237,8.51232580007849,0.100263751384159,0.135504912213672
4.81184551999658,2.21568125971252,9.53763487013185,1.20399451061753,1.22501365616062,9.19187004981426,6.78224137883612,2.14702242242041,9.49248315290554,2.27854183534481,8.51232579495978,0.10026375396,0.135504907745633
4.81184557938564,2.21568127689361,9.53763500423282,1.20399434306312,1.22501373112995,9.19187021992485,6.78224140443369,2.14702242311037,9.49248324943578,2.27854179563581,8.51232568721892,0.100263726784547,0.135504909000322
4.81184558016527,2.21568129398235,9.53763508900164,1.20399428131368,1.22501371382117,9.1918703077497,6.7822414172398,2.14702242297316,9.49248325159728,2.27854186822253,8.51232562651685,0.100263750779735,0.135504870323098
4.8118446323004,2.21568069872604,9.53763140545138,1.20399810738411,1.22501281161842,9.19186604458128,6.78224081124066,2.14702241648505,9.49248168922013,2.27854111023056,8.51232855995702,0.100263645027474,0.135505543806344
4.81184554445967,2.2156812789902,9.5376349851142,1.20399439937791,1.22501367350921,9.19187018208418,6.78224139881382,2.14702242262267,9.49248319334151,2.27854187097817,8.51232570926489,0.100263759222064,0.135504880118899
4.81184554443274,2.21568127896467,9.53763498496691,1.20399439954267,1.2250136734737,9.19187018194332,6.78224139880916,2.14702242262312,9.49248319329599,2.27854187089711,8.51232570943668,0.100263759161148,0.135504880145043
4.81184555277386,2.21568127643004,9.53763497888689,1.20399439147707,1.22501369149152,9.19187017787178,6.78224139685649,2.14702242268543,9.49248320670978,2.27854184539959,8.51232570647334,0.100263752439437,0.135504893201232
4.81183649431968,2.21567458924519,9.53759530590171,1.20403410631311,1.22500605746536,9.19182490814652,6.78223484354853,2.14702243664479,9.49246833492593,2.27853078866392,8.51235684836896,0.100261535787843,0.135513444298503
4.81184387156647,2.21568006698839,9.53762769544007,1.204001664574,1.22501230049261,9.19186180429978,6.78224016704295,2.14702241553085,9.4924804392786,2.27853988655604,8.51233132526761,0.100263441242124,0.135506465752662
4.8118397349736,2.21567602888821,9.53760362447434,1.20402377950421,1.22501072492245,9.19183470533381,6.78223604492824,2.1470223791025,9.49247370377356,2.27852973482505,8.51234878131272,0.100261475934432,0.135513360673403
4.81183902099159,2.21567807176316,9.53761441784423,1.20401748944214,1.22500660429317,9.19184619967139,6.78223793201193,2.14702264380039,9.49247290033699,2.27854053109313,8.51234261749278,0.100264352128084,0.13550721185995
4.81184578275271,2.21568141865942,9.53763587131116,1.20399347782587,1.2250138975054,9.19187122418056,6.78224155408707,2.14702242493346,9.49248358465653,2.27854201779679,8.51232502913024,0.100263751725194,0.135504722647816
4.81184261602957,2.21567944732641,9.53762355548705,1.2040062674107,1.2250109380625,9.1918569953526,6.78223951607675,2.14702240951895,9.49247840297568,2.27853947075215,8.51233478978768,0.100263438234339,0.135506988679573
4.81184655107607,2.21568208546209,9.53763978064958,1.2039897782553,1.22501437174044,9.19187569302955,6.78224223218378,2.14702243085355,9.4924848578725,2.27854339158846,8.51232214220724,0.100263990613171,0.135503712332971
4.81184658770974,2.21568202904993,9.53763954124898,1.20398988823229,1.22501450035902,9.19187544964926,6.7822421864316,2.14702243168123,9.49248491413614,2.27854310024758,8.51232226702545,0.100263910018786,0.135503871618552
4.81184968380039,2.21568456559864,9.53765455650513,1.20397550246249,1.22501657668451,9.19189268903374,6.78224480358291,2.14702245549481,9.49249003475755,2.27854799378035,8.51231114700274,0.100264666852048,0.135500147659894
4.81184578937266,2.21568148551392,9.53763619719826,1.20399324628239,1.22501382789233,9.19187157098745,6.78224161262331,2.14702242216341,9.49248359500286,2.27854227690025,8.51232482105355,0.10026381838677,0.135504573158595
4.81189850762608,2.21571417534961,9.53780743232029,1.2037808795374,1.22509260276052,9.19204840956258,6.78225336824464,2.14702046710615,9.49256487891662,2.2785747571605,8.51212702711269,0.100303817868434,0.135497954281541
4.81190831421845,2.21573156560504,9.53793627363235,1.2036955366414,1.22506214960909,9.19220712039933,6.7822871192522,2.14702255456418,9.49258641848205,2.27864593105023,8.51208277248593,0.100293263131466,0.135435534397445
4.81138149465288,2.21795395370638,9.53799868755933,1.2051067653339,1.22758213365932,9.19164572367376,6.7830833309747,2.14639669271297,9.49090039214178,2.27996255861766,8.50683643954546,0.104162948150864,0.136098835903198
