"fastcoef_sq","pref_flow_den","slowcoef_sq","soil_moist_max","soil2gw_max","fastcoef_lin","gwflow_coef","jh_coef","slowcoef_lin","sat_threshold","carea_max","smidx_coef","smidx_exp"
4.81184550705387,2.2156812714669,9.53763491593288,1.20399449571964,1.22501362181363,9.19187009229215,6.78224138630107,2.14702242215836,9.49248313268281,2.27854190769792,8.51232577008556,0.100263777737166,0.13550487138896
4.81184550705481,2.21568127146335,9.53763491591646,1.20399449572978,1.22501362181922,9.19187009227526,6.78224138629832,2.1470224221584,9.49248313268413,2.27854190768148,8.51232577009598,0.100263777732182,0.135504871397858
4.81184550705395,2.21568127146534,9.5376349159252,1.20399449572555,1.22501362181513,9.19187009228475,6.78224138630029,2.14702242215839,9.49248313268286,2.27854190769053,8.5123257700921,0.100263777733989,0.135504871392381
4.8118455070552,2.2156812714649,9.53763491592444,1.203994495724,1.22501362181782,9.19187009228409,6.78224138629986,2.14702242215841,9.49248313268484,2.27854190768709,8.51232577009118,0.100263777733321,0.135504871394348
4.81184550705468,2.21568127146625,9.5376349159305,1.20399449572017,1.2250136218157,9.19187009228995,6.78224138630065,2.14702242215838,9.49248313268408,2.27854190769386,8.51232577008668,0.100263777735886,0.135504871391032
4.81184550705395,2.21568127146673,9.53763491593212,1.20399449572007,1.22501362181395,9.1918700922914,6.78224138630096,2.14702242215836,9.49248313268293,2.27854190769705,8.51232577008605,0.100263777736876,0.135504871389408
4.81184550705432,2.21568127146588,9.53763491592833,1.20399449572224,1.22501362181549,9.19187009228759,6.78224138630034,2.14702242215838,9.49248313268347,2.27854190769287,8.51232577008845,0.10026377773555,0.135504871391614
4.81184550705405,2.21568127146657,9.53763491593141,1.20399449572045,1.22501362181429,9.1918700922907,6.78224138630084,2.14702242215837,9.49248313268308,2.2785419076962,8.51232577008649,0.100263777736601,0.135504871389853
4.81184550705966,2.21568127146357,9.53763491592173,1.20399449572011,1.22501362182659,9.19187009228324,6.78224138629951,2.14702242215847,9.49248313269194,2.27854190767333,8.51232577009113,0.100263777728395,0.135504871400623
4.81184550705527,2.21568127146655,9.53763491593241,1.20399449571818,1.22501362181626,9.19187009229232,6.78224138630105,2.14702242215838,9.49248313268505,2.27854190769391,8.51232577008537,0.100263777735651,0.13550487139073
4.81184550694717,2.21568127139686,9.53763491550383,1.20399449616079,1.225013621715,9.19187009179754,6.7822413862308,2.14702242215767,9.49248313250673,2.2785419075999,8.51232577042647,0.100263777720726,0.135504871471379
4.81184550705518,2.21568127146668,9.53763491593292,1.20399449571793,1.225013621816,9.19187009229281,6.78224138630112,2.14702242215838,9.49248313268491,2.27854190769458,8.51232577008503,0.100263777735893,0.135504871390398
4.81184550706863,2.21568127144744,9.53763491585122,1.20399449575698,1.22501362185975,9.19187009221268,6.78224138628758,2.1470224221587,9.49248313270555,2.27854190759025,8.51232577013329,0.100263777702726,0.135504871444487
4.81184550715444,2.21568127143401,9.53763491585882,1.20399449563768,1.22501362201673,9.19187009225658,6.7822413862886,2.14702242215985,9.49248313284328,2.27854190737887,8.5123257700864,0.100263777627947,0.13550487153834
4.81184548945087,2.21568125841569,9.53763483856954,1.20399457308408,1.22501360703952,9.19187000404187,6.78224137352226,2.14702242218666,9.49248310378094,2.27854188598106,8.51232583078533,0.100263773358359,0.135504888132924
4.81184550611187,2.21568127074806,9.5376349117126,1.20399449992695,1.22501362102987,9.19187008749982,6.78224138561122,2.14702242216243,9.49248313113724,2.27854190645998,8.51232577341633,0.100263777460789,0.135504872316898
4.81184554641379,2.2156813081261,9.53763513497332,1.20399429230118,1.22501363967999,9.19187033977557,6.78224142383372,2.14702242250488,9.49248319692863,2.27854199553074,8.51232561024282,0.100263794228738,0.135504810624202
4.81184550697859,2.21568127062232,9.53763491167421,1.20399449875887,1.22501362251897,9.19187008768656,6.7822413856353,2.14702242205433,9.49248313235288,2.27854190435037,8.51232577306191,0.100263776636871,0.135504873336059
4.81184552330071,2.21568128022586,9.53763496975525,1.20399443634276,1.2250136397811,9.19187015489251,6.78224139513774,2.14702242183531,9.49248315893068,2.2785419129166,8.51232572525553,0.100263777696752,0.135504864481976
4.81184549503509,2.21568126773893,9.53763488965386,1.20399453050387,1.22501360467773,9.19187006025479,6.78224138236948,2.14702242216027,9.49248311298275,2.27854191544373,8.51232579526487,0.100263780394305,0.1355048698571
4.81184539651703,2.21568119067008,9.53763443062808,1.20399497743407,1.22501353359329,9.19186953440505,6.78224130337935,2.14702242217564,9.4924829515054,2.27854177363149,8.51232614070626,0.100263758041229,0.135504978388354
4.81184522850447,2.21568108401313,9.53763378060325,1.20399565195369,1.22501337228984,9.19186878138249,6.78224119485548,2.14702242183814,9.49248267508484,2.27854164412573,8.51232665693364,0.100263741746693,0.135505096994133
4.81184546955616,2.21568124415191,9.53763474540418,1.20399466134143,1.22501359691006,9.1918698946212,6.78224135574096,2.14702242194531,9.4924830716747,2.278541857652,8.51232589339699,0.100263774322345,0.13550491177957
4.8118450420639,2.21568097283778,9.53763299636575,1.20399655236221,1.22501314647084,9.19186797430363,6.78224114674935,2.14702241392854,9.49248236312685,2.278541337637,8.5123275039754,0.10026352147948,0.135505210086143
4.8118438415628,2.21568023784875,9.53762949202969,1.20400120645038,1.22501114401171,9.19186448195202,6.78224100648673,2.14702248339114,9.49248056314488,2.27854087630702,8.51233200765886,0.100262525988103,0.135505092541634
4.81185752599949,2.21568589344236,9.53767005607477,1.20394729679021,1.22503207903403,9.19190583137286,6.78224213748796,2.14702244784066,9.49250288010494,2.27854761119458,8.51228174254898,0.100273543263229,0.135505064615773
4.81161350093874,2.21681761245805,9.53781680120579,1.2045506308058,1.22629787800438,9.19175790746733,6.78266235856036,2.14670955743854,9.49169176254213,2.27925223246469,8.50958110517507,0.102213362697908,0.135801853990871
