"fastcoef_sq","pref_flow_den","slowcoef_sq","soil_moist_max","soil2gw_max","fastcoef_lin","gwflow_coef","jh_coef","slowcoef_lin","sat_threshold","carea_max","smidx_coef","smidx_exp"
6.66643427212969,9.5265377368486,5.62556538618234,2.91746878748701,5.74021832068296,2.64910014367147,4.87953002722602,1.57472563887286,5.62263585390178,0.534962642997274,0.335888975025599,7.10877755859196,5.48614841045499
0.706913468061951,0.97569906169987,3.53882345804682,8.22783101399335,1.85814248084707,9.01425271078932,2.64999407626732,7.52664056027174,1.08644723400374,7.47305192734034,0.891426213325636,8.13487832808267,6.64009619193659
8.53508400812958,9.65444963026463,2.68325453151864,5.83511059275434,9.10142680409038,7.66743386595604,9.85185209084782,6.13790398943524,1.41042903263202,1.11904199030321,7.49119154937224,3.14584014086542,0.351148007533212
1,1,1,1,1,1,1,1,1,1,1,1,1
9.08177859545508,6.18612320999922,4.26307024981215,0.833512549491837,1.03824888989789,1.04071924036716,8.07269811803003,2.5633477254054,1.95976795457493,3.12612837838908,5.47519496579528,6.62357892199368,0.76346858724284
7.55260755279749,9.77587344179537,4.95951911355952,9.01567385610777,6.94519415426846,8.67422850717301,9.69651202747626,4.21581945843697,2.53571889319405,5.36912845517324,1.2902458755754,4.95275618058207,1.13682824407253
1.42015900094142,3.39480382597551,3.31907635156186,2.19881286547996,1.23970290747712,6.6581689538891,5.59843504523997,7.22921989108702,7.14649488745763,1.81228720984421,6.70148492829583,6.74690362386375,0.717408718007248
9.42658873078133,1.66879436459684,7.11950034594536,7.40729625893692,3.14885011305068,4.10041796382422,7.14605181566722,6.7249097619836,8.80602094897441,4.85299633329216,7.71682234365699,3.07945129986426,4.63835937221326
6.15834492912914,2.05897663297343,8.88451633573642,5.26288399696086,3.43372301150388,5.97239683416879,3.92423671344957,6.9455281241491,1.28820436305442,6.36175379243805,10,2.95212078430818,4.59461020205723
6.81754738806788,1.76875361653878,3.12736228366634,4.07392838967223,4.61044941283693,7.77550069964027,4.60423400679091,9.37519090136187,3.83745591617981,2.01688937132127,5.93459837472037,2.90575474804441,4.56457964877962
4.02223057616684,0.314468956388418,6.92553159667063,4.03239965335126,6.79988071758589,3.15784084279504,3.15266000819136,8.35082132009253,4.94225254400732,6.79992326503946,2.5287771178326,9.82283107853415,8.37589119767084
9.77965148207631,2.31593951038901,2.46279343005085,4.29762956563293,5.23072142984603,2.99880814852193,2.84298916498529,7.704601513776,9.75399606540997,0.690853425846812,3.35686439002485,4.85983989844139,5.41386145216787
2.83139524517794,2.4260952589469,4.13294642061103,6.7043184606087,5.28649263902517,3.72100221859521,3.52819055416783,8.14581313809084,6.15486499322992,1.15205070016559,4.29316323922839,4.78336948408151,3.75181660957062
0.646250888250004,3.68798094927448,3.20953683588158,0.714850932965618,1.57765895259428,4.2624806331294,9.2727793669322,1.72314570280738,1.20432934595475,1.08878872015712,2.10111192214944,4.695071591527,7.92876141845741
8.80101225320994,3.24926946638774,8.94614037406672,8.28558603274861,4.69941189221738,2.34227574045432,7.42317973322319,7.33707270727556,4.70105494683495,1.26157433656194,9.64158423705406,4.05579233431626,4.294467881755
2.90777348100708,1.8822067469014,1.15954826114919,5.13340567061653,7.16218036558128,6.13219540555577,3.95759650082712,9.74836423887771,5.99700455561971,0.833498267600178,6.03048911146898,7.60289815162083,5.96384815202637
4.3690681946375,3.47741103835083,5.09267750862978,6.082576735846,9.63708829128004,4.40336319975097,3.73578283131928,8.05349323066784,8.9689088203926,2.08910528874815,2.78638607525874,4.47864875769961,3.74347795820595
8.6059714193524,7.27344739718293,2.63394384733668,3.40268048897006,6.99527632658163,6.07683114923131,0.605356327078099,7.40039662518548,2.71235560366874,2.73340174168674,1.87187801936102,1.87744869124872,4.8155871250609
4.69182281178585,4.29251631345895,3.89829082224568,5.57076510504699,3.81733011785171,8.37476797976046,8.02651352775874,7.3442708270195,5.41502677670118,2.1678405652741,2.83325926463693,3.42621435396667,4.42223138476926
6.31160849056145,4.02780656287387,2.33589583170102,2.99712862814247,5.69874156296114,2.6321905933231,4.79464273212649,6.14396611879475,3.8622504386333,1.12379320842778,4.34123878786591,5.35875560039165,2.72434486901164
4.10432931453342,9.47646119050795,0.760647734791441,6.55268660667168,2.80739757815983,7.33070299125936,6.30674436755769,9.0259032663806,7.85525104463311,6.54925321606027,1.83341703113838,4.18695595557318,4.50030004174682
2.55602548261308,3.32414408462094,0.921079699313344,9.76154539015975,4.91237201854313,6.99861367670836,6.14680650884013,2.24424030983536,2.3616790390439,0.192032233539061,8.82165859584919,1.64597794716017,1.74214548625887
3.64679914011362,8.06042532863704,6.03962247457546,8.13224083576087,7.82473504665779,1.74200563165151,10,2.79698101750884,7.53313916342944,3.97947039125015,5.84873766522237,4.39936562159349,2.34434736213159
2.72981153661133,4.54124055440891,3.55439434013236,5.98183421142617,1.21219782144333,4.26339350601517,6.59930377783627,6.97923084924694,3.77944792556716,2.84518355993883,4.67932586772343,7.09514392463365,4.93855661582628
3.45874263865068,5.85188917782881,5.32374479684959,4.66640139878817,7.22252188748238,8.55735243090253,8.83132910164072,3.29250416276576,0.865432444613665,5.18002578524625,8.76134362530202,9.10044071691641,3.89697890390223
6.72073475194282,8.51959748732475,6.18650659760432,9.18640854804881,4.14564441825764,8.75441642482967,0.450718841148473,1.12768772996511,3.58152231202703,5.55593286243497,3.72531095569679,2.03212918697434,6.06140166231994
7.46588651733467,2.99913433513529,4.88306630098451,9.35749694233869,9.71053905519871,3.67660241225625,8.86065175132772,0.174409656197415,3.4402089899966,0.992990961353767,6.29145458308302,9.23868329979381,2.94430621801035
