"fastcoef_sq","pref_flow_den","slowcoef_sq","soil_moist_max","soil2gw_max","fastcoef_lin","gwflow_coef","jh_coef","slowcoef_lin","sat_threshold","carea_max","smidx_coef","smidx_exp"
4.85523169330825,2.22483827358117,9.61544515974053,1.06917393665156,1.29549071732137,9.26533697398478,6.78213364174425,2.14044791115131,9.55396942427806,2.25737480112453,8.39689146897201,0.113181181702626,0.158783098756845
4.85433812956343,2.22467582010715,9.61502952616529,1.0683535924629,1.29504169183528,9.26311303666186,6.78041527406193,2.1406870765296,9.55256108970212,2.2608026320177,8.39336381458138,0.116781710327346,0.159032265620109
4.86581706665019,2.22400588872041,9.6174432344897,1.05734327281929,1.31889377798426,9.27853896700261,6.78203800921528,2.14465878868696,9.57711802695472,2.2261500435949,8.39165517032882,0.10355276126684,0.169434239605423
4.86453990836304,2.22319015893294,9.61741305449215,1.05699698954263,1.31678071407029,9.2762400373381,6.78052886949997,2.14459216312314,9.57498862420875,2.23099864756205,8.38928129509949,0.106996440565818,0.168809568164586
4.85420737594931,2.22488865568509,9.61527993536441,1.06794354004669,1.29541862609378,9.26239847549304,6.78001302888502,2.14047361012428,9.5523730066186,2.26160963151119,8.39184570857197,0.11819169608757,0.159108484052848
4.85524078481862,2.224837255615,9.61544821388859,1.069115056953,1.29554982856339,9.26531260090412,6.78209403456876,2.14045492130807,9.5539979363934,2.25737312556232,8.39678185469026,0.113249652389561,0.158817335492419
4.86313394350059,2.22373916377784,9.61715039026587,1.0560362386107,1.3166759761918,9.27269548834754,6.77817398539957,2.1445087323074,9.57278477839099,2.2361914499044,8.38347343679931,0.11305264591095,0.169104133128872
4.86299446904126,2.22373896302328,9.6171296331821,1.05614817937799,1.31649366649215,9.27260409969364,6.77809123857135,2.14453391253126,9.5725753944166,2.23656312569741,8.38339013425414,0.11328126540814,0.169027081283459
4.86302690914721,2.22373344418572,9.61714054938653,1.05617794855019,1.31649999395287,9.27269700670929,6.77814952193183,2.14453350940123,9.57262787638889,2.23643682541357,8.38353255352913,0.113138656003674,0.169020005070172
4.86303562852307,2.22373377278284,9.61714093157269,1.05617168333806,1.31651330956419,9.27270507697245,6.77815587691284,2.14453345414545,9.57264294260806,2.23640958200932,8.3835392956104,0.113121255623257,0.169024924759219
4.85523824717813,2.22483721858282,9.61544665692195,1.0691599464663,1.29551115098391,9.2653411686502,6.78212754124186,2.14045193397064,9.55398604108747,2.2573587136739,8.39687322799237,0.113186300273993,0.158793426807711
4.86319552936874,2.22374010542907,9.61714969426524,1.05607125188588,1.31672585646654,9.27284340568271,6.77826399047381,2.1445190196444,9.57290270631498,2.23594217206462,8.3836834432831,0.112812520735542,0.169109678348168
4.86317899574646,2.2237369673434,9.61715400218531,1.05608594846382,1.31669124842712,9.27282963521284,6.77825818575672,2.14451418763664,9.572867848513,2.23599684330394,8.38368319185639,0.112838724717461,0.169095241274566
4.86317856427038,2.22375423894912,9.61714743070559,1.05609241147143,1.31671319299835,9.27281277648272,6.77825681509303,2.14451046978542,9.57286258888749,2.23598619881468,8.38366134437922,0.112856748828884,0.169103003535898
4.86320368666003,2.22372955585501,9.6171530594621,1.0560874020393,1.3167096001338,9.27288371043581,6.77828768831524,2.14452133675564,9.57292145865433,2.23590482767895,8.38375591283226,0.112747842310108,0.16909797751465
4.85524291227617,2.22480155608986,9.61544788976217,1.0691463699179,1.2954828117859,9.26534504993505,6.78212436920274,2.14045470504486,9.55399667666696,2.25736376148783,8.39689980421404,0.113162621674177,0.158786611571912
4.86357527229112,2.22389824232665,9.61720343594369,1.05612514161319,1.31720248576333,9.27349339447971,6.77874649311329,2.14446634886742,9.57353128293485,2.23455571977813,8.3845220339943,0.111705947634044,0.169215546393471
4.85413049801283,2.22488409455952,9.61528912808287,1.06784354338095,1.29542963005788,9.26228264534112,6.77984447643041,2.14048919322365,9.55232106397322,2.26186117226496,8.39151942879698,0.118524049354465,0.159129490596207
4.85414797571477,2.22485323840474,9.61528659866049,1.0678321701277,1.29541176092352,9.26227477621272,6.77985615307414,2.14048711987068,9.55233279546915,2.26184694970811,8.3915495791067,0.118485105185801,0.159130084904804
4.85414626542679,2.22481768866752,9.61528891215864,1.06782692148294,1.29537397751306,9.26228141732601,6.77984614285587,2.14049376218795,9.55232743142681,2.26187712385336,8.39156868219802,0.118476987769445,0.15912343054695
4.85523034998506,2.22483672016336,9.61544625102495,1.06913029939757,1.29553007518577,9.26530819004599,6.78209240469012,2.1404569497152,9.55398157049493,2.25739988412562,8.39678841670999,0.113258658692255,0.158807844877913
4.85416841676541,2.22479503456751,9.61529435541752,1.06780086370957,1.29540863320489,9.26232604638974,6.77983913668239,2.14051380179777,9.55237804737083,2.26181751900801,8.39157365344343,0.118446402778793,0.159145626858092
4.85415825956318,2.2248400557728,9.61526321186837,1.06782189627961,1.29537223911489,9.26213724796275,6.77986188977068,2.14045967418502,9.5522376513745,2.26192495638243,8.39149802991228,0.118531227778437,0.15912931191148
4.85407294211549,2.2248302357665,9.61528674476198,1.06774749862048,1.29536764140183,9.26211280341148,6.7797119836359,2.1404847987356,9.55225028872172,2.26213056363263,8.39126598024703,0.118789634508404,0.159130493782985
4.85404047179447,2.2248156148038,9.61529958803948,1.06772430826089,1.29538340031401,9.26214660976757,6.77963163809972,2.14052672136144,9.55222195617772,2.26221631079179,8.39115824899552,0.11890771942225,0.159158871350756
4.85524736959923,2.22482857945297,9.61545036089826,1.06909974265385,1.29557230985244,9.26532668074279,6.78208146175247,2.1404673393658,9.5540251248254,2.25735549322856,8.39676212226323,0.113256716317882,0.158829713515474
4.86149946700823,2.22430517371537,9.61686459889196,1.0553746810681,1.31622192567262,9.26913350381986,6.77576938670848,2.14447025549423,9.57023841932864,2.24190531857699,8.37775822516034,0.119314733493439,0.169227484590852
4.86233933555238,2.22467938105089,9.61713345727357,1.0551246719522,1.31734632900173,9.27049451601265,6.7768147428889,2.14411999453487,9.57181809057042,2.23874778233195,8.37943714685491,0.116920390881861,0.169477729871914
4.86237031099873,2.22437285354231,9.61692166816261,1.05487380647269,1.31736105657323,9.26986904477914,6.77639237335111,2.14435467269896,9.57158712049291,2.23935834355119,8.37858265322834,0.117625788594651,0.16967433961481
4.86259754163308,2.22466719876908,9.6169934641739,1.05523661850678,1.31766967308001,9.27065123742929,6.77694517983219,2.14431113614051,9.57202083245549,2.23817284346318,8.37963133139807,0.11653674026863,0.169644035219359
4.85526362773664,2.22481851548849,9.61545853586218,1.06908448845844,1.29558455289708,9.26534575059655,6.78209190784655,2.14046315444416,9.55405393459763,2.25731362287642,8.3967825589392,0.113222699454808,0.158832918551049
4.85354299804216,2.22485256218273,9.61520959217928,1.06713992824438,1.29532197739505,9.26066780599817,6.7786297620823,2.14051409307804,9.55143946829858,2.26428473004275,8.38872954024326,0.121325232602053,0.15929123920306
4.85353425159143,2.22485843940713,9.61520995452314,1.06714761622042,1.29531115231308,9.2606585894214,6.77862934210637,2.14051086582409,9.55142405511395,2.26430730487964,8.38872579006624,0.121338506048817,0.159284127739083
4.86373021876723,2.22470489859989,9.61707467595857,1.0546060745644,1.31908711555608,9.27167221473936,6.77776622667158,2.14417491677996,9.57379990429113,2.23485643542072,8.38081855097555,0.114260520338966,0.170201021799555
4.85289164033761,2.2248859035318,9.61513949229259,1.06628460826023,1.29536078332496,9.25888650937293,6.7772143093287,2.14055230254984,9.55050601519832,2.2669328073262,8.3854241326678,0.124582160918171,0.159539857378182
4.85526847494242,2.22483863835223,9.61545347499671,1.06908218844219,1.29560885534825,9.26533666993479,6.78209941954993,2.1404579760124,9.55405119598113,2.25729170947178,8.39676896020962,0.113221871781582,0.15884382703681
4.8663482661129,2.22490097083114,9.61766301765284,1.0480670259677,1.32583299505045,9.27009783816157,6.77718463825575,2.14298010473171,9.57745238344388,2.22870973617912,8.37430634347769,0.114869126461449,0.17370640363953
4.86729723999956,2.22460901903327,9.61785707812202,1.04801294466385,1.3268539607571,9.27279220242735,6.77707349105609,2.14352269019075,9.57949242126273,2.22610907064818,8.37591470984192,0.113030301432416,0.174197841541767
4.86731562780557,2.22455575836837,9.61786478276909,1.04799581790933,1.32682874828615,9.27283387994705,6.77707984804469,2.14353024235558,9.57954048339228,2.2260681904369,8.37598401250704,0.112960639980317,0.174190138913578
4.86720944444496,2.224676177668,9.61789292306552,1.04807396039615,1.32679949981392,9.27282650890426,6.77702736406864,2.14345153477441,9.5794681412634,2.22618908309508,8.37591227950256,0.113137534527383,0.174114108559777
4.85522908592201,2.22483760504284,9.61544518237516,1.06915916449706,1.2955009268071,9.26532292949377,6.78211767047017,2.14045043771115,9.55396932051619,2.25739097520111,8.39685266534929,0.113213016370367,0.158790432705944
4.86732367374465,2.22463372140708,9.6178452846421,1.04799425212663,1.326932904413,9.27280546820041,6.77706669870219,2.14353242138333,9.57952504555412,2.22603004688042,8.3758705895389,0.11302865156965,0.174242465041478
4.86642056449299,2.22414355139032,9.61765354892796,1.04815120366004,1.32511603070495,9.27070843855111,6.777246718826,2.14318375200255,9.57775619915798,2.22855060085233,8.37549682865217,0.113908160779714,0.173473643573914
4.86630803446371,2.22483740783565,9.61762713563961,1.04815960836582,1.32574278089375,9.27023830232626,6.77716527963603,2.14304155097653,9.57745085684032,2.22871248412416,8.37442856375836,0.114786577086223,0.173655722692891
4.8675458617099,2.22477165706118,9.6179082317378,1.04825467189815,1.32718371342828,9.27355810995125,6.77748587483918,2.14348771054777,9.57999754016107,2.22489113454372,8.37683380148078,0.112017965572384,0.174208138094527
4.85526640794509,2.22475866432096,9.61547514936333,1.06910362031577,1.29547578030886,9.26541653421906,6.7821202048645,2.14047027541818,9.55404628646681,2.25734419398985,8.396925353724,0.113115981013627,0.158793522252048
4.86731316851175,2.22469866461527,9.61785104568882,1.04798431363715,1.32696114763644,9.27271112081846,6.77707770543814,2.14348960849607,9.57947593860816,2.22607625092556,8.37578387176601,0.113109548314014,0.174241266514899
4.86631674204696,2.22498760951349,9.61778725457664,1.04788940061995,1.32576158310339,9.26986535209511,6.77703296030344,2.1428816392748,9.57730628663573,2.22921283054262,8.37393905852728,0.115298917665673,0.17371979923643
4.86631956983216,2.22498812045575,9.61778756988782,1.04788243988714,1.32577256278938,9.26986419325195,6.7770292550075,2.14288107685135,9.57731406563484,2.22920366708593,8.37392800061306,0.115303400195379,0.1737248870802
4.86631578720206,2.22498523473543,9.61778496465796,1.04786679550533,1.32577611950667,9.26983984783662,6.77701230912093,2.14288355209997,9.57730543894273,2.22923221884306,8.37388534265674,0.115339930614457,0.173731785644199
4.85522742058198,2.22483839988536,9.61544451658724,1.06916876382244,1.29549036965146,9.26532492905684,6.78212476600634,2.14044803530494,9.55396292433609,2.25739235580295,8.39687059350732,0.113201948214052,0.158784421889121
4.86631956944911,2.22498545126182,9.61778618795651,1.04787409959134,1.32577496053554,9.26985476274456,6.77702268299388,2.14288327319479,9.57731233713964,2.22921351799255,8.37391085815057,0.115316221859349,0.173728924357391
4.8663222429458,2.22498521471971,9.61778614897482,1.04787116510082,1.32578049686954,9.26985655051763,6.77702296200675,2.14288381214729,9.57731775907213,2.22920560181808,8.37390973580478,0.11531358890496,0.173731584831582
4.86632040895147,2.22498548413295,9.61778629553657,1.04787489679518,1.32577551403914,9.26985708640979,6.77702420299711,2.1428833466316,9.57731400849739,2.22920983153047,8.37391438099089,0.115312540906197,0.173728858113125
4.86632283565537,2.22498412210853,9.61778631369702,1.04787124081589,1.32577962903048,9.26985804689465,6.77702352739117,2.14288396591928,9.57731841630552,2.22920435331424,8.37391231707068,0.115311068642172,0.173731313373126
4.85522076078942,2.22483780069753,9.61544383398683,1.06915955247217,1.29549047311667,9.26530720558349,6.78210966143255,2.14044894071874,9.55395382785533,2.25741979856008,8.39683668743394,0.113235315119775,0.158787058959801
4.86634921625143,2.22497279600869,9.61778379483338,1.0478164425351,1.32584363376576,9.26984896037384,6.77700322317533,2.14289235515317,9.57736965497658,2.22915088562799,8.37384752366487,0.115325787234072,0.173769494070953
4.86737503632645,2.22395610943527,9.61790554901199,1.04779847299266,1.32641118104829,9.27301923334294,6.7769581088159,2.14359522456285,9.57980548278339,2.22608684369289,8.37641085549024,0.11261848450872,0.174077373532017
4.86738441751479,2.22455274706008,9.61783423226781,1.04790705227149,1.32697247512298,9.27277366566313,6.77701910912053,2.14353740514548,9.5795862025568,2.22596525876541,8.37581479012893,0.113022591643705,0.174297756482562
4.86733567447236,2.22466790041634,9.61783883055715,1.04792374051488,1.32705807645066,9.27275035281959,6.77700139578319,2.14352514428229,9.57956428342692,2.22599880580558,8.37567958630941,0.113155543302834,0.174297200229169
4.85520973985922,2.22478206132125,9.61545547502618,1.06920959297272,1.29536823543474,9.26537413811571,6.78213459450411,2.14045915995855,9.55393598316418,2.25746771334884,8.39699131130609,0.113143489004681,0.15873380751717
4.86707217894772,2.22454302010536,9.61779757326602,1.04773107095172,1.32668935456927,9.27198555600556,6.77664893293013,2.14355179215647,9.57900313771499,2.22725067083093,8.3748238436614,0.114131081844772,0.174259503418306
4.86685293517443,2.22454518441199,9.61776138027664,1.04766302304758,1.32648720727047,9.27148985275707,6.77636575364491,2.14352826268102,9.5786186161218,2.22806732849338,8.37420225992978,0.114875626297043,0.174216345148221
4.84422861974352,2.27372487767345,9.59726031080569,1.09197121490724,1.3367431679416,9.21536354210445,6.78357668908572,2.12883597200273,9.53048200388577,2.24728975792331,8.35020754094065,0.1594284800344,0.167611380927549
4.84410807249796,2.27366358160085,9.59713407687094,1.09149911488719,1.33698006087782,9.21435390530769,6.78277608790196,2.12889481202158,9.5300248835329,2.24841898495036,8.34834885350594,0.161101272657021,0.167951494660137
4.85554509428129,2.22485847193215,9.61548230299951,1.06867110706219,1.29635534595773,9.26552235297947,6.78202018012655,2.14053842762551,9.55465913502438,2.25647830646984,8.39636921145749,0.113159849563321,0.159192088248753
4.84422030351623,2.27335695167936,9.59756216303636,1.0914094810975,1.33639759870717,9.21573520028142,6.78319174170497,2.1289695682659,9.53044407882777,2.24814136646791,8.34970902476391,0.159779541989421,0.16762653609263
4.84414734744051,2.27347732913778,9.59751065700809,1.09147187340876,1.33644402270096,9.21554852721932,6.78315539956056,2.128949308014,9.53031100382978,2.24827364957238,8.34951429709523,0.160004760270023,0.167633636067751
4.84414811912601,2.27347379949018,9.59751085845655,1.09147145253626,1.33644165671043,9.21555129472465,6.78315534817017,2.1289500028534,9.53031328392865,2.24827189030329,8.34951902299127,0.160000646876165,0.167633178665415
4.84415162229438,2.27348038105841,9.59751082244326,1.09146295637709,1.33644981828699,9.21553493950893,6.78315316973957,2.12894525385678,9.5303063850586,2.24827852919788,8.34949717254109,0.160015286399456,0.167639512511169
4.8554417806881,2.22479855404052,9.61549345579041,1.06873024346199,1.29613720666745,9.26547933330808,6.78194088426855,2.14057874108712,9.55450205426285,2.25685776993797,8.39632273122542,0.113333992412962,0.15911106044562
4.8442797419808,2.27335224725897,9.59764742795116,1.09125265195454,1.3364847461258,9.21605954095705,6.78319052248021,2.12902895675003,9.53060770363264,2.24801925631719,8.34971653150444,0.15962347584552,0.167686539631648
4.84415688616148,2.27489925933853,9.5976925046169,1.090855778813,1.33755274656496,9.21488037269567,6.78305298608437,2.12865792564389,9.52941285158393,2.24899945317432,8.34709048560969,0.161540954315734,0.168124132697174
4.84408435149907,2.27313210430769,9.59781072326344,1.09089762078644,1.33606903431467,9.21586448295363,6.78271025777998,2.12909284755381,9.53019480686439,2.2492988626423,8.34887867630269,0.160508470169646,0.167646197640437
4.8440960350203,2.27319277204027,9.59779271087239,1.09091433306453,1.33615305336954,9.21583971104458,6.78273384461353,2.12908080741396,9.53020995659323,2.24920791179604,8.34885437559103,0.160506920624734,0.167669320368431
4.85542230985033,2.22446899591768,9.61548133799908,1.06887294808978,1.29561880541073,9.26560582046718,6.78204829751083,2.1405404666685,9.55449942764983,2.25688670924769,8.39705938560779,0.112842896256988,0.158881230907842
4.84422572787938,2.27326755126013,9.59794050498684,1.09056265457911,1.33635308061498,9.21600032754112,6.78275090585055,2.12904714228863,9.53032337209782,2.24912807331976,8.34857329313331,0.160480686907165,0.167768827964928
4.84425057378661,2.27326154275277,9.59794124943031,1.09069908800074,1.33634970613039,9.21640891279002,6.78280170499586,2.12913680309811,9.53050067293022,2.24889682809914,8.34895460125482,0.16016312318256,0.167794405282251
4.84382503301096,2.2728132194333,9.59815196674663,1.09013664378032,1.33553455877267,9.21572812852231,6.781876209251,2.12922809069209,9.5296108094658,2.25134435134704,8.34732024724804,0.161972454899207,0.16766894652884
4.84401445623461,2.27273736241017,9.5983727426401,1.0897528740214,1.33566259171308,9.21636557024726,6.78191518114415,2.12929079505007,9.52997519491868,2.25106042100446,8.34741448854123,0.161569307921927,0.167773593039958
4.8553084857423,2.22483537687482,9.61546200704254,1.06898487544077,1.29573581607205,9.2653478200176,6.78205502965025,2.14047388860852,9.55414435785626,2.25720265631213,8.39663886221372,0.11326737884873,0.158910232125025
4.85470794640285,2.22186012507592,9.61587519492181,1.06694791995587,1.29297266618675,9.26443961023421,6.78024638687348,2.14055620016533,9.55456975638732,2.26053443110865,8.39592891884803,0.114629060960659,0.157998362571157
4.85537650219689,2.2186622115072,9.61587159340285,1.06599060855593,1.29109079394915,9.26564049603514,6.77949267861462,2.14164671622357,9.5553247237032,2.26106126038765,8.3975172506651,0.112996280068982,0.158392102927476
4.86908468704369,2.2176627923515,9.61768531074254,1.04810657381184,1.322451796266,9.27798481004391,6.77984710168543,2.14489920855144,9.58445858339667,2.21949085440055,8.38826550819342,0.101050547222804,0.172563992875695
4.84344553636124,2.27063229546222,9.59667021432838,1.09151040483814,1.33399552113834,9.21336298497277,6.78078249340538,2.12985337282498,9.52910096827053,2.25231995950033,8.34825421705001,0.162711521417445,0.167677238041638
4.85560277646301,2.22483298337509,9.61551951029164,1.06851953684376,1.29646082180724,9.26556394000144,6.78197447509322,2.1405428674982,9.55475507842926,2.25641410645152,8.39623587220512,0.11318418237352,0.159260036155731
4.84684141811406,2.25952508960336,9.60114804996293,1.08524412989859,1.32595903803646,9.22465721548454,6.78313849061845,2.13101229805891,9.538173792314,2.24865783761967,8.362972420721,0.147559066528526,0.16509894533479
4.83963479062428,2.27021744678414,9.59895537928115,1.08371165064222,1.33142606373966,9.20782924461305,6.77301751590072,2.1302923571687,9.52356025369731,2.27151708320983,8.32967105088369,0.17981734858739,0.168092953954432
4.85182664092353,2.22369965054383,9.61513246593432,1.04572744228032,1.31117558909993,9.24066301380164,6.7583617536509,2.14346209827192,9.55315714112994,2.28251054230889,8.3365920285879,0.162181858484655,0.170316385371991
4.85546353469776,2.23610911920024,9.59698119957026,1.08849179573377,1.31863924622829,9.248522425848,6.78271366977638,2.14119744214066,9.55922146212777,2.2245815500529,8.40081347828935,0.113028584987898,0.169397101045818
4.85550045661294,2.22415680522754,9.6157089808472,1.06857226050978,1.29535149003489,9.26595797096002,6.78198884187597,2.14062138555227,9.55460816333288,2.25717973291667,8.39711717031055,0.112714608439163,0.158850960103358
4.86290289443987,2.2370642507634,9.61479669262323,1.05465961770284,1.3326360601612,9.26384727885667,6.77623543568635,2.14235433942659,9.56909639689002,2.23342194657558,8.36319329216185,0.127139406069725,0.176347528301715
4.8639857541405,2.23313657826616,9.61562370889296,1.05317992836003,1.32952541818767,9.26667130505582,6.77726793375973,2.14255678937574,9.57177577883701,2.23167067814763,8.36862463498123,0.121659658326181,0.174321052649783
4.85308197416454,2.22673993420528,9.61411085872587,1.06923440938007,1.29562040417514,9.26058351867238,6.77947671001026,2.14085133032078,9.54989115223152,2.26384334713716,8.38969210867952,0.120741120697012,0.15949243317859
4.85295686683587,2.22753139927606,9.6139275375699,1.06939847199984,1.29576417529155,9.26039317114789,6.77968298557871,2.14040926153244,9.54959743900868,2.26335584459503,8.38978240316749,0.12064176073589,0.159258844083129
4.85569517675158,2.22447452000065,9.61565946510566,1.06799926952585,1.2967139459043,9.26518839936755,6.7817196613157,2.14041398539195,9.55524256053865,2.25626002989756,8.39570084873051,0.113574471017928,0.159292355225101
4.85350215694953,2.22608461750631,9.61512565720874,1.06699064846073,1.29637044096085,9.25955594138599,6.77853331093988,2.14014808840563,9.55072528392865,2.26459425198192,8.38689963908197,0.122767683769723,0.159713852553374
4.85337041818452,2.22568509302394,9.61494416947755,1.06753881435454,1.29600561566782,9.2604189836543,6.77836201035184,2.14060832883636,9.55091205852229,2.2644276748274,8.38771756569707,0.12227000839381,0.159626105886973
4.86604213785048,2.22985070541195,9.61676627128798,1.04991487281989,1.33039595153766,9.26881346859191,6.77675188144887,2.14315320812812,9.57527714047395,2.22856264663507,8.36920630543184,0.119239977165638,0.175680673544149
4.86746432022536,2.22724235871131,9.61745689082536,1.04959196692992,1.328755865869,9.273143953647,6.7785218827514,2.14319516163442,9.57892455696066,2.22377663570214,8.3763959205684,0.11214266931221,0.174577261616631
4.85607166481968,2.22354701296202,9.6160317126534,1.0672139643117,1.29627623314716,9.26637839183921,6.7816116155745,2.14073997995822,9.55591324643021,2.25617005972,8.39627703479646,0.11262606985286,0.159387928663137
4.85726559712847,2.26294947536806,9.61023239858108,1.06561213654608,1.34551360768292,9.25013503813724,6.77983179461274,2.13863775862599,9.55057646043901,2.23943518746174,8.34304003724419,0.145927684437873,0.179036263426997
4.86409425308837,2.23093078324331,9.61774510382272,1.04868506223099,1.32983223827002,9.26699180242129,6.77431623905569,2.14163810906476,9.57448244564514,2.23292452199379,8.36451228104586,0.12505526928536,0.174642216608963
4.86529930761401,2.22593543465233,9.61700117564775,1.0486377167266,1.32747275137556,9.27026795904534,6.77355563102285,2.14354084251951,9.5772964853692,2.23052364064883,8.36994354782935,0.120056592089783,0.174516082490823
4.86678785297505,2.2249053001281,9.61741692788549,1.04835469767461,1.32677304061186,9.27162525209381,6.77639255503973,2.1435934124578,9.57840391448969,2.2275428935953,8.37444077131379,0.114764408912788,0.174327659650345
4.85611278258321,2.22410882558261,9.61589798379626,1.06723975107578,1.29691310687422,9.26616457920047,6.78168755955272,2.14070107490372,9.55580717223039,2.2558159874575,8.39576194311908,0.112865759616879,0.159673287228352
4.8659133926769,2.2259427766899,9.61763708452441,1.04805448460633,1.32629293878692,9.26892330351007,6.77669582427467,2.14273650773171,9.57635687041285,2.230223684234,8.37212630498419,0.117033584094557,0.173888644695283
4.86272484788148,2.23118418016193,9.61629407899024,1.04808505148354,1.32827521694175,9.26206710002621,6.77238575312639,2.14177792195769,9.56874697983604,2.24012654901795,8.35774435749834,0.130649152143452,0.175109359806861
4.86415228386139,2.23088021232376,9.617210156937,1.04853137221577,1.32916235570312,9.26402179548808,6.77541440274684,2.14165138409223,9.57203174779243,2.23478066669884,8.36336878482193,0.1253343559119,0.174689553074528
4.86628811133053,2.22511221672287,9.61767969951423,1.04788408037529,1.32619458758622,9.27031974836046,6.77602407372073,2.14336895783695,9.57739496143621,2.22987060320579,8.37284517613779,0.116572812970747,0.174081494756689
4.85574676676711,2.22302908980372,9.61606870686445,1.06806784081284,1.29444730047092,9.26705576749871,6.7819258102585,2.14090582931479,9.55517272287076,2.25734681033378,8.39817450455588,0.111667541808232,0.158671825514874
4.86631188622248,2.22508508617289,9.61779663998879,1.04782817843018,1.32582300308385,9.26972241591812,6.77704241885453,2.14281652549954,9.57722595253618,2.22926078789073,8.37375154703291,0.115425388024275,0.173714582322198
4.86639137359405,2.22536220153982,9.61773925509391,1.04780526738622,1.3262210926146,9.26956027665577,6.77707070104749,2.14276370916804,9.57726288100058,2.2290095516419,8.37345631878418,0.1155679861329,0.173907537554044
4.8669498561393,2.22569870375021,9.61788646951084,1.04760123616941,1.32717082075536,9.27006080834368,6.77761435413476,2.14257538344875,9.57784407875599,2.22725039183513,8.37393414254385,0.114588511035754,0.174295258915183
4.86350607285561,2.23648004656859,9.61808116016271,1.04625351251687,1.33455069284437,9.25682314957117,6.77496236305472,2.13917314761202,9.56910097927074,2.23754950211445,8.35205950945653,0.134604355386007,0.176270311847529
4.85281230709255,2.22816058707811,9.61364391538486,1.07402965403405,1.29479173199821,9.26013710754213,6.78303474321145,2.13895450855171,9.54996273386474,2.2593236873226,8.39685681481381,0.11639003531215,0.15701213258373
4.86007765291599,2.22593901242984,9.61633789428523,1.04481319271774,1.32287595705513,9.25530273784631,6.76659377461704,2.14323159008699,9.56656417213279,2.25331201981476,8.35086097467585,0.140662868706128,0.174262802140244
4.84782679891352,2.17886059817737,9.65785827961547,0.998428093076775,1.28503934293348,9.27831677842261,6.77216737769286,2.12802850118262,9.6280300218907,2.2037356288636,8.40067692196405,0.10153285431275,0.148346138323648
4.8564695495353,2.28182796503316,9.61578647087631,1.04877251216408,1.35881988123745,9.20641376353918,6.77206697704551,2.11832466428099,9.54124129428628,2.26372486567768,8.29673568364045,0.191315891190061,0.184538374104656
4.79325283180408,2.33700225955319,9.62418569107728,1.0753020486155,1.33346505791635,9.13427459087649,6.72915835363582,2.1217204436932,9.44451658177092,2.36788780937153,8.19057340095365,0.315433144928325,0.16467825445043
4.85316265014075,2.23871978497476,9.61533723004912,1.06815348036725,1.30819180391326,9.25106023757737,6.78043945641987,2.13738044068716,9.54561210436005,2.26408182187822,8.37181274472955,0.134564731007773,0.163120706338738
4.85402041767501,2.25029542570962,9.61358747998852,1.05423163912452,1.3376703007741,9.24235070204787,6.76213312905066,2.14277556608565,9.54556891895098,2.27000552553444,8.31828706020863,0.172934879250065,0.1807698881519
4.8294452895156,2.28503727030536,9.62443923613658,1.06487889721732,1.33334984665751,9.21238872590589,6.76144094154161,2.11960961725023,9.51780464172439,2.31545437174359,8.28447327116489,0.222814312074564,0.162995175211028
4.85023719903455,2.26721057450132,9.61236517174017,1.07036662445561,1.33990097096721,9.24225220874589,6.77971385135289,2.13697171643685,9.54196047192272,2.25743672686089,8.33686625308258,0.159206676725314,0.173597363083602
4.8186298412544,2.30783953728036,9.60933841566288,1.06802330460127,1.35274746644892,9.18233599870437,6.74342849403703,2.12721549346684,9.49265305124062,2.34235426284436,8.22428010988943,0.27789699988127,0.178513844357074
4.84939614559467,2.2424045158936,9.61357395528347,1.07325675491894,1.30674382229551,9.24997624149945,6.779870430638,2.13666070223932,9.54230974343622,2.26705792870605,8.37220808734471,0.137483945559399,0.161070309335069
4.84119550521224,2.28321541362374,9.60632404355943,1.07616214262246,1.34991303939251,9.2192314674361,6.76191662192945,2.14150494367093,9.51438656615776,2.2946305312994,8.28643838172371,0.210956711818809,0.184403976597703
4.84396078332169,2.27992271272673,9.62775432003274,1.03038804011144,1.35177627073103,9.20498166653422,6.7501507549867,2.12741182239916,9.52244040625558,2.32138414105702,8.24057687579014,0.240391864914089,0.178485455972218
4.82960681976145,2.33266997441152,9.60936041470523,1.084500047877,1.37373145582295,9.19800545035427,6.77611177170571,2.12379667841268,9.49642390729483,2.29879627498233,8.25626592459837,0.238250764421259,0.178030658522138
4.80740902306676,2.37251743167493,9.68104171106267,0.840828413480799,1.46686975982594,8.9355882353933,6.65700973253626,2.05642109727532,9.3866501199868,2.55013892758543,7.72902479031461,0.637261666114388,0.208228414037724
5.01199811399757,2.38926787653958,9.27768838655861,1.30108098529905,1.67140207630976,9.02776730158577,6.67799287569259,2.23755999100603,9.1724562992798,2.52057695023731,8.08398444522803,0.538557264150947,0.441157008531883
3.63172266049744,4.86700761827793,8.68863340815522,3.86281336126907,1.92495297266582,7.75189979261736,7.04737051493868,2.1324261060804,7.04802151063111,3.86230375354189,6.59884405296431,2.45716835644038,0.391839546405991
4.63317912483077,2.92450306881563,8.47160852296179,1.70037674091371,2.17572215703719,8.52166969181006,6.13505873363658,1.93207246661783,9.48875747569639,3.26128104079936,8.18752185789035,1.12341043983876,0.618569517108727
5.18180637910071,2.60915384750458,8.79191475820129,1.30518395918025,1.83980329099894,8.11320660799087,6.68570762099163,2.31681471758738,8.31685154388008,2.70166421081905,7.5642096466512,1.22858809871207,0.988385458889366
4.1457497090836,3.26787182680448,8.88191601392702,3.03784030824139,1.84801579008027,8.1226907773424,7.15503903453774,1.82990071056932,7.98389612108127,3.28682330281511,6.73003046695356,2.06527768631352,0.292855914316892
