"fastcoef_sq","pref_flow_den","slowcoef_sq","soil_moist_max","soil2gw_max","fastcoef_lin","gwflow_coef","jh_coef","slowcoef_lin","sat_threshold","carea_max","smidx_coef","smidx_exp"
4.81563582102973,2.22088650346485,9.56934168260838,1.1716588788642,1.22683876618781,9.22177600669598,6.78388876208448,2.14655579424903,9.49819898402299,2.30058994126017,8.47943037876326,0.11243227167643,0.127094019939962
4.83903690514018,2.22280698616972,9.58970522800138,1.12440440709251,1.26975674668219,9.25040678589889,6.78552271811204,2.14668138190015,9.53662577127783,2.25966994851465,8.44701883130292,0.102628720965174,0.145769779478988
4.83189897616997,2.22368930122152,9.59116622844786,1.13246248604714,1.25548731486655,9.248769054674,6.78559376567274,2.14665237685616,9.52492242086747,2.27998087289358,8.44943916945395,0.109501314039773,0.136841721070313
4.83202752390765,2.22369166988755,9.5912500369364,1.13218885296426,1.25575076503845,9.24887220873946,6.78557088588296,2.14665309493028,9.52513550871339,2.27974987515379,8.44921355111391,0.109487155149568,0.136975462509027
4.83218585786224,2.22361731009246,9.59125136308577,1.1319568326837,1.25609306177768,9.249004702661,6.78550871148197,2.14671984468665,9.52548572468975,2.27935071341919,8.44905788328338,0.10941610046995,0.137162541286354
4.83353111547101,2.22369125451684,9.59275179560339,1.12804013761817,1.2584707174667,9.24985620966286,6.78518445206531,2.14633620500545,9.52713568530944,2.27824898891254,8.44560241664477,0.109912259415145,0.138485768468328
4.84223509789468,2.22344126439324,9.5982638980691,1.11053297963433,1.27558990725638,9.25777732211753,6.78419463598637,2.1466672623828,9.54195903142608,2.26173830030515,8.43257641911397,0.107351460213833,0.146957073301788
4.84228550908837,2.22344443286211,9.59826840541468,1.11044407921901,1.27573980775226,9.25780185886244,6.78416444875399,2.14668725897072,9.54207244973022,2.2616018497755,8.43246706223918,0.107368205040461,0.147032082371593
4.84240353577631,2.22350349209598,9.59870232314996,1.10962919701468,1.27570901905895,9.25776786964916,6.78415469584064,2.14642183613839,9.54186513052336,2.26217625597384,8.43172158762847,0.10766104815981,0.147091181042889
4.83459892578719,2.22367822012391,9.5934197302034,1.12565855860061,1.2608820980789,9.25064880207694,6.78481236524278,2.14644676706893,9.52906474212392,2.27630704275268,8.44335875032556,0.110086280416468,0.139701125944075
4.84031458614689,2.22317717742687,9.5957510556457,1.11561327222591,1.26978831346502,9.25414889868433,6.78531499986752,2.14528915032113,9.53659023762514,2.26529524517075,8.43897565283934,0.105452662088302,0.145328836486173
4.83997776399967,2.22403021806581,9.59716980656521,1.11557136271427,1.27102518120749,9.256355173582,6.78512202513653,2.14648464218397,9.53793016902437,2.26587754514718,8.43667428817261,0.107454105341408,0.14438802852499
4.84889558704548,2.22410251738944,9.60086750045672,1.09952267238258,1.28821433934991,9.26178259913319,6.78476905797735,2.14590658654035,9.55160659381779,2.24755457379013,8.42592836840998,0.103304685990708,0.153874977679561
4.83365926061245,2.22309399104746,9.58908058202422,1.13245618185488,1.25817024113443,9.24788596209946,6.78615871333189,2.14625811566929,9.52713434611615,2.27327764227181,8.4523447152099,0.105517761907215,0.139376176193573
4.84055113845726,2.22431530151886,9.59967419108221,1.11303998959746,1.27110171786595,9.25916444088048,6.78564945472181,2.14633141677435,9.53860135098751,2.26695768172481,8.43501325140025,0.10740218495374,0.143764806814583
4.83560244336162,2.22415948850994,9.59706133379428,1.12084102821836,1.26180209139135,9.253862383676,6.78502268618385,2.14601910843604,9.53008067598959,2.27806081062225,8.43906902275074,0.111116777445967,0.139418355398594
4.84954230887594,2.22275826964909,9.60123449894188,1.09640002714844,1.28572107526588,9.26006959333434,6.78478286955296,2.14377049061857,9.54938458980019,2.24986145683128,8.42622336453225,0.101867651648499,0.154643614207956
4.83281464174638,2.22378538616306,9.59296282346624,1.12887066706845,1.25569861425977,9.24927764734987,6.78579862838312,2.14551969202112,9.52463096611784,2.28116992153389,8.44707820188971,0.109607988418116,0.137407567158845
4.82965039227004,2.22372156410382,9.58879334819381,1.13886982282176,1.2505811767572,9.2468434091663,6.78666984523674,2.14654211796679,9.52108176019718,2.28244022865645,8.45594375086306,0.107990619269765,0.134447460195051
4.84983303936999,2.22286409513493,9.60190190203168,1.09522639429909,1.28641306024805,9.26057806359517,6.78463538473963,2.14379211877794,9.54991115689435,2.24989766686162,8.42485689665575,0.102376558097782,0.15483664444039
4.85002866042738,2.22272140904867,9.60193929992273,1.09463727218962,1.28675119072235,9.2604445015147,6.78442810954641,2.14374789547192,9.55013596225832,2.24973989835133,8.42431493856377,0.10252357025445,0.155168520025688
4.84921188792937,2.22493601368634,9.6081831675237,1.09359399289736,1.28673704249949,9.26955680210057,6.78569523269049,2.14601267379095,9.55229615201217,2.25392169124416,8.42056080436647,0.105311991654818,0.150702438199232
4.83958005270995,2.22443311954463,9.60315955454934,1.10857643246757,1.26843397648241,9.25920629508276,6.78436912586401,2.14539755810647,9.53566749495401,2.27582731119456,8.42838332430993,0.112603381296976,0.142244843450875
4.84936727410811,2.22492876413344,9.60833787342627,1.09304500493376,1.2870374999829,9.26951957188839,6.78559105172328,2.14593839761228,9.55244640238402,2.25387839019772,8.41999686413809,0.105493769414515,0.150913452604654
4.83942039096241,2.22386732688331,9.59980469706969,1.11000189705451,1.26823625949885,9.25330807643785,6.78377353095057,2.14423431789833,9.53371652975974,2.27485754639892,8.42978544461549,0.112520549406877,0.144118109489629
4.84592340714326,2.23126411015478,9.6043757698808,1.09246287458942,1.29230140992007,9.2540801929382,6.77928219666054,2.14453052793463,9.54257178898973,2.26539912428786,8.39997798652655,0.124900739568715,0.156122407975977
4.23694955190426,3.54556568667349,9.14667985656567,2.48106864784876,1.59809019525233,8.50326621954047,6.91541349997659,2.1372302430986,8.29150079966671,3.06946059966942,7.50981054541408,1.28583681034698,0.26902434552415
