"fastcoef_sq","pref_flow_den","slowcoef_sq","soil_moist_max","soil2gw_max","fastcoef_lin","gwflow_coef","jh_coef","slowcoef_lin","sat_threshold","carea_max","smidx_coef","smidx_exp"
4.81184550705387,2.2156812714669,9.53763491593288,1.20399449571964,1.22501362181363,9.19187009229215,6.78224138630107,2.14702242215836,9.49248313268281,2.27854190769792,8.51232577008556,0.100263777737166,0.13550487138896
4.81184551474617,2.21568124239411,9.53763478143547,1.20399457875648,1.22501366755548,9.19186995390016,6.78224136371184,2.14702242247013,9.49248314352451,2.27854177295373,8.51232585547626,0.100263736906966,0.135504944282765
4.81184545591704,2.2156812992364,9.5376349847589,1.2039946055906,1.22501345201968,9.19187022873909,6.78224146394924,2.14702242311894,9.492483052524,2.27854201692038,8.51232594508718,0.100263687923113,0.135504736619262
4.81184552121428,2.21568126762103,9.53763491211002,1.20399448411435,1.22501364465433,9.19187009868402,6.78224138904387,2.14702242258162,9.49248315507959,2.2785418650083,8.51232577674091,0.100263755563971,0.13550488676187
4.81184568295682,2.21568119234027,9.53763469946262,1.20399439736416,1.22501400203157,9.19186992351895,6.78224133927949,2.14702242474304,9.49248340985809,2.27854129035406,8.51232580075462,0.100263586844817,0.135505180489108
4.81184553244371,2.21568127466219,9.53763495858378,1.20399444145111,1.2250136503537,9.19187015672962,6.78224140017658,2.14702242288417,9.49248317333674,2.27854187290739,8.51232575130889,0.100263748848741,0.135504874855206
4.81184554566992,2.21568127557689,9.53763496949985,1.20399440868396,1.22501367929929,9.19187016619936,6.78224139627819,2.14702242262673,9.49248319504921,2.2785418544441,8.51232571927589,0.100263753985536,0.135504888900197
4.81184554344012,2.21568128259497,9.53763500172358,1.20399438923753,1.22501366771786,9.19187019916457,6.78224140161973,2.14702242258304,9.49248319189033,2.27854188777386,8.51232569880104,0.1002637642889,0.135504871028041
4.8118456440251,2.2156813113931,9.53763522703017,1.20399410736977,1.22501379470442,9.19187048594955,6.78224144515553,2.1470224237506,9.49248335534705,2.27854181831788,8.51232551896158,0.100263716662129,0.135504873717879
4.81184564558437,2.21568134557059,9.53763539656781,1.20399398387088,1.22501376008686,9.19187066159923,6.78224147076775,2.1470224234762,9.49248335967005,2.27854196349132,8.51232539755744,0.100263764652504,0.135504796363432
4.81184375754692,2.21568012598517,9.53762789496988,1.20400171904858,1.2250120014232,9.1918619968704,6.78224023618025,2.14702241081175,9.49248024575746,2.2785403127632,8.51233134982849,0.100263512317783,0.135506216223728
4.81184564129247,2.21568135970566,9.53763546165297,1.20399394427904,1.22501373711224,9.19187072824425,6.78224148153053,2.14702242339205,9.49248335363422,2.27854203030729,8.51232535602149,0.100263785337159,0.135504760521108
4.81184564118474,2.21568135960356,9.53763546106382,1.20399394493807,1.22501373697018,9.19187072768079,6.78224148151188,2.14702242339386,9.4924833534521,2.27854202998303,8.51232535670862,0.100263785093494,0.135504760625684
4.81184567454922,2.21568134946503,9.53763543674374,1.20399391267569,1.22501380904148,9.19187071139465,6.7822414737012,2.14702242364309,9.4924834071073,2.27854192799297,8.51232534485527,0.100263758206652,0.135504812850439
4.81183649431968,2.21567458924519,9.53759530590171,1.20403410631311,1.22500605746536,9.19182490814652,6.78223484354853,2.14702243664479,9.49246833492593,2.27853078866392,8.51235684836896,0.100261535787843,0.135513444298503
4.81184605845155,2.21568156585194,9.53763682668944,1.2039924599321,1.22501417319717,9.19187235606897,6.78224172187307,2.14702242770855,9.49248403663025,2.27854212789565,8.51232428817493,0.100263725713223,0.135504573906672
4.81184759509827,2.21568289945727,9.53764464536628,1.20398506079095,1.22501512166724,9.19188129376694,6.78224307806649,2.14702243954873,9.49248658306218,2.27854487547899,8.51231851432892,0.100264203489176,0.135502553276981
4.81184763027823,2.21568279939896,9.5376441925524,1.20398532886917,1.22501529156542,9.19188083281614,6.78224300260621,2.14702244089884,9.49248663442354,2.27854439806026,8.51231879968485,0.100264055976029,0.135502808587422
4.81184766067331,2.21568281570576,9.53764430106249,1.20398519770809,1.22501533316256,9.19188094539837,6.78224300915136,2.14702244089233,9.49248668474776,2.27854442754143,8.51231867857463,0.100264083130607,0.135502798954339
4.81184968380039,2.21568456559864,9.53765455650513,1.20397550246249,1.22501657668451,9.19189268903374,6.78224480358291,2.14702245549481,9.49249003475755,2.27854799378035,8.51231114700274,0.100264666852048,0.135500147659894
4.81184578937266,2.21568148551392,9.53763619719826,1.20399324628239,1.22501382789233,9.19187157098745,6.78224161262331,2.14702242216341,9.49248359500286,2.27854227690025,8.51232482105355,0.10026381838677,0.135504573158595
4.8118482005031,2.21568278616942,9.5376444791822,1.20398425081529,1.22501640063595,9.19188124027645,6.78224296255413,2.14702243408602,9.49248755007986,2.27854327946409,8.51231803007369,0.100263848585235,0.135503387915393
4.81186755013032,2.21570134224586,9.53775499324,1.20388237680239,1.22502436710728,9.19200597462422,6.78226196323915,2.14702260997952,9.49251913516038,2.27858883467756,8.51223785729236,0.1002724496817,0.135472100859321
4.81185728701147,2.21568675964311,9.53767062730369,1.2039538523941,1.22502659254932,9.19191193586125,6.78224747299308,2.1470219902432,9.49250164259308,2.27854310191405,8.51229639986236,0.10026218140851,0.135501305410073
4.81195150050598,2.21574710830512,9.53798008320511,1.20356718031832,1.22517153796556,9.19222686522501,6.78226537277744,2.14701851174218,9.49264661430872,2.27860774136726,8.51192819874912,0.100343898829901,0.135490964280318
4.81190831421845,2.21573156560504,9.53793627363235,1.2036955366414,1.22506214960909,9.19220712039933,6.7822871192522,2.14702255456418,9.49258641848205,2.27864593105023,8.51208277248593,0.100293263131466,0.135435534397445
4.81091748225189,2.22022663594585,9.53836245918578,1.20621903494815,1.23015064550501,9.19142135505536,6.78392527564833,2.14577096326757,9.48931765160074,2.28138320953739,8.50134710900537,0.108062118564562,0.136692800417435
