"fastcoef_sq","pref_flow_den","slowcoef_sq","soil_moist_max","soil2gw_max","fastcoef_lin","gwflow_coef","jh_coef","slowcoef_lin","sat_threshold","carea_max","smidx_coef","smidx_exp"
4.49670893557442,3.49023400332766,9.20731585065504,2.01917543052921,1.70697154081721,9.13972799564265,7.04292718463137,2.09991194924756,8.69762514208963,2.27042855306467,8.38985982005632,0.253970425494507,0.155728476858471
4.57252543628612,3.42907547799705,9.20182333849554,2.1368169418939,1.671728330081,9.16372635703384,7.16038165062285,2.101904712519,8.75325631486271,2.14050763927984,8.46010521416941,0.258267994320585,0.196570295802287
9.4396377516433,3.10837689773596,4.42589346060453,0.854505848686064,6.02643564169176,1.41785314912103,6.52829325349686,6.67046866369666,1.2111325256677,5.92746087679394,0.120585498903898,3.63573666059147,5.92821160988115
9.32753885268069,3.13481270294752,4.44092347407912,0.904330201764433,6.03306711557861,1.43666719676212,6.56694597657054,6.63989778959195,1.24468184677969,5.91674584822849,0.204718744306547,3.64238056206439,5.87967969067737
4.81877870356365,0.664949390494106,9.10669909252029,1.0480859931628,4.02473200625673,8.22269629859347,2.16488636862673,4.54238111759338,9.8405200351786,5.01726977777992,0.68818402873549,8.52768220041317,3.30732444174738
9.27312568676354,3.1930637720776,4.45864507141849,0.918864852622986,6.04045980553333,1.47467878229964,6.56257623627638,6.62690774463245,1.29095419932663,5.87271146186568,0.284078853999624,3.66458516455197,5.8347934564389
4.78759825498569,0.745554547352274,8.74080817426087,1.07418352889448,3.93631416509441,8.01926954330056,2.25197311351012,4.7677166305488,9.29966473553356,5.025246056619,0.795757373086733,8.10243038490671,3.47253316476212
4.49836034295149,3.36589734178821,9.21008728587985,2.22857077521299,1.68541106179655,9.18989676739534,7.15651107761229,2.14873985026404,8.70435124460736,2.18835789685379,8.46912425469806,0.300318108400164,0.209775815510514
4.64277794041804,3.40590635576203,9.05661220514115,2.26876416161694,1.74211976945579,9.05723584472748,7.22588082796144,2.17011899055401,8.70943484056877,2.11583140398154,8.46315320953203,0.324863779870329,0.346675135066454
4.6760180593741,3.38036753745441,9.10493579940476,2.3000111131275,1.68184975483335,9.08589440594003,7.24993233939735,2.14760469858725,8.72856468799247,2.0654410171313,8.4976911030878,0.298507961268235,0.318987607310187
9.16969760455723,3.35208866405509,4.51970408012074,0.985375836710332,6.09263536920548,1.58102629810566,6.47918765780014,6.62457692526472,1.36709684113991,5.69916440483631,0.446595001574982,3.72646917676438,5.73572168963013
0.285474528208375,9.941788074056,7.65155424004812,9.75283269050034,2.10668723956987,3.64789990038191,6.84126016126813,1.9394325260503,1.31277343181774,9.342553016066,0.704996989783279,9.69692453645058,0.203257722665309
4.79298249224938,3.56091957534633,9.27552562560893,2.43583851863706,1.94607859002094,8.63348587887945,7.47315349982984,2.59802358753601,8.89478252412852,1.85610069428955,8.0877996525652,0.636438322848093,0.417180862393359
0.380274576284398,9.83840839583813,7.55272291870749,9.61111887729083,2.15654707687434,3.60890246890467,6.80814314615229,2.06399221641041,1.40191710449423,9.2207392414957,0.716139238289789,9.54850678617193,0.273548400036438
0.380722730361925,9.83823603022827,7.55223538896095,9.61091365127682,2.15666794198996,3.60882444315124,6.80805245415642,2.06424969214135,1.40251850471543,9.22004453032993,0.715949370846961,9.54830589796006,0.273820639121934
0.392171321148883,9.83042513211616,7.5415176380975,9.60706377719787,2.16536311980781,3.60407841584076,6.79646503302769,2.0687282906984,1.40148841995835,9.2203942550965,0.727801592831748,9.54105557353322,0.291578555468336
0.411017605600647,9.79248681058974,7.50993914489628,9.56848289356417,2.16538063164217,3.62311686037207,6.79434596859953,2.10724114887666,1.4402304663913,9.15286632228126,0.711263590466853,9.49812031538815,0.299738480533534
4.68559663858481,0.653238047531306,8.76832691914747,1.80277874235876,4.09709948943281,7.78778385431151,2.4470039542141,4.19224559459403,8.79849756448275,4.55326813080061,1.3212875338932,7.76698574422533,3.53480300322046
7.05325621066153,3.67120442596239,9.22193615208507,2.60456644624228,3.86863876936139,6.08499314328873,6.00003652726946,4.32046452667918,7.02564814076452,5.94125222389236,4.60894864767394,2.95171984306059,0.192858782621351
2.64336866301425,3.8135533442161,4.76314066237518,7.57831749146954,6.64608043814737,7.97742225571775,3.91874556884741,5.88862490652422,3.53324081297285,4.47542541418045,0.497169212042204,3.93054311478045,6.90867534852706
1.82443650585479,5.09596470309448,9.68886245765658,5.62334645997428,1.19001809121697,8.27955785183864,5.0303323443277,2.21315422460929,7.09519698933171,6.08508887727738,2.87569735652695,7.13658242620247,0.316768251152597
3.68667387009582,5.25111839927423,4.58219442211458,5.57264990074018,3.79918040076502,5.8316764272304,3.76476205174667,4.5506830995723,3.35454154395276,4.00400728516881,0.613657594175617,7.62182794333732,6.06312230119579
3.33241005732362,2.92113274769985,8.91970857813613,0.968206014869648,2.11543529881713,4.38604585385767,3.89645300566396,3.19055647024266,9.95316421415423,6.37381958202148,4.95670343962179,6.57402348795181,1.90278497939177
5.17650611122679,9.35937157158263,6.55901938594692,5.53218835015016,7.45340300679379,4.65422545992407,7.99562856253555,3.55302687342624,3.35817368699834,3.16127837256593,3.61502523289138,3.72083207622756,2.72317575699936
0.72875244409048,9.20571112804009,6.70964636034591,8.85995469510536,2.57867694320106,3.32725463232617,6.58963728398389,2.81691056877206,2.29169885112955,8.69696059352901,1.14343466048396,9.08687404869696,0.613638059097759
8.06199762064687,3.53049625691602,4.21587737067893,2.06732664787262,6.01778352071232,2.50297279821898,5.70454443253352,6.57334541925232,2.04279092235007,5.47787522279903,0.693239773265464,3.66363463875489,6.11942049369511
3.30077937382208,6.71437563768669,0.626494548812861,5.88671308588944,7.47532067425133,4.02210861680131,1.68540810068877,0.55845890837624,9.71406559709227,9.93159676271023,8.16598872380774,6.94571822106946,3.50777299614137
