"fastcoef_sq","pref_flow_den","slowcoef_sq","soil_moist_max","soil2gw_max","fastcoef_lin","gwflow_coef","jh_coef","slowcoef_lin","sat_threshold","carea_max","smidx_coef","smidx_exp"
4.8318182163507,2.22367168578602,9.59100108228364,1.13285000202202,1.25532352452603,9.24876533251999,6.78565230937196,2.14670336611829,9.52485824801554,2.27987281214757,8.44989376838467,0.109297833017239,0.136756588330021
4.83228382065389,2.22363863332222,9.59129972159272,1.1318236887129,1.25634956352281,9.24915952002442,6.78549025681041,2.14677086523614,9.5257239810798,2.27902159754762,8.44896164843886,0.10934208976284,0.137269058962343
4.83225436349285,2.22370358373774,9.59146559597799,1.13159646284738,1.25626498898558,9.24906659162047,6.78548954625571,2.14666652632221,9.52553584367145,2.27945053462596,8.44860594983243,0.109612601646921,0.137209641628512
4.82784413387944,2.22154748007542,9.58378030050799,1.14123412995906,1.24886373504078,9.23844857616966,6.78311902373268,2.14649911474087,9.51810084269684,2.28519184241059,8.4550523069611,0.11191906499438,0.136171655493403
4.83303640857672,2.22211693991381,9.5882371775126,1.13091887681727,1.25715741249188,9.24417488313554,6.78417330196768,2.14563409183014,9.52522745623783,2.27678336863153,8.44920602915226,0.108681169137215,0.14020020042259
4.83348895072952,2.22376805963629,9.59261970070858,1.12835592935027,1.25868407254083,9.24991015708994,6.78519163717356,2.14648691289235,9.52731286032157,2.27800258752467,8.44565957610459,0.109985426787997,0.138463709687885
4.84227259124559,2.22193869435248,9.59361410674751,1.11246100252977,1.27585273790141,9.25175317422934,6.78288472382394,2.1459897880265,9.54099102510544,2.25886451069308,8.43499158365038,0.106370663902155,0.149601408466328
4.83715747294722,2.22382763102853,9.59731499249529,1.11818088516548,1.2664378176182,9.25517437813448,6.78397763893076,2.14709478486909,9.53430198187915,2.27358170382283,8.43590420624517,0.111564362164512,0.141461604674604
4.83504639240497,2.2218974586933,9.58921501042626,1.1267438316721,1.26176708430437,9.24566474378105,6.78342267303671,2.14602173473646,9.52916306773935,2.27260919587763,8.44540613489185,0.108755829749997,0.142481219661538
4.83814174563869,2.22271832529475,9.5946631377973,1.11685591993018,1.2669934260355,9.25029505494216,6.78328525241238,2.1453276641281,9.53322463516693,2.27144843199771,8.43649697353438,0.110198621223658,0.144403540310969
4.83922524859406,2.22269606205855,9.5978734648936,1.11578655171446,1.26835275197112,9.25757077681492,6.78465347814124,2.14710351958197,9.53743959085862,2.26886269981944,8.43737577823066,0.107809176684201,0.14285809631599
4.83904866611542,2.22372751638992,9.59676373134483,1.11490933171887,1.26967176794645,9.25347166483094,6.78370976378606,2.14597033367636,9.53568636131486,2.26983534789117,8.43406357763137,0.110557894176636,0.144491183942945
4.83732643148535,2.22345405945201,9.59570136013313,1.12029607819688,1.2643708820563,9.25385841834406,6.78545384184005,2.14589945236994,9.53261126725836,2.27211499932517,8.44127109460157,0.107624477643582,0.141595053890739
4.84975070680774,2.22283405807906,9.60138723215755,1.09649216104251,1.2870570278142,9.26128203423802,6.78461821374967,2.14455409225924,9.55095479197765,2.24837177210118,8.42580081382538,0.101949691312652,0.154755518560432
4.85257121420032,2.22319255522081,9.60535946453633,1.08860581029008,1.29569240003007,9.26678456028387,6.78279569049625,2.14668240372973,9.55899604295111,2.24349296614193,8.41571708429321,0.105199496561891,0.157072833804007
4.85253506450197,2.22318992731337,9.60531938139219,1.08871071043174,1.29562761599115,9.26676185092836,6.78280474797238,2.14669250199123,9.55895213199707,2.24352091198779,8.41581163727397,0.105184228838561,0.15703660037462
4.84987814285238,2.22282032668014,9.60182906720806,1.09518586165023,1.28624583914668,9.26037457923846,6.78472649201421,2.14361748614558,9.54971787200949,2.24989531209284,8.42509780332327,0.102138808860022,0.15489070360502
4.83931681302731,2.22431523185854,9.60275467564912,1.10978263787639,1.26772658467087,9.25939606410815,6.78462987501426,2.14555994073523,9.53543883129442,2.27568438170782,8.42993192204086,0.11187957902164,0.141834154679986
4.85308738163848,2.2232306946484,9.60594525588589,1.08706886925654,1.29658697214444,9.26707340526456,6.78266858023693,2.14650765927062,9.55957718463145,2.24315270899531,8.41434043358854,0.105431234595966,0.157591313408569
4.84920249508889,2.22494138146614,9.60818167831102,1.09361993167781,1.28671438543281,9.26956007741827,6.78570571068518,2.14601070019675,9.55227929948347,2.25393525888904,8.42058987045041,0.105302321101392,0.15068669938621
4.84921162808544,2.22494082770463,9.60818951960034,1.09358963166048,1.28673448369813,9.26955896899053,6.78569886535481,2.14600821924838,9.55229091438787,2.25392917047635,8.42055712592821,0.105313121422964,0.150699584363891
4.83960483713832,2.22443408750611,9.60317530017469,1.10851504253968,1.26847812194625,9.2592098502702,6.78436460600047,2.14538831407723,9.53569462235859,2.27579614799248,8.42833339191629,0.112604826623022,0.142273754485077
4.84027855221422,2.2243932109654,9.60347503070023,1.10728252169556,1.26976971907602,9.25971543352545,6.78430328476053,2.14539032850702,9.53679279452061,2.2744172593579,8.42751558929135,0.112290138924996,0.1429767980018
4.85370892710364,2.22329422914741,9.60675446393566,1.08497456068838,1.29753419375495,9.26726161246964,6.78250674441971,2.14614737302021,9.56005067199371,2.24308765320357,8.41245615632471,0.10584424495777,0.15822511345759
4.84230914801238,2.2244724564613,9.60480715031627,1.10289274347185,1.27367113293259,9.26099668701675,6.78407787766872,2.14515689935697,9.53977770088241,2.27105681514712,8.42407097293879,0.11199337284213,0.14508798049419
4.85287391763392,2.22338927255278,9.60659140348945,1.08625995823166,1.29560329142647,9.26659122549622,6.78271984660433,2.14591207195445,9.55833060226221,2.24526076892719,8.41344727740539,0.106181044824742,0.157253280446112
4.93074702034185,2.30599873609417,9.43939289630297,1.19884428214787,1.47848446195472,9.14385266740033,6.73140765694877,2.19064891102497,9.36085603883455,2.38521587392753,8.25524789874666,0.320147290429292,0.297887978781436
