"fastcoef_sq","pref_flow_den","slowcoef_sq","soil_moist_max","soil2gw_max","fastcoef_lin","gwflow_coef","jh_coef","slowcoef_lin","sat_threshold","carea_max","smidx_coef","smidx_exp"
4.62547626828116,2.66540477870798,9.60027802259785,1.15860336237657,1.52019020136224,8.84301192746351,6.53220919970955,2.11423559451328,9.10619256062298,2.92614906028638,7.45399748261665,1.11847483109871,0.231652423351764
4.63446217618845,2.62210582174584,9.52219394565491,1.06245509258308,1.48308605791787,8.76915459309522,6.47935128035062,2.07181635116743,9.02555183351076,2.93340261452585,7.33763296878638,1.10009817245346,0.260895068920138
4.63805093738162,2.68349034115438,9.59261416705951,1.16041961645248,1.46630330438431,8.90673642513683,6.6004004743768,2.08172711024274,9.10473228955799,2.84955306931547,7.6011034312116,0.942382258813959,0.194731535815271
4.64704818050429,2.70213562063976,9.59757835540054,1.12937085308016,1.52310592662977,8.84617669533638,6.59175479704962,2.08173053588458,9.09940338423963,2.85942492808775,7.51175458939918,1.01170143220028,0.226483357613341
4.63547688199021,2.68654215717396,9.59441100892788,1.15143496322898,1.4682529885573,8.89994214507941,6.59427419739386,2.07877233672079,9.10070319877933,2.86108732482161,7.58357700753269,0.956358168133697,0.195375560971389
4.63070219326913,2.82377773787,9.55839251284207,1.21530715851001,1.60700541681289,8.78701639014127,6.62543757380103,2.08340286646015,9.02263748254408,2.84085875901417,7.45026476026892,1.06979731993513,0.257502834287356
4.627052959402,2.78967033673526,9.55778751810858,1.24787981600758,1.5353206781109,8.87929205908503,6.62678245360461,2.08763975374735,9.05872265886088,2.81877753542648,7.58773868512197,0.979545015435964,0.211414339386546
4.63463116790552,2.70466625591775,9.60615696381294,1.09004146810849,1.52671677403529,8.80418692688009,6.5587757488019,2.06893340151875,9.0678300873932,2.92877828926313,7.39938650374729,1.09611082470287,0.23148914803538
4.62754059181578,2.747186376844,9.58509543478475,1.1405861158475,1.5421226396185,8.81312264757945,6.58171124204197,2.07539603414314,9.04840215321458,2.89994970334755,7.43729236638542,1.07221187771324,0.236066376201102
4.62814332478799,2.75435767261027,9.58708441634105,1.12936188408822,1.55516905102524,8.80567503221701,6.58392442509041,2.07201234742579,9.03721731002682,2.89834464925442,7.41366183039144,1.07854299427954,0.242465985443943
4.64296073534733,2.73421045615364,9.60932550997342,1.11818479436735,1.55307165851797,8.77467214430895,6.58838495191198,2.06742148474124,9.0750515402939,2.9039550763816,7.41223660468132,1.0956329783277,0.232470166540664
4.61588643609917,2.78813223574859,9.56303982760409,1.18459294756596,1.54894252179222,8.82517558180993,6.60605192731118,2.07891653718852,9.02726641902782,2.87191706251354,7.48377332225812,1.03585958130007,0.241464631003112
4.62720568465088,2.74498060444375,9.60212073658063,1.10629999891415,1.5381119970167,8.79425374444197,6.55581735404161,2.06229373990822,9.05481361029022,2.94138694402286,7.38537038827993,1.12345317837259,0.220707242690615
4.64414819956406,2.83254895126194,9.59265619935096,1.23349705576309,1.51637747590079,8.84117498920959,6.70844434214274,2.02575417412514,9.02472094456306,2.81041027349776,7.56479796648312,0.930688512882676,0.170478887632049
4.61693135070152,2.61509329955786,9.60769249385454,0.956829247732134,1.47440004603761,8.67326223194804,6.44390586800219,2.0709140780521,9.1289322219714,3.05768481717752,7.31279971728964,1.21495381764365,0.259387803406984
4.64846545328745,2.71980500822149,9.61988607948641,1.00498274676668,1.52446084085465,8.74867158459003,6.57184957803685,2.02036666890857,9.06162431245611,2.93142128449642,7.34624017931982,1.08669660965751,0.227595736790083
4.5979783036982,2.95032084454275,9.41840231453476,1.51880367080237,1.50396328739677,9.01149061590607,6.80040742048995,2.09434545251059,8.94930935980583,2.57988114991546,7.95146719348968,0.633630505441668,0.200736729041923
4.59682008698787,2.95405811949672,9.41851742359168,1.52068507112349,1.50122194474924,9.01156536782296,6.80474604129667,2.0923066149551,8.94762634139195,2.57950445675371,7.95656460440102,0.628568150505642,0.197409488481778
4.63648231854855,2.98044796524365,9.51740944860851,1.26953479942648,1.69387122934153,8.73072137738912,6.7176445648183,2.05307564217206,8.94063154515881,2.755790965587,7.44511573545898,1.0220546167425,0.283948473390922
4.61121581923531,2.8027051069818,9.51136357533272,1.33565639137435,1.50373786935896,8.93015655828072,6.6676267188441,2.10254228027306,9.03068497307153,2.75374420016247,7.70887948055601,0.870421570510381,0.212337761682872
4.6840685384553,2.84118514610592,9.65136646946269,1.06165717954914,1.62906230221196,8.76739618458649,6.68728865842743,2.01322503480229,9.05602547720077,2.83261408382256,7.40146566955101,1.02428973507441,0.223603572976974
4.59945076436889,3.01681627186662,9.40646179924433,1.54803624373567,1.56014012560575,9.0012213982925,6.82259937174506,2.09274861956731,8.9289370744517,2.5519819101371,7.95349736976781,0.626990955712502,0.208193541288619
4.67995852059175,2.67199601412181,9.69911961413361,0.906659295499765,1.53004390901021,8.73120399919179,6.56239159931107,2.01173831101405,9.1215434186053,2.98701216456767,7.28984216959532,1.13487672487964,0.208849689807276
4.60844800484021,3.33957341658782,9.2331225237707,2.10616542043141,1.66210999261372,9.13072770414053,7.11596684331808,2.1345888488055,8.82476384319224,2.1776482167663,8.40434314377634,0.320580501179388,0.187600114771507
4.77877986011564,3.24801402674638,9.23543542314694,1.50309476656563,2.06465111373685,8.52384047664789,6.61160979994344,2.14359321675076,8.71819175919789,2.69729254026383,7.13099600139007,1.15269426508721,0.497212133647419
4.57352049280512,3.41420187889641,8.90006523577291,2.22870843042993,1.85325732216578,8.83923472240959,7.05685646959893,2.38289948312888,8.53128622847469,2.18915885412552,8.06458675617648,0.697765834618339,0.400782515695315
3.63172266049744,4.86700761827793,8.68863340815522,3.86281336126907,1.92495297266582,7.75189979261736,7.04737051493868,2.1324261060804,7.04802151063111,3.86230375354189,6.59884405296431,2.45716835644038,0.391839546405991
