"fastcoef_sq","pref_flow_den","slowcoef_sq","soil_moist_max","soil2gw_max","fastcoef_lin","gwflow_coef","jh_coef","slowcoef_lin","sat_threshold","carea_max","smidx_coef","smidx_exp"
4.86142847134484,2.22450862915271,9.61691559053277,1.05591445776848,1.3160824125957,9.26972290260543,6.77610129437631,2.14449642341468,9.57022440002635,2.24159143843909,8.3785914608751,0.118746053600008,0.1690189429485
4.86228387262284,2.22464887277134,9.61691111602662,1.0550295077778,1.3174849674643,9.26989746943722,6.7764342108619,2.14433213512609,9.57152249493151,2.23936340173529,8.37850344540581,0.117742959052678,0.169650252687509
4.86248562177781,2.22471849917833,9.61698466410634,1.05533075519684,1.31754619449878,9.27055883651992,6.7768973271249,2.14431050934552,9.57182751374829,2.23847426071213,8.37954045241204,0.116737532024588,0.169581813441593
4.86258891764706,2.22466574167528,9.6169718274486,1.05528537294268,1.31766742610866,9.2706918324111,6.77693972431204,2.14433709833702,9.57202086009096,2.23814702887324,8.37967067910507,0.116515098170541,0.169643260561212
4.8625433934704,2.22460472207079,9.61699844566211,1.05526766115539,1.31753558715007,9.27064072556242,6.77690047774573,2.14432891008588,9.5719423507098,2.2383529994645,8.37964279960579,0.116602083816952,0.169593642981216
4.86266041329373,2.22458332058516,9.61699359761229,1.05516427280472,1.31771244992759,9.27076740997761,6.77695876022895,2.14435470772296,9.57218269507244,2.237993605556,8.37972068925633,0.116369527635953,0.169664986076843
4.86259427880462,2.2245707682425,9.61701082929254,1.05522305911647,1.3175740177699,9.2707123280981,6.77693554136057,2.14433537969192,9.57204326386452,2.23821229051329,8.37971968354948,0.116474343563628,0.169607237782435
4.8626131484773,2.22460735084776,9.6170015031514,1.05521753945835,1.31764211204064,9.27070528766771,6.77695131759381,2.14432846803958,9.57206288046315,2.23813505223057,8.37969673625594,0.11646288077362,0.169633000493589
4.86262151221432,2.2245421397626,9.61701741661358,1.05522192231939,1.3175659655796,9.27079117531743,6.77697563196262,2.14434479344791,9.57211151767971,2.23811642818402,8.3798369696298,0.116343810649563,0.169596010273264
4.86259754163308,2.22466719876908,9.6169934641739,1.05523661850678,1.31766967308001,9.27065123742929,6.77694517983219,2.14431113614051,9.57202083245549,2.23817284346318,8.37963133139807,0.11653674026863,0.169644035219359
4.86241406982113,2.22457955398023,9.6169963816148,1.05502421970398,1.31751292882863,9.27017574063691,6.77659873993198,2.14431355837494,9.57171098337648,2.23899071691512,8.37888066332117,0.117330028337583,0.169642805199657
4.86269304245891,2.22454112228892,9.6170070583997,1.05522887341838,1.31764742459663,9.27092862898998,6.77705355159466,2.14436397616791,9.57225770442985,2.23784422801335,8.38001056745294,0.116110813934217,0.169618182742771
4.86369873454232,2.2247489238194,9.61706426586083,1.05462085729183,1.31909256534846,9.27161195148123,6.77774528403587,2.14417230078955,9.57372335921585,2.234938899524,8.38071481277957,0.114363903014722,0.170194088242963
4.86373021876723,2.22470489859989,9.61707467595857,1.0546060745644,1.31908711555608,9.27167221473936,6.77776622667158,2.14417491677996,9.57379990429113,2.23485643542072,8.38081855097555,0.114260520338966,0.170201021799555
4.86379280109357,2.22470402228803,9.61707204425768,1.05459212959901,1.31916610231704,9.27177060063723,6.77782693907691,2.14418464580871,9.57392348329556,2.23463414554935,8.38093408490314,0.114084855804534,0.170224106296211
4.86375663445582,2.22477108017804,9.61705349621461,1.05458336452531,1.31924117951392,9.27156688374985,6.77775882303535,2.14414459315939,9.57382005069865,2.23474798667338,8.3806731264065,0.114346826418632,0.170257630707022
4.86325019975992,2.22485013294908,9.61735132401437,1.05433488613591,1.31861024540776,9.27126612941986,6.7775281914015,2.14374356565506,9.57341178111449,2.23590412622481,8.38028283283472,0.115094728163714,0.169936516795329
4.86018066850578,2.22387932983006,9.61679892576187,1.0544023649848,1.31483574980026,9.26598309567778,6.77377474085822,2.14425431146978,9.56810777816415,2.24713263212496,8.37366653201783,0.124064185212427,0.168977078573877
4.85182664092353,2.22369965054383,9.61513246593432,1.04572744228032,1.31117558909993,9.24066301380164,6.7583617536509,2.14346209827192,9.55315714112994,2.28251054230889,8.3365920285879,0.162181858484655,0.170316385371991
4.86346288672229,2.2254168905327,9.61713500252145,1.05468914458379,1.31937943663964,9.2712105882457,6.77773595233482,2.14394342733959,9.57338728669902,2.23534254952549,8.37998061206821,0.115120302295187,0.170127043884577
4.86233341464494,2.22895996912061,9.61672394755427,1.05437852862592,1.32051811369152,9.26538322271472,6.77702475680018,2.14242286612556,9.56844952994072,2.24015180215278,8.37263871058639,0.121807425483263,0.170383383777693
4.86195425824702,2.22586889238083,9.61678271025316,1.05402656536316,1.3188674084999,9.26756803215706,6.77540028135171,2.14391951473121,9.57069723440705,2.24096705690076,8.37435774276163,0.121205280189555,0.170315721974982
4.83572600574642,2.34946799900371,9.59955416383934,1.09455010014158,1.39197697962781,9.18264934619075,6.78507181037933,2.12185322047899,9.48545059871589,2.27805781311664,8.24980480576107,0.237010382542139,0.18947448283627
4.85402041767501,2.25029542570962,9.61358747998852,1.05423163912452,1.3376703007741,9.24235070204787,6.76213312905066,2.14277556608565,9.54556891895098,2.27000552553444,8.31828706020863,0.172934879250065,0.1807698881519
4.83943251061398,2.31042436573741,9.60795127301597,1.08560649325767,1.36417239413641,9.21637827941474,6.78438824003943,2.12940638826533,9.51447006207548,2.27109566614341,8.29728201248804,0.197525679276048,0.178040135180547
4.84119550521224,2.28321541362374,9.60632404355943,1.07616214262246,1.34991303939251,9.2192314674361,6.76191662192945,2.14150494367093,9.51438656615776,2.2946305312994,8.28643838172371,0.210956711818809,0.184403976597703
5.47616896164926,2.88288430897621,8.26295792667317,2.0101443753905,2.77855002071914,8.31086507461522,6.371744936712,2.52484573184877,8.01176594760832,3.32568588540628,7.16389738952818,1.80878837541572,1.27802172354892
