"fastcoef_sq","pref_flow_den","slowcoef_sq","soil_moist_max","soil2gw_max","fastcoef_lin","gwflow_coef","jh_coef","slowcoef_lin","sat_threshold","carea_max","smidx_coef","smidx_exp"
4.81191193733148,2.2157300698906,9.53793725613828,1.20368905275372,1.22506777255144,9.19220881718372,6.78228670513937,2.14702278777103,9.49259173861937,2.2786397620453,8.51207915588586,0.100291470944387,0.135439200732288
4.81191193731793,2.21573006989654,9.53793725616393,1.20368905275781,1.22506777251611,9.1922088172095,6.78228670514639,2.14702278777178,9.49259173859822,2.27863976210017,8.51207915588475,0.100291470956311,0.135439200702014
4.8119119356126,2.2157300725294,9.53793725966674,1.20368906362903,1.22506776330231,9.19220883091304,6.78228671361303,2.14702278792787,9.49259173695065,2.27863975903258,8.51207917664685,0.100291456026545,0.135439192102761
4.81191193988447,2.21573007062938,9.537937262269,1.20368904434515,1.22506777632016,9.19220882403606,6.78228670559259,2.14702278777927,9.49259174280483,2.27863976154077,8.51207914892831,0.100291471514426,0.13543920106364
4.81191193611817,2.21573007306975,9.53793726286309,1.20368906071706,1.22506776345866,9.19220883446624,6.7822867141333,2.14702278793568,9.49259173778179,2.27863976052447,8.5120791742689,0.100291456392519,0.135439191153294
4.81191196471244,2.21573008253409,9.53793734578941,1.20368894439954,1.22506780839527,9.19220891426841,6.78228671277734,2.14702278799474,9.49259178379839,2.27863977855365,8.5120790618548,0.100291485909174,0.135439193637727
4.81191208350585,2.21573017179861,9.5379378510103,1.2036884659259,1.22506790431022,9.19220952947714,6.78228681650415,2.14702279091146,9.49259198959319,2.27863988441431,8.51207871911308,0.100291470476834,0.135439074485236
4.81191130772118,2.21572985523547,9.53793546564186,1.2036915161715,1.22506680924456,9.19220702857076,6.78228668805811,2.14702278754316,9.49259072080324,2.27863947103215,8.51208145699303,0.100290949720054,0.135439160802773
4.81191206514018,2.21573009091998,9.537937499565,1.20368875100799,1.22506791882621,9.19220916756303,6.78228677215098,2.14702279258832,9.49259194780486,2.2786396223019,8.51207901869123,0.100291352905035,0.135439208417956
4.8119120157683,2.21573008688969,9.53793742393731,1.20368884542441,1.22506786512758,9.1922090422952,6.78228674246491,2.1470227902713,9.49259186716066,2.27863969955259,8.51207903836475,0.100291419470475,0.135439201549738
4.8119098290082,2.21572741835432,9.53792064894951,1.20370510317406,1.22506702813847,9.19219197690626,6.78228519116554,2.14702277148499,9.49258823846876,2.27862914909843,8.51209461115732,0.100286459737852,0.135444003839281
4.81191214530865,2.2157300989437,9.53793761398274,1.20368851431941,1.22506807881614,9.19220927581431,6.7822867526849,2.14702279327084,9.49259208078187,2.27863956331344,8.51207878715188,0.100291402400206,0.135439270021474
4.81191274320582,2.21573048211493,9.53794004161623,1.20368581960148,1.2250687728513,9.19221188703768,6.78228699479492,2.14702279809462,9.49259307881584,2.27864032833609,8.51207639450249,0.100291871477858,0.135438895583541
4.81191334396317,2.21573119199484,9.53794360778511,1.20368302838276,1.22506852176922,9.19221620023038,6.78228804241542,2.14702265001509,9.49259382953403,2.27864138176407,8.51207505273253,0.100291136320414,0.135437649894212
4.81191319082972,2.21573111290249,9.53794305150347,1.20368368471288,1.22506832684878,9.1922156093305,6.78228800077839,2.14702264725876,9.49259357398081,2.27864123565105,8.51207563912637,0.100291020813298,0.135437709667337
4.81192537123996,2.21573962437191,9.53799090412439,1.20363594039056,1.22507736096284,9.1922714723513,6.78229791052193,2.14702148131396,9.49261178269763,2.27864935486331,8.51204321314383,0.100287573118269,0.13542807611567
4.81188674622377,2.2157177349099,9.53784764570553,1.20379632840451,1.22503468997521,9.19211385478596,6.78228076887683,2.14702200425232,9.49254940135547,2.27861588682229,8.51217638114094,0.100271042977933,0.135447995855061
4.81192244484301,2.21573573959189,9.53797198695141,1.20365022968992,1.22507876063535,9.19224837250105,6.7822924112491,2.14702200787502,9.49260778022168,2.27864334630479,8.51205041554586,0.100291000189374,0.135435018022917
4.8119326462538,2.21574698362969,9.53803158344448,1.20360107103192,1.22507755630336,9.19231933209664,6.78230762348078,2.14702052932405,9.49262215874472,2.2786631504733,8.51202125581439,0.100284283670387,0.135415381696441
4.81203100175672,2.2157474489365,9.53810631654765,1.20339759614233,1.22526562841732,9.19242113917329,6.78230244541958,2.14702321798219,9.49278655495604,2.27849366084051,8.51186842956256,0.100259249597434,0.135503284316258
4.81214900353665,2.21576417209877,9.53827097841968,1.20311107590355,1.22546225610071,9.19262880006581,6.78231781441414,2.14702362561407,9.4929795941327,2.27834606306032,8.51166215292471,0.100226069339622,0.135568038369696
4.812148760221,2.21576401604537,9.53826994180602,1.2031122529779,1.2254619641179,9.19262772709557,6.78231774419527,2.14702362148597,9.49297918748349,2.27834567732145,8.51166324667001,0.100225801049703,0.135568192055424
4.81209198792034,2.21580017629906,9.53843959355847,1.20303447830816,1.22533009448791,9.19275018683647,6.78232102370868,2.14702258853802,9.49288649625961,2.27867244700439,8.51150950353527,0.100373882702157,0.135437261568955
4.81209131755155,2.21578107333306,9.53833646125344,1.2031310903851,1.22533976115789,9.19266478924765,6.78232084976449,2.14702397382427,9.49288643774749,2.27856340455151,8.51162849894897,0.100309384460841,0.135474341062752
4.81150562132725,2.21551480659498,9.53647124887348,1.20540036201407,1.22456037481474,9.19063522250614,6.78215756226265,2.14701836524968,9.49192023483622,2.27826722868473,8.51358852000861,0.100015308739438,0.135604728720405
4.81173126442246,2.21561199605895,9.53716330037688,1.20454853325928,1.22486631941439,9.19139338293248,6.78221881390389,2.14702183535179,9.49229354348734,2.27835964466788,8.51285507350265,0.100120617985439,0.135564723102512
4.81985107625911,2.22162649467869,9.53354573116332,1.20127134552105,1.24157162368686,9.19107231803592,6.77924638121357,2.14975286218095,9.48520184695865,2.28571100203729,8.49415204669653,0.114379164412657,0.145428837601652
