"fastcoef_sq","pref_flow_den","slowcoef_sq","soil_moist_max","soil2gw_max","fastcoef_lin","gwflow_coef","jh_coef","slowcoef_lin","sat_threshold","carea_max","smidx_coef","smidx_exp"
4.8318182163507,2.22367168578602,9.59100108228364,1.13285000202202,1.25532352452603,9.24876533251999,6.78565230937196,2.14670336611829,9.52485824801554,2.27987281214757,8.44989376838467,0.109297833017239,0.136756588330021
4.83203628992177,2.22368763476188,9.59123333913081,1.1322232324347,1.2557942567558,9.24891596207023,6.78557092781384,2.14668494622025,9.5251970458435,2.27966167338676,8.44924985910855,0.10945521733208,0.136983114979266
4.8320510185023,2.22365515955412,9.59115040193818,1.13233684536746,1.25583654402442,9.2489624262722,6.78557128309119,2.14673711567722,9.52529111454767,2.27944720484759,8.44942770841177,0.109319961390039,0.137012823646182
4.82836630636004,2.22235822295462,9.58473527303963,1.1412577187191,1.2494818211714,9.24046566065369,6.7843699160753,2.14643426136172,9.51882965499675,2.28372101700972,8.45610980166389,0.110320729732559,0.135848509377492
4.82784413387944,2.22154748007542,9.58378030050799,1.14123412995906,1.24886373504078,9.23844857616966,6.78311902373268,2.14649911474087,9.51810084269684,2.28519184241059,8.4550523069611,0.11191906499438,0.136171655493403
4.83704540379815,2.22280519006925,9.59230759451557,1.1226555022759,1.26558813121372,9.25025925337467,6.78426851659795,2.14634657707239,9.53292463656049,2.26936866142032,8.44244267601753,0.107834248459697,0.143178998398175
4.83303640857672,2.22211693991381,9.5882371775126,1.13091887681727,1.25715741249188,9.24417488313554,6.78417330196768,2.14563409183014,9.52522745623783,2.27678336863153,8.44920602915226,0.108681169137215,0.14020020042259
4.84006595646309,2.22162340659386,9.58955870784591,1.12098006538496,1.27231579277081,9.24954372766564,6.78365408544397,2.14694393669677,9.5387432465781,2.25825914808565,8.44318089987274,0.104139083087704,0.147836182544054
4.83343230437784,2.22278457223966,9.59010804635495,1.12979691684706,1.2585453044152,9.24721503815052,6.78453749120434,2.14636255042737,9.52701065787745,2.2762410040126,8.44764995163826,0.109026831383618,0.139618903995779
4.83348895072952,2.22376805963629,9.59261970070858,1.12835592935027,1.25868407254083,9.24991015708994,6.78519163717356,2.14648691289235,9.52731286032157,2.27800258752467,8.44565957610459,0.109985426787997,0.138463709687885
4.82908190436671,2.2230327768277,9.58762778001114,1.13879234689106,1.24966717362618,9.24390427935833,6.78542530479312,2.14617956849482,9.51954769599905,2.2845018611985,8.45481373093943,0.109767774182314,0.135050466716376
4.81651147603053,2.22248394335699,9.57685018423136,1.16625327545569,1.22558498570442,9.23029400862244,6.78623908515977,2.1461185452532,9.49875793863968,2.30530182968011,8.47603495038059,0.112280063838916,0.124004605061241
4.84219471527551,2.22343212050341,9.59818027340998,1.11072790615605,1.27550796227805,9.25777494640193,6.78422399993411,2.14669288492401,9.54192714548333,2.26168288914475,8.43280542633894,0.107248664789565,0.146914711067014
4.83457232391803,2.22356287261902,9.59335122120838,1.12657304010945,1.25984720329116,9.25131187543203,6.78555307560601,2.14630140924411,9.52873475763695,2.27599390573637,8.44558243149312,0.108461155330411,0.13917582111038
4.83448784464896,2.22374965840728,9.59415803738946,1.12551544359375,1.26088067107211,9.25196985532724,6.78481497415136,2.14689907549369,9.52958011494735,2.2767272579852,8.44289898731492,0.110431097590876,0.139109096502313
4.83814174563869,2.22271832529475,9.5946631377973,1.11685591993018,1.2669934260355,9.25029505494216,6.78328525241238,2.1453276641281,9.53322463516693,2.27144843199771,8.43649697353438,0.110198621223658,0.144403540310969
4.83552173247238,2.22318387392228,9.59443727358862,1.12431827686824,1.26183813824858,9.25316805466746,6.7851528937566,2.14690344285013,9.53114891943708,2.2743677559835,8.44363477330767,0.10855350485072,0.139807342323005
4.84005069185247,2.22294931393201,9.59557345784901,1.11532219702234,1.27119226793889,9.25395463471853,6.78397984372088,2.14634037112595,9.53784066444604,2.26533596997594,8.43644847365384,0.10779152505608,0.145601924712966
4.83543344123306,2.22369960108797,9.59388240681423,1.12387966687045,1.26249764623624,9.25111849867547,6.78468103657901,2.14633684989732,9.5302723046652,2.27485408001937,8.44197867300802,0.109927863596938,0.140623886136483
4.82787578680264,2.22323961916293,9.58689401820907,1.14186219722358,1.24746521976021,9.24358803157649,6.7858627952064,2.1464259912171,9.51792533950739,2.28608595221092,8.45736546023884,0.109594957019488,0.1336330109476
4.84975070680774,2.22283405807906,9.60138723215755,1.09649216104251,1.2870570278142,9.26128203423802,6.78461821374967,2.14455409225924,9.55095479197765,2.24837177210118,8.42580081382538,0.101949691312652,0.154755518560432
4.84084817960154,2.22324600623308,9.59641507474585,1.11401793183613,1.27078468183635,9.25456995587922,6.78518940069308,2.14516042613194,9.53728806001252,2.2648840621202,8.43749578585397,0.10571832093863,0.14582364596752
4.83931681302731,2.22431523185854,9.60275467564912,1.10978263787639,1.26772658467087,9.25939606410815,6.78462987501426,2.14555994073523,9.53543883129442,2.27568438170782,8.42993192204086,0.11187957902164,0.141834154679986
4.84920249508889,2.22494138146614,9.60818167831102,1.09361993167781,1.28671438543281,9.26956007741827,6.78570571068518,2.14601070019675,9.55227929948347,2.25393525888904,8.42058987045041,0.105302321101392,0.15068669938621
4.84027855221422,2.2243932109654,9.60347503070023,1.10728252169556,1.26976971907602,9.25971543352545,6.78430328476053,2.14539032850702,9.53679279452061,2.2744172593579,8.42751558929135,0.112290138924996,0.1429767980018
4.84230914801238,2.2244724564613,9.60480715031627,1.10289274347185,1.27367113293259,9.26099668701675,6.78407787766872,2.14515689935697,9.53977770088241,2.27105681514712,8.42407097293879,0.11199337284213,0.14508798049419
4.93074702034185,2.30599873609417,9.43939289630297,1.19884428214787,1.47848446195472,9.14385266740033,6.73140765694877,2.19064891102497,9.36085603883455,2.38521587392753,8.25524789874666,0.320147290429292,0.297887978781436
