"fastcoef_sq","pref_flow_den","slowcoef_sq","soil_moist_max","soil2gw_max","fastcoef_lin","gwflow_coef","jh_coef","slowcoef_lin","sat_threshold","carea_max","smidx_coef","smidx_exp"
4.81191193733148,2.2157300698906,9.53793725613828,1.20368905275372,1.22506777255144,9.19220881718372,6.78228670513937,2.14702278777103,9.49259173861937,2.2786397620453,8.51207915588586,0.100291470944387,0.135439200732288
4.81225605586434,2.21592620736252,9.53922683082429,1.20227250762924,1.22544408569959,9.19365347031589,6.78245182368313,2.14702911412855,9.49316286559517,2.27893234242037,8.51091358590865,0.100423429528394,0.135244803697373
4.81237395315641,2.21588690605132,9.53903603879194,1.20217952229305,1.22578110285199,9.19342887383063,6.78236914476247,2.14702253946779,9.49335201362237,2.27850953114431,8.51081157808323,0.100398788210714,0.135512544269473
4.81223069565448,2.21605188609727,9.53985746123549,1.20192574733486,1.22518417782466,9.1943555844564,6.78260416374759,2.1470273374511,9.4931143128444,2.27949458202631,8.51065712104045,0.100487430370541,0.134882477791062
4.81259449523577,2.21589745245539,9.53926086511023,1.20171467654266,1.22615558960701,9.19374532509245,6.78239319240445,2.14702517458324,9.49371285548175,2.2781566590773,8.51051141324643,0.100293660030635,0.135665017945599
4.8126591099771,2.21593689422412,9.53966155125765,1.20128227484828,1.22618785908708,9.19414312823966,6.78241197149018,2.14702409543924,9.49381519050129,2.27842186962178,8.5100988730017,0.100431617491357,0.135568816725298
4.81287087948701,2.21620749624267,9.54123155847809,1.19974979168474,1.22631932341696,9.19573499206915,6.78254990028188,2.14703231127194,9.49417838650911,2.27936888449151,8.50859842576763,0.100917233700361,0.135138878496787
4.81285343947518,2.21614755633922,9.54091757621587,1.20003868462036,1.22632384511596,9.19544148773457,6.7825359808086,2.14702889569985,9.49414288824991,2.27911211958501,8.50892246659433,0.100772111297268,0.135243338982379
4.81286070919477,2.2161510768179,9.54093967281195,1.20001065198941,1.22633513617038,9.19546493161591,6.78253721753785,2.1470291527502,9.49415530187067,2.27911482373558,8.50889665318214,0.100777146750405,0.135242730409411
4.81257187244282,2.21638732082701,9.5418575299538,1.20005835465296,1.22533908238802,9.19657732255728,6.78292062534704,2.14703157339733,9.49367464428208,2.28037468724206,8.5091277235683,0.100716964153921,0.134323346609437
4.8127467543573,2.21641636285675,9.5421228748731,1.1995755917259,1.22563848104797,9.19685908805144,6.78292248639318,2.14701878660371,9.49394315220796,2.2802170497265,8.50873078437971,0.100730806612174,0.134429660169706
4.81379939321444,2.21656521127863,9.54390121683729,1.19638087593597,1.2275883325546,9.19868064596884,6.78278590451327,2.14703576256687,9.49570240685868,2.27957488785757,8.50576156973526,0.101249632460191,0.135050735232745
4.81382429007837,2.21668208414178,9.54450560168517,1.19583577227378,1.22756321164572,9.19924108586598,6.78281245661435,2.1470419498054,9.49575612974277,2.28009101799125,8.50514190180044,0.101536493155936,0.134840173634403
4.81382287646762,2.21668122662675,9.54449941399264,1.19584312171188,1.22756142987076,9.19923504523047,6.78281226498146,2.14704196735077,9.49575384815295,2.28008808838039,8.50514915929209,0.101534235947506,0.134841006260078
4.81384673957114,2.21659584790782,9.54408634541891,1.19615758651308,1.22765551883823,9.19886358996939,6.78279355191612,2.14703450772268,9.49577928399309,2.27963893388858,8.50554502292517,0.101308382000469,0.135032803124593
4.81081551482565,2.21573927033404,9.53763059008703,1.20554253352117,1.22280777396781,9.19163646736504,6.78238499541624,2.14703024998802,9.49079041630827,2.28111576347181,8.51336332033471,0.100787402363329,0.134196853266626
4.8118599891667,2.21572129957729,9.53785914706621,1.20382406670904,1.22497967964179,9.19211680922471,6.78228239999257,2.14702335550345,9.49250756700094,2.27869685159249,8.51218342455758,0.100297661530788,0.135410697980241
4.81573602483526,2.21763397284266,9.55107282003573,1.18798427870331,1.2300576350201,9.20627208677139,6.78333814955389,2.14706111648212,9.49891952231915,2.28154267263759,8.49820613112609,0.102781430128057,0.134240894306707
4.81583046880075,2.21767212584809,9.55149585520994,1.18754702777525,1.23011087366136,9.2067492695652,6.78340569819775,2.14706502319998,9.49906344742448,2.28179065202344,8.49782808500632,0.102874960605216,0.134132906402498
4.81584305526079,2.21767805333312,9.55153273232895,1.18749585636132,1.23013137815037,9.20678431799987,6.78340554550496,2.1470640905945,9.49908320021617,2.28179583874696,8.49777931247983,0.102886321561868,0.134134433147971
4.81659780150156,2.21709833422927,9.55004167363921,1.18694019604885,1.23216407345157,9.20508374636772,6.78271972058551,2.14707114902648,9.50030047335661,2.27929228941271,8.49717744745714,0.102835821861251,0.135937258952365
4.81750526373498,2.21746839032239,9.55091557517293,1.18553469587389,1.23377030286578,9.20660081440341,6.78314669154337,2.14704339186614,9.50181102513561,2.27698105607926,8.4967657248757,0.101681202237002,0.136496309977038
4.81974695580236,2.21961307160158,9.56504835352497,1.17141346016016,1.23515055081893,9.22128406924709,6.7845247471136,2.14710746997355,9.50553199031175,2.28494083615545,8.48358510871548,0.105456593431212,0.132826308918084
4.81974682448561,2.21961334539894,9.56504932012159,1.17141261556269,1.23515027466821,9.22128463078882,6.78452467165046,2.14710738880172,9.50553170252715,2.28494207712646,8.48358392075257,0.105457341391129,0.132825912661813
4.81832687989878,2.2181858392236,9.55570916361081,1.18036737843991,1.23445762667001,9.21129807114271,6.78341440934746,2.14699756244446,9.50309342421004,2.27963400564311,8.49180097838509,0.103199609072966,0.135484534740879
4.82004974784324,2.21971205304294,9.5654347227107,1.17049715291677,1.23581312698381,9.221536366421,6.78441056597837,2.14705222421896,9.50598651329886,2.28448692291779,8.48272512326171,0.105559925541738,0.133156187457706
4.84368148008322,2.23931796162131,9.52039068350646,1.19398447033421,1.29110520032052,9.18768582258227,6.77012648572286,2.1579429434776,9.46305321488109,2.30691044962649,8.44034465196063,0.156640697170868,0.175404873897754
