"fastcoef_sq","pref_flow_den","slowcoef_sq","soil_moist_max","soil2gw_max","fastcoef_lin","gwflow_coef","jh_coef","slowcoef_lin","sat_threshold","carea_max","smidx_coef","smidx_exp"
4.811843369989,2.21567969761555,9.5376251690965,1.20400433422237,1.22501188613747,9.19185917198759,6.78223992359579,2.14702241026206,9.49247963856711,2.27853874340167,8.5123337130805,0.10026288484483,0.135506994855375
4.81184350400063,2.21567979624675,9.53762577979432,1.20400371802034,1.22501199490287,9.19185985665227,6.78224001551571,2.14702241102342,9.49247985772176,2.27853894104006,8.51233321613045,0.100262940090314,0.135506861751786
4.81184380813351,2.21568129377837,9.53763656391196,1.20399503331927,1.22500948643399,9.19187056191933,6.78224133387867,2.14702245307321,9.49248006422552,2.27854855558709,8.51232509516933,0.100266059338547,0.135502210157208
4.81184766870947,2.21568308148962,9.53764536865364,1.20398477555611,1.22501494202135,9.19188239391623,6.78224342263499,2.14702244543387,9.49248674182482,2.27854501442706,8.51231862885165,0.100263830759141,0.135502149553177
4.81186051177091,2.21569229076678,9.53770319096721,1.20392551419506,1.22502585745193,9.19194658371566,6.78225161924649,2.14702250464421,9.49250766352803,2.27856399796843,8.51227007443062,0.100270030903537,0.135490046054931
4.8118514241707,2.21568617379339,9.53766353331646,1.20396759774388,1.22501732012574,9.19190346647236,6.78224676609139,2.14702247381469,9.49249294720317,2.27855067140436,8.51230569711361,0.100264318212557,0.135497545881225
4.81186698655831,2.21569453928538,9.53772303910467,1.20391435177714,1.22502397157822,9.19198122169152,6.78226323591204,2.14702303972436,9.49251803752439,2.27855560425751,8.51227975986167,0.100249090208861,0.135481978328129
4.81185196744632,2.21568646512065,9.53766556755695,1.20396521660027,1.22501799842503,9.19190561445729,6.78224692105125,2.14702248059333,9.49249384502725,2.27855128552494,8.51230354360208,0.100264777617737,0.135497304908176
4.81185192121806,2.21568598746258,9.53766412405128,1.20396500110556,1.22501884176362,9.19190282185021,6.78224577082115,2.14702245744479,9.49249361925385,2.27855136161442,8.51230196550297,0.100266441702469,0.135498519274774
4.81184765744492,2.21568284621133,9.53764467834016,1.2039846244158,1.22501538132389,9.19188103028702,6.78224284848932,2.14702243393164,9.4924866480889,2.27854505488341,8.51231780111217,0.100264669631688,0.135502757842771
4.81185194335796,2.21568599468116,9.53766418522045,1.20396491755975,1.22501887483222,9.19190288467184,6.78224577245516,2.14702245752882,9.49249365509056,2.27855136877923,8.51230188975864,0.100266456498715,0.135498520615535
4.81187758772142,2.21570480097503,9.53778069375301,1.20384719540354,1.22503980579251,9.19203346875603,6.7822632673207,2.14702259851251,9.49253557916139,2.27858892097475,8.51220691810919,0.100277020828222,0.135473247621253
4.81185194414303,2.2156859946245,9.53766418559561,1.20396491571072,1.22501887665234,9.19190288491047,6.78224577209784,2.14702245753784,9.4924936564069,2.2785513676034,8.5123018878319,0.100266456919726,0.135498521605215
4.81186051809366,2.21569229394605,9.53770321267363,1.20392548876613,1.22502586541129,9.19194660748438,6.78225162137702,2.14702250472241,9.49250767402439,2.27856400243965,8.51227005253293,0.100270034265796,0.135490043805793
4.81185198485062,2.21568602923631,9.53766437849326,1.20396473586216,1.22501889528001,9.19190310846457,6.78224581314482,2.14702245314704,9.49249371640169,2.2785514213248,8.51230176536983,0.10026644753373,0.135498472058881
4.81186055099644,2.21569232327844,9.53770337196211,1.20392534610393,1.22502587506276,9.19194679554121,6.78225165947041,2.1470225002483,9.49250772093522,2.27856404411276,8.51226996388311,0.100270017303123,0.135489999728824
4.81186072170259,2.21569244001432,9.53770402916186,1.20392468414446,1.22502600741537,9.19194756248814,6.78225179419819,2.14702248422836,9.49250797674283,2.27856414790328,8.51226951250089,0.100269970233095,0.135489872367633
4.81186505810638,2.21569871626273,9.53773640740102,1.20390033131344,1.22502328805634,9.19198651338677,6.78226034623631,2.14702220725719,9.49251451996129,2.27857731511198,8.51225504711072,0.100266963911382,0.135477495355218
4.81185202298332,2.21568603846509,9.53766445133877,1.20396462081857,1.22501895771136,9.19190318677028,6.78224581593392,2.14702245135897,9.49249377638563,2.27855139871061,8.51230166905946,0.100266454312956,0.135498487845154
4.81186034304154,2.21569231054807,9.53770290856892,1.20392623066718,1.22502537118,9.19194644308463,6.78225182182177,2.14702245582572,9.49250731377216,2.27856390173323,8.51227105273749,0.100269534940829,0.135489851852862
4.81187051025554,2.2157039952871,9.53777175938966,1.20386379248172,1.22502769044596,9.19202204047707,6.78226257240132,2.14702254265596,9.49252395645769,2.27859852385387,8.51221887446405,0.100279073402664,0.135468879222763
4.81186585910983,2.21569728538571,9.53773112670756,1.20390257004458,1.22502650146032,9.1919812657477,6.78225902560407,2.14702251045784,9.49251618640924,2.27857126507394,8.51225699148888,0.100265970636765,0.135481050602244
4.81189245509084,2.21570700538775,9.53780200547163,1.20381064350206,1.22506446631736,9.19206017645515,6.78226525430858,2.14702265112373,9.49255990414725,2.27857087242824,8.51218044015719,0.100273073526191,0.135481159751528
4.81203047043407,2.21574712099468,9.53810411727898,1.20340006432864,1.22526501432608,9.19241880862477,6.78230225977676,2.14702320669255,9.49278566637603,2.27849291255281,8.51187065440529,0.100258770142004,0.135503619550992
4.81221042017853,2.21587547513149,9.53893588875654,1.20249588041896,1.22545698391674,9.19329197926771,6.78237457746861,2.14702595935159,9.49308649164566,2.2788310593946,8.51104188223727,0.100457632488012,0.1353519322244
4.81194792411197,2.21572406369049,9.53793551046204,1.20364462810379,1.22512902452524,9.19222300565621,6.78228978580433,2.14701981693513,9.49264486344544,2.27854747669304,8.51207187917369,0.100251299315221,0.135479487598027
4.81985107625911,2.22162649467869,9.53354573116332,1.20127134552105,1.24157162368686,9.19107231803592,6.77924638121357,2.14975286218095,9.48520184695865,2.28571100203729,8.49415204669653,0.114379164412657,0.145428837601652
