"fastcoef_sq","pref_flow_den","slowcoef_sq","soil_moist_max","soil2gw_max","fastcoef_lin","gwflow_coef","jh_coef","slowcoef_lin","sat_threshold","carea_max","smidx_coef","smidx_exp"
4.56946205405015,3.07417290494496,9.56688867257278,1.31566900081,1.70538072829834,8.68360563516917,6.76729368666994,1.98069915299441,8.93950408669939,2.8042405634375,7.4121009450881,1.1166676951705,0.202068891343362
4.56574159826356,3.07414989232033,9.56356515814048,1.32290318075532,1.69686620001343,8.69520359110876,6.76651427959094,1.98152899714821,8.93827375422281,2.80326186623845,7.42654721437906,1.10765466374695,0.198023153634408
4.57090054637334,3.07105718644198,9.5738705888825,1.29673089946889,1.70860578346539,8.66974619605094,6.75824211656468,1.97694462095055,8.94094832625064,2.8203623671977,7.38540894797337,1.1380481756133,0.201580435002435
4.56572051633453,3.06584224248772,9.58132868780864,1.30122584235713,1.69853407229925,8.68313694882632,6.76907684836965,1.97182827158075,8.95105167623004,2.8138419067279,7.40934660657313,1.12294484361257,0.19159721734639
4.55997416119732,3.07197786938625,9.60325165030758,1.28410110847944,1.7090642621195,8.67334672922318,6.75668175686814,1.95641576363259,8.976920752316,2.81559100638798,7.37909751106387,1.15710886810027,0.18411234086814
4.56962442401332,3.06789275063296,9.57885423157158,1.27640129499658,1.71143228187395,8.65505004929274,6.74212446525062,1.97407300313403,8.93876859730165,2.84234980965375,7.3490151864482,1.16774787861545,0.204517802782412
4.56965373334219,3.06077070665686,9.58692875960946,1.2674643768064,1.70909811317807,8.65800409653675,6.73612230689354,1.97135013868134,8.94921116537308,2.84849383457495,7.34483435715441,1.17685807215006,0.199396809002236
4.5786401981345,3.10055959048929,9.47841726424379,1.42854903493656,1.7150293018443,8.68866141948428,6.79485032204362,2.03629664887744,8.86520122912018,2.7505720339962,7.47944556952529,1.03961748440436,0.252036900427556
4.58306021813065,3.11436398920233,9.52382714773062,1.33256696615383,1.75550708498355,8.64968042140573,6.73608579771479,2.00884076730108,8.88747345664293,2.80729239609175,7.3381826922351,1.16331252354678,0.253491529463633
4.56181376176182,3.04558316017974,9.59521525581482,1.24359368001614,1.69993242922668,8.65236434708865,6.73396570636709,1.96458049268167,8.95056783978331,2.86463266085826,7.33031852780705,1.18250051606794,0.199735611258098
4.57562118721851,3.10320561025534,9.53126415575139,1.36311451671926,1.72172259429609,8.69617278692416,6.7763673391376,2.0001819064168,8.91184108673418,2.76696532811471,7.44237973461293,1.08331417403747,0.223822035658105
4.56754275082268,3.08913102100558,9.53744508442692,1.36503046821859,1.69756884714614,8.71428030661466,6.77993514354115,1.99548710167203,8.92127385808652,2.77103450626119,7.47019865793613,1.06672873427603,0.207799650655322
4.56657883704038,3.08779597836406,9.52085166135862,1.38645289219438,1.68157591450841,8.73755822135529,6.77453269462527,2.00408780261967,8.91571208251201,2.76076944023435,7.50516017177992,1.03927928575769,0.205324624566583
4.571952606857,3.08660288365152,9.55035645156877,1.34144560255567,1.7083015982212,8.69439522999907,6.76952741499997,1.99006637467415,8.92888845035369,2.78789077457191,7.43253250383233,1.09980187605987,0.207616944532806
4.56950596718042,3.08956470043808,9.56268690869995,1.33109378790514,1.71626169486894,8.68128499423688,6.78051990173732,1.9817908645932,8.9328799393688,2.79075116145339,7.41941689938416,1.1094946948821,0.206373747188096
4.57524783161656,3.08621508777713,9.53685739042216,1.37104954605433,1.7030662463555,8.7109344021613,6.79315701416894,1.99713090906764,8.92855064565489,2.75213060721393,7.48640165702304,1.04820264872438,0.209597745237784
4.56936716673824,3.08390591971591,9.56204866526796,1.32154445165258,1.71223855111604,8.67746768563499,6.7718450407811,1.98226503394647,8.93111818590971,2.80354496502389,7.40787025632303,1.11772270493622,0.20564093682158
4.55275053767261,3.00954949227176,9.65232833015943,1.13501224747816,1.70573932266936,8.59527350205924,6.70768279307674,1.93427885415628,8.97607673349421,2.93822888255887,7.20862188582478,1.27885445475402,0.196967332866292
4.56923301398927,3.0773776877482,9.56900752923837,1.30544862418763,1.71464192902102,8.67152081879448,6.76005215564869,1.97981474594706,8.93699286981329,2.81355997225038,7.38863734522257,1.13563236454663,0.206967898742843
4.57054668568708,3.07778619051052,9.57582707156184,1.29186709785675,1.72104315947617,8.65990545662018,6.75565804143274,1.97665209683723,8.93712843608439,2.82547027610723,7.36239561603467,1.15711906947075,0.20885746679626
4.58109194210448,3.1075145124614,9.57154810648491,1.31583834063935,1.68246869212889,8.6842603006571,6.84927697416412,1.94727367547258,8.92852362260122,2.74703997804217,7.52709059615248,0.981952007573655,0.165519970049314
4.56889211465287,3.1501362114738,9.50978708284405,1.44780012498924,1.72016550990096,8.71125226672704,6.82354925123419,2.00318896181411,8.88504017863244,2.72716632507291,7.51452668484276,1.03116035772941,0.213209420895183
4.49463261497838,3.16409542581819,9.51860778882257,1.4604526182245,1.68781182522115,8.64524344275518,6.77105294018972,1.99182311738206,8.8450894909125,2.88329740136999,7.38102044514587,1.19734899805922,0.187266561729434
4.52979633761613,2.99647482266751,9.69123737078261,1.05210560228848,1.71027023475657,8.46948583376145,6.56677363413083,1.91999983801027,8.95154729174316,3.16930057557741,6.91889041356824,1.57628473865917,0.180120419733878
4.56513406378904,3.43490607887928,9.19093616564228,2.08539101331398,1.70476803542159,9.10701170530732,7.10634675250305,2.14876520208155,8.71146752494179,2.20742692645909,8.35216098809304,0.330507331868121,0.238546696608235
4.58640187661585,3.17870810936456,9.4895297818408,1.43592192045335,1.77236677378415,8.55504539741659,6.7594158174848,1.97117873134928,8.88962127118771,2.82380894709403,7.42603210370808,1.17945721088208,0.331471274246176
3.44727079842368,4.2620187759355,8.16657171704834,4.98370940157555,2.35928841221895,7.03001801258036,7.52650137998976,1.53096544913591,6.43731023827677,4.3263568477069,5.10985339296647,3.97112689259265,0.418100447706236
