"fastcoef_sq","pref_flow_den","slowcoef_sq","soil_moist_max","soil2gw_max","fastcoef_lin","gwflow_coef","jh_coef","slowcoef_lin","sat_threshold","carea_max","smidx_coef","smidx_exp"
4.59987594288239,3.01141475615822,9.58074409341368,1.34037059369649,1.68409453584786,8.85772146281854,6.74046672180936,1.97262525487577,9.08082689707099,2.63134011729917,7.58128122398874,0.992739844026027,0.194741945970554
4.60906575440779,2.95374554952771,9.62609344804744,1.20594164448391,1.69480571129718,8.88425129202163,6.66869644923393,1.9582679126989,9.15890969909705,2.64202060166019,7.50796988178776,1.03466667113174,0.206461930527277
4.59897678302433,3.02219526834077,9.57614432912958,1.24721671135979,1.7433791952623,8.73914197270444,6.68910045560485,1.98657805478077,9.01410429831068,2.73324201454177,7.36561516956368,1.13324557379879,0.258000412628149
4.58275874584069,2.84624781820228,9.70095609530565,1.08859635867609,1.61512384694434,8.88239052892032,6.60699848164231,1.91391289413044,9.22291268699734,2.73161041812744,7.45375685842111,1.10024340408108,0.162411476258884
4.54530011471109,2.98983483216854,9.61691212914595,1.2864209821606,1.6259403676461,8.87110724602382,6.73034316754977,1.93573220316918,9.06760313641236,2.67210071939252,7.60714486663554,0.98135150394552,0.167730772567129
4.5955556891992,2.99002642816363,9.60224193829079,1.17992614953679,1.7401719834276,8.71858133763804,6.65386270722335,1.97415889578459,9.03323143544185,2.76923960005533,7.29921897845004,1.184362353031,0.263380996761238
4.61884621667196,2.9992851349252,9.58937448686554,1.16463149056883,1.78293498154086,8.63902820135836,6.64353156580678,1.99083695917671,8.99794903595835,2.80782520105594,7.19041469913423,1.25477101033272,0.298333776232803
4.58964779325024,3.06274148911103,9.55916724320034,1.2454162362973,1.77437871857024,8.72187381209592,6.67919725773947,1.99022151243065,8.98176187586268,2.74292269535927,7.31645931186836,1.16450856543891,0.282748208464127
4.59341968281647,3.00639087431248,9.61693321886816,1.16417751240524,1.75909467645259,8.69056398243492,6.64923190738599,1.96383083875126,9.03277899525587,2.7886545189915,7.24902224509875,1.23163628778234,0.263403845303167
4.6092815064156,3.10087633156926,9.5060660500222,1.39465557032395,1.76058923274428,8.8117852168216,6.77627302780118,2.01846159984129,8.97550346512727,2.59724877455203,7.55583091559226,0.965508839596364,0.269145171023089
4.5966761237927,3.082600539925,9.50761467175947,1.38668819013517,1.73103230070982,8.81838556549788,6.74852213323813,2.01780797180432,8.97486884527135,2.63575933775051,7.54285262456782,0.988176178181542,0.255097216721379
4.59664926969718,3.08145409524822,9.50783983378866,1.38615335021466,1.72995515093206,8.81860675825915,6.74822225730128,2.01779909544159,8.97524435421775,2.63621619788376,7.54297059563498,0.988129485359208,0.254887315418843
4.60629004409515,3.08856315992785,9.53249258802364,1.32384385066974,1.77830171406063,8.74799290679094,6.72640481019381,2.00805377224458,8.973074834194,2.6806905445778,7.41452859320779,1.0871983622933,0.276589343321581
4.59284686662908,2.9781043272649,9.62862643777332,1.14129002916086,1.7420435690481,8.71791303304041,6.63351847628248,1.95809709979225,9.06434935885534,2.78226199409069,7.26530423883391,1.21734895400713,0.2545150525702
4.57086268770532,3.01599567877879,9.61944945484235,1.13385225054839,1.76101025151611,8.55223590650577,6.62166866983703,1.95952575395648,8.9380550200097,2.93957511115245,7.07462787024565,1.38538943225069,0.274261236551854
4.58632075570348,3.08459906732428,9.55027673218682,1.24320646271454,1.77818588642575,8.60923834013697,6.65042135066594,2.00261062451862,8.90759969871061,2.86708586027392,7.18120566443584,1.29298751454084,0.282044645483255
4.57507219264064,3.05683903027395,9.58137896707714,1.15468947370804,1.79505378840844,8.53070923421808,6.61954224311397,1.98472147918492,8.89062266574665,2.94117726534572,7.04115196085033,1.39419645666593,0.307278628848381
4.59321914019944,3.13478535073408,9.49534016729361,1.37343616424482,1.77730291439877,8.7041874404755,6.72407278638637,2.01685955084952,8.88758155790583,2.74176505577571,7.35910637162025,1.13739004535548,0.278479932272431
4.60247507093016,3.22458078491357,9.43838555503632,1.44443275380728,1.86151701913712,8.61176258703952,6.78400302016304,2.05860597263077,8.78637657885986,2.71983852436807,7.32145335744093,1.14062293541297,0.346696326898183
4.45539794723216,3.1683455915301,9.61499154709998,1.39055006939567,1.68188406859583,8.85502298239692,6.72416898823119,1.90956793940033,9.05223939858531,2.6860682828683,7.5168232948978,1.10038676877254,0.14587954122559
4.57983573766471,3.15473253279142,9.46626372300232,1.58399385346563,1.69504559157531,8.85499784227839,6.86878497174945,2.02731644163918,8.92115859939663,2.55035270045884,7.76540467026708,0.841398156390886,0.20770673370321
4.57225133262013,3.08279335697394,9.607209104179,1.16053736523532,1.8239582087197,8.53398387204808,6.64908388515567,1.96401362924907,8.92177562729308,2.89451642546001,7.05669514094789,1.38698953652072,0.302360302587728
4.58078462623732,3.17927448384166,9.39839038431381,1.55272118644132,1.73148341278542,8.76337836578888,6.82243023326632,2.07354591777111,8.80528368614077,2.64030465083782,7.58917190317128,0.934707764189705,0.292671080554788
4.59943213090642,3.22536362026952,9.44453656877863,1.44285877515841,1.8577611209553,8.61880515286157,6.78416811505431,2.05219708445919,8.79410678470545,2.71578797181025,7.32682612408174,1.13762449501008,0.341507936384724
4.59067936209426,3.30883843731295,9.33301033663752,1.70273470635549,1.80668812662495,8.75164356518125,6.91315399056564,2.10315181421386,8.72110504661896,2.55594641566448,7.67337188096642,0.863616567180259,0.317533988475363
4.60456981316076,3.25936670985604,9.36168570345749,1.75507312339229,1.740809197961,8.87297377800925,6.94745395462134,2.09185496627285,8.83182479363908,2.44999312676662,7.88654192237733,0.718857982431008,0.24509789921825
7.51087569083523,4.6807847123863,4.22166186279222,4.72448756971039,7.33530988191998,5.6943820524068,5.20460687888185,3.7362433810882,3.70996247859851,6.08557274380765,3.72175570875331,6.50668351230603,4.70295122978764
