"fastcoef_sq","pref_flow_den","slowcoef_sq","soil_moist_max","soil2gw_max","fastcoef_lin","gwflow_coef","jh_coef","slowcoef_lin","sat_threshold","carea_max","smidx_coef","smidx_exp"
4.83666433861375,2.22361089869758,9.59488308916326,1.12067985968058,1.26524510115886,9.25198350641212,6.78409057688666,2.14643425567988,9.53245297081717,2.27309764700089,8.43879385136712,0.110535834560165,0.142027074336949
4.83304366109369,2.22340646138639,9.59170007716696,1.12912209610822,1.25788457035477,9.24845431675543,6.78469723068503,2.1464178148462,9.52640281826447,2.27877615012449,8.44607211436822,0.110407729494587,0.138597131683793
4.83275559787308,2.22350629914465,9.59255094717517,1.12936475244706,1.25732848012392,9.24988790237554,6.78492101454697,2.14683521888327,9.52658178004843,2.27967853387709,8.44613545810632,0.110609847470188,0.137658347532018
4.82836155781518,2.22355962585303,9.59040340532061,1.13702086804518,1.24750633966768,9.24518686569623,6.78565182603173,2.14579299923246,9.51779378081559,2.28989291809533,8.45219338915917,0.112084942116375,0.133133742445519
4.83854850376694,2.221561257438,9.59563185753782,1.11895600746163,1.26533273754969,9.25562424188573,6.78560227896623,2.14653241146662,9.53531077340175,2.27093402299948,8.44164935413091,0.106548278093683,0.141995975109245
4.82697209408766,2.22373247287446,9.58711907540401,1.14502014436347,1.24540194789319,9.24554715862787,6.78721404185727,2.1469724765567,9.51726352521392,2.28664797729424,8.46099368540223,0.108059831474313,0.131486102323093
4.83780194069878,2.22370161726342,9.59630523753525,1.11741861256857,1.26687071170092,9.25289634065837,6.78408229509321,2.1459681054782,9.53359861887525,2.27240207467868,8.43629519478442,0.110607316378472,0.142948946356093
4.83790372862153,2.22368891070844,9.59647538231413,1.11707432877391,1.26719726702419,9.25310492986978,6.78396521185321,2.14606364274642,9.53391505940968,2.27228541212026,8.43583043403433,0.110805067060754,0.143046769978016
4.83793341219506,2.22372337935501,9.5964633747546,1.11702940262759,1.26730866142365,9.25307359254762,6.78397135273901,2.14604805888354,9.53396115594356,2.27216877822264,8.43576281102722,0.11080665902616,0.143093987298724
4.83884318901434,2.22375071089366,9.59701017917262,1.11531936965592,1.26929421338279,9.25403734534464,6.78384462456322,2.14620132460721,9.53569279841755,2.27022447336823,8.43437713678899,0.110572367538753,0.143998632607052
4.83904866611542,2.22372751638992,9.59676373134483,1.11490933171887,1.26967176794645,9.25347166483094,6.78370976378606,2.14597033367636,9.53568636131486,2.26983534789117,8.43406357763137,0.110557894176636,0.144491183942945
4.83920798590993,2.22382502738349,9.59813832027718,1.11320610607712,1.26902973150028,9.25400376266887,6.78395974075697,2.14542144803223,9.53511076139211,2.27161311822436,8.43282759128787,0.110965247789873,0.144107781698162
4.8363100933932,2.22365956097175,9.59463826745778,1.12145104937342,1.26456662962052,9.25167102253656,6.78416275167131,2.14642324098436,9.53183919373379,2.27371800610318,8.43937700734327,0.110601102008596,0.141683893844139
4.83947899424472,2.22374602972981,9.5977489641788,1.11292639137225,1.26980671184496,9.25356967500809,6.78373328962977,2.14541478804711,9.53554976070086,2.27065094895262,8.4325205029538,0.110917262292651,0.144726326409808
4.83967373694695,2.22382844339248,9.59868366956787,1.11157148204179,1.26977354930544,9.25398232674914,6.7837655890426,2.14513599368762,9.53545760474267,2.27157446045066,8.43130134244673,0.111365277478579,0.14464450156914
4.83966381648482,2.22381760677997,9.59850358474915,1.1115202914421,1.27029540676886,9.25377686586939,6.7834213621173,2.14535327020796,9.53577975102221,2.27134844423512,8.43068301656624,0.111891784202922,0.144895537594788
4.83658861302705,2.22371122047928,9.5957671485873,1.11950835074065,1.26436715066968,9.25178872588555,6.78418751948601,2.14583895597588,9.53143140295426,2.27510906274865,8.43775381539649,0.111178773143254,0.141693194523224
4.83681300379392,2.22406056481162,9.59785661275279,1.11780077229607,1.26211293124745,9.25298436864073,6.78562709315998,2.14446947635053,9.52963152945147,2.27778129521974,8.43825789143942,0.10998162279706,0.140557349347127
4.8416771242567,2.22299978716382,9.59926049758001,1.1082832755528,1.27342977951365,9.256092367865,6.78324095613802,2.14570198355871,9.53941378554797,2.26699019531745,8.42967792550055,0.109958804277621,0.146745915003104
4.84035224777304,2.22381856097905,9.60046419730514,1.10809129303215,1.26992433005647,9.25425928715478,6.78370535820099,2.14423914470247,9.53522633215738,2.27322514842993,8.42848126720586,0.112161318567426,0.14497901246838
4.84150340151062,2.22417517666233,9.60116569549948,1.10645653297764,1.27310327405555,9.25618898318556,6.78359929037501,2.14488061113416,9.53804519981687,2.27000609055874,8.42676067680705,0.111891746734451,0.146077892349602
4.84197571302061,2.2241432810597,9.60199476734983,1.10400677699599,1.27294514129279,9.25535919056704,6.78358716970232,2.14381567126593,9.53723630948692,2.27128760343539,8.42498036434484,0.112320063665999,0.146575237032644
4.84661407155697,2.2236031795052,9.60263222824665,1.09692087137606,1.28310964212695,9.25841823241552,6.78263226761439,2.14459718136297,9.54604555593396,2.25938364260593,8.42011615414305,0.10992856679945,0.15205921608626
4.84217644331108,2.22412375506904,9.60472630497611,1.09932393442845,1.27122741783884,9.25463264646357,6.78345648501449,2.14203438011679,9.53498008870231,2.27661744579694,8.42077703786386,0.114505264253589,0.146209144642309
4.85799569823271,2.23574394525534,9.61260373784075,1.0640816100758,1.32008885377892,9.25811115062563,6.77888812951863,2.14040396906246,9.56092576255618,2.24195057296405,8.3741746152152,0.125675011628628,0.168406274808566
4.84592340714326,2.23126411015478,9.6043757698808,1.09246287458942,1.29230140992007,9.2540801929382,6.77928219666054,2.14453052793463,9.54257178898973,2.26539912428786,8.39997798652655,0.124900739568715,0.156122407975977
4.23694955190426,3.54556568667349,9.14667985656567,2.48106864784876,1.59809019525233,8.50326621954047,6.91541349997659,2.1372302430986,8.29150079966671,3.06946059966942,7.50981054541408,1.28583681034698,0.26902434552415
