"fastcoef_sq","pref_flow_den","slowcoef_sq","soil_moist_max","soil2gw_max","fastcoef_lin","gwflow_coef","jh_coef","slowcoef_lin","sat_threshold","carea_max","smidx_coef","smidx_exp"
4.81974695580236,2.21961307160158,9.56504835352497,1.17141346016016,1.23515055081893,9.22128406924709,6.7845247471136,2.14710746997355,9.50553199031175,2.28494083615545,8.48358510871548,0.105456593431212,0.132826308918084
4.81955832561395,2.21954250411964,9.56423649283959,1.17225629317455,1.23503996292172,9.22035901511005,6.78438985182904,2.1470994349969,9.50524450312694,2.28447981470921,8.48430380315084,0.105288980933081,0.133029661923239
4.81489796026258,2.21823263246371,9.55289471165478,1.18948761426979,1.22685396255363,9.20929711812324,6.78490503828639,2.14705380705781,9.49746981495464,2.28377540519014,8.50113446526586,0.101057319528281,0.131608330944633
4.81944395448107,2.21906996147955,9.56177981675898,1.1744861076868,1.23511635306758,9.21807018159053,6.78428091049316,2.14707165120156,9.50500093566371,2.28241862236302,8.4868256415536,0.104136593767438,0.133872306733015
4.82087561852797,2.21991453780562,9.5671978557822,1.16793788716065,1.23712880625593,9.22352926536845,6.78452359040401,2.14707714208335,9.50735977112256,2.28420689604405,8.48053872904987,0.105785142353733,0.133359313123764
4.81974663961652,2.21961342438106,9.56504950297549,1.17141268592446,1.23514990184299,9.22128467999395,6.78452467242266,2.14710736872944,9.50553138076374,2.28494269415643,8.48358382914117,0.105457577924996,0.132825648583849
4.81956278577178,2.21954230104097,9.56423837043407,1.1722490940172,1.23504808213292,9.22036280629316,6.78439021643783,2.14709944297796,9.50525169867205,2.28447051319283,8.48429989883592,0.105286019772909,0.133033844621863
4.81446200391545,2.21830459954399,9.55329889691595,1.18958260940279,1.2259990147372,9.20938295536514,6.78482637400514,2.14705918521156,9.49677233241968,2.28547832189341,8.50070287712263,0.101859146353626,0.130985417202481
4.8193843590185,2.21905898880044,9.56166392219948,1.17467759512862,1.23501753275796,9.21795316086821,6.78428361826255,2.14707477684905,9.5049076014457,2.28244315790648,8.48699381365282,0.104113313921234,0.133844956453186
4.82101274457975,2.21994874193273,9.56743649176006,1.16755025019039,1.23736807436624,9.22379477182903,6.78453361865133,2.14707581319268,9.50758465291146,2.28408920468452,8.48021421184314,0.105799245405628,0.133425214711573
4.81974686509783,2.21961334423045,9.56504935794378,1.17141253641737,1.23515034303997,9.22128469149158,6.78452467778357,2.14710739195214,9.50553177193619,2.28494201377424,8.4835838712423,0.105457321724449,0.132825938850734
4.81956051159273,2.21954233138582,9.56423710888017,1.17225305173888,1.23504397477418,9.22036062651798,6.78439004367677,2.14709945390378,9.50524803134977,2.28447506792566,8.48430217718985,0.105287433727962,0.133031799998441
4.81441594570514,2.21833867227003,9.55342531523315,1.1895070597496,1.22592219959859,9.20944945426455,6.78480929475205,2.14705887916857,9.49670322663123,2.28573435539173,8.50053360561497,0.102013768076841,0.130899218431369
4.81944748079454,2.21906394751175,9.56174871375085,1.17451418674069,1.23512878406163,9.21805147193203,6.78428181832725,2.14707522633024,9.50501171050772,2.28237161624603,8.48686252496353,0.104112368141351,0.133886179599175
4.82118188428278,2.21998686785664,9.56773642776616,1.16710186818445,1.23763358933181,9.2241703118223,6.7845699006106,2.14707857837651,9.50786477171431,2.28392877712061,8.47988558795562,0.105761187455489,0.133483341222778
4.81974718370765,2.21961350629501,9.56505023431169,1.17141120090494,1.23515093170267,9.22128542403048,6.78452460894189,2.14710734580309,9.50553225444724,2.28494208444718,8.48358253667039,0.105457673227014,0.132826059591718
4.81956134831904,2.21953812689534,9.56421063832586,1.17227593083395,1.23504952892857,9.22033789191277,6.78438971103928,2.14709943590852,9.50524930311297,2.28444478582911,8.48433013954418,0.105271559790585,0.133043092340748
4.81445322890922,2.21835767050795,9.5535577739355,1.18933604432265,1.22597866589529,9.20957647462759,6.78481049302151,2.14705764191026,9.49676308873808,2.28578350834784,8.50036255752751,0.102065706064545,0.130892121099493
4.8194542828243,2.2190685519325,9.56177695856398,1.17448052211156,1.23513812551165,9.21807912674493,6.78428284512874,2.14707503758166,9.50502271889476,2.28238246313705,8.48682966945489,0.104121653750206,0.133883032743479
4.82044531982094,2.22059354685974,9.5691308554904,1.16644485864659,1.23634793395168,9.22449953566985,6.78434861328921,2.14686727006366,9.50649218791782,2.28687705423465,8.47823534875696,0.107354550639275,0.132448630168082
4.81974681547044,2.21961340146341,9.56504950265295,1.17141244419632,1.23515028213764,9.2212847619248,6.78452464894968,2.14710739130066,9.50553170695865,2.28494221924344,8.48358368622806,0.105457464556587,0.132825859314121
4.81956149811941,2.21953810582569,9.56421018062792,1.17227621142417,1.23504993754089,9.22033760079234,6.78438972868713,2.14709944268959,9.50524958601267,2.28444367413307,8.48433066529814,0.105271033976757,0.133043452994484
4.81460535831947,2.21838804953381,9.55379289635215,1.18892516349327,1.22625519930162,9.20984340126116,6.78481271129595,2.1470593547386,9.4970177463349,2.28562522865372,8.50001717348194,0.102077466847419,0.130980390251338
4.81942913001192,2.21905247946978,9.56168012054341,1.17459761278862,1.23510224856248,9.21798313382977,6.78427863411823,2.14707570858663,9.50498189019104,2.28234987054667,8.48694295189713,0.104091305032224,0.133892097278708
4.82045280028225,2.22059402927068,9.56916860816216,1.16637632894059,1.23636112688157,9.22451288823354,6.78433341546128,2.14686253796626,9.50649757387409,2.28691970315076,8.4781516525167,0.107398134554995,0.13245323862977
4.81974682448561,2.21961334539894,9.56504932012159,1.17141261556269,1.23515027466821,9.22128463078882,6.78452467165046,2.14710738880172,9.50553170252715,2.28494207712646,8.48358392075257,0.105457341391129,0.132825912661813
4.81956257880672,2.21954193355021,9.56423515763858,1.17225231378593,1.23504823279823,9.22035988545256,6.78439020918506,2.14709940694309,9.50525133478562,2.28446747116226,8.48430348940423,0.105284296551934,0.13303488499435
4.81462077437004,2.21837610947142,9.55375433344694,1.18894997432107,1.22627536739242,9.20982686424864,6.78482177573834,2.14705876002167,9.49703871351579,2.28554617514727,8.5000772126865,0.102023162117367,0.13100523558162
4.81950211223783,2.21909812530905,9.56195658952763,1.17426184663922,1.23520668150299,9.21825773264124,6.78429080432718,2.14707370760436,9.50510024462977,2.28244025556752,8.4866191342561,0.104176877392532,0.133867438149273
4.82088243966332,2.22066068595875,9.56982650313813,1.16517832120078,1.23712416172809,9.22522064466492,6.78432147142217,2.1468519553012,9.50718865978316,2.28653146597248,8.47713198069914,0.107467164479762,0.132714001771295
4.81974681839784,2.21961329773158,9.56504914079116,1.17141282707963,1.23515025812603,9.22128452810711,6.78452469610993,2.14710740562132,9.50553170730414,2.28494191827574,8.48358418581255,0.105457208781344,0.132825943301322
4.81955966063581,2.21954074657846,9.56422635373397,1.17226383103748,1.23504396727918,9.22035083374809,6.7843898273273,2.14709944697535,9.50524662807391,2.28446576987564,8.48431408797333,0.10528202663445,0.133035066508271
4.81463440304207,2.21838818316388,9.55386926529838,1.18880015412411,1.2262999902409,9.20990876976985,6.78480225337523,2.14705855311857,9.49706161125385,2.28565826788479,8.49988932925189,0.102122001648083,0.130989081339499
4.81947637374449,2.21908931182384,9.56189147169908,1.17434933031396,1.23516742176462,9.21818618408554,6.78428558694789,2.14707344201595,9.5050578512669,2.28243835300779,8.48669621557583,0.104165159558838,0.133865778706478
4.82158837139731,2.22072207218665,9.57055956893604,1.16361389834368,1.23828131303069,9.2261192046969,6.78440230085373,2.14677697624666,9.50822354605516,2.28552597513209,8.47609446005186,0.107180039615398,0.133228766520966
4.8197471163909,2.21961350144476,9.56505020542216,1.17141139092445,1.23515076074236,9.22128544936927,6.78452466080398,2.14710736010975,9.50553215536495,2.2849422057727,8.48358274025417,0.105457624722483,0.132825949987427
4.81956163267803,2.21954148499878,9.56423173889771,1.17225648046546,1.23504698075656,9.22035636189556,6.78439002555683,2.14709939145543,9.50524978068578,2.28446631112554,8.48430740449563,0.105283306518845,0.13303521968659
4.81455167777685,2.21835907363627,9.55361835140037,1.18916626035066,1.22615301189778,9.20968283867795,6.78482238597006,2.14705793027621,9.49692336127022,2.28557946283236,8.50027342661563,0.101993443782526,0.130975784240883
4.81948324389546,2.2190852127359,9.56187768984795,1.17435583496694,1.23518100627324,9.21818092175487,6.78428765169843,2.14707458340591,9.50507014731377,2.28240818126997,8.48671136320153,0.104150058627145,0.133876567625765
4.83194487751587,2.22175113977021,9.58154540992662,1.14167479369352,1.25662049105926,9.24150374786608,6.78561664440657,2.14707601300015,9.52560331188897,2.26890017343224,8.4611067710096,0.102896786714663,0.140253008534874
4.81974695481171,2.21961346940396,9.56504991371348,1.17141185171642,1.23515049336515,9.22128511451674,6.78452464519477,2.14710735822444,9.50553188958631,2.28494232014424,8.48358311982063,0.105457608319405,0.132825884055435
4.81956011233904,2.21953787579472,9.56420838393318,1.17227950465289,1.23504749748876,9.22033535635905,6.78438959396841,2.14709944519322,9.50524730601893,2.28444558322988,8.48433310636632,0.105271389311728,0.133042587881126
4.81454064459401,2.21836723404117,9.55364320113862,1.18914693066838,1.22614569415803,9.2096899280072,6.78481109665359,2.14706034281584,9.49691218087152,2.28563411531344,8.50022112600513,0.102040454812137,0.130961768390391
4.81948524805127,2.21908761767165,9.56189419556965,1.17433821585815,1.23518220299981,9.21819589490893,6.78428799646149,2.14707437250342,9.50507307234447,2.28242091362087,8.48669261894796,0.104157796629311,0.133872458786636
4.82264399805511,2.22057394814346,9.57172711644616,1.16127743661679,1.23999623374005,9.22784107417036,6.7845036811648,2.14690781435019,9.51003082529897,2.28458025012299,8.47429315653955,0.107137275106953,0.133794203352548
4.81974690561315,2.21961338540328,9.5650495735579,1.1714122862654,1.23515039688519,9.221284885655,6.78452468059214,2.14710738571152,9.50553183274961,2.2849421184992,8.48358361690172,0.105457404370258,0.132825908727732
4.81956931710535,2.2195407243539,9.56423092449694,1.17224767230881,1.23506179801713,9.22035916655867,6.78439055633158,2.14709931661069,9.50526212716846,2.2844456652851,8.48430484402281,0.105275910053813,0.133044144057638
4.81478153080319,2.21844797470165,9.5542126522127,1.18831206126439,1.22655517611522,9.21027392255899,6.78481724135152,2.1470582169491,9.49730818347893,2.28561197149785,8.49944727683548,0.102187183177921,0.131026293949969
4.81948796460916,2.21908655425193,9.56188915456549,1.17433928254168,1.23518819888556,9.21819272621958,6.78428800145916,2.14707437593623,9.50507750985462,2.28240846018305,8.48669668765137,0.104152492854589,0.133877506793119
4.83217834540554,2.22182536355573,9.58210325564615,1.14083857548928,1.25701110186638,9.24205031252901,6.78561219234949,2.14706589875943,9.52597135935435,2.26891125444477,8.46032170792916,0.103062702575735,0.140321284997995
4.81974743827229,2.21961412244027,9.56505298335646,1.17140887907711,1.23515086170134,9.22128821882717,6.78452505432991,2.1471072925919,9.5055325882241,2.28494395730163,8.48358030394914,0.105458388577411,0.13282510324848
4.81956901995006,2.21954030078422,9.56422705895715,1.17225152528924,1.23506189605243,9.2203555371784,6.78439047959162,2.14709923569157,9.50526157651891,2.28444201184641,8.4843091524463,0.105273836123102,0.133045413750066
4.81476424200022,2.21845353466763,9.55419402505475,1.18836256649714,1.22652492123555,9.21025728533481,6.78482477219173,2.1470577026846,9.49728086371779,2.28562114170879,8.49949439415825,0.102176284560536,0.131010783649539
4.81946176086332,2.21907063544274,9.56179309893432,1.17445634548273,1.23515001256408,9.21809613232418,6.78428350263497,2.1470746869544,9.50503441157661,2.2823802652944,8.48680881128348,0.104124117007603,0.133885338734113
4.83240510527978,2.22190251494366,9.58262501419188,1.14005246480348,1.25738439468402,9.24256137250821,6.78561984978985,2.14704674839807,9.52631454007611,2.26890149203879,8.45959954239873,0.103197562680951,0.140392931108647
4.81974997070992,2.2196151625703,9.56505880240176,1.17139855667531,1.23515607628385,9.22129240337494,6.78452392278702,2.1471068729359,9.50553641791477,2.28494354988271,8.48356965408789,0.105461368156455,0.132826893024512
4.81956787039072,2.21954476824081,9.56425519268145,1.17222748367949,1.2350554336531,9.22037953875364,6.7843907838186,2.14709922117947,9.50525976579092,2.28447478969462,8.48427961491284,0.105290838609928,0.13303315141433
4.81484718633155,2.2184207872111,9.55411118173943,1.18833283816638,1.22667937043275,9.21023000284717,6.78482766009741,2.1470590753268,9.49741322933683,2.28532272158957,8.49956182424825,0.102040346717458,0.131132210234433
4.81945758202005,2.21906997257637,9.56178624273362,1.17446821981702,1.23514317329384,9.21808877279497,6.78428335064025,2.14707495697346,9.50502803991049,2.28238338093,8.48681851132121,0.10412371124563,0.13388311095855
4.82608360584908,2.22254241233935,9.58236254208831,1.14792632820498,1.24541131753579,9.23892973872373,6.78521485109704,2.14685351211255,9.5157732506239,2.2856963308179,8.46204381638168,0.10941192769784,0.133503590995381
4.81975034193803,2.21961482761794,9.5650576817031,1.17139970887945,1.23515660048093,9.22129229640286,6.78452433122692,2.14710704076959,9.50553717528846,2.28494131520723,8.48357172837686,0.105459755337603,0.132827365651874
4.81954624704974,2.21953487422609,9.56418499031814,1.17231806429751,1.23502410673845,9.22030909190061,6.78438840119347,2.14709984928394,9.5052251466165,2.28445744862654,8.48436446724294,0.105270837219477,0.133035829254592
4.81525120543476,2.21847524175522,9.55467973107758,1.18723520864245,1.22735060653754,9.21080990065459,6.7848298301546,2.14700678310176,9.49799739297373,2.28494891277013,8.49868566986127,0.102048813615536,0.131401038481957
4.81945679203971,2.21906933014444,9.56178272573726,1.17447233361644,1.23514211237432,9.21808543275667,6.78428316922929,2.14707504483999,9.50502684022147,2.28238179330188,8.48682261183407,0.104122452021887,0.133883572875635
4.82620120463808,2.22253967947336,9.58250353249118,1.1476326259165,1.24562969493016,9.23910442082379,6.78519884629443,2.1468660588273,9.51598375715543,2.28554269811294,8.46180362407587,0.109412843839882,0.133590031315104
4.81974766169157,2.21961381244247,9.56505179535078,1.17140893586773,1.23515181121065,9.22128668123897,6.78452448372871,2.14710725856673,9.50553296303718,2.28494242587642,8.48358020648001,0.105458369995455,0.132826178121121
4.81955569387603,2.21953469683522,9.56418588755571,1.17230532858634,1.23504240182872,9.22031372937073,6.7843889445077,2.14709950609,9.50524017675372,2.28443306738568,8.48435916951079,0.105262530956863,0.133046422843447
4.81551419744526,2.21858702174965,9.55534602768799,1.18634596567714,1.22784900185398,9.21157105111498,6.78484608030348,2.14705740328841,9.49851566065482,2.28485354216324,8.49783916175408,0.102199476177268,0.131438614147192
4.81945797968589,2.21907026411022,9.56178778383432,1.17446639340562,1.23514384488421,9.21809036117619,6.78428340011277,2.14707499733332,9.50502878181311,2.2823837750499,8.48681667974225,0.104124210075258,0.13388297240468
4.82651070916692,2.22215735396533,9.58230785564234,1.14712131468701,1.24593323008194,9.2389372360132,6.78500571870236,2.14684620097816,9.51635815750052,2.28487481615174,8.46177667058954,0.109053989466036,0.134064706996217
4.81974722584221,2.21961347112971,9.56505017171877,1.17141127812507,1.23515097641713,9.22128547861547,6.78452465801785,2.14710737020293,9.50553234550813,2.28494190866012,8.4835827090922,0.105457527305798,0.132826082447446
4.819572966046,2.21954553091072,9.56426156610071,1.17221514231654,1.23506453262906,9.2203870536059,6.78439107838575,2.14709908098995,9.50526789008203,2.28446843754579,8.48426990966532,0.105290278285401,0.13303657280618
4.81535690093056,2.21862266759604,9.55555081781473,1.18631568152652,1.22750035163835,9.21162698444043,6.78482411998118,2.14703717880602,9.4982231337789,2.2855520096512,8.49763453369781,0.102504865500738,0.13119567026898
4.81946018941056,2.2190722769286,9.56180040750164,1.17445230688357,1.23514629356643,9.2181023098892,6.78428375142111,2.14707491562237,9.50503230636251,2.28239089119043,8.48680238755171,0.104129089283475,0.13388064479419
4.83293907454003,2.22194980274211,9.58328153001079,1.13863578589182,1.25835225517394,9.24320844833149,6.78556542351854,2.14700374531495,9.52712679699954,2.26832552669593,8.4584020000247,0.103266487198738,0.140813305356719
4.81974900027001,2.21961418180558,9.5650544542816,1.17140500279677,1.23515397477129,9.22128972194667,6.78452469125612,2.14710725862893,9.50553515622959,2.28494154200157,8.48357701412679,0.105458450266045,0.132826612072707
4.8196504190406,2.21957297675642,9.56447092826343,1.17192964110692,1.23518175967367,9.22060423045995,6.7843997685359,2.14709759827826,9.50539210426946,2.28448981036974,8.48401147978641,0.105339098782191,0.133042056179127
4.81091196086823,2.21737235233407,9.54655239696837,1.20021991490442,1.21981164097334,9.2020123386682,6.78465476689801,2.14705499923908,9.4908866630693,2.28780503850817,8.50994245812332,0.100972327553384,0.129471610262652
4.8195885725048,2.21915063845782,9.56229397812547,1.17385714082647,1.23532662982158,9.21859632065506,6.7843055004049,2.14707409682946,9.50524277529037,2.28255876327305,8.4862287135647,0.104282016979215,0.133832546505635
4.82450143388225,2.22073911551529,9.57380848156641,1.1571760172595,1.24327406152258,9.23066197620922,6.78465223300814,2.14697853504088,9.51315393415572,2.28174896938207,8.47140228827235,0.106488516565578,0.135057486043487
4.81974678688524,2.21961361697147,9.56505056291202,1.17141180319122,1.23514996343356,9.22128592078842,6.78452486252346,2.14710741641043,9.50553168773334,2.28494321982954,8.48358305683412,0.105457739077154,0.1328252866227
4.81958347457577,2.2195494807072,9.56429167485675,1.1721749642019,1.23508017947561,9.22041821626716,6.78439226627941,2.14709897577827,9.50528492173732,2.28447274161502,8.48423331494006,0.105297572992186,0.133036622848276
4.81570913439126,2.21878034371359,9.55649545071817,1.18503151930143,1.22809256202976,9.21260743007013,6.78485919855116,2.14703756938719,9.49881525395909,2.28558302049356,8.49643521797346,0.102740497424315,0.131235381391979
4.81953311345171,2.21911641891424,9.56206923665747,1.17412332716038,1.2352516582176,9.21837033628943,6.78429553231485,2.14707308724601,9.50515075176769,2.28247323490459,8.48648672296795,0.104210315722781,0.133858950098455
4.82807035000677,2.22274529346929,9.58399650401684,1.1440696388613,1.24931496880865,9.2414178356327,6.78530538158338,2.14700049143569,9.51927406897159,2.28189493674988,8.4592761686907,0.108622526907369,0.135133142798015
4.81974979542112,2.21961443212395,9.56505620502323,1.17140201338575,1.23515549884598,9.22129118814526,6.7845244646829,2.14710718572141,9.50553640284372,2.28494141917013,8.4835740347073,0.105459209736881,0.132827068139431
4.81959427349269,2.21955121034394,9.56430477956219,1.17214948276386,1.23509906781319,9.22043379324064,6.78439324911486,2.14709837006832,9.50530172138514,2.28445843425371,8.48421423678967,0.105295214558946,0.133043965911616
4.81584351890341,2.2188125870526,9.55671879209547,1.18462253991608,1.22839725330741,9.21283537734759,6.78482538666017,2.14705630805421,9.49907303270583,2.28548822648791,8.4959959249295,0.102861080902448,0.131326997888118
4.81950278007239,2.2191291348428,9.56216850793381,1.17404719665666,1.23517526895431,9.218416769241,6.78428271837708,2.14706429787061,9.50508711512161,2.28268781270817,8.48636026530957,0.10431999406196,0.1337958280165
4.8351634157327,2.22250728349403,9.58763002965637,1.13162971551166,1.26214458184645,9.24766206951489,6.78557742691204,2.14690331781969,9.5306224239681,2.26733777107634,8.45216511056142,0.104132343228616,0.141796700499041
4.81974064201349,2.21963636517528,9.56514723887503,1.17132081141755,1.23513446855577,9.22135215155996,6.78451779978099,2.14710292621041,9.50551909440955,2.28505132104208,8.48346378986467,0.105526075812832,0.132790515311021
4.81959291757271,2.2195529191395,9.56431666788972,1.17214093838963,1.23509486794024,9.22044462821551,6.7843933552289,2.14709900415406,9.50530048269141,2.2844738084687,8.48420275379245,0.105302796670167,0.133037472345067
4.815718254241,2.21892193855196,9.55708762864543,1.18438732188274,1.22818379256399,9.21301966866331,6.7847779363833,2.14704225767441,9.49886990551901,2.28618152982947,8.49551668612581,0.103274914462094,0.131093496432996
4.81951103075698,2.2191058661816,9.56200026476071,1.17421158095351,1.23521867097732,9.2182993119729,6.78429208966538,2.14707332273143,9.50511466540475,2.28246039619723,8.48656847621426,0.104192850580666,0.133861143037081
4.82900054493777,2.22244931610286,9.5849481137304,1.14116031857464,1.25069145824579,9.24188162249019,6.78485749303651,2.14677231917352,9.52034834764008,2.28139309613184,8.45684530613215,0.108990066021293,0.136120251205504
4.81977417319011,2.21962603677564,9.56512820851961,1.17130265996891,1.2351949837493,9.22135981881602,6.78452438587054,2.14710539341798,9.50557466181298,2.28495191544862,8.48347946907381,0.105481172179349,0.132829665563654
4.81965542369494,2.21958185996513,9.5645304927423,1.17186954766629,1.23518245848401,9.22065847239686,6.7844009730417,2.14709756915023,9.5054002852653,2.28454037891396,8.48394531869754,0.105368764338298,0.133024376700778
4.81596276266169,2.21895542961677,9.55749664922427,1.18361191521229,1.22859911214922,9.21338328544762,6.78473946418529,2.14700812110868,9.49922060631787,2.28604715947744,8.49483167173637,0.103373791895944,0.131257213266781
4.81965114629012,2.2191931819595,9.5625336132608,1.17356318779114,1.23541875769858,9.21882790832638,6.78431409224637,2.14706966757765,9.50534192011425,2.28263644941843,8.48594262404311,0.104359115168717,0.133813610301505
4.82537767937899,2.22245480117985,9.58158204770811,1.14953814486554,1.24412455310719,9.23796218410126,6.78518355072333,2.14685985161698,9.51462652730203,2.28672410826446,8.46326896699209,0.109562270312047,0.132987399747265
4.81976646117845,2.21962882460996,9.56516093053318,1.17127524106819,1.23516914716346,9.22137670751774,6.78452167801964,2.14710065454984,9.50555524219741,2.28501402507254,8.48344482312883,0.105507548382489,0.132810525323555
4.81973998280417,2.2196008025248,9.56466011720066,1.17164584055687,1.23532612443918,9.22080418200319,6.78440884398515,2.14709216707977,9.50553195166984,2.28444875974594,8.48377146215808,0.1053595340987,0.133072263741449
4.81118333345714,2.21786370002119,9.54896871951182,1.19760416576343,1.22024258383194,9.20408676030583,6.78462294927076,2.1470419609537,9.49137316538317,2.28962382739155,8.5068504740868,0.102391997686024,0.128941221834405
4.81970092306003,2.21919304811169,9.56255376626564,1.17347778297732,1.23551597023968,9.21886375379429,6.78431329692744,2.14706896012843,9.50542348382358,2.28252746321113,8.48588899513416,0.104331434018886,0.13386489381755
4.82600980904625,2.2222034990172,9.58203659822245,1.14817762940028,1.244970854383,9.23862231897268,6.78510516145817,2.14686773692155,9.51556793133786,2.28577017261492,8.46257675718046,0.109157970233286,0.13352603138786
4.82037315364853,2.21983477535941,9.56655748459745,1.1692036253785,1.23618142221227,9.22280038308323,6.78453897585354,2.14707626410946,9.50652883986623,2.28485152718968,8.48159328531181,0.105782120647371,0.132997831406086
4.82006858213017,2.21972116613711,9.56554972049852,1.17041372279354,1.23583208317493,9.22170491805786,6.78443246136372,2.14707933515312,9.5060531592617,2.2845368524213,8.4826463033611,0.105580371750192,0.133107850435619
4.81649158233098,2.21889990332613,9.55743345004618,1.18320339087912,1.22953237786753,9.21377648084268,6.78489913050506,2.1470448546067,9.50012117944896,2.28445978608315,8.49502619552704,0.102590731571973,0.131775137846729
4.81978746848324,2.21919328734431,9.56260094695886,1.17333820539982,1.23567191807312,9.21895788762039,6.78432486945098,2.14707256191004,9.50556865667663,2.28233867826998,8.4858203061332,0.104263166859355,0.133939034353206
4.82199472168388,2.2237159760791,9.58115266248455,1.15547159652226,1.23857457442933,9.23703133532955,6.78580306224562,2.14695847863451,9.50970544160166,2.29352198869403,8.46632812182311,0.111645695695541,0.129069349146841
4.82019393599854,2.21975101982249,9.56595955330432,1.16999838639413,1.23591492730558,9.22222604038933,6.78454535716954,2.14708683965801,9.50624032640752,2.28472850115887,8.48233430717614,0.105612427324137,0.133005363523013
4.81972065049685,2.21959029113432,9.56460846684537,1.17170977345642,1.23529668587572,9.220746189843,6.78440216588593,2.14709249871214,9.50550017431776,2.28445487631223,8.48382375388943,0.105357676612224,0.133072270414122
4.81623494322078,2.2190611111945,9.55799279471716,1.18306801298226,1.22903157442475,9.21419086804989,6.78490248287171,2.14706853168218,9.49976993202194,2.28555652016365,8.49458295909417,0.103092343384587,0.131272362755852
4.82061605009592,2.21973842292055,9.56563469985162,1.16954747859757,1.23693842845125,9.22188406256618,6.7844026215166,2.14702489680981,9.50689032602106,2.28317479576438,8.48214192909761,0.105214932333827,0.133770248938616
4.82978596258939,2.22264849340345,9.58556411539358,1.13976457123832,1.25186116707405,9.24267901422887,6.78519320605183,2.14649461477595,9.52127085959505,2.28004841575443,8.45627740013972,0.108274684268476,0.1367008512722
4.82015471599551,2.21980759491122,9.56619075949671,1.16987011355234,1.23580532472223,9.22243332331884,6.78456789354226,2.14708658037058,9.50618290323871,2.28502618966724,8.48216017222958,0.105732464155632,0.132862219685026
4.82190050889655,2.22002781851526,9.56804807098371,1.16587565090564,1.23904281057864,9.22470117603587,6.78457374244897,2.14705669454566,9.50903187072033,2.28225769761854,8.47915747693732,0.105289545186812,0.13422915213921
4.81852481806166,2.21947891466669,9.56180520297055,1.1764885382602,1.23310390168463,9.21832131560227,6.78486542085985,2.14706457733258,9.50352755866535,2.28376962903046,8.48885951180069,0.103638194677591,0.132522261928164
4.81742309119486,2.21896843817949,9.56039181544211,1.17821711132141,1.23144647092849,9.21591002546451,6.78410705583388,2.14710537567013,9.50173437135543,2.28640157740813,8.48907184627268,0.105347811281403,0.132134091020847
4.84084817960154,2.22324600623308,9.59641507474585,1.11401793183613,1.27078468183635,9.25456995587922,6.78518940069308,2.14516042613194,9.53728806001252,2.2648840621202,8.43749578585397,0.10571832093863,0.14582364596752
4.8235491179226,2.22065874508599,9.57234087814448,1.15986111305786,1.24165960905904,9.2290374838183,6.78471634531885,2.14698220387702,9.51162141441564,2.28258791573742,8.47360800328278,0.106394690825884,0.134474851372669
4.82004974784324,2.21971205304294,9.5654347227107,1.17049715291677,1.23581312698381,9.221536366421,6.78441056597837,2.14705222421896,9.50598651329886,2.28448692291779,8.48272512326171,0.105559925541738,0.133156187457706
4.8179245353074,2.21924741531457,9.56025076112006,1.17858656397626,1.23200759038976,9.21657802939352,6.78484530662489,2.14697119181195,9.50236919977371,2.28388959032115,8.49084320276601,0.103262006398228,0.132441900770575
4.82474182246607,2.22064160855661,9.57348107108334,1.15704570412609,1.24384748078859,9.23038732510171,6.78454211355555,2.14697233711789,9.51359510980071,2.28062824924091,8.47152280088432,0.106107747201545,0.135529868749469
4.82564259823746,2.22101092046279,9.57611928256496,1.15301130836887,1.2451416041165,9.23240924812028,6.78446179977089,2.14665587961746,9.51458091669996,2.28183021899368,8.46748390762405,0.107401692974242,0.13572420428983
4.82953188441484,2.22196415173006,9.58390151458705,1.14059804901827,1.2514385677449,9.24034006667762,6.78457731106393,2.14633370535439,9.52048541080308,2.28031260893163,8.45675851537817,0.108668086226426,0.137330231799035
4.83589849394976,2.223251711912,9.58523942051029,1.12928771772119,1.2647565250294,9.24053266639697,6.78409106033028,2.14459955349275,9.52888866586283,2.26697234355261,8.44790554898555,0.106954354353132,0.145398674765505
4.81902218459362,2.22020537225459,9.56141055315555,1.17504033156641,1.23537703470106,9.21668552055141,6.78413868783678,2.14674029101952,9.5035488799814,2.28312604507432,8.4857799356232,0.105296311057724,0.13422137332884
4.83049744574434,2.22334155979286,9.58211640605867,1.13888221479215,1.25654263649654,9.23618103972211,6.78309922872417,2.14573730492075,9.52141610354086,2.27709003432345,8.45198697278045,0.111373648642607,0.140748011409164
4.82365651227073,2.23000205295447,9.58007989986648,1.13706845342424,1.2575986251878,9.21147935151323,6.77646443728047,2.14113707787594,9.50533320605559,2.29798148097045,8.42488722002524,0.139549463248673,0.140205879175127
4.87545102283495,2.26290585335203,9.50284411087463,1.1842798879147,1.35714262808961,9.18316282798082,6.75796626630634,2.16886309918417,9.4335146911428,2.33518113720768,8.36861014803541,0.21298992339735,0.21537054706322
4.52825130702119,2.88254628811214,9.35540756941875,1.82671150592344,1.41656751799402,8.86176733158594,6.84990076858147,2.14216491014085,8.8983683250236,2.67692345986578,7.99711254064241,0.695536445663814,0.201043764643902
4.82768188950793,2.23232693692416,9.56288419309449,1.14976430558909,1.26908665922379,9.22492699788286,6.77370063423102,2.14250798513987,9.52130385225798,2.28954907507234,8.45376176301568,0.122768554636987,0.148336645954795
4.84218556357112,2.23383475659373,9.55806730140163,1.14457942320495,1.27389207353408,9.20496875181688,6.78126354188975,2.15200051763027,9.48614233419612,2.28754356500729,8.42854767498957,0.142100217218138,0.166359203819295
4.75358608359335,2.35395836979983,9.50590151229455,1.35680481843179,1.34395357800476,9.11300490330639,6.83122803299129,2.10684574815856,9.34417800891587,2.39094531569825,8.22499876002236,0.350930492816112,0.164152058205586
