"fastcoef_sq","pref_flow_den","slowcoef_sq","soil_moist_max","soil2gw_max","fastcoef_lin","gwflow_coef","jh_coef","slowcoef_lin","sat_threshold","carea_max","smidx_coef","smidx_exp"
4.82122303228476,2.44853109389337,9.63856826071857,1.04156684392052,1.47787121016,9.05794247414976,6.79239502902178,2.02515501767069,9.48145268698381,2.27648544647298,8.07896890396509,0.383140669561327,0.180125357704945
4.75825450862388,2.68087994797743,9.48803133718102,1.3040293345794,1.67627798977667,8.92073336320142,6.77325183886092,2.14289264451571,9.2801625524428,2.34888796955389,7.91291346477303,0.564283982423343,0.25944884342146
4.74793496670171,2.72419323109213,9.5472668627387,1.21467007527481,1.60653050039462,8.90860495711604,6.80309989681307,2.05397882830085,9.21265174934924,2.42144282285876,7.84819616231722,0.617125310100261,0.246149330806309
4.7825635646817,2.67045560394045,9.60912942569674,1.06469894462993,1.67513765195287,8.80658526336673,6.74527153112426,2.03904533582978,9.26917076241588,2.48103914820016,7.63607492340391,0.777234428004085,0.281555082809806
4.76167030697617,2.69320082660422,9.57062882358782,1.12074972278337,1.63476720257827,8.84838037559128,6.75521687667737,2.04669829540673,9.23059764586637,2.47506562701271,7.70364569335768,0.72705640923897,0.271364554533474
4.76978165956591,2.68857645916257,9.59837715716106,1.12082534452008,1.63206207864412,8.86621401190751,6.78370858467327,2.03012231169609,9.26631461529706,2.43988234484673,7.76719851950793,0.673793983653646,0.2441128176203
4.73107543282506,2.7430521575184,9.55186966908485,1.19610620428519,1.61856454641711,8.88081408465969,6.78286246062333,2.04579063233408,9.19112040520096,2.4644042822711,7.77946016730789,0.676391576140982,0.253539848947157
4.72451248389469,2.809986555513,9.50393221885117,1.32800670232196,1.62020667549919,8.92802072977584,6.84975707510054,2.06509303496661,9.15168389325499,2.38640678018038,7.91251328443894,0.576506264295364,0.248761152530081
4.79125225299142,2.56171521512278,9.62662862721529,0.969655156959203,1.63443072668253,8.83426360576398,6.70180234651874,2.04012368052334,9.33350359939655,2.48092281797686,7.64468204275117,0.739267109904425,0.283435021185479
4.72639926427421,2.80005637353187,9.51915405323193,1.28378359117829,1.62793918635937,8.90379127171406,6.82080235115921,2.05936455632168,9.15600799438197,2.4264319462381,7.84779233372237,0.632106467682885,0.250911864444279
4.70977178144055,2.79767410042026,9.54468251530511,1.25372001770386,1.6280465679604,8.89283710327847,6.80318597916245,2.03853138689899,9.17995723733227,2.44472361904,7.81062484966733,0.669244615390955,0.240002303190563
4.75569825351094,2.64543356274524,9.60839016402085,1.04385708909884,1.60641451095899,8.89182733576547,6.72742970064778,2.01547972120759,9.30619582414377,2.46465111960989,7.72340502818403,0.697313234872818,0.239114234203536
4.73010909799024,2.78639301743948,9.53380909061766,1.24253316889815,1.63850357943607,8.87131466899126,6.80070123028639,2.05439895748434,9.15951039647891,2.45872101961772,7.78203293579304,0.682460444586993,0.258819056220066
4.77504069089615,2.59510837649112,9.62638009005228,1.00032754416338,1.60551324092937,8.85292947053077,6.71281769978281,2.02425614866935,9.31224837646762,2.49658338689487,7.67761905435873,0.73176314851108,0.25395261516676
4.71294383147534,2.86746885110667,9.48750221772805,1.35877289840281,1.6526575728368,8.89796977853226,6.83688185339521,2.06753531038064,9.10470826567184,2.43002392080482,7.83962293311116,0.654563687221069,0.259640227270306
4.77394110647501,2.68554135765722,9.6158162513292,1.05923144180977,1.66804758764223,8.81088708633286,6.74905977587475,2.02433258540351,9.26696050196396,2.48825798155914,7.64377202697457,0.771270398940212,0.265471879239971
4.71428881434022,2.84439107874406,9.49770471530606,1.33834109583944,1.63350507035488,8.91767370337768,6.83974219841233,2.06466618053602,9.12610500168842,2.41242678375028,7.88069482254611,0.61384328519894,0.249533982335984
4.70424558159004,2.83729885823374,9.5077249216446,1.34951235331162,1.61951446738887,8.91880911867807,6.83751599152943,2.05651834461659,9.13804631495066,2.41992424785325,7.88082426822334,0.625160375471395,0.23660111705845
4.70222563646208,2.84221895534832,9.49595814328075,1.33315058101315,1.62144738230112,8.90524124501496,6.82103735330504,2.06411347339175,9.10881137856929,2.4510378618886,7.84601460423925,0.647331289626488,0.248861848285662
4.71180118061286,2.84876799654342,9.5204893854764,1.27093184319625,1.67028604034479,8.83424185392939,6.79815336292398,2.05480270857904,9.10651287615098,2.49620100967895,7.71584360769817,0.74826570451615,0.271294427385306
4.7376760399688,2.67575868460427,9.61346470088841,1.0604847644682,1.61213795541936,8.80976084702405,6.68390585543941,2.02477744927157,9.23785830984678,2.5983750420761,7.58943182602526,0.856355263336698,0.235178038860372
4.76841119427523,2.60861557428674,9.6490035498344,0.972255131831969,1.60409691872076,8.81380666093409,6.68412767332477,2.00808601807239,9.29536123588137,2.56958647103151,7.58769498140367,0.828269279899598,0.24362263945377
4.73396546128113,2.63900801883526,9.63256834550953,1.00654398064355,1.59846786312371,8.81118043218839,6.65377489392141,2.01616452762875,9.25865686742326,2.62424997546261,7.5569153587683,0.876970507129806,0.235088083362456
4.70014575480356,2.87895785527251,9.49308766637089,1.35720230043113,1.64677320769905,8.90080611738743,6.83854657480338,2.06204580164739,9.1000171759834,2.4332838948888,7.84788687285702,0.65012239065814,0.252509510872452
4.65692726678888,2.90866232318144,9.37111429346124,1.59325144213113,1.7846970556112,8.96735719231434,6.6388982854146,2.23890882529977,9.05153493506958,2.48173623754195,7.63002442315987,0.968905468399879,0.421331835413742
4.80628572740678,3.13416171259065,8.37832590215681,2.15741994067823,2.4790327622753,8.7818848221208,6.84205788483122,2.09487346022286,8.99561710961236,3.09772056639227,7.31181873470069,1.63319474517517,0.717480120826388
6.48212444190325,3.57744920746738,6.38486344597354,2.16243562408973,3.49008741866709,5.44451737046437,6.89113146913158,2.86796979723115,5.18339847745441,2.86114603807949,6.36662127347619,3.20830144760837,3.41730038318182
