"fastcoef_sq","pref_flow_den","slowcoef_sq","soil_moist_max","soil2gw_max","fastcoef_lin","gwflow_coef","jh_coef","slowcoef_lin","sat_threshold","carea_max","smidx_coef","smidx_exp"
6.66643427212969,9.5265377368486,5.62556538618234,2.91746878748701,5.74021832068296,2.64910014367147,4.87953002722602,1.57472563887286,5.62263585390178,0.534962642997274,0.335888975025599,7.10877755859196,5.48614841045499
8.53508400812958,9.65444963026463,2.68325453151864,5.83511059275434,9.10142680409038,7.66743386595604,9.85185209084782,6.13790398943524,1.41042903263202,1.11904199030321,7.49119154937224,3.14584014086542,0.351148007533212
7.10952091246359,9.65120558932199,5.29254224987093,5.96657132179739,6.34270623747571,5.66166432542224,7.28802102735114,2.89527254865492,4.07917737354792,2.95204554908526,0.8130674253005,6.03076686958702,3.31148832726376
3.68667387009582,5.25111839927423,4.58219442211458,5.57264990074018,3.79918040076502,5.8316764272304,3.76476205174667,4.5506830995723,3.35454154395276,4.00400728516881,0.613657594175617,7.62182794333732,6.06312230119579
1,1,1,1,1,1,1,1,1,1,1,1,1
4.02223057616684,0.314468956388418,6.92553159667063,4.03239965335126,6.79988071758589,3.15784084279504,3.15266000819136,8.35082132009253,4.94225254400732,6.79992326503946,2.5287771178326,9.82283107853415,8.37589119767084
9.77965148207631,2.31593951038901,2.46279343005085,4.29762956563293,5.23072142984603,2.99880814852193,2.84298916498529,7.704601513776,9.75399606540997,0.690853425846812,3.35686439002485,4.85983989844139,5.41386145216787
2.83139524517794,2.4260952589469,4.13294642061103,6.7043184606087,5.28649263902517,3.72100221859521,3.52819055416783,8.14581313809084,6.15486499322992,1.15205070016559,4.29316323922839,4.78336948408151,3.75181660957062
0.646250888250004,3.68798094927448,3.20953683588158,0.714850932965618,1.57765895259428,4.2624806331294,9.2727793669322,1.72314570280738,1.20432934595475,1.08878872015712,2.10111192214944,4.695071591527,7.92876141845741
6.68425049175317,3.39977770700871,3.70458240030642,6.2153115914495,6.96721417769702,4.48630347839778,5.53644633381268,5.31399601282917,2.97045561113842,2.9916653734112,2.26642879293134,3.19424641629103,5.88545121366208
4.3690681946375,3.47741103835083,5.09267750862978,6.082576735846,9.63708829128004,4.40336319975097,3.73578283131928,8.05349323066784,8.9689088203926,2.08910528874815,2.78638607525874,4.47864875769961,3.74347795820595
8.6059714193524,7.27344739718293,2.63394384733668,3.40268048897006,6.99527632658163,6.07683114923131,0.605356327078099,7.40039662518548,2.71235560366874,2.73340174168674,1.87187801936102,1.87744869124872,4.8155871250609
4.42431400679668,3.70276278264549,3.10198108230385,2.57096302733686,5.91428743028252,3.02035484102026,8.18349101366662,7.87721735479477,4.87207163989299,0.946495425382894,4.59402756091016,5.80292643771466,1.47979002589381
4.69182281178585,4.29251631345895,3.89829082224568,5.57076510504699,3.81733011785171,8.37476797976046,8.02651352775874,7.3442708270195,5.41502677670118,2.1678405652741,2.83325926463693,3.42621435396667,4.42223138476926
4.91989508115126,6.69571020052871,4.6566968206403,2.18983130776669,4.06458996913203,3.87900507068097,4.49523626463495,5.36566084874519,5.11687804061674,1.27216880215585,1.99344539262106,5.04403767646517,4.96408499379793
6.17456658305178,5.17864452072026,4.60040736962858,6.46802453046263,5.63435294866284,6.35959218866971,5.45579322268292,6.49230001751236,4.59745096363712,3.00178024049273,4.03108025259152,3.60792918515103,4.39310391604332
4.61122987737138,6.42534091073477,3.27332254274784,6.33950708882338,5.32629516961305,4.82385691018991,5.51316826803307,1.90948297435411,3.99215744647284,0.363497438268167,4.5787737854374,4.37737775287607,3.61414694835693
8.04651150145551,5.59766605072272,6.37253286606385,5.16238252321197,4.44453421686682,3.37475905374784,6.01279092144662,4.14981770042823,7.21432840143809,2.69397948814472,4.02635565934129,5.09411442922811,5.06225389133412
6.41238960062942,5.79275718491101,7.25504086095938,4.09017639222393,4.58697066609342,4.31074848892013,4.40188337033779,4.26012688151098,3.4554201084781,3.44835821771766,5.1679444875128,5.03044917145007,5.04037930625611
6.74199083009879,5.64764567669369,4.37646383492434,3.49569858857962,5.17533386675995,5.21230042165587,4.74188201700847,5.47495827011737,4.73004588504079,1.27592600715927,3.13524367487298,5.00726615331819,5.0253640296173
3.64679914011362,8.06042532863704,6.03962247457546,8.13224083576087,7.82473504665779,1.74200563165151,10,2.79698101750884,7.53313916342944,3.97947039125015,5.84873766522237,4.39936562159349,2.34434736213159
7.73372326266982,6.38790360161817,7.28585288012453,5.60152741011781,5.21981510645017,2.49568794206289,6.15135488022461,4.45589917307421,5.16184540036837,0.898268489779608,4.98873660603983,5.58228494645411,4.89030814610499
4.78710387656839,5.704372241875,3.39255682366576,4.02543722905177,6.45119934313212,4.39064777461362,4.41856326402657,5.66154493887529,5.80982020476074,0.684230455298726,3.18318904324729,7.3558378551064,5.72499828124068
2.72981153661133,4.54124055440891,3.55439434013236,5.98183421142617,1.21219782144333,4.26339350601517,6.59930377783627,6.97923084924694,3.77944792556716,2.84518355993883,4.67932586772343,7.09514392463365,4.93855661582628
6.87850148187411,5.55929549764024,5.80873181105448,3.55067959797757,5.7872576760106,3.04857129281598,4.71269704624401,2.92196047368241,4.09481481084151,0.759576989470662,2.87764912145028,5.93363661941885,4.20311878440116
3.45874263865068,5.85188917782881,5.32374479684959,4.66640139878817,7.22252188748238,8.55735243090253,8.83132910164072,3.29250416276576,0.865432444613665,5.18002578524625,8.76134362530202,9.10044071691641,3.89697890390223
7.87410643379239,7.85633047342391,4.94431781799724,1.87549066848942,3.38923360529043,1.84490969201932,6.47611407262803,2.06903668213913,3.79120190423836,1.83054551069317,2.90554197041044,6.86617824029282,3.12480849884891
