"fastcoef_sq","pref_flow_den","slowcoef_sq","soil_moist_max","soil2gw_max","fastcoef_lin","gwflow_coef","jh_coef","slowcoef_lin","sat_threshold","carea_max","smidx_coef","smidx_exp"
4.75825450862388,2.68087994797743,9.48803133718102,1.3040293345794,1.67627798977667,8.92073336320142,6.77325183886092,2.14289264451571,9.2801625524428,2.34888796955389,7.91291346477303,0.564283982423343,0.25944884342146
4.73831693129409,2.6885339629813,9.46293186311815,1.32408870099138,1.5729322247726,9.02501476634056,6.68207463834149,2.14024634685106,9.19080173118816,2.42620426462254,7.89228040396598,0.624748493825184,0.284311409714859
4.7825635646817,2.67045560394045,9.60912942569674,1.06469894462993,1.67513765195287,8.80658526336673,6.74527153112426,2.03904533582978,9.26917076241588,2.48103914820016,7.63607492340391,0.777234428004085,0.281555082809806
4.63446217618845,2.62210582174584,9.52219394565491,1.06245509258308,1.48308605791787,8.76915459309522,6.47935128035062,2.07181635116743,9.02555183351076,2.93340261452585,7.33763296878638,1.10009817245346,0.260895068920138
4.73010909799024,2.78639301743948,9.53380909061766,1.24253316889815,1.63850357943607,8.87131466899126,6.80070123028639,2.05439895748434,9.15951039647891,2.45872101961772,7.78203293579304,0.682460444586993,0.258819056220066
4.71294383147534,2.86746885110667,9.48750221772805,1.35877289840281,1.6526575728368,8.89796977853226,6.83688185339521,2.06753531038064,9.10470826567184,2.43002392080482,7.83962293311116,0.654563687221069,0.259640227270306
4.70222563646208,2.84221895534832,9.49595814328075,1.33315058101315,1.62144738230112,8.90524124501496,6.82103735330504,2.06411347339175,9.10881137856929,2.4510378618886,7.84601460423925,0.647331289626488,0.248861848285662
4.62754059181578,2.747186376844,9.58509543478475,1.1405861158475,1.5421226396185,8.81312264757945,6.58171124204197,2.07539603414314,9.04840215321458,2.89994970334755,7.43729236638542,1.07221187771324,0.236066376201102
4.61588643609917,2.78813223574859,9.56303982760409,1.18459294756596,1.54894252179222,8.82517558180993,6.60605192731118,2.07891653718852,9.02726641902782,2.87191706251354,7.48377332225812,1.03585958130007,0.241464631003112
4.54717989292229,3.02148430276412,9.53580770196463,1.31828839773514,1.76752024998858,8.66139431012087,6.57961529374247,2.06046315916435,8.93392581367778,2.93433878804037,7.13658859044351,1.41761019871265,0.298530105353949
4.58275874584069,2.84624781820228,9.70095609530565,1.08859635867609,1.61512384694434,8.88239052892032,6.60699848164231,1.91391289413044,9.22291268699734,2.73161041812744,7.45375685842111,1.10024340408108,0.162411476258884
4.54530011471109,2.98983483216854,9.61691212914595,1.2864209821606,1.6259403676461,8.87110724602382,6.73034316754977,1.93573220316918,9.06760313641236,2.67210071939252,7.60714486663554,0.98135150394552,0.167730772567129
4.61143224306246,3.11961654819154,9.44196104825325,1.34449164243527,1.92798198402916,8.54264046451251,6.60055279258645,2.10756316934734,8.79489392964085,2.86319430645747,7.00316448038272,1.42101537560999,0.44813284562382
4.57090054637334,3.07105718644198,9.5738705888825,1.29673089946889,1.70860578346539,8.66974619605094,6.75824211656468,1.97694462095055,8.94094832625064,2.8203623671977,7.38540894797337,1.1380481756133,0.201580435002435
4.55997416119732,3.07197786938625,9.60325165030758,1.28410110847944,1.7090642621195,8.67334672922318,6.75668175686814,1.95641576363259,8.976920752316,2.81559100638798,7.37909751106387,1.15710886810027,0.18411234086814
4.56965373334219,3.06077070665686,9.58692875960946,1.2674643768064,1.70909811317807,8.65800409653675,6.73612230689354,1.97135013868134,8.94921116537308,2.84849383457495,7.34483435715441,1.17685807215006,0.199396809002236
4.58306021813065,3.11436398920233,9.52382714773062,1.33256696615383,1.75550708498355,8.64968042140573,6.73608579771479,2.00884076730108,8.88747345664293,2.80729239609175,7.3381826922351,1.16331252354678,0.253491529463633
4.57086268770532,3.01599567877879,9.61944945484235,1.13385225054839,1.76101025151611,8.55223590650577,6.62166866983703,1.95952575395648,8.9380550200097,2.93957511115245,7.07462787024565,1.38538943225069,0.274261236551854
4.60870222285421,3.13506458883688,9.42667446702495,1.39235561525368,1.91677111960436,8.57887364407896,6.62383311719126,2.11346615114315,8.79337904976357,2.82565152685429,7.07863254164392,1.36561315396949,0.437623425491442
4.60577571459808,3.13600982434624,9.40435705785066,1.45399070772181,1.8912045262825,8.62859710075728,6.63800384016835,2.1240161103914,8.79825777383067,2.7868992760418,7.16669978077944,1.30894448741654,0.432938580256399
4.60991531922117,3.13717851278412,9.43732961990379,1.37123096944841,1.91365635200911,8.56200663123739,6.63374293003839,2.10119894493271,8.79279599339543,2.83241464055231,7.06969373978099,1.36380321950111,0.430947587615644
4.62859873127269,3.11124610714212,9.45277713613985,1.28655689487883,1.91003365918412,8.53111894218501,6.60277577161021,2.03527997620693,8.83091377831733,2.84571127246704,7.0211946691074,1.38922319741458,0.429613046000689
4.60239482658125,3.05512290310283,9.44588350028643,1.24001289598217,1.93985753690109,8.46389613084724,6.4910795423947,2.12016714645026,8.77182905523542,2.99106871267783,6.78379909934352,1.59277585807913,0.498447243576535
4.63438387983512,3.15079194246472,9.55576130718319,1.26635870546439,1.79499136762544,8.69705276245429,6.74819666775552,1.95787793592882,8.94253213870388,2.74103728010657,7.27352049997296,1.10499962956218,0.205892438926015
4.59067936209426,3.30883843731295,9.33301033663752,1.70273470635549,1.80668812662495,8.75164356518125,6.91315399056564,2.10315181421386,8.72110504661896,2.55594641566448,7.67337188096642,0.863616567180259,0.317533988475363
4.57352049280512,3.41420187889641,8.90006523577291,2.22870843042993,1.85325732216578,8.83923472240959,7.05685646959893,2.38289948312888,8.53128622847469,2.18915885412552,8.06458675617648,0.697765834618339,0.400782515695315
3.63172266049744,4.86700761827793,8.68863340815522,3.86281336126907,1.92495297266582,7.75189979261736,7.04737051493868,2.1324261060804,7.04802151063111,3.86230375354189,6.59884405296431,2.45716835644038,0.391839546405991
