"fastcoef_sq","pref_flow_den","slowcoef_sq","soil_moist_max","soil2gw_max","fastcoef_lin","gwflow_coef","jh_coef","slowcoef_lin","sat_threshold","carea_max","smidx_coef","smidx_exp"
4.65216675753832,0.62826212983502,9.09255416741902,1.04271293338289,3.9537561768615,8.43749138968742,2.01991535016211,4.48883852522793,9.99578221244402,4.99025803168834,0.456793945811249,8.5935343020511,3.2820245501061
4.8926333232,2.19610346990332,8.42425688729683,3.27532010891074,4.75293020469201,6.08068556566514,2.4731395387402,4.3041486066719,7.58836108638017,3.34056996458546,1.01979671558777,5.45694948405348,2.57919202561356
6.21132504150224,3.88839612954343,6.90586557970162,3.07484292618336,6.63928649888062,4.27654386413976,1.87612880420761,5.53659949017732,9.14248732234501,7.29731323332775,0.550276920690158,8.07672059027342,6.40623068484512
3.03112274530269,8.21675587535704,0.395254961506,6.1801389709712,4.02568456809405,3.89502639502054,7.83443907204779,3.44527053132258,1.00718151759236,7.91685513454795,1.04525457481307,0.89169373969406,2.53692802311801
5.48617514849365,2.2114427248384,3.35145887607851,1.50325798332904,3.10687735342628,3.46430257624923,4.57307141601325,8.52254747143824,0.1,5.33397246184627,4.02908811882507,1.26268844084443,6.12776325147214
5.66923925549916,2.4958117341476,7.62184952261767,4.2527570798259,2.65402181143147,2.19435450824963,1.40112808244553,4.90047084797298,7.94986761319101,5.12028230421797,1.54148931499136,2.18972609714624,3.86179483436473
3.12346702163519,0.544564471895267,5.89366730650734,6.27196515685729,7.99243023745336,2.01858520776512,7.48819957215553,4.03284012449599,3.17072498068132,6.0827309491197,5.73664446748386,2.64961373845688,3.6121720307172
2.28093213374963,1.95791235520471,3.7208559502116,7.22760800890443,6.70202997415147,5.76337725115599,1.21946866060922,2.69223337969807,2.98682927964963,7.06985811792426,3.13879778353837,6.80763217638237,0.822578640057385
4.26137025660402,1.44181041875814,5.41043361543149,4.85752632881008,5.1430172855098,4.23034105912967,4.76306268332575,3.02593068959368,6.31083975889142,7.39080199128731,4.82297609862489,2.15369344020447,2.1717334260629
3.24502791090158,1.74275050429426,4.84265693084692,4.80236598405992,5.47726969152722,2.42499116721185,3.9492059642362,6.86890210807886,3.71941220846089,6.49491677152691,5.598162411579,4.20068572877987,4.047694322026
5.25837948633123,2.5771152432693,7.10128183556627,4.45327627794517,4.87694029092114,5.30984645704193,2.0331319715527,6.76336330107922,6.65843083423992,6.5632882983674,3.3293605442346,3.80030036019261,1.23893312077464
5.02041240720266,1.04540227856527,6.56469913261131,4.52691002361033,5.90891930184052,3.84566080263756,3.4743153126202,5.20493772768188,4.69172917669824,5.65376957531177,3.22874074507095,4.65683483057696,1.75960023350276
6.4324318893438,0.535614778450461,6.50182195200063,4.03140259485892,2.31377936395515,4.9766893487172,2.82105827432408,5.13486854486747,9.78219347285807,6.65001249625613,2.88939232619727,5.35039673020775,2.86868757609004
2.60223734385803,2.2325251008918,7.53087003213571,4.25900241162577,1.9835134329308,5.15250271090738,3.20471708169441,7.10605433115228,5.75669701504911,9.59535147386956,2.80897787906884,6.28597138212628,1.27665328582928
5.91520831788924,1.17258786751317,5.84433793460209,1.95850744239274,5.76995626710413,6.38469367749518,2.63584083499054,4.86992263946813,8.12058587835372,6.48262706131687,3.70550524191187,5.32459446018461,2.81676592207431
2.37608337876916,1.66895664410064,5.15527163915088,2.92900649610941,5.92308256784687,4.82133594425183,5.1090414485479,6.98417095786153,9.4248263150544,4.40445166581374,5.15426123045379,4.80472637767998,1.95567844831724
7.31795789394367,1.21525830038039,9.3188729690395,1.12868188986141,5.0893694471852,5.00076993218426,4.33945164559601,5.34552000307506,7.51158737619728,5.42244596915369,4.1590352725991,7.53990067584417,3.68682281636665
4.91960580591025,0.828069471405312,6.49873618124667,7.12323940518983,5.10050267743199,3.23983110668014,5.43662418257803,2.11609508015671,0.417505028753823,1.49433882458646,7.37274265046688,1.98114583944496,5.30425217502097
3.91715450048059,0.615408678816118,3.99305314151235,5.88129532028936,4.60081096473717,5.26513661596405,8.32583631134941,8.5530386657815,5.23785960636948,7.69387854858404,3.10724985816986,6.02399841577379,1.89758448569264
6.2730524684095,0.671581145907093,8.19416721759549,2.06989077930299,5.01549444587555,8.89234283521866,2.62556583502839,3.85134929777178,9.37554618050352,4.1602431815396,2.01730088134358,7.33326574711956,1.69593926514653
5.73723229952524,0.19673442087865,7.86945755400793,8.87037000426074,6.63381372995549,7.83625048141727,9.91814998061822,8.44185682460113,2.41700405849497,9.1330415811778,4.9509691484558,8.37099845749162,3.2303926057874
2.50123066893259,5.33106527870762,8.49736912447837,7.44255536806391,3.24576759886991,9.18024039542556,7.56411349381707,9.72114566342486,3.0757373364283,5.63495517551069,5.97889014684616,3.31898065863,1.45668761118395
4.18129764667519,1.68557770976518,6.19433973324581,2.58015522182093,4.86331068167927,7.28433374733013,3.46257346458582,8.28913182945728,5.61025663045231,7.94218771099473,3.1358275507088,5.72014711472328,3.09651708630281
3.33241005732362,2.92113274769985,8.91970857813613,0.968206014869648,2.11543529881713,4.38604585385767,3.89645300566396,3.19055647024266,9.95316421415423,6.37381958202148,4.95670343962179,6.57402348795181,1.90278497939177
7.18688675013131,2.88308206717441,5.54867613372846,2.8488606016274,3.00326726333163,2.40137398172449,4.21583749629744,2.9015052224064,7.03744771949218,8.97611644787308,8.38247886419207,10,5.55597233136861
8.2735098893758,6.82358095343849,0.56385768846772,7.75626356711316,3.68783382948304,7.21988786982042,4.93337306667218,8.15186834433485,0.889368391790317,9.48874380098695,5.66105380013,9.77768788898189,1.53200616671954
0.49322023999051,0.225788198837686,8.43785323362133,3.51455252503825,9.04051705011527,7.63668192088863,8.72350566771791,0.947268385742308,3.28648755708011,7.5722039793843,6.4902067515457,5.66560515348736,7.05011847657578
