"fastcoef_sq","pref_flow_den","slowcoef_sq","soil_moist_max","soil2gw_max","fastcoef_lin","gwflow_coef","jh_coef","slowcoef_lin","sat_threshold","carea_max","smidx_coef","smidx_exp"
4.60978342165274,3.11545354588696,9.43010816425857,1.35637614038869,1.94259831274452,8.54840823677567,6.57450593201135,2.12366615261388,8.79023183443317,2.87156451557045,6.97487662161387,1.45418237034539,0.467338742871735
4.61806040956433,3.11181014696714,9.45013565427713,1.32083114391337,1.9316918649663,8.52805813258048,6.59863401907475,2.10261975896944,8.80039661974345,2.86927145781913,6.98246712775935,1.43065486716633,0.449672410897223
4.61032903686594,3.10485986520029,9.43665844341155,1.32720166215792,1.95120376390319,8.5298486344324,6.55262786756849,2.12311755589928,8.78953989813332,2.89722835906406,6.92283866919703,1.49424257375801,0.478028949097106
4.61825419739453,3.11613287496613,9.47651682770929,1.28476907128114,1.91704684363076,8.50067332264615,6.6269660145717,2.07530317229409,8.8064146907132,2.87796566716912,6.98696401212411,1.41327665917503,0.423973963750061
4.61028777561558,3.15966177337623,9.43027176728399,1.41231123499448,1.89260762723312,8.59182053377107,6.69124902777618,2.0923029977536,8.79240463540888,2.77542584165227,7.17926641076881,1.26431170951835,0.407692440805851
4.60855876910714,3.14668929171722,9.42273933352731,1.41630055147173,1.90740084933803,8.59700713884381,6.64729662250114,2.11129062604561,8.79529350281862,2.79967953216343,7.13185643939137,1.32292507147921,0.424637513046141
4.61083190653998,3.1508874944539,9.44432875113506,1.37348501990724,1.9013782939247,8.56226240172895,6.66656926134255,2.08687844032292,8.79396942259114,2.81425949607503,7.11195411791938,1.32104994657437,0.41164119673807
4.603641537288,3.1383333179413,9.42029488994203,1.40802372435854,1.89812483819456,8.59959532131277,6.63770896313146,2.11194856081474,8.79101824041595,2.81121442313383,7.12547862300087,1.32598557723021,0.426363914201702
4.60577571459808,3.13600982434624,9.40435705785066,1.45399070772181,1.8912045262825,8.62859710075728,6.63800384016835,2.1240161103914,8.79825777383067,2.7868992760418,7.16669978077944,1.30894448741654,0.432938580256399
4.60790793154981,3.13142622602612,9.43111103678659,1.38044521768257,1.90968446699685,8.57307206185256,6.62623329175141,2.10761719986751,8.79269735898387,2.83168252751985,7.07594066617906,1.36242010257415,0.43387993300175
4.60129417213394,3.14003703335745,9.41770520817242,1.41410339929076,1.89354515106211,8.6000782550714,6.64401222024535,2.10972164442186,8.78567406835221,2.80926906317156,7.13417825667294,1.31224099372839,0.425467421919671
4.61333291698777,3.13857388478543,9.438875370894,1.36713853040312,1.91966296382021,8.55851005088919,6.62420797622105,2.10017831176272,8.7892411087002,2.8385574273767,7.04878851844713,1.37981785447494,0.437799308248085
4.60895347328118,3.13504737057027,9.43726713534269,1.36711698215094,1.92265417061574,8.55643425651697,6.62001401332556,2.10415071025731,8.79318158120964,2.84202236543867,7.04349340975079,1.38832276762271,0.438684240659231
4.61038336109038,3.1330478633032,9.4372307056889,1.36483065473492,1.92197590225181,8.55535248741932,6.62055073198849,2.10530513924342,8.79216682772687,2.842846779025,7.04348161585147,1.38753411240124,0.439527214200969
4.61467217594236,3.13295028018917,9.45364767016442,1.34922810420585,1.90057660507181,8.54443693830045,6.65395364684442,2.08339317573439,8.79861617762205,2.83311269570127,7.07637937972343,1.34513601418588,0.416264225896235
4.61449104295539,3.1360485445785,9.45941191144151,1.33351259599753,1.90434477624628,8.54070325392254,6.6436726449705,2.08001370661609,8.79993302944822,2.84655407469491,7.05742658853327,1.36413440575811,0.413918756112366
4.60758715565844,3.12801690995872,9.44482902785364,1.31771318099137,1.94138048722378,8.51811272420046,6.58907245839637,2.10217660817073,8.78033389912227,2.88801319434205,6.95027844070605,1.45652616916807,0.460406027746089
4.63171742418518,3.02243881638631,9.50228553616916,1.15826051311029,1.97116635317359,8.40172228695133,6.47488203930843,2.09894381029521,8.81630410984982,3.02548086117008,6.67498315192764,1.67720851284339,0.501626865951942
4.60149782998583,3.19377674721786,9.40398182618705,1.48422304197416,1.88492357073887,8.63335377935799,6.7289859624933,2.10165643569939,8.77815423233691,2.72439136117128,7.27551046506223,1.19190082480889,0.39849313917188
4.60239482658125,3.05512290310283,9.44588350028643,1.24001289598217,1.93985753690109,8.46389613084724,6.4910795423947,2.12016714645026,8.77182905523542,2.99106871267783,6.78379909934352,1.59277585807913,0.498447243576535
4.61136862089675,3.19504948014694,9.44450304161401,1.4293705601344,1.85137576500063,8.60573405634501,6.78331758917906,2.05551259198756,8.79620576012258,2.71806263868367,7.31642454176026,1.1311035787694,0.351983140102983
4.61218650202937,3.18638073333644,9.45799111431144,1.3917263793337,1.85974431555054,8.57813798954568,6.75972656437943,2.04984627463556,8.79802294573151,2.75484700354849,7.25308104971718,1.18442803473949,0.355232931717356
4.59470992177011,3.21492355606064,9.41531472234513,1.50120388152979,1.81357240924474,8.68238502606292,6.80565362891592,2.06694435022964,8.79077905582034,2.67459285789955,7.44864225367083,1.04064492343795,0.325148298915049
4.53922850563146,3.20699424790341,9.37337475404331,1.69435184093965,1.94013076154076,8.67607953451366,6.70792560017824,2.38114359170759,8.64634318232512,2.81013023168502,7.19140386301917,1.32911576579242,0.465323738422935
4.56078243570125,3.11728817611857,9.19191144073987,1.61749696223248,2.12824242024374,8.32518313718942,6.43715715017356,2.38544557679681,8.49762493735922,2.9746656471289,6.74797173686193,1.8089013530468,0.864847308263101
4.89033190660702,3.55944036834949,8.92282867856887,1.8507535031989,2.33149957734174,8.05172949577712,6.60542890618211,2.16044605367043,8.19461246576903,2.33309852064258,7.05241651211064,1.50897431048982,0.780036511286696
3.95248961322227,4.9682857546185,5.03320302438284,3.662910408359,4.66854116353099,6.31693805517026,4.23463596017939,1.30776008279263,9.25123954888977,6.32542242001867,7.74308490721226,4.04273180432489,1.92723529421472
