"fastcoef_sq","pref_flow_den","slowcoef_sq","soil_moist_max","soil2gw_max","fastcoef_lin","gwflow_coef","jh_coef","slowcoef_lin","sat_threshold","carea_max","smidx_coef","smidx_exp"
4.81184443844027,2.21568048444533,9.53763004207455,1.20399941525964,1.22501275398071,9.19186463151767,6.7822406547875,2.14702241620651,9.49248138547258,2.27854032549348,8.51232974167144,0.100263331439783,0.135505933296012
4.81184443331909,2.21568048137649,9.53763002155932,1.20399943418135,1.22501275126862,9.19186460569408,6.78224064977747,2.14702241606524,9.49248137715092,2.27854032251775,8.51232975267945,0.100263334779575,0.135505938436116
4.81184443515674,2.21568048250988,9.53763002902001,1.20399942717273,1.22501275234851,9.19186461491836,6.78224065147946,2.14702241611027,9.49248138014513,2.27854032378941,8.51232974830894,0.100263333882009,0.13550593662508
4.81184443485609,2.21568048234063,9.53763002785448,1.20399942823402,1.22501275219872,9.19186461341965,6.78224065117577,2.14702241609956,9.49248137965585,2.27854032366527,8.51232974887752,0.1002633341276,0.135505936920716
4.81184442726862,2.21568047791263,9.53762999787874,1.20399945565751,1.2250127483707,9.19186457528835,6.78224064358287,2.14702241587701,9.49248136734979,2.27854031986304,8.51232976414332,0.100263339776187,0.135505944510957
4.81184443321511,2.21568048136513,9.5376300213328,1.20399943422351,1.22501275134043,9.19186460516331,6.78224064955163,2.14702241605385,9.49248137698859,2.27854032278897,8.51232975229027,0.100263335273084,0.135505938561056
4.81184441892862,2.21568047367863,9.53762996725132,1.20399948312925,1.22501274462479,9.19186453475784,6.7822406348309,2.14702241556965,9.49248135390682,2.27854031845072,8.51232977681029,0.100263348558918,0.135505952344645
4.81184443914422,2.21568048493729,9.53763004517027,1.20399941228734,1.22501275444194,9.19186463518052,6.78224065538789,2.14702241621884,9.49248138662603,2.27854032627986,8.51232973955325,0.100263331377741,0.135505932554641
4.81184442953487,2.21568047941985,9.53763000762258,1.20399944608379,1.22501274995942,9.19186458668669,6.78224064536976,2.1470224159097,9.49248137103035,2.27854032236037,8.51232975717369,0.100263339750446,0.135505942298721
4.81184444124523,2.21568048641517,9.53763005447064,1.20399940340691,1.22501275577579,9.19186464620915,6.78224065721452,2.14702241625709,9.49248139006812,2.27854032865333,8.5123297332685,0.100263331147812,0.135505930295069
4.81184442022941,2.21568047418388,9.53762997221286,1.20399948000374,1.2250127439073,9.19186454253358,6.78224063719752,2.14702241568502,9.49248135590286,2.27854031785209,8.51232977788363,0.100263344769447,0.135505950310831
4.81184444327952,2.2156804890675,9.53763006774259,1.20399938981065,1.22501275807172,9.19186465934213,6.78224065816715,2.14702241616541,9.492481393583,2.27854033607996,8.51232971934622,0.100263335871226,0.13550592723572
4.81184450893554,2.21568052930175,9.53763033687231,1.20399914463037,1.2250127895646,9.19186499842777,6.78224072468184,2.1470224180738,9.49248150010791,2.27854037822485,8.5123295784525,0.100263291238335,0.135505857456414
4.81184441486804,2.21568047157126,9.53762995202136,1.20399949530268,1.22501274394961,9.19186451330911,6.78224062946658,2.14702241537361,9.49248134736914,2.27854031869501,8.5123297799611,0.10026335527044,0.135505957038277
4.81184448113553,2.21568051143961,9.53763021960926,1.20399925175932,1.22501277605619,9.19186485239755,6.78224069672515,2.1470224173294,9.49248145492356,2.2785403568056,8.51232964275614,0.100263307412298,0.135505888006567
4.81184457958562,2.21568057424905,9.53763063204801,1.20399887258203,1.22501282612387,9.19186536488834,6.78224079392654,2.14702241991456,9.49248161503487,2.27854043166501,8.51232941269944,0.100263252714082,0.135505782111101
4.81184462149017,2.21568059890471,9.53763079764121,1.20399872010531,1.22501284829375,9.19186557453962,6.78224083511291,2.14702242109281,9.49248168309885,2.27854045340077,8.51232932586301,0.100263223462874,0.135505740749027
4.81184386259715,2.21568012710645,9.53762767368339,1.20400158659032,1.22501246378346,9.19186166435167,6.78224008176457,2.14702240036435,9.49248044965896,2.27853993774877,8.51233102132258,0.100263690886216,0.135506540225071
4.81184507780818,2.21568088407625,9.5376326840814,1.20399699376111,1.22501307524356,9.19186793688234,6.78224129154785,2.14702243364526,9.49248242472645,2.27854076801217,8.5123283076972,0.100262939260182,0.1355052547085
4.811844859519,2.21568074334912,9.53763177394449,1.20399783956849,1.22501295838289,9.19186681547051,6.78224108125045,2.14702243106093,9.49248207325967,2.27854060040135,8.51232883083594,0.100263050399203,0.135505482693444
4.81184390810774,2.21568076169208,9.53763147364731,1.20400026276036,1.2250104297767,9.19186702717117,6.78224174731838,2.14702245581089,9.49248049375374,2.2785420137418,8.51233175195657,0.100262070337241,0.135504028562221
4.81184389331839,2.21568023787914,9.53762827932447,1.20400148873335,1.22501208965145,9.19186265816947,6.78224045494573,2.14702241044708,9.49248049013741,2.27854007475129,8.51233144076423,0.100263163454324,0.135506098821019
4.81184510089732,2.21568107984112,9.53763370860588,1.20399674783517,1.22501249243516,9.19186950117449,6.78224183149685,2.14702244812185,9.49248246122437,2.27854117394422,8.51232874921122,0.100262295272392,0.135504536486201
4.8118428504982,2.21567944483922,9.53762354512941,1.2040062980932,1.22501118552803,9.19185738863521,6.78223976169688,2.14702241293542,9.49247878424135,2.27853855217715,8.5123353833315,0.100262674923458,0.135507101277753
4.81186319930952,2.21569020373889,9.5376921805961,1.20392703087088,1.22503626768155,9.191933589621,6.78224779707402,2.14702239243386,9.49251216562149,2.27854925435884,8.51226958486444,0.100269784882698,0.135499920589439
4.81188412041167,2.21569958778697,9.53775837523008,1.20385054767395,1.22506079890731,9.19200961750228,6.78225678177296,2.14702264140758,9.49254643852626,2.27855577578637,8.5122097808758,0.100272391973874,0.135493287150816
4.81385902720578,2.21778319680431,9.54093135240115,1.19708726178956,1.23053976099386,9.19617785439565,6.78120770414912,2.1464590491914,9.49614094801518,2.279941113406,8.50492943036406,0.103055789372407,0.137072771436303
