"fastcoef_sq","pref_flow_den","slowcoef_sq","soil_moist_max","soil2gw_max","fastcoef_lin","gwflow_coef","jh_coef","slowcoef_lin","sat_threshold","carea_max","smidx_coef","smidx_exp"
4.8318182163507,2.22367168578602,9.59100108228364,1.13285000202202,1.25532352452603,9.24876533251999,6.78565230937196,2.14670336611829,9.52485824801554,2.27987281214757,8.44989376838467,0.109297833017239,0.136756588330021
4.83214125562775,2.22374214752801,9.59166166694053,1.13129993812251,1.2559786858881,9.24878022113603,6.78541813457506,2.14649940906978,9.52511493942325,2.28030505513164,8.44807537266179,0.110111757107376,0.13709711929119
4.83241564159513,2.2240399562647,9.59200125595292,1.13064938458312,1.25689197408708,9.24900503344998,6.78549671809713,2.14647727658639,9.52561988584553,2.27997931368331,8.44702033361467,0.110540974056755,0.137294892113483
4.832415939063,2.22359800631801,9.59178345791215,1.13099827161838,1.25605025289316,9.24917005738596,6.78563788933019,2.14641556224656,9.52539495758384,2.27988328331068,8.44842442459466,0.109508430167469,0.137181744948758
4.83274942495708,2.22360558085842,9.5915983609018,1.13079737540378,1.25737560251958,9.24955370752884,6.78532820424886,2.146838364354,9.52658971414405,2.27817038294767,8.44802952849305,0.109386346508441,0.137781529594665
4.83312726275832,2.22341895214079,9.59167191316371,1.13005235661851,1.25807409285159,9.24971536877599,6.78519500521046,2.14687125891598,9.52723980900851,2.27756829574204,8.44745942584093,0.109363940783015,0.138210134674767
4.83295943300202,2.223703815452,9.5922676173733,1.12976711305467,1.25737986607512,9.24970537244425,6.78558766175756,2.14647080239998,9.5264321242263,2.27908747915776,8.44705492425434,0.109804980012546,0.137647429336768
4.83316963752923,2.22376109685629,9.59233213484887,1.12911087345944,1.25808628726335,9.2496054536597,6.78523509625685,2.14650515366271,9.52681964219058,2.2784570732133,8.44627042594146,0.109998485985736,0.138167050800903
4.83317910322757,2.22374855663358,9.59222162742086,1.12925731207693,1.2581960310745,9.24962980122552,6.78522297843193,2.14657956612571,9.52694733817345,2.27820564624483,8.44640043043778,0.109918118662849,0.138208785777618
4.8333213034882,2.22375989645431,9.59239939596736,1.12884965618793,1.25839923239226,9.2497439055063,6.78522194320775,2.1465212973505,9.52709054418071,2.27811869970456,8.44608809836495,0.109927053890138,0.138324019780011
4.83333610810221,2.223590182914,9.59214633272438,1.12887548995821,1.25844418014142,9.24949212205188,6.7850231065789,2.14656470069066,9.52714307127818,2.27790485535513,8.44616337562617,0.109884807522307,0.138534345670196
4.83348895072952,2.22376805963629,9.59261970070858,1.12835592935027,1.25868407254083,9.24991015708994,6.78519163717356,2.14648691289235,9.52731286032157,2.27800258752467,8.44565957610459,0.109985426787997,0.138463709687885
4.83353093518144,2.22376544801261,9.59257986179781,1.12828812853839,1.25876623241026,9.24982807230002,6.78517831752482,2.14645213267162,9.52733443690891,2.2778998089888,8.44561626188612,0.10996579712941,0.138546192286726
4.83355527801922,2.22377574972044,9.59269669997144,1.12811876487209,1.25876208709282,9.24987965376765,6.78518235495142,2.14641728337668,9.52732291741413,2.27801524792605,8.44546386682274,0.110021799027651,0.138535964181642
4.83356280491927,2.22379927759291,9.59285913706107,1.12783584532347,1.25908938236424,9.2499703689219,6.78500125690697,2.14655600693398,9.52756863063916,2.27818370206115,8.4447424941757,0.110556907535966,0.138568801523983
4.83729887540441,2.2236671390263,9.59567323195893,1.11885463115408,1.26627688129126,9.25252854947987,6.78403096481283,2.14624115728171,9.53320706338036,2.27263321261177,8.43727833119717,0.110671246793163,0.142560530817836
4.83378398608968,2.22381909137917,9.59300695321289,1.12747939623907,1.25917830268659,9.2501554858222,6.78516156761797,2.1463853605575,9.52764636679841,2.27781920168956,8.44489628361778,0.110087607684635,0.1387151380292
4.83450694682929,2.22388165222411,9.5939995469675,1.12508904140579,1.26012104110798,9.25047372226425,6.78509712663584,2.14592492002222,9.52814317284088,2.27775313535346,8.44294705868221,0.110364175939308,0.139345826451542
4.83461432269453,2.22405026053816,9.59492893435285,1.1242250784396,1.25950245266726,9.25099470104535,6.78556190562856,2.14547337646846,9.5276257076485,2.27888030445152,8.44263911252705,0.110261298426907,0.138926120730305
4.83548207268104,2.22280060685135,9.59381655674537,1.12480269602237,1.26111235581839,9.25231463766785,6.78554949853168,2.14650484402651,9.53046532962364,2.27545666834139,8.44433484387279,0.108544626075219,0.139645433611364
4.83904866611542,2.22372751638992,9.59676373134483,1.11490933171887,1.26967176794645,9.25347166483094,6.78370976378606,2.14597033367636,9.53568636131486,2.26983534789117,8.43406357763137,0.110557894176636,0.144491183942945
4.8385082931934,2.22371472983831,9.5976736432342,1.11438557635636,1.26758471560767,9.25312139678345,6.78389796754382,2.14533670019117,9.53383965148727,2.27316139771541,8.43363755928649,0.111348576563796,0.143503043402665
4.84661407155697,2.2236031795052,9.60263222824665,1.09692087137606,1.28310964212695,9.25841823241552,6.78263226761439,2.14459718136297,9.54604555593396,2.25938364260593,8.42011615414305,0.10992856679945,0.15205921608626
4.83942039096241,2.22386732688331,9.59980469706969,1.11000189705451,1.26823625949885,9.25330807643785,6.78377353095057,2.14423431789833,9.53371652975974,2.27485754639892,8.42978544461549,0.112520549406877,0.144118109489629
4.84490695729171,2.22970781552068,9.60180241006219,1.09846580604891,1.28770618915247,9.25343824157281,6.7822702194453,2.14355366759037,9.54289200528586,2.26091169255581,8.41203419179994,0.117486422322933,0.152581431569294
4.84592340714326,2.23126411015478,9.6043757698808,1.09246287458942,1.29230140992007,9.2540801929382,6.77928219666054,2.14453052793463,9.54257178898973,2.26539912428786,8.39997798652655,0.124900739568715,0.156122407975977
4.23694955190426,3.54556568667349,9.14667985656567,2.48106864784876,1.59809019525233,8.50326621954047,6.91541349997659,2.1372302430986,8.29150079966671,3.06946059966942,7.50981054541408,1.28583681034698,0.26902434552415
