"fastcoef_sq","pref_flow_den","slowcoef_sq","soil_moist_max","soil2gw_max","fastcoef_lin","gwflow_coef","jh_coef","slowcoef_lin","sat_threshold","carea_max","smidx_coef","smidx_exp"
4.86357094614128,2.22255871405321,9.61568552624985,1.05811386367173,1.31547850434264,9.27156597673775,6.77984868251947,2.14347916207452,9.57359986137892,2.23166331876889,8.38933169297399,0.108543612533321,0.167943657920396
4.8629799706007,2.22460011338912,9.61624676727603,1.05794494262512,1.3166587212538,9.27123097077813,6.77969855745029,2.1435741338079,9.57231166979104,2.2338910862333,8.38601613287146,0.111346924145001,0.168335795493008
4.8631997870297,2.2243181347771,9.61650513610674,1.0575948820956,1.31668077932393,9.2720548298112,6.77962212866184,2.1438184294695,9.57271515398031,2.23379142047206,8.38612992958844,0.110991841783088,0.168490918082316
4.86375993948187,2.22389513616103,9.61682991088409,1.05747096608388,1.31671971766204,9.27373550405811,6.78011371347513,2.14408314846552,9.5736501469999,2.23244486689767,8.38764871398547,0.109171682355409,0.168572681828797
4.86326874384181,2.22443696723344,9.61649604176336,1.05740908998222,1.31697751964364,9.27191225959328,6.77956080510916,2.14377648534381,9.57283231840577,2.23365020004782,8.38577458041298,0.111167313221848,0.168628170365274
4.86338168967791,2.22403095747422,9.61676178460769,1.05726620583576,1.31664953763269,9.27284974640091,6.77951887658309,2.14406848503504,9.57305996004493,2.23380441136055,8.38621152859288,0.110707236214873,0.168625291055194
4.8637169199716,2.2244183247045,9.61659480511468,1.05658280790033,1.3179452237349,9.27205746774424,6.7794750077808,2.14369590104077,9.57354989079341,2.23255166942484,8.38517026310441,0.111004828177017,0.169126810004526
4.86359097080387,2.22445353088791,9.61656509922349,1.0566032817074,1.31780947781085,9.27173302054164,6.77948568672972,2.14363481461839,9.57328868747441,2.23288220613575,8.38497583201083,0.111233070315255,0.169060007976941
4.86359251761484,2.22447204042507,9.61658499421061,1.05656769276107,1.31781356945403,9.27168536855208,6.77946805214985,2.14361503907527,9.57327158143155,2.23294437456154,8.38491155916489,0.111298815792752,0.16906914990447
4.86447106676981,2.22423578319282,9.61693520532801,1.05519848176609,1.31926765792522,9.27286891113937,6.77923627338027,2.14381945897111,9.57479954158691,2.23118651969851,8.38428208774283,0.110678220124881,0.169944728908291
4.86420485484915,2.22434462654173,9.61692353973301,1.05519232867,1.31896767984182,9.27214154303658,6.77923880985201,2.14365537689757,9.57423150735642,2.23199612177864,8.38381039036387,0.111248422262799,0.169801511557701
4.86345510968088,2.22378150623763,9.61716736132738,1.05593539800766,1.31707088532176,9.27305454105862,6.77846062142554,2.14447341791105,9.57328787235083,2.23517849555662,8.38393197416391,0.112311114580234,0.169241953889698
4.86058162262199,2.22402250906375,9.61625976374463,1.0546535792683,1.31531843641945,9.264841248174,6.77457193451286,2.14380063225272,9.56819227623019,2.24532284058438,8.37447639735758,0.122968036835118,0.168949386130648
4.86114319791998,2.22430515536942,9.61629833345155,1.06015859335334,1.31136644949493,9.27020369557646,6.77990949200911,2.14305630736864,9.56796556312814,2.24022784591532,8.38814488527236,0.112119980841056,0.166152913233397
4.8611619563198,2.22431090602898,9.61629829692618,1.06017976123014,1.31137747937535,9.27024418877677,6.77994553436867,2.14305688765241,9.567986189815,2.24015694243419,8.38821578498728,0.112043848510405,0.166152811013852
4.8653446099106,2.22497012612885,9.61657936347744,1.05339224574994,1.32385689197963,9.27213084636802,6.77794570926705,2.14390953103542,9.57745057125365,2.22750550876174,8.38025365999457,0.112625216484308,0.171825146747911
4.86509816859408,2.21947209514207,9.61826142663952,1.05245294799612,1.31611196150565,9.2757636464686,6.77784807266471,2.14508832963569,9.57704103877849,2.23310894294408,8.38592824760583,0.108936254640781,0.16946181893563
4.86908468704369,2.2176627923515,9.61768531074254,1.04810657381184,1.322451796266,9.27798481004391,6.77984710168543,2.14489920855144,9.58445858339667,2.21949085440055,8.38826550819342,0.101050547222804,0.172563992875695
4.85356404486335,2.24903695643965,9.60687881286629,1.07470819758069,1.32655018898211,9.24339113275139,6.78142695281023,2.13626206833065,9.55131247685984,2.24108148826829,8.36776757793136,0.135673785510583,0.167984487079211
4.85353216104989,2.2488661088484,9.60702874526973,1.07442128170578,1.32636387778423,9.24354772686588,6.78120440761513,2.13633349068086,9.55125323832771,2.2415949744378,8.36744740458708,0.135927697157323,0.167990996566722
4.85340250180583,2.24870666641121,9.60719936701133,1.07404079320272,1.32609664001323,9.24347954965022,6.78078738335065,2.13640111225,9.55096123962842,2.24261771879017,8.36666819005975,0.136659689522104,0.168002371010924
4.86462113755927,2.24468186549203,9.61097173816766,1.06018026320789,1.34615115193298,9.25788688419247,6.78111664861952,2.13972696214257,9.57481329303566,2.2128650143065,8.36420394973471,0.12460071848001,0.177406285106743
4.85422985147748,2.23193243313996,9.61041722013558,1.07165583079541,1.30847121785038,9.25585857915127,6.7792305630211,2.14071253834571,9.5555420452918,2.24993500424996,8.38465787421027,0.123721880819648,0.163059277077198
4.8669498561393,2.22569870375021,9.61788646951084,1.04760123616941,1.32717082075536,9.27006080834368,6.77761435413476,2.14257538344875,9.57784407875599,2.22725039183513,8.37393414254385,0.114588511035754,0.174295258915183
4.859724760068,2.25321403921114,9.61601661907617,1.0533587273946,1.33773930124562,9.23882236715865,6.7758827672479,2.13094939904444,9.55677648203866,2.24880797595549,8.34137590825596,0.151331407667531,0.176437084798832
4.84629339518107,2.27863504390032,9.61280359099063,1.07122249525106,1.34519508853837,9.2346182105662,6.777905164578,2.13368540611029,9.53436778854294,2.26634368060781,8.32114102873492,0.17479884428313,0.173183227007573
5.18180637910071,2.60915384750458,8.79191475820129,1.30518395918025,1.83980329099894,8.11320660799087,6.68570762099163,2.31681471758738,8.31685154388008,2.70166421081905,7.5642096466512,1.22858809871207,0.988385458889366
