"fastcoef_sq","pref_flow_den","slowcoef_sq","soil_moist_max","soil2gw_max","fastcoef_lin","gwflow_coef","jh_coef","slowcoef_lin","sat_threshold","carea_max","smidx_coef","smidx_exp"
4.62547626828116,2.66540477870798,9.60027802259785,1.15860336237657,1.52019020136224,8.84301192746351,6.53220919970955,2.11423559451328,9.10619256062298,2.92614906028638,7.45399748261665,1.11847483109871,0.231652423351764
4.65062560648208,2.70157590360078,9.58495031152118,1.1622358705284,1.41241640740637,8.97046092281014,6.66859174904406,2.04921862597219,9.103272018493,2.77295707834456,7.74820937980655,0.766289686529211,0.157810648278778
4.64547749569925,2.70767953563994,9.58854399525792,1.14426656408139,1.41631577575236,8.95687236269531,6.65633919507817,2.04330907892829,9.09521383693568,2.79602558935684,7.71315653244872,0.794241505168685,0.159098698591014
4.66862009272741,2.73886646257153,9.59487868820322,1.10013834378375,1.52602165189729,8.84934146320925,6.6513003943897,2.04922547725589,9.09261420785628,2.79270079588913,7.56951169618171,0.904928033301851,0.221314291874919
4.64414819956406,2.83254895126194,9.59265619935096,1.23349705576309,1.51637747590079,8.84117498920959,6.70844434214274,2.02575417412514,9.02472094456306,2.81041027349776,7.56479796648312,0.930688512882676,0.170478887632049
4.62862965052284,2.91393589476253,9.5152970136193,1.33715626963859,1.55045115485956,8.91557219070655,6.72135570749967,2.06104391298142,9.01125275709879,2.71140601056659,7.72147988762729,0.84061519977322,0.191176255421328
4.64344808409573,2.5788068647837,9.44410986871196,0.966306822789593,1.4459819144735,8.69529725872692,6.42649336099168,2.02939710782159,8.94491110639854,2.94065616876532,7.22126845495612,1.08172151380822,0.290137714488513
4.61693135070152,2.61509329955786,9.60769249385454,0.956829247732134,1.47440004603761,8.67326223194804,6.44390586800219,2.0709140780521,9.1289322219714,3.05768481717752,7.31279971728964,1.21495381764365,0.259387803406984
4.66044520241351,2.8030161335993,9.61837299734899,1.07776622635813,1.5859531156737,8.70633236115439,6.64456070411442,2.02060737496921,9.04391051996482,2.88176109247681,7.37047572674599,1.0727911255567,0.233287909729564
4.60629660391717,2.91085969278921,9.52580163261033,1.21058253275535,1.5776948422222,8.80733923615636,6.6798946549128,2.04359747986376,8.94834027743265,2.8176850647407,7.51354916189958,0.953244331501434,0.25127683865446
4.6296049153504,2.82896797498002,9.56991284697165,1.12256886931844,1.56405507787475,8.78323336769539,6.63121328437438,2.03655647377301,8.99061174580618,2.87375034640872,7.42058725015418,1.02594892432776,0.24048032905044
4.63081038129481,2.84331056651256,9.57389081008425,1.10012040579987,1.59014790068824,8.7683381369705,6.63563965047128,2.0297891003383,8.96824205943066,2.87054023822246,7.37332617816623,1.03861115746036,0.253279547536123
4.5979783036982,2.95032084454275,9.41840231453476,1.51880367080237,1.50396328739677,9.01149061590607,6.80040742048995,2.09434545251059,8.94930935980583,2.57988114991546,7.95146719348968,0.633630505441668,0.200736729041923
4.59682008698787,2.95405811949672,9.41851742359168,1.52068507112349,1.50122194474924,9.01156536782296,6.80474604129667,2.0923066149551,8.94762634139195,2.57950445675371,7.95656460440102,0.628568150505642,0.197409488481778
4.6359281182571,2.98215069703201,9.5165070030863,1.27201095464345,1.69382063226354,8.73102085281903,6.71866594789251,2.05257013840702,8.93908240446518,2.75556845774197,7.44653203792118,1.02111980877156,0.283353245222948
4.63648231854855,2.98044796524365,9.51740944860851,1.26953479942648,1.69387122934153,8.73072137738912,6.7176445648183,2.05307564217206,8.94063154515881,2.755790965587,7.44511573545898,1.0220546167425,0.283948473390922
4.62893510102061,2.82455643017953,9.6039634505634,1.05399663545174,1.55603379267116,8.74549556142042,6.57942550837368,2.01035188530316,9.00343465995746,2.95662482775933,7.3167432939432,1.12843152564648,0.209762062029467
4.59695537018947,2.94000543525562,9.4224491280676,1.51270942037214,1.48728553735568,9.01730118909793,6.80304423797865,2.09084896603284,8.95517738552008,2.58133934003855,7.96376147849536,0.622368309922054,0.193023100013981
4.6840685384553,2.84118514610592,9.65136646946269,1.06165717954914,1.62906230221196,8.76739618458649,6.68728865842743,2.01322503480229,9.05602547720077,2.83261408382256,7.40146566955101,1.02428973507441,0.223603572976974
4.59945076436889,3.01681627186662,9.40646179924433,1.54803624373567,1.56014012560575,9.0012213982925,6.82259937174506,2.09274861956731,8.9289370744517,2.5519819101371,7.95349736976781,0.626990955712502,0.208193541288619
4.60770313695503,2.98452770717923,9.40408348519907,1.53058895463832,1.53593449113941,8.99333796652673,6.81550564674317,2.09971598021082,8.92504258277656,2.57095473197909,7.94543815985774,0.62769124342252,0.211104298362513
4.67995852059175,2.67199601412181,9.69911961413361,0.906659295499765,1.53004390901021,8.73120399919179,6.56239159931107,2.01173831101405,9.1215434186053,2.98701216456767,7.28984216959532,1.13487672487964,0.208849689807276
4.64793956210412,2.72185100320699,9.65103943887186,0.87801622726807,1.56080643113021,8.70914947420316,6.53364205682599,2.00361605523176,9.01545150079655,3.02241568864935,7.16581289777547,1.18160391513995,0.258102085068597
4.60844800484021,3.33957341658782,9.2331225237707,2.10616542043141,1.66210999261372,9.13072770414053,7.11596684331808,2.1345888488055,8.82476384319224,2.1776482167663,8.40434314377634,0.320580501179388,0.187600114771507
4.77877986011564,3.24801402674638,9.23543542314694,1.50309476656563,2.06465111373685,8.52384047664789,6.61160979994344,2.14359321675076,8.71819175919789,2.69729254026383,7.13099600139007,1.15269426508721,0.497212133647419
4.57352049280512,3.41420187889641,8.90006523577291,2.22870843042993,1.85325732216578,8.83923472240959,7.05685646959893,2.38289948312888,8.53128622847469,2.18915885412552,8.06458675617648,0.697765834618339,0.400782515695315
3.63172266049744,4.86700761827793,8.68863340815522,3.86281336126907,1.92495297266582,7.75189979261736,7.04737051493868,2.1324261060804,7.04802151063111,3.86230375354189,6.59884405296431,2.45716835644038,0.391839546405991
