"fastcoef_sq","pref_flow_den","slowcoef_sq","soil_moist_max","soil2gw_max","fastcoef_lin","gwflow_coef","jh_coef","slowcoef_lin","sat_threshold","carea_max","smidx_coef","smidx_exp"
4.811843369989,2.21567969761555,9.5376251690965,1.20400433422237,1.22501188613747,9.19185917198759,6.78223992359579,2.14702241026206,9.49247963856711,2.27853874340167,8.5123337130805,0.10026288484483,0.135506994855375
4.81184336999718,2.21567969762157,9.53762516913378,1.20400433418476,1.22501188614411,9.19185917202938,6.7822399236014,2.14702241026211,9.49247963858049,2.27853874341373,8.51233371305017,0.100262884848202,0.135506994847251
4.81184337003006,2.21567969772351,9.53762516985722,1.20400433358887,1.22501188600262,9.1918591727559,6.78223992369169,2.14702241026476,9.4924796386165,2.27853874402167,8.51233371250143,0.100262885044487,0.135506994549124
4.81184337015291,2.2156796977429,9.53762516986204,1.20400433347505,1.22501188625728,9.19185917286342,6.78223992372502,2.14702241026332,9.49247963883739,2.2785387436413,8.51233371249884,0.100262884887185,0.135506994675012
4.81184337002683,2.21567969764334,9.53762516926864,1.20400433404849,1.22501188616829,9.19185917218047,6.78223992362161,2.14702241026227,9.49247963862895,2.27853874345736,8.51233371294015,0.100262884860555,0.135506994817972
4.81184336939329,2.21567969721094,9.53762516655799,1.20400433686962,1.22501188558962,9.19185916915932,6.78223992323834,2.14702241026185,9.49247963759608,2.27853874264999,8.5123337152402,0.1002628845921,0.135506995346885
4.81184337211483,2.215679699177,9.53762517877102,1.20400432444872,1.22501188787025,9.19185918282678,6.78223992504618,2.14702241027379,9.49247964204262,2.27853874653229,8.51233370518981,0.100262885730304,0.135506992753973
4.81184337424308,2.21567970073993,9.53762518845504,1.20400431466477,1.22501188960558,9.19185919367654,6.78223992649779,2.14702241028553,9.49247964552211,2.27853874966535,8.5123336972906,0.100262886616826,0.135506990651023
4.81184336942518,2.2156796970731,9.5376251658608,1.20400433732719,1.22501188581732,9.19185916845496,6.7822399231324,2.14702241026099,9.49247963764499,2.27853874195105,8.5123337157094,0.100262884369452,0.135506995711648
4.81184335427701,2.21567968494291,9.53762509348199,1.20400440604694,1.22501187651757,9.19185908470984,6.78223990969984,2.14702241019409,9.49247961303648,2.27853871967118,8.51233376695022,0.100262882905932,0.135507013907711
4.81184337201261,2.21567969923879,9.53762517872369,1.20400432499023,1.2250118875106,9.19185918309419,6.7822399253056,2.14702241027791,9.49247964190992,2.27853874639822,8.51233370602835,0.100262885218377,0.135506992491629
4.81184337856491,2.21567970435688,9.53762520936816,1.20400429519415,1.22501189225255,9.19185921826091,6.78223993055267,2.14702241033177,9.49247965273488,2.27853875591522,8.51233368295083,0.100262886767424,0.135506985213808
4.81184337426538,2.21567970075819,9.53762518856174,1.20400431456206,1.22501188961912,9.19185919379794,6.7822399265171,2.1470224102845,9.49247964555692,2.27853874969923,8.51233369721342,0.100262886619872,0.135506990624935
4.81184330878036,2.21567965171363,9.5376248871561,1.2040046202476,1.22501183525804,9.19185885873159,6.78223988287287,2.14702241014788,9.49247953861305,2.27853864862579,8.51233394765759,0.100262854568738,0.135507055741563
4.81184336647009,2.21567969496469,9.53762515283379,1.20400435051032,1.22501188336774,9.19185915373854,6.78223992110194,2.14702241025009,9.49247963282369,2.27853873806937,8.51233372616857,0.10026288342814,0.135506998479304
4.81184343692635,2.2156797468513,9.53762547402847,1.20400402633064,1.22501194058452,9.19185951367076,6.78223996936701,2.14702241063142,9.49247974800524,2.27853884217446,8.51233346456725,0.100262912686731,0.135506928509918
4.81184337426091,2.21567970075533,9.53762518853991,1.20400431458635,1.22501188961301,9.19185919377525,6.78223992651643,2.14702241028338,9.49247964554806,2.27853874968856,8.51233369723839,0.1002628866114,0.135506990628862
4.81184306131574,2.21567947042307,9.53762376307518,1.2040057578472,1.22501163221722,9.19185760051554,6.78223971534574,2.14702240884106,9.49247913414852,2.27853828488428,8.51233486763801,0.100262749839667,0.135507298691319
4.81184342737561,2.21567973003608,9.53762539309104,1.20400414231425,1.22501190517098,9.19185947093492,6.78223999058498,2.14702241252003,9.49247973158514,2.27853875862566,8.5123336304788,0.100262817326677,0.135506931654774
4.81184317667616,2.21567955994467,9.53762430741616,1.2040051923442,1.22501173850321,9.19185818771463,6.78223978131516,2.1470224085176,9.49247932300273,2.27853848905373,8.51233437723031,0.100262841061076,0.13550718674477
4.81184349702144,2.21567980150326,9.53762578981093,1.20400374567707,1.22501196065028,9.19185988602707,6.78224003697571,2.14702240998535,9.49247984381778,2.27853894445325,8.51233327074954,0.100262902968376,0.135506836795124
4.8118434474385,2.215679711574,9.53762530443741,1.20400412045533,1.2250120119476,9.19185933232909,6.78223993268547,2.14702241159441,9.49247976673715,2.27853867747721,8.51233354552823,0.100262881538115,0.135507026887321
4.81184355953965,2.2156800965474,9.53762720327162,1.20400304736525,1.22501151174457,9.19186173505269,6.78224053557653,2.14702243892574,9.49247996936054,2.27853966343512,8.51233308411496,0.100262594605779,0.13550605743776
4.81184225948686,2.21567852389575,9.53761855840527,1.20400993515009,1.22501170625084,9.19185132899062,6.78223848301022,2.14702237289086,9.49247778850002,2.27853630992405,8.51233762274124,0.100263001374296,0.135509114163599
4.81184185151443,2.21567745446699,9.53761363119028,1.20401165349585,1.22501350271251,9.19184395141198,6.78223604988019,2.14702218744111,9.49247702954304,2.27853520111005,8.51233632885007,0.100265842649677,0.135512066411023
4.81183760730082,2.21567661822764,9.53760456329159,1.20402803094013,1.2250049090508,9.19183664371028,6.78223780087759,2.147022354694,9.49247011154351,2.27853413483409,8.5123540008756,0.100259830015649,0.135509445063544
4.81584722312406,2.21865309614712,9.53558545012991,1.20263783987171,1.23329175491216,9.19146574501175,6.78074315240468,2.14838763622151,9.48884074276288,2.28212487271948,8.50324287988852,0.107321024628744,0.140467916228514
