"fastcoef_sq","pref_flow_den","slowcoef_sq","soil_moist_max","soil2gw_max","fastcoef_lin","gwflow_coef","jh_coef","slowcoef_lin","sat_threshold","carea_max","smidx_coef","smidx_exp"
6.66643427212969,9.5265377368486,5.62556538618234,2.91746878748701,5.74021832068296,2.64910014367147,4.87953002722602,1.57472563887286,5.62263585390178,0.534962642997274,0.335888975025599,7.10877755859196,5.48614841045499
2.34333693504791,3.12555919963712,2.79109721105729,3.28632495037009,2.39959020038251,3.4158382136152,2.38238102587334,2.77534154978615,2.17727077197638,2.5020036425844,0.806828797087809,4.31091397166866,3.53156115059789
8.53508400812958,9.65444963026463,2.68325453151864,5.83511059275434,9.10142680409038,7.66743386595604,9.85185209084782,6.13790398943524,1.41042903263202,1.11904199030321,7.49119154937224,3.14584014086542,0.351148007533212
7.10952091246359,9.65120558932199,5.29254224987093,5.96657132179739,6.34270623747571,5.66166432542224,7.28802102735114,2.89527254865492,4.07917737354792,2.95204554908526,0.8130674253005,6.03076686958702,3.31148832726376
3.68667387009582,5.25111839927423,4.58219442211458,5.57264990074018,3.79918040076502,5.8316764272304,3.76476205174667,4.5506830995723,3.35454154395276,4.00400728516881,0.613657594175617,7.62182794333732,6.06312230119579
6.52074144879357,6.4434385118103,4.5686933736552,4.97364837019209,5.34168664974763,4.01899610204811,4.73683336716836,5.31294084191374,5.37056570543721,1.67823663439093,1.15704024931432,3.73486109348115,4.51444623974076
6.14632264472411,6.26228289822858,3.60806913472563,4.48766519485512,5.39722836367332,5.95425378823085,2.18505918941239,5.97553986237889,3.03344857381075,3.36870451342777,1.24276780676832,4.74963831729302,5.43935471312835
2.16646237917291,4.46954967427436,3.89586562899808,3.1437504168529,2.68841967667965,5.0470785301799,6.51877070933943,3.13691440118984,2.27943544495376,2.54639800266296,1.35738475816253,6.15844976743216,6.9959418598266
5.1854621809245,4.32544805314147,4.1433884112105,5.89398074609484,5.38319728923102,5.15898995281409,4.65060419277968,4.93233955620074,3.16249857754559,3.49783632929,1.44004319355348,5.40803717981417,5.97428675742893
3.85445222313133,2.78279367783133,5.7538630093926,4.80252477704572,5.29953055917545,4.49475863501272,3.45871102996902,6.45075220983241,4.14839704398004,5.40196527510413,1.57121735600411,8.72232951093574,7.21950674943332
4.3690681946375,3.47741103835083,5.09267750862978,6.082576735846,9.63708829128004,4.40336319975097,3.73578283131928,8.05349323066784,8.9689088203926,2.08910528874815,2.78638607525874,4.47864875769961,3.74347795820595
4.91989508115126,6.69571020052871,4.6566968206403,2.18983130776669,4.06458996913203,3.87900507068097,4.49523626463495,5.36566084874519,5.11687804061674,1.27216880215585,1.99344539262106,5.04403767646517,4.96408499379793
6.17456658305178,5.17864452072026,4.60040736962858,6.46802453046263,5.63435294866284,6.35959218866971,5.45579322268292,6.49230001751236,4.59745096363712,3.00178024049273,4.03108025259152,3.60792918515103,4.39310391604332
5.72979213958857,5.97101956529223,6.14744612848806,5.43106745209933,3.39919355058063,5.24427287443769,5.85940784938768,3.42616068582822,2.09374386066258,4.78539669214346,1.75550570405279,3.94971170154533,4.01353943053612
8.04651150145551,5.59766605072272,6.37253286606385,5.16238252321197,4.44453421686682,3.37475905374784,6.01279092144662,4.14981770042823,7.21432840143809,2.69397948814472,4.02635565934129,5.09411442922811,5.06225389133412
5.69365896816343,6.12726867313542,5.08846567482124,5.58852011240949,5.56700953561994,3.50233548142138,5.48775928941377,4.29280107887383,5.24177336243177,2.92974922423567,3.34917635157262,4.68480811882294,4.15793961932433
6.41238960062942,5.79275718491101,7.25504086095938,4.09017639222393,4.58697066609342,4.31074848892013,4.40188337033779,4.26012688151098,3.4554201084781,3.44835821771766,5.1679444875128,5.03044917145007,5.04037930625611
3.64679914011362,8.06042532863704,6.03962247457546,8.13224083576087,7.82473504665779,1.74200563165151,10,2.79698101750884,7.53313916342944,3.97947039125015,5.84873766522237,4.39936562159349,2.34434736213159
6.73316267608607,3.78352895483162,3.52249392608272,4.93513973318656,4.51495091530552,4.41524228787616,3.30387560836598,6.12764230667415,6.55426880468136,2.34743035550781,1.98526099210023,6.24083392088936,5.73849187668183
4.8474387011163,5.02851570067978,4.29768175421303,5.07567948619488,4.74728697641572,5.84572991815082,5.90016840155528,5.65538352354729,4.76078878683736,2.55759864173946,2.38143690148253,4.94711525470103,4.8034851000248
3.25903455763688,3.83860682911057,4.3575704213628,6.13848418067444,4.54283651989509,4.7763393229128,3.64647630295725,6.34824811883157,4.75470326859134,2.5780289926672,2.45341041670201,6.20259871370942,4.90746945538321
5.71019856638282,5.8195110004462,5.93402365111955,5.58708865542899,4.50949775360759,4.16368218464665,4.95805846598564,4.50329113632326,4.25819347216056,2.45113788747421,2.80119710010772,6.60205644489571,5.47671522365039
4.05549393844625,4.47694059095986,3.84208775220921,4.07180646403852,4.85673391552377,4.42601563412533,5.97412653270665,6.21395022718353,4.11330659192288,2.47525135527585,2.60384257754289,6.71237719052599,3.7714561635448
2.72981153661133,4.54124055440891,3.55439434013236,5.98183421142617,1.21219782144333,4.26339350601517,6.59930377783627,6.97923084924694,3.77944792556716,2.84518355993883,4.67932586772343,7.09514392463365,4.93855661582628
4.1489518737336,5.8382296550045,3.92775848243121,5.95607849478178,4.56273778518903,5.32776666871016,4.63896515988987,3.2300830369632,3.6733494952128,2.18375236171849,2.59621568980651,5.99960284810669,4.83863462477636
6.87850148187411,5.55929549764024,5.80873181105448,3.55067959797757,5.7872576760106,3.04857129281598,4.71269704624401,2.92196047368241,4.09481481084151,0.759576989470662,2.87764912145028,5.93363661941885,4.20311878440116
7.87410643379239,7.85633047342391,4.94431781799724,1.87549066848942,3.38923360529043,1.84490969201932,6.47611407262803,2.06903668213913,3.79120190423836,1.83054551069317,2.90554197041044,6.86617824029282,3.12480849884891
