"fastcoef_sq","pref_flow_den","slowcoef_sq","soil_moist_max","soil2gw_max","fastcoef_lin","gwflow_coef","jh_coef","slowcoef_lin","sat_threshold","carea_max","smidx_coef","smidx_exp"
4.85796747142674,2.2243627457431,9.61595992684119,1.06260286368895,1.30507113980531,9.26616716848904,6.77878630053493,2.14227620520787,9.56142729585204,2.25066342930787,8.38725143229032,0.116916212563461,0.163528602414782
4.85799704701163,2.22436207919725,9.61596489108404,1.06257685281653,1.30511525321559,9.26619621316168,6.77880150728325,2.1422726052254,9.56147424793872,2.25057732972973,8.3872676856935,0.116865636301302,0.1635477489808
4.85799656587204,2.2243620718406,9.61596489652154,1.06257657927532,1.30511486352595,9.2661950575575,6.77880080411861,2.14227252485558,9.56147332662681,2.25057927721285,8.38726604501784,0.116867512279235,0.163547705658774
4.85801289096974,2.22436581989075,9.61596763345679,1.06254512644339,1.3051550399769,9.26619511862184,6.77879652177501,2.14226854390319,9.56149946397141,2.25053976471684,8.38723600765443,0.116867734554247,0.163567772586063
4.85801882070663,2.22436112538597,9.61597322400659,1.06254603919624,1.30515436972417,9.26623010328754,6.7788019201917,2.1422788001501,9.56151095376257,2.25052871696199,8.38725587668023,0.116843339480966,0.163571596985755
4.85803339067992,2.22435258765977,9.61599008374005,1.06249667038956,1.30518982742288,9.26628329833675,6.77877604014194,2.14230559704096,9.56154222988464,2.25053316154625,8.3871965678567,0.116860339968114,0.1636076874979
4.85806431972838,2.22436493607681,9.61597757551998,1.06246779568912,1.30527807133622,9.26623642240775,6.77878564894409,2.14228050262379,9.56160569875707,2.25039978941929,8.38717500630235,0.116846255460678,0.163626749291962
4.8582560572934,2.22422274962864,9.61606382317266,1.06204546526512,1.30554937019231,9.2663620147151,6.77871928364792,2.1422787084064,9.56194724427687,2.25005994571567,8.38697215017588,0.116735262226632,0.163805264687225
4.8581525773945,2.22413946987268,9.61597327186994,1.06238211375998,1.30529148141852,9.26630134545151,6.7787863264477,2.14228652356389,9.56189327809881,2.25008158496983,8.38740756475747,0.116601342327186,0.163622653140701
4.85826619425421,2.22438120642744,9.61601488635224,1.06211743469943,1.30577704632009,9.26630379258824,6.77875837261524,2.14228349568077,9.56198407523168,2.24986091423418,8.38686762019399,0.116791299561152,0.163866231516706
4.8583340510241,2.22441450587116,9.61603298066138,1.06191564100365,1.30598351517722,9.26620693902952,6.77872468176167,2.14223820362515,9.56207249267118,2.24973370751284,8.38661254701621,0.11687616132662,0.163973861767549
4.85839377061685,2.22375716775136,9.61622563517692,1.0618754209592,1.30520666866354,9.26690115431947,6.7787525154185,2.14240789504858,9.56225612079503,2.24999029107325,8.38753418369837,0.116180328800004,0.163723312164634
4.85893231558904,2.22436816535801,9.61616885503649,1.06113014296072,1.30730195493893,9.26688945245523,6.77867275080648,2.14243467693914,9.56332032060471,2.24808682986088,8.38616528514413,0.116429083926017,0.164612036792381
4.85881609045479,2.22442184990195,9.61614412284079,1.06125689151526,1.30716652823645,9.26677533598747,6.77863187965638,2.14244082670704,9.56311626769555,2.24839729443302,8.38608459984302,0.116633375084146,0.164543678970936
4.85935352470585,2.22440217531974,9.61630644050669,1.06022820156525,1.30831608942726,9.26698001277809,6.77853582362181,2.14240977547485,9.56402112859574,2.24719163347195,8.38527743783053,0.116482716837941,0.165142525704542
4.85928251389617,2.22283235866615,9.61689605022841,1.06009475764299,1.30586497924242,9.26856985101286,6.77841759505993,2.14278443780807,9.56374705949838,2.24899536086243,8.38709564921926,0.115308254105984,0.164371049423539
4.86048351536956,2.2244187631193,9.61646010427051,1.05860139769517,1.31089874162394,9.2677893440363,6.77832185076138,2.14255709602175,9.56620199034481,2.2441472771345,8.38411206204455,0.115928617278479,0.166406214838774
4.85767824446055,2.22488233571471,9.61569568614551,1.06366102126271,1.30470757005595,9.2659054987689,6.77926665757362,2.14207556889928,9.56079004073025,2.25064213809893,8.38816346955898,0.116600538452718,0.163151736191095
4.85734546511021,2.22443361369452,9.61579718350418,1.06347733573578,1.30360077616537,9.26535026880019,6.77893945824004,2.14196159828567,9.56003498117631,2.25233293225371,8.38789749344157,0.117251903616943,0.162791478132981
4.85743373510793,2.22422896581866,9.61587921875191,1.06335808627348,1.30351642456745,9.26570670998652,6.7789619621688,2.14203773505397,9.56027636914796,2.25217461142715,8.38817927482705,0.116916448835568,0.162792430533753
4.85753411083685,2.22441859115371,9.61584725155632,1.0632675606502,1.30389389191558,9.26567982153253,6.77898439541103,2.14202263031261,9.56034743840808,2.25186501980989,8.38792803181178,0.116954477952581,0.162975523671454
4.85869757516673,2.22277134931588,9.61660603250544,1.06124089131032,1.30468505769088,9.26798768917906,6.77862415286964,2.1427224943488,9.56297349811582,2.24996870819261,8.38819901969311,0.115345908048671,0.163700675001561
4.85971181167915,2.22102701944275,9.61735426387919,1.05941537914433,1.30469864218623,9.27008740379046,6.77844917133683,2.14319194278593,9.56501744589557,2.24866023759649,8.38903689804263,0.113476884801098,0.164113442891349
4.86077703728643,2.23066567496804,9.61550953273247,1.05828908443149,1.31933918242977,9.26567902311265,6.77762099836366,2.14243280323959,9.56583890488546,2.24121321551589,8.37535841864161,0.121444465207298,0.170236204147598
4.85624092311366,2.23735637451756,9.61481547761824,1.0580604910968,1.3218670267799,9.25437098005702,6.7704834703787,2.14247931661851,9.55389132925739,2.259681769073,8.35258739825226,0.144732522969954,0.172386193677624
4.85518247567276,2.23891732161198,9.61386845059834,1.06424588949826,1.31935771868128,9.25617687946428,6.77447381643442,2.14262680018937,9.5526906071623,2.25770060157482,8.36116212168599,0.139265644577265,0.170217741615004
3.63172266049744,4.86700761827793,8.68863340815522,3.86281336126907,1.92495297266582,7.75189979261736,7.04737051493868,2.1324261060804,7.04802151063111,3.86230375354189,6.59884405296431,2.45716835644038,0.391839546405991
