"fastcoef_sq","pref_flow_den","slowcoef_sq","soil_moist_max","soil2gw_max","fastcoef_lin","gwflow_coef","jh_coef","slowcoef_lin","sat_threshold","carea_max","smidx_coef","smidx_exp"
4.81191173440896,2.21573003563156,9.53793695102472,1.20368958015198,1.22506742843851,9.19220845777763,6.78228668832239,2.14702278998874,9.49259140982398,2.27863998505134,8.51207956318536,0.100291495126365,0.135439089393413
4.81191312038075,2.21573165017132,9.5379444285138,1.20368458707379,1.22506738595526,9.1922189509632,6.78228936623639,2.14702285109974,9.49259399833352,2.27864099820135,8.51207790282579,0.100289080611741,0.135436179741101
4.81191179060963,2.21573007888793,9.53793721731265,1.20368931598459,1.22506747038672,9.19220875682872,6.78228672954971,2.14702279043212,9.49259150173274,2.27864007551602,8.51207935127077,0.100291518306431,0.135439027996912
4.81191195470369,2.2157302616192,9.53793804419502,1.20368877715481,1.2250674772985,9.19220994971103,6.78228704475241,2.1470227979321,9.49259181050786,2.27864013333127,8.51207921369492,0.100291202056132,0.135438706746781
4.81191185654543,2.21573016358438,9.53793758499662,1.20368910212043,1.22506745285991,9.19220930066811,6.78228688133918,2.1470227940709,9.49259162967519,2.27864010422863,8.51207932616491,0.100291358772107,0.135438869633354
4.81191231559226,2.21573062241933,9.5379399393141,1.20368721544439,1.2250676004176,9.19221232907506,6.78228752419321,2.14702280746438,9.49259244250104,2.27864062740105,8.51207823714216,0.10029100663511,0.135438107227682
4.81191338335549,2.21573131149923,9.53794393034103,1.20368319131909,1.22506866331036,9.1922171774054,6.78228828583334,2.14702282965814,9.4925942851536,2.27864117585613,8.51207530112609,0.100290893145151,0.135437354251246
4.81191399444882,2.21573059594019,9.5379419298314,1.20368395958242,1.22506981084396,9.19221554175344,6.78228811325841,2.1470228749901,9.49259514893342,2.27863790589533,8.51207702212563,0.100289319767915,0.135438829247528
4.81191298512191,2.21573086351508,9.53794179347016,1.20368473317693,1.22506861473322,9.1922142873732,6.7822876018298,2.14702281477014,9.49259355105367,2.27864079962718,8.51207600024896,0.100291414775401,0.135438130045869
4.81191526053231,2.21573065738467,9.53794339764255,1.20368043198503,1.22507244432654,9.19221687184986,6.78228772956624,2.14702288509727,9.49259724962581,2.27863670276639,8.51207352630645,0.100290066049631,0.13543997825171
4.81191887399646,2.21573106617026,9.5379493202063,1.20367088403056,1.22507805017407,9.19222413453482,6.78228822220358,2.14702296763531,9.49260315676129,2.27863334422346,8.51206649770717,0.100289431270495,0.135441511938792
4.81192280041442,2.21573362725315,9.53796318631622,1.20365358069491,1.22508436648998,9.1922378226382,6.78228870009494,2.1470228382165,9.49260968843237,2.2786369068797,8.51204951023601,0.100293911409402,0.135440772956669
4.8119324792748,2.21574745430488,9.53803290679852,1.20360166107005,1.22507632944289,9.19232192833158,6.78230875865258,2.14702056285653,9.49262204436487,2.27866355943979,8.51202301995634,0.100282794014368,0.135413966544657
4.81193309739024,2.21574792948491,9.53803590900108,1.203598536936,1.22507689385975,9.19232514918643,6.78230909216541,2.14702057416116,9.49262307487525,2.27866474644066,8.51202027376103,0.10028335178496,0.135413340032593
4.81193389914073,2.21574815089645,9.5380377519821,1.20359576040302,1.22507825074666,9.19232703073293,6.78230907260883,2.14702057413405,9.49262439779418,2.27866465050234,8.51201770975137,0.100283839634983,0.1354135880042
4.81197291677371,2.21573998409424,9.53802898407309,1.20353634240933,1.22516781796564,9.19232316527802,6.78229569515979,2.14702304243062,9.49269163901348,2.27856924788486,8.51196809260754,0.100276069821553,0.13546949058447
4.81194242151584,2.21574525114574,9.53804315817601,1.20356317352624,1.22510689925344,9.19232237695785,6.78229547400329,2.14702312094476,9.49264209069034,2.27866466121101,8.51196799548658,0.100311691543398,0.135428835305622
4.81196215683179,2.21576601166164,9.53814296115247,1.20348540593396,1.22510290164875,9.1924475166394,6.78232826457143,2.14701818652807,9.49266702005894,2.27868205573148,8.51193834244439,0.100280808386088,0.135395623842808
4.81203061200064,2.21574731140199,9.53810528801505,1.2033989343392,1.22526507125754,9.19241998919094,6.78230235517138,2.14702321409702,9.49278591165717,2.27849367287042,8.51186954181078,0.100259148432008,0.135503280121074
4.81203601371093,2.21575046356521,9.53812641653036,1.20337486555762,1.22527151089999,9.19244249006575,6.78230419415424,2.14702328412335,9.4927948753263,2.27850009758307,8.51184808153331,0.100263444437893,0.135500386965808
4.81248757624233,2.21601038545009,9.5398461256919,1.20143328707317,1.22578370175272,9.19430252670395,6.78248530107111,2.1470182491276,9.49352835619081,2.27896640811263,8.51018197013099,0.100532610090057,0.135261802137053
4.81215153014656,2.21576599572767,9.5382829079133,1.2030978389387,1.22546512815811,9.19264099180553,6.78231857643527,2.14702367870766,9.49298383952439,2.27835122469533,8.51164960709364,0.100229466012901,0.135565983894482
4.81246320895723,2.21614025919997,9.54047133352368,1.20113930128084,1.2255086926528,9.19504809847694,6.782669101649,2.1470252865799,9.49349241862414,2.2794714705895,8.51002223479126,0.100522603636221,0.134880986275883
4.81332291292305,2.21612154665903,9.54100342462044,1.19935714747591,1.22722586098668,9.19572092682639,6.782546331995,2.14703091769114,9.49490973267534,2.27795797416839,8.50859611924172,0.100400067755548,0.135751119923003
4.81351557151204,2.21634399509433,9.54238008044963,1.1978588978744,1.22741506402462,9.19698095097042,6.78256862278291,2.14701648254824,9.49521699561934,2.27888843444777,8.50700981516042,0.10101851756752,0.135450478564998
4.81283872251829,2.21629384800437,9.54093248786552,1.20001274106993,1.22641327289503,9.19534790966531,6.7825262782532,2.1469885172538,9.49402390955343,2.27916048545893,8.50872759946586,0.100903212908154,0.135301583249957
4.82717077906587,2.22483429529207,9.54835601991001,1.17368654892122,1.24965401610166,9.19897460509048,6.78180413720104,2.14951178279082,9.48956815766029,2.28312034188564,8.46992678820995,0.121248858817759,0.150889446958557
