"fastcoef_sq","pref_flow_den","slowcoef_sq","soil_moist_max","soil2gw_max","fastcoef_lin","gwflow_coef","jh_coef","slowcoef_lin","sat_threshold","carea_max","smidx_coef","smidx_exp"
4.83796200232764,2.22291783423794,9.59117580092584,1.12470880260847,1.26723281587377,9.25176606651475,6.78562343522335,2.1468610988823,9.53514370436999,2.26384681124814,8.44659089080073,0.103969531017702,0.143730299987147
4.83496478749472,2.22334079382182,9.5912134633134,1.12850432513538,1.26147422639503,9.25029566213362,6.7856184233883,2.14675397130881,9.53009618092152,2.27187312438982,8.44788315024645,0.10678907464741,0.140310732131517
4.83507984580811,2.22328457215298,9.59123159790983,1.12828258830727,1.26166825215182,9.25035654820886,6.78555922194852,2.14676489932184,9.5302865791006,2.2716138170988,8.44777603049789,0.106707053830604,0.140465663826106
4.83030945387508,2.22225281531074,9.58523315171313,1.13854241483971,1.25321082251859,9.24208327477048,6.78453561540957,2.14656331992102,9.52222752451947,2.27886142193032,8.45492823612961,0.108644454197762,0.13773806207342
4.83514153827079,2.22332949719522,9.59134829989834,1.12807162953986,1.26180653678299,9.250413523298,6.78556889886208,2.14673669772372,9.53035810216881,2.27161984264899,8.44752805160726,0.106794873846462,0.140500788639638
4.8394472313677,2.22310883485199,9.59390163492506,1.11911997864497,1.26905298192571,9.25312087383883,6.78539644715692,2.14593340619698,9.53617391662488,2.26450586512801,8.44177819908476,0.104964751741078,0.144816648954662
4.83927381516157,2.2236351819258,9.5954463855807,1.11883323043764,1.26922454204989,9.25547921633624,6.78564123827561,2.14659479455048,9.53690413129318,2.26538203389152,8.4407355374672,0.105712961712597,0.143760064461078
4.8396652104256,2.22315270880059,9.59410732855202,1.11856877602523,1.26968240414681,9.25339076023958,6.78527027282903,2.14602930755945,9.53667322348314,2.26411155287795,8.44109856914257,0.105151174191624,0.145066764491445
4.84011501143087,2.22319833609307,9.5947417694597,1.11758027835309,1.27146380110586,9.25478420019047,6.78491541293057,2.14676058676477,9.53857839055656,2.26277692566633,8.43951998193564,0.10568616372838,0.145354557701889
4.84013518518651,2.22319909259252,9.59475989235407,1.1175253700656,1.27150345097929,9.25479475863096,6.78490877094994,2.1467568021718,9.53860587547313,2.26275493524861,8.43946899383856,0.105694307882007,0.145376891490659
4.83558913592513,2.22338940370002,9.59207040462204,1.12662317141964,1.26232290223521,9.25082304164871,6.7856152713618,2.14647473508784,9.53069284110101,2.27161168477384,8.4464286656283,0.106874548369888,0.140785827258655
4.83623686553251,2.22343059991009,9.59360584205914,1.12466696620873,1.2632227783314,9.25302566909947,6.7857128130195,2.14666756875146,9.53202938435917,2.27123852019586,8.44502003618087,0.106738240204154,0.140765444529509
4.84361751998779,2.22392777217648,9.59970951052306,1.10904659057592,1.27705139520909,9.26065871233955,6.78563786413554,2.14642617496427,9.5437560555785,2.25886853427977,8.43346252866069,0.104678648768906,0.147258387505571
4.84073174967397,2.22324667452722,9.59617426587414,1.11445371332949,1.27064124225799,9.25438164548368,6.7852179248791,2.14519233738962,9.53715221793116,2.26487711757463,8.43784338097873,0.105672967492377,0.145755056653438
4.83701694957589,2.22349998361818,9.59425904180582,1.12229150210284,1.26493797917276,9.25299738597107,6.7852917935116,2.14643742429576,9.53298758182247,2.27055905723607,8.44249309555522,0.107473870959662,0.141806071380221
4.8396591735272,2.2247594632055,9.60162069745196,1.112059391548,1.27013075016865,9.26038832149981,6.78508769867709,2.14677954507023,9.53788533134724,2.27117480882483,8.43182597655234,0.11051227469002,0.142245271199934
4.8360323764984,2.22411444073582,9.59740584772428,1.11976523852687,1.26261031318633,9.25411267331736,6.78490812481837,2.14597640708384,9.53071988535401,2.27753174905978,8.43814243386286,0.111206648720801,0.139868096869339
4.84955472547718,2.22276645062043,9.60141811794853,1.09604661725236,1.28557648705303,9.25995011237758,6.78477409645093,2.1436081147589,9.54916173526026,2.25028819696438,8.42590271027592,0.102039026309961,0.154633036967726
4.83710405296399,2.22404517564819,9.59787877308313,1.11787277725162,1.26463313484457,9.25498003139433,6.78485243897285,2.14599260434839,9.53248343549739,2.27528531055565,8.43697107213394,0.110613704232587,0.140955023872468
4.85268372540289,2.22319333223222,9.60544827373774,1.08833279007213,1.29591551522117,9.26686262783244,6.78276696038107,2.1466736705938,9.55916698255745,2.24333322644169,8.41547813836232,0.105215018968189,0.157192244881996
4.83956624298472,2.22443328367799,9.60315614127741,1.10860010395812,1.26839944788406,9.25919550504118,6.78437358144198,2.14539396962843,9.53563877598996,2.27586304672688,8.42840514896061,0.112605984957227,0.142228008548891
4.84924783415699,2.22493944125299,9.60822821187399,1.09345322389885,1.28679591420952,9.26954101068261,6.78567599984746,2.14598293360112,9.55231340958784,2.25393332042608,8.42042141976611,0.105357269159741,0.150748866185155
4.83628681762178,2.22338548293076,9.59275524123986,1.12608562608063,1.26340569530476,9.25309889460749,6.78607455931039,2.14690914029446,9.53244765826856,2.26949959737628,8.44696629950287,0.10543874081467,0.140861341731974
4.83683964611946,2.22433914744413,9.60209224550464,1.11417178350026,1.26286826720097,9.25849301934421,6.78486514140078,2.14584175688956,9.53178834323091,2.28091761819574,8.43289259441982,0.112978937422972,0.138910028748928
4.84222472582579,2.22541746968052,9.59945186208814,1.10846838966052,1.27727965767336,9.25694099978839,6.78398410765942,2.14589749296329,9.54094886015747,2.26360269399381,8.42789523089316,0.110364609604381,0.147504766622833
4.85087802000168,2.22657355903797,9.60317726325911,1.09078524766768,1.29231325746414,9.25742723537538,6.78365443550637,2.14212270210294,9.55034618331834,2.24974676306556,8.41540329935829,0.108104864282214,0.15742855613469
4.86352593596849,2.24776236743298,9.54897907608356,1.12114335928047,1.31070817033258,9.18645449515361,6.77800624696493,2.15692082881981,9.46496971815943,2.29084642785779,8.37649514013198,0.178412694329656,0.199378880080073
