"fastcoef_sq","pref_flow_den","slowcoef_sq","soil_moist_max","soil2gw_max","fastcoef_lin","gwflow_coef","jh_coef","slowcoef_lin","sat_threshold","carea_max","smidx_coef","smidx_exp"
4.811843369989,2.21567969761555,9.5376251690965,1.20400433422237,1.22501188613747,9.19185917198759,6.78223992359579,2.14702241026206,9.49247963856711,2.27853874340167,8.5123337130805,0.10026288484483,0.135506994855375
4.81184336999309,2.21567969761856,9.53762516911514,1.20400433420357,1.22501188614079,9.19185917200848,6.7822399235986,2.14702241026209,9.4924796385738,2.2785387434077,8.51233371306534,0.100262884846516,0.135506994851313
4.81184337000131,2.21567969764405,9.537625169296,1.20400433405459,1.22501188610542,9.19185917219011,6.78223992362117,2.14702241026275,9.4924796385828,2.27853874355968,8.51233371292815,0.100262884895588,0.135506994776781
4.811843370073,2.21567969768073,9.53762516948859,1.20400433383931,1.22501188619904,9.19185917243595,6.78223992366181,2.14702241026271,9.4924796387056,2.2785387435245,8.51233371278209,0.100262884866851,0.135506994763163
4.8118433700005,2.215679697624,9.53762516914886,1.2040043341695,1.22501188614683,9.19185917204626,6.78223992360365,2.14702241026213,9.49247963858592,2.27853874341861,8.51233371303783,0.100262884849604,0.135506994843993
4.81184336984212,2.2156796975159,9.53762516847119,1.20400433487478,1.22501188600217,9.19185917129097,6.78223992350783,2.14702241026202,9.4924796383277,2.27853874321676,8.51233371361285,0.100262884782491,0.135506994976222
4.81184337105192,2.21567969839628,9.53762517393376,1.20400432933555,1.22501188700386,9.19185917740718,6.78223992432098,2.14702241026793,9.49247964030486,2.27853874496698,8.51233370913516,0.100262885287567,0.135506993804674
4.81184337424308,2.21567970073993,9.53762518845504,1.20400431466477,1.22501188960558,9.19185919367654,6.78223992649779,2.14702241028553,9.49247964552211,2.27853874966535,8.5123336972906,0.100262886616826,0.135506990651023
4.81184336970709,2.21567969734433,9.53762516747865,1.20400433577478,1.22501188597739,9.19185917022127,6.7822399233641,2.14702241026153,9.49247963810605,2.27853874267636,8.51233371439495,0.100262884607141,0.135506995283512
4.81184335427701,2.21567968494291,9.53762509348199,1.20400440604694,1.22501187651757,9.19185908470984,6.78223990969984,2.14702241019409,9.49247961303648,2.27853871967118,8.51233376695022,0.100262882905932,0.135507013907711
4.81184337100285,2.21567969842868,9.53762517391941,1.2040043295969,1.22501188682569,9.19185917755134,6.7822399244521,2.14702241027,9.49247964024186,2.27853874490296,8.51233370954684,0.100262885032447,0.135506993671471
4.81184337856491,2.21567970435688,9.53762520936816,1.20400429519415,1.22501189225255,9.19185921826091,6.78223993055267,2.14702241033177,9.49247965273488,2.27853875591522,8.51233368295083,0.100262886767424,0.135506985213808
4.81184337106014,2.21567969840272,9.53762517397213,1.20400432929789,1.22501188700954,9.19185917745062,6.78223992432752,2.14702241026768,9.49247964031791,2.27853874497908,8.51233370910615,0.100262885289434,0.135506993795734
4.81184333938672,2.2156796746661,9.53762502813562,1.20400447722558,1.22501186069942,9.19185901537004,6.78223990323574,2.14702241020499,9.49247958859343,2.27853869601675,8.51233383036146,0.100262869707627,0.135507025296438
4.81184336911132,2.21567969695434,9.53762516504014,1.20400433828495,1.2250118854467,9.19185916743577,6.78223992297373,2.14702241025908,9.4924796371346,2.27853874207161,8.51233371634494,0.100262884491501,0.135506995759326
4.81184343692635,2.2156797468513,9.53762547402847,1.20400402633064,1.22501194058452,9.19185951367076,6.78223996936701,2.14702241063142,9.49247974800524,2.27853884217446,8.51233346456725,0.100262912686731,0.135506928509918
4.81184337212496,2.21567969918544,9.53762517881821,1.20400432440436,1.22501188787524,9.19185918288142,6.78223992505611,2.14702241027272,9.49247964205759,2.27853874654512,8.51233370515945,0.100262885728115,0.135506992742118
4.81184344238384,2.21567975078977,9.53762549842425,1.20400400062606,1.22501194580624,9.19185954012796,6.78223997234684,2.14702241061221,9.49247975690239,2.27853885058782,8.51233344255708,0.100262916428341,0.135506923799274
4.81184339868435,2.21567971382732,9.53762528110309,1.20400423825891,1.22501189565588,9.1918593214717,6.78223995709179,2.14702241139106,9.49247968507947,2.27853875101668,8.51233367177207,0.100262851086597,0.135506963253044
4.81184332166284,2.21567966319934,9.53762495368574,1.20400454874343,1.22501184923057,9.1918589259298,6.78223988802704,2.14702240982596,9.49247955967936,2.2785386798177,8.51233387911037,0.100262873899735,0.135507042825693
4.81184323894949,2.21567959021283,9.53762452784037,1.2040049442801,1.22501180775037,9.19185843662319,6.78223980817101,2.14702241061117,9.49247942679518,2.27853853328406,8.51233417519628,0.100262861862543,0.135507157186703
4.81184327423726,2.21567967070058,9.53762495320005,1.20400465111518,1.22501172856477,9.19185894090055,6.78223991818259,2.14702240913129,9.49247947961568,2.27853876713518,8.51233399454002,0.100262843875583,0.135506968945512
4.81184359786808,2.21568012304817,9.53762737073914,1.20400287297178,1.22501154693954,9.19186192061098,6.78224055819724,2.14702243926781,9.49248003233618,2.278539716622,8.5123329395363,0.10026261431293,0.13550602433208
4.81184364232437,2.21567998591335,9.53762679273055,1.20400296149439,1.22501192812819,9.19186110056029,6.78224027901336,2.14702241973211,9.49248009262334,2.27853934011529,8.5123327579742,0.100262852818526,0.13550647268514
4.81184185151443,2.21567745446699,9.53761363119028,1.20401165349585,1.22501350271251,9.19184395141198,6.78223604988019,2.14702218744111,9.49247702954304,2.27853520111005,8.51233632885007,0.100265842649677,0.135512066411023
4.811841929319,2.21567892777008,9.53762001765459,1.20401025839241,1.22501014186746,9.19185353992871,6.78223939291765,2.14702239637006,9.49247725681456,2.27853759126279,8.5123387850217,0.100262121138378,0.135507607405387
4.81584722312406,2.21865309614712,9.53558545012991,1.20263783987171,1.23329175491216,9.19146574501175,6.78074315240468,2.14838763622151,9.48884074276288,2.28212487271948,8.50324287988852,0.107321024628744,0.140467916228514
