"fastcoef_sq","pref_flow_den","slowcoef_sq","soil_moist_max","soil2gw_max","fastcoef_lin","gwflow_coef","jh_coef","slowcoef_lin","sat_threshold","carea_max","smidx_coef","smidx_exp"
0.285474528208375,9.941788074056,7.65155424004812,9.75283269050034,2.10668723956987,3.64789990038191,6.84126016126813,1.9394325260503,1.31277343181774,9.342553016066,0.704996989783279,9.69692453645058,0.203257722665309
0.380282220765356,9.83849681166368,7.5527533797767,9.61108124659169,2.15661500233601,3.60859083354927,6.80831262443362,2.0636359388147,1.40136529320005,9.22128677099885,0.716170895781227,9.54865502308028,0.273521496220783
0.380231894616214,9.83859956808638,7.55277408986273,9.61136890309208,2.15654705980803,3.60880067952288,6.80830539006551,2.06375082400127,1.40166896780354,9.22088472986856,0.716051650089919,9.54881957493764,0.273464288816157
0.380218886394957,9.8385356926557,7.55267228399108,9.61094801203926,2.15652296659026,3.60873436048777,6.80816983893703,2.06391028666926,1.40187208965674,9.22072520733859,0.716222771049754,9.54838827270597,0.273666998049403
0.380274576284398,9.83840839583813,7.55272291870749,9.61111887729083,2.15654707687434,3.60890246890467,6.80814314615229,2.06399221641041,1.40191710449423,9.2207392414957,0.716139238289789,9.54850678617193,0.273548400036438
0.380576409064764,9.83828320631899,7.55250171465041,9.61074629913405,2.1567787344791,3.60859771983496,6.80827322913818,2.0642183440784,1.40175199020503,9.22065456736322,0.716081531014031,9.54820249266422,0.273553246690684
0.379970484959769,9.83878895330287,7.55300070307738,9.6115886656106,2.15653617179301,3.60874782572011,6.80835188863985,2.06352186543397,1.40129884532446,9.22132652122959,0.71611936035673,9.54899984166792,0.273329329693765
0.379687462900867,9.83907433320001,7.55323042682185,9.61211048929171,2.15642705567626,3.6089766396484,6.80844434980123,2.06339731583856,1.40118664821559,9.22129853260986,0.716066734117402,9.54939116181395,0.27313461578414
0.38035459615645,9.83851103475537,7.55254442162121,9.61148500464213,2.15644696482427,3.60895994237327,6.8081892843152,2.06381597193745,1.40237284950352,9.22027702001441,0.715892040191898,9.54897540871084,0.273621559912145
0.380722730361925,9.83823603022827,7.55223538896095,9.61091365127682,2.15666794198996,3.60882444315124,6.80805245415642,2.06424969214135,1.40251850471543,9.22004453032993,0.715949370846961,9.54830589796006,0.273820639121934
0.391826135462305,9.83435829622987,7.54911872148647,9.60111617307955,2.15559476445391,3.60802970063051,6.80814390543974,2.07257763914925,1.41529037277762,9.20246844931832,0.716155953185535,9.5464397425792,0.277066891928309
0.383943743664347,9.83331479938942,7.55122162909566,9.6077386827851,2.15773386540835,3.6111609557698,6.80620957925325,2.06646775740616,1.40695701074727,9.2149760357361,0.720174909458383,9.54051958437131,0.275745078447353
0.381263497412753,9.83736307333496,7.55166704810082,9.60964650072911,2.15692203738638,3.6083753333114,6.80810793639937,2.06498061194717,1.4021402407637,9.21977507023165,0.716117235026267,9.54736636923124,0.27415526317918
0.384220108796091,9.83716072568654,7.55028702621013,9.60807290726374,2.15765566983393,3.60904249143703,6.80836866999329,2.0670972800355,1.40564634875808,9.21804559865197,0.717226549537567,9.54537953388577,0.274227603579896
0.392171321148883,9.83042513211616,7.5415176380975,9.60706377719787,2.16536311980781,3.60407841584076,6.79646503302769,2.0687282906984,1.40148841995835,9.2203942550965,0.727801592831748,9.54105557353322,0.291578555468336
0.381393302203873,9.8282575840995,7.54083974240131,9.59286276471169,2.15592756594784,3.60601091660777,6.79942136029885,2.06721999466082,1.40583800295839,9.2093664387122,0.733545833730025,9.5436581301976,0.281864521797365
0.402836092884357,9.82171249632331,7.54692580498446,9.5890056977242,2.17751444431299,3.59720307178177,6.80011221567778,2.08787556205424,1.42288612317351,9.20847891345377,0.722163361306275,9.52164742875174,0.287097546661661
0.408741588440592,9.8126879041956,7.52154625621676,9.56129354650157,2.18168253776479,3.59686853375817,6.80153843575556,2.1087136839429,1.43293554921645,9.20096940606243,0.716443021576732,9.49604081624673,0.287259648346347
0.407189708183892,9.82551103947802,7.53196735944557,9.5721420374945,2.17121965081585,3.59630632915177,6.79719196969032,2.09780320683816,1.42895504723587,9.1970005390441,0.719192545762763,9.51303188939169,0.297063057842977
0.411017605600647,9.79248681058974,7.50993914489628,9.56848289356417,2.16538063164217,3.62311686037207,6.79434596859953,2.10724114887666,1.4402304663913,9.15286632228126,0.711263590466853,9.49812031538815,0.299738480533534
0.504244971615992,9.18574856335553,7.03782283427474,9.40719875684481,2.35773189981547,3.27463180069423,6.71097204194511,2.84124787347441,1.92441547358226,8.60029258630607,0.546562511834034,9.15367336057127,0.306797048950562
0.535608738625605,9.59770191225204,7.40915842439043,9.49324604941394,2.20145527842338,3.69289729766873,6.82461172708395,2.2955160063612,1.63929031357135,9.02800733760647,0.794516223824938,9.42539537623916,0.514346829263723
0.72875244409048,9.20571112804009,6.70964636034591,8.85995469510536,2.57867694320106,3.32725463232617,6.58963728398389,2.81691056877206,2.29169885112955,8.69696059352901,1.14343466048396,9.08687404869696,0.613638059097759
0.591206229347137,8.66268701408534,7.45913831321639,8.81447775424384,2.91308044633655,3.72897061575834,6.62509439632676,2.28879323180545,1.95680230445177,9.15401805756905,1.19439282911192,8.93616689190787,0.963253438489006
5.28700862451996,5.75479155217776,0.249294132608223,8.64414546265932,8.45903751553974,8.04357008352739,7.12465686873645,2.37948812312055,7.68865237785076,7.68214839748648,3.82188185062304,8.48340000186776,3.96650545780894
0.709191670535056,9.42101548179959,7.09536603158973,9.32498259299025,2.53601631030699,3.71692668006844,6.65043337506461,2.10190460912999,1.85759512725991,9.20072762770288,1.15325270160456,9.19687125419149,0.712968379474305
2.3287999985838,5.44988765955068,6.7695782759562,8.64451562239578,3.02171062442447,5.36483243405195,8.28648848038857,1.08040190112361,3.93634672233073,5.84945182917535,2.79315957155388,6.83459912143835,0.638177741778063
