"fastcoef_sq","pref_flow_den","slowcoef_sq","soil_moist_max","soil2gw_max","fastcoef_lin","gwflow_coef","jh_coef","slowcoef_lin","sat_threshold","carea_max","smidx_coef","smidx_exp"
4.85523169330825,2.22483827358117,9.61544515974053,1.06917393665156,1.29549071732137,9.26533697398478,6.78213364174425,2.14044791115131,9.55396942427806,2.25737480112453,8.39689146897201,0.113181181702626,0.158783098756845
4.85913418364922,2.22428194748918,9.616294040248,1.06267308392362,1.30599725428897,9.26902639345673,6.78014627897659,2.1424917029864,9.56330922326909,2.24689102756402,8.39022414687707,0.113143776780188,0.163901699869261
4.85901129560867,2.22421587234013,9.6162706111094,1.06261790462483,1.30584792412776,9.26876003084618,6.7799589039137,2.14250625750853,9.56309458863371,2.24738150934737,8.38987868168016,0.113561619536412,0.163882589166233
4.8594900744116,2.22373465031913,9.61636797725545,1.06269733274112,1.30595257595481,9.27009839896455,6.78045746813807,2.14268704500889,9.56425978598494,2.24563104577853,8.39168710451462,0.11164957112773,0.163905336836041
4.85468478434571,2.22485444051781,9.61536283612014,1.06851181452432,1.29544621557302,9.26379522320776,6.78099754729282,2.14046380281575,9.55313743170547,2.25962179996292,8.39421940949062,0.115839295165136,0.158952459688264
4.85466873934389,2.2248039672942,9.61538089240915,1.06841887970234,1.29548621365736,9.26381723399604,6.78088292540888,2.14050983055059,9.55317925136632,2.25969288728993,8.3940534654054,0.115981192034541,0.158994211513187
4.85724234533856,2.22460087322925,9.61587846524075,1.06595506560095,1.30082499216884,9.26730865609438,6.7812314036637,2.14146204886336,9.55874097499197,2.25188958599567,8.39372014736521,0.112964263333356,0.161354907807564
4.85673256483118,2.22469188173812,9.61579570243004,1.06576060416642,1.30058203304024,9.2662338605739,6.78049282593852,2.14146511686636,9.55793647843309,2.25370225409558,8.39204884604804,0.114840102248793,0.161359015809528
4.86015570858757,2.22233546053668,9.61726273245358,1.05881068594511,1.30752842555044,9.2687509956678,6.77861046639984,2.14232918740474,9.56599291438034,2.24610239978185,8.38712501807904,0.114366386918742,0.164864239192923
4.86077615092789,2.22491118709518,9.61661494167378,1.05851628386525,1.31063913929954,9.26758867096299,6.77957196443338,2.14166634813882,9.56564237146837,2.24329748398804,8.38538438069262,0.114260444745816,0.166260525370358
4.86090475374659,2.22468256551557,9.61664873821129,1.05844520587035,1.31073021343063,9.26825992684444,6.77926925906503,2.14196305035681,9.56609320259576,2.24317951486082,8.3855263460731,0.114193409305325,0.16636453017559
4.86632975212745,2.22498323809823,9.61778728265934,1.04787478393264,1.32578401084939,9.26987456620341,6.77703322264322,2.14288446758785,9.57733005741972,2.229178347798,8.37393553705243,0.115285386786454,0.173731879292801
4.85820035854631,2.2247959519325,9.61603996414946,1.06393873818918,1.30325155320835,9.26715270211802,6.78086030853601,2.14120756192646,9.56025465748766,2.24968924374045,8.3916466948369,0.11320518706978,0.162598597947938
4.84412499476209,2.2731714977078,9.59781719903248,1.0908718144023,1.33616881806312,9.21594377642223,6.78274275981484,2.12909891239823,9.53027115939279,2.24914766636808,8.34889424887674,0.160427179341663,0.167684648091811
4.8582520051623,2.22477988526498,9.61604854073624,1.06387903485541,1.30333838100698,9.26720378702366,6.78086877107169,2.14121727038275,9.56035747169204,2.24954808096239,8.39164605627326,0.113139480046052,0.162640253782283
4.8626474284015,2.21901821629283,9.61887404558261,1.05037926264018,1.3150623746482,9.26295978010904,6.77550995488751,2.13990509900161,9.57433960444749,2.23953846149311,8.37784154510791,0.119473810747458,0.166931202248951
4.85750412964796,2.22016465751142,9.61590003165226,1.06673151275522,1.29450556331915,9.26866131099596,6.78276551999312,2.14124766429438,9.55866389925478,2.2525201420422,8.40213241325942,0.106676430998021,0.158936945863413
4.8616128996371,2.21303854149279,9.61663499768,1.05991983114904,1.29959178801298,9.27469993141577,6.7800279844426,2.1433787280017,9.57132461863044,2.2405968179829,8.40368380310029,0.10095604227627,0.161817771210577
4.84998209750521,2.2478981231546,9.60733495397424,1.07858544732093,1.3153297101189,9.24213551669647,6.78180755405024,2.13518450635393,9.54284112065649,2.25400206311974,8.37254612908604,0.136565189168828,0.163393985456923
4.85246230707281,2.23694816048873,9.61098922161447,1.07467373396418,1.30570439016536,9.25292661197485,6.78234129643649,2.13759306732004,9.548072841479,2.25517332001697,8.38498656138978,0.124922837925787,0.161005658087499
4.85979797829019,2.23357316258799,9.61283283598807,1.06544030153527,1.31852423527177,9.26224007899079,6.78195849613259,2.14021534053148,9.56396192251126,2.23554493031307,8.38362277322176,0.116802271910136,0.16742358318561
4.85299356247764,2.22870504603589,9.61355995948022,1.074504177732,1.29443102918189,9.26209612559853,6.78320717210456,2.13986280008419,9.54915741903139,2.25999691009569,8.3976432198666,0.115440334677436,0.157579927106935
4.85281230709255,2.22816058707811,9.61364391538486,1.07402965403405,1.29479173199821,9.26013710754213,6.78303474321145,2.13895450855171,9.54996273386474,2.2593236873226,8.39685681481381,0.11639003531215,0.15701213258373
4.8662345941735,2.22508384772412,9.61776988967091,1.04789652966348,1.32584312952967,9.26969498365441,6.77692671281781,2.14287796221467,9.57718121132708,2.2294059748965,8.37363066667691,0.115647913539625,0.173783819366485
4.84709625912932,2.28037289572728,9.61502950780773,1.06528087575163,1.34629618960495,9.2086099633523,6.77566957953057,2.12816254944488,9.52073768783397,2.28362336259795,8.29728607289379,0.198015376340236,0.176080750895333
4.80854731159963,2.36536821208061,9.60047552408409,1.10183648279056,1.38551555711445,9.14245111410209,6.76402795289431,2.11015023985542,9.46069197754329,2.33483982177667,8.19942441595358,0.307603292556808,0.177080783382644
5.16879871649705,2.55369646906446,8.93993675860297,1.53302941657949,2.04731621665742,8.79029398861032,6.57392311554415,2.33467107763172,8.79099517381734,2.78363866192268,7.77124442520164,0.963767214507862,0.723520333248708
