"fastcoef_sq","pref_flow_den","slowcoef_sq","soil_moist_max","soil2gw_max","fastcoef_lin","gwflow_coef","jh_coef","slowcoef_lin","sat_threshold","carea_max","smidx_coef","smidx_exp"
4.86326546782819,2.2243762227584,9.61700816879607,1.05763575842084,1.31501778669588,9.27303819544342,6.78024849647927,2.14333236519708,9.57151238478635,2.23506758252574,8.38768611982414,0.10966496833014,0.168048952837205
4.86327642168354,2.22437668888716,9.61701053802629,1.05761611568858,1.31504637790967,9.27304272498763,6.78024569174931,2.14333407978778,9.57153467192786,2.23503871627644,8.38766696487587,0.10966406288778,0.168062757366038
4.8632935937599,2.22435442902272,9.61701243972654,1.05759063545023,1.31505234272214,9.2730657453007,6.78022951701188,2.14334926547233,9.57154789798414,2.23505299283025,8.38764863580671,0.109662661225411,0.168077887792309
4.86376395404697,2.2243206901523,9.61685362366125,1.05762650141854,1.31553160844073,9.27359391012066,6.780375885776,2.14357990888998,9.57186773597483,2.23445204988112,8.38794390072272,0.109014314761118,0.168389217793529
4.86330315436722,2.22431108535272,9.61704871456791,1.05749117109448,1.31506966664616,9.27305655397717,6.78021074406935,2.14333399892884,9.57161509663118,2.23500985914986,8.3876014698425,0.109670397492699,0.16808965089991
4.86332967983598,2.22436965848773,9.61702219036195,1.05748205083603,1.31519580848263,9.2730378991606,6.78019708417203,2.14333647237467,9.57164196444255,2.23492725848147,8.38750994381892,0.109711117020431,0.168143146910561
4.86334867356308,2.22436215705404,9.61702751901732,1.05744748168951,1.3152380238493,9.2730454241925,6.78019484720308,2.14334670926659,9.57167919797296,2.23488783991094,8.38747808540947,0.109707198784878,0.168166264093351
4.8633976751909,2.22428492900098,9.61702537115492,1.05751647120606,1.31515956681395,9.27318998314486,6.78026889171879,2.14338083403262,9.57174316065557,2.23479288753468,8.38776267717765,0.109466954591821,0.168133319938382
4.8635010435487,2.22421302076054,9.61704740841547,1.05746820801934,1.31521981068814,9.27333717080903,6.78035754315541,2.14338984257689,9.57193055095929,2.23449552991929,8.38798554304821,0.109182000189607,0.16815767798686
4.86348968453733,2.22438678286175,9.61705524451361,1.05701246246001,1.31573462548179,9.27294142402553,6.78000582505212,2.14334460878983,9.57195652424481,2.23463006664871,8.38684337858074,0.109990634453072,0.168434414856643
4.86396582695829,2.22440635434804,9.61715993773035,1.05638090299554,1.31684526015786,9.27332918646978,6.78007024354929,2.14344182739303,9.57293732778857,2.23322104616149,8.38646386847512,0.109605186114169,0.168930969483135
4.86345608663822,2.2234829492057,9.61712928146611,1.05847457685272,1.31369844741546,9.27434742847906,6.7811094590966,2.14353623430029,9.57209398045785,2.23422832333357,8.39100359403805,0.107187498125599,0.167361906137469
4.86308224036808,2.22415334852421,9.61695228130734,1.05810950013743,1.31419423641339,9.2730688962191,6.7804223769816,2.14335917583838,9.57109806388288,2.23560954373201,8.38850812437799,0.109320022001031,0.167682887562155
4.86297404523119,2.22439334098491,9.61694544548351,1.05799705742661,1.31438522619655,9.27270661579587,6.78025028008,2.14324589090614,9.57089976888962,2.2358942609649,8.38785614479309,0.109917356987054,0.167756782923964
4.86309077015432,2.22428801584638,9.61698037875071,1.05784376623044,1.31452117614241,9.2728815534328,6.78024751098675,2.14329417733434,9.57115331446751,2.23561339038927,8.38790068717695,0.10973848002888,0.167839203811484
4.8632539039739,2.22437151080283,9.6170049356427,1.05770865160956,1.31495559776796,9.27308309204167,6.78028728177738,2.14334124096658,9.57149383483082,2.23506790262688,8.38780909217169,0.109590925047597,0.168011737197077
4.86321403524231,2.22437729727218,9.61699813774123,1.05771322169708,1.31489503540408,9.27299714248606,6.78025932064088,2.14332051559955,9.57140624667194,2.23520723917268,8.38774707575756,0.109686428282961,0.167990092091324
4.86319288369195,2.22436387050861,9.61697462117594,1.05769241447212,1.31491110492536,9.27289077306886,6.78020169881074,2.14332096024006,9.57138666339039,2.23527653370368,8.38762611885788,0.109811961100249,0.16800267298434
4.8631336610228,2.22438784548259,9.61699202195131,1.05771221352118,1.31484505105935,9.27287659954647,6.7801628400028,2.14333327941883,9.57130966186328,2.23546190206356,8.38755025128569,0.109934620190523,0.167975880627777
4.86324938093658,2.22437281630649,9.6170054224057,1.05766729359194,1.31497808860084,9.27303834166524,6.78025312419294,2.14333623823398,9.57148650754904,2.23510620663767,8.38771646545701,0.109664219983598,0.168029020804911
4.86323742244767,2.22437665979985,9.61700284399693,1.05767177159349,1.31495594824629,9.2730113249963,6.78024916194162,2.14332652505691,9.57145581178829,2.23514696605473,8.38770568513956,0.109686692278013,0.168020126515604
4.86371325430594,2.22306639300137,9.61752118670779,1.0565072242256,1.31449120796897,9.2742384652526,6.77994982200313,2.14368221250571,9.5724642544975,2.23511983216198,8.38811705374447,0.108830772437421,0.168135113584467
4.8647456123477,2.22096336644773,9.61830022377328,1.05507731911264,1.3140063466867,9.27689651668762,6.78000955009065,2.14431697809834,9.57475973594815,2.23356238972912,8.39014972938257,0.106154018291104,0.168279255952144
4.85799569823271,2.23574394525534,9.61260373784075,1.0640816100758,1.32008885377892,9.25811115062563,6.77888812951863,2.14040396906246,9.56092576255618,2.24195057296405,8.3741746152152,0.125675011628628,0.168406274808566
4.8463553786719,2.25470674653188,9.62072370246633,1.06125732781908,1.3241838166767,9.24271346067466,6.77084471901044,2.13147099122366,9.54465851325537,2.27526097713466,8.33607969549452,0.166239640202352,0.165522064024116
4.85843929670157,2.23826284525049,9.61969470660524,1.05082382884349,1.32420740770466,9.25602406321612,6.77272406110612,2.1393522294976,9.55924439015366,2.25664672215856,8.35090880881564,0.142346692476127,0.170658078620958
4.83409321426643,2.31190067462575,9.47375296462806,1.13859808744236,1.42162382265419,9.17878870883031,6.69968636941688,2.11683008109445,9.56031891623481,2.36446151798546,8.36315323454976,0.236554831891282,0.223893137404096
