"fastcoef_sq","pref_flow_den","slowcoef_sq","soil_moist_max","soil2gw_max","fastcoef_lin","gwflow_coef","jh_coef","slowcoef_lin","sat_threshold","carea_max","smidx_coef","smidx_exp"
4.811843369989,2.21567969761555,9.5376251690965,1.20400433422237,1.22501188613747,9.19185917198759,6.78223992359579,2.14702241026206,9.49247963856711,2.27853874340167,8.5123337130805,0.10026288484483,0.135506994855375
4.81184350400063,2.21567979624675,9.53762577979432,1.20400371802034,1.22501199490287,9.19185985665227,6.78224001551571,2.14702241102342,9.49247985772176,2.27853894104006,8.51233321613045,0.100262940090314,0.135506861751786
4.81184365606707,2.21568054501256,9.53763117185314,1.2039993756698,1.22501074066843,9.1918652092858,6.78224067469719,2.14702243204832,9.49247996097364,2.27854374831357,8.51232915564989,0.100264499714431,0.135504535954497
4.81184558635505,2.21568143886819,9.53763557422398,1.20399424678822,1.22501346846211,9.19187112528425,6.78224171907535,2.14702242822865,9.49248329977329,2.27854197773356,8.51232592249105,0.100263385424728,0.135504505652482
4.81184558072277,2.21568132122904,9.53763522906724,1.20399417121807,1.22501368811338,9.19187044346965,6.78224143200252,2.14702242247753,9.49248325290533,2.27854199796173,8.51232550862131,0.100263804861001,0.135504809797279
4.81183842293838,2.21567633367971,9.53760406824651,1.20402632858473,1.22500734372413,9.1918356605149,6.78223694935043,2.14702240813575,9.49247157426821,2.27853248681179,8.51235165375993,0.100260786856839,0.135511087852119
4.81185200788577,2.21568604350676,9.53766448538077,1.2039646161077,1.2250189261774,9.19190322018397,6.7822458173811,2.14702245783381,9.49249376062489,2.27855146950424,8.51230164528054,0.100266485496926,0.135498453903358
4.81184746408566,2.21568298502007,9.53764465655539,1.20398565788211,1.22501465751431,9.19188166156232,6.78224339080355,2.14702244241905,9.49248640246246,2.27854480622221,8.51231945662203,0.100263629151435,0.135502203816506
4.81186698655831,2.21569453928538,9.53772303910467,1.20391435177714,1.22502397157822,9.19198122169152,6.78226323591204,2.14702303972436,9.49251803752439,2.27855560425751,8.51227975986167,0.100249090208861,0.135481978328129
4.81184773572347,2.2156831306837,9.53764567367564,1.2039844673103,1.22501499666395,9.19188273555478,6.78224346828348,2.14702244580837,9.49248685137451,2.2785451132825,8.51231837986627,0.100263858854025,0.135502083329981
4.81185192121806,2.21568598746258,9.53766412405128,1.20396500110556,1.22501884176362,9.19190282185021,6.78224577082115,2.14702245744479,9.49249361925385,2.27855136161442,8.51230196550297,0.100266441702469,0.135498519274774
4.8118477236793,2.21568289546395,9.53764498250738,1.20398431779004,1.22501543486754,9.19188137066206,6.78224289398544,2.14702243427612,9.49248675640616,2.27854515490964,8.51231755294454,0.100264698294515,0.13550269118366
4.81187758772142,2.21570480097503,9.53778069375301,1.20384719540354,1.22503980579251,9.19203346875603,6.7822632673207,2.14702259851251,9.49253557916139,2.27858892097475,8.51220691810919,0.100277020828222,0.135473247621253
4.81184772407183,2.21568289543563,9.53764498269497,1.20398431686553,1.22501543577761,9.19188137078137,6.78224289380677,2.14702243428063,9.49248675706433,2.27854515432173,8.51231755198118,0.10026469850502,0.1355026916785
4.81185201104714,2.2156860450964,9.53766449623397,1.20396460339324,1.22501893015708,9.19190323206832,6.78224581844637,2.14702245787291,9.49249376587307,2.27855147173985,8.51230163433169,0.100266487178055,0.135498452778789
4.81185198485062,2.21568602923631,9.53766437849326,1.20396473586216,1.22501889528001,9.19190310846457,6.78224581314482,2.14702245314704,9.49249371640169,2.2785514213248,8.51230176536983,0.10026644753373,0.135498472058881
4.81185202749854,2.21568605976259,9.53766457587822,1.20396453206214,1.22501893498281,9.19190332609674,6.78224583749306,2.14702245563586,9.49249378932849,2.27855149257641,8.51230159000678,0.100266478696719,0.135498430740305
4.81186072170259,2.21569244001432,9.53770402916186,1.20392468414446,1.22502600741537,9.19194756248814,6.78225179419819,2.14702248422836,9.49250797674283,2.27856414790328,8.51226951250089,0.100269970233095,0.135489872367633
4.81185428105351,2.21568925625474,9.53768109359767,1.20395202466689,1.2250176414796,9.19192318501952,6.78225018087601,2.14702230914031,9.49249718884152,2.27855812807602,8.51229413162059,0.100264952000848,0.135492178553502
4.81185202298332,2.21568603846509,9.53766445133877,1.20396462081857,1.22501895771136,9.19190318677028,6.78224581593392,2.14702245135897,9.49249377638563,2.27855139871061,8.51230166905946,0.100266454312956,0.135498487845154
4.81187051025554,2.2157039952871,9.53777175938966,1.20386379248172,1.22502769044596,9.19202204047707,6.78226257240132,2.14702254265596,9.49252395645769,2.27859852385387,8.51221887446405,0.100279073402664,0.135468879222763
4.81185468155523,2.21568854081623,9.53767845325094,1.20395314403246,1.2250192481816,9.19192056119998,6.78224952055989,2.14702246074063,9.4924980220655,2.278555103057,8.51229510380966,0.10026445536354,0.135493956177015
4.81189245509084,2.21570700538775,9.53780200547163,1.20381064350206,1.22506446631736,9.19206017645515,6.78226525430858,2.14702265112373,9.49255990414725,2.27857087242824,8.51218044015719,0.100273073526191,0.135481159751528
4.81203047043407,2.21574712099468,9.53810411727898,1.20340006432864,1.22526501432608,9.19241880862477,6.78230225977676,2.14702320669255,9.49278566637603,2.27849291255281,8.51187065440529,0.100258770142004,0.135503619550992
4.81221042017853,2.21587547513149,9.53893588875654,1.20249588041896,1.22545698391674,9.19329197926771,6.78237457746861,2.14702595935159,9.49308649164566,2.2788310593946,8.51104188223727,0.100457632488012,0.1353519322244
4.8118957140563,2.21570192996862,9.53778064512818,1.20382417306207,1.22507050971405,9.19204143115424,6.78226490066002,2.14702111397927,9.4925623605836,2.27854320886655,8.51220254765207,0.100257119702768,0.135493174674906
4.81985107625911,2.22162649467869,9.53354573116332,1.20127134552105,1.24157162368686,9.19107231803592,6.77924638121357,2.14975286218095,9.48520184695865,2.28571100203729,8.49415204669653,0.114379164412657,0.145428837601652
