"fastcoef_sq","pref_flow_den","slowcoef_sq","soil_moist_max","soil2gw_max","fastcoef_lin","gwflow_coef","jh_coef","slowcoef_lin","sat_threshold","carea_max","smidx_coef","smidx_exp"
4.85890975767319,2.22327107092199,9.6133389247888,1.06628473157421,1.30574077876369,9.26809695525343,6.78001962538536,2.14313418129683,9.56408486666275,2.24328202399061,8.39494938062676,0.110557736335485,0.164205953148123
4.85689718419612,2.22135944295274,9.61245040942992,1.07122640259104,1.29815185509406,9.26903996299583,6.78110182071169,2.14346841308901,9.56057627431486,2.24779163937478,8.40303348405986,0.107351705622106,0.160786284187048
4.85678700155384,2.22216930239644,9.61327486116965,1.06966467832949,1.2987992337215,9.26803491830406,6.78072178896941,2.14297269526229,9.55980973564303,2.24963958716936,8.39973092795416,0.10972146237738,0.160991177494861
4.85705241687515,2.2221310615572,9.61333325245071,1.06929259060463,1.29945120769403,9.26834354650064,6.78064771540191,2.14310160378254,9.56042974718997,2.24888681792277,8.39944310014916,0.109597056008115,0.161300357971387
4.85731138690907,2.22215546133919,9.61338195672024,1.06887049573325,1.30018992415813,9.26855071592507,6.78053004840361,2.1432125406383,9.56103772475783,2.24817478791636,8.39896752938079,0.109618027638697,0.161649649442768
4.85997004771345,2.22356811471269,9.61464203578844,1.06352559595109,1.30775638597153,9.26969391396785,6.77995249426843,2.14315887998683,9.56564627005093,2.24209238030299,8.39253884769483,0.110625639102959,0.16505413359919
4.85992733603547,2.22292604233588,9.61475255983465,1.06313555915531,1.30729183077896,9.26963688196509,6.77959534102304,2.1432214585981,9.5658169806324,2.24263239785993,8.3924450145811,0.110827678742608,0.164947476929406
4.8600114403517,2.22294991218418,9.61475638700272,1.06318073703081,1.30738788418255,9.26981978222683,6.77970996871567,2.14323050254144,9.56594933035682,2.24230791072209,8.39267539507565,0.110547786503859,0.164970984313093
4.85664817282912,2.22297081807894,9.61409891902248,1.06809891190982,1.29941649495513,9.26699291215849,6.78030442004819,2.14248101111725,9.55900268556644,2.25158406579802,8.39636666639898,0.112173557257033,0.161188807520007
4.85651235196009,2.22297881782099,9.6140817575254,1.06789558759464,1.29943938200282,9.26659087784727,6.77999191728259,2.14248681398876,9.55880982304366,2.25215293194083,8.39562567486043,0.11289002723648,0.16124999246834
4.85813246206775,2.22097180346585,9.61337200965218,1.06800876439807,1.3006977007314,9.26966888772587,6.7804033947535,2.14354922597729,9.5627513380739,2.24618640385798,8.39999752399622,0.107966643636264,0.162275158972808
4.85781484886162,2.22213931073621,9.6134892869504,1.06804492289601,1.30134987118319,9.26881764051716,6.78047279002059,2.14325059129357,9.56199355562169,2.24684252930795,8.3983437462921,0.109394641063569,0.162212710200845
4.86245480678336,2.22471171547842,9.61694506649139,1.05497084603383,1.3160802777076,9.26893576229661,6.77755426330983,2.14293624498591,9.56995146802477,2.23944010498302,8.38026883911449,0.11611464441308,0.169074099581361
4.85778035048328,2.22283480147737,9.61433193743541,1.06663147197936,1.30208344778273,9.26831819879721,6.78010961323061,2.14298445793821,9.56157693896988,2.24833752877622,8.39539007022826,0.111457414074616,0.16243562589097
4.85775934321616,2.22283532859335,9.61433042144924,1.06664200714171,1.30205891146153,9.26829586961429,6.78009313680531,2.14298597261194,9.56154212446409,2.24840062306752,8.39536299307552,0.11150409073876,0.162426494296541
4.85873163247045,2.22291931759804,9.614527995841,1.06486288753716,1.30454744858184,9.26859304315623,6.77984235704571,2.14303271777071,9.56340921475816,2.24589690243222,8.39365063672258,0.111441184251568,0.163639195248526
4.86049761446218,2.2248969779066,9.61634843162495,1.05814911886065,1.31109583335282,9.26701186379343,6.77820279196237,2.14203351129104,9.56538846055414,2.24457626255325,8.38314323994288,0.116478052500179,0.166718071851596
4.85883435470348,2.22306886050173,9.61450489619535,1.06458002143591,1.30469510318314,9.26830718857607,6.7798045165229,2.14273389514615,9.56327245966881,2.24579792901658,8.39339806575028,0.111512662658654,0.163744563164028
4.85948224503876,2.22168568896824,9.61441675386227,1.06438772140861,1.30460828318238,9.27000443456174,6.77979521947624,2.14335982021544,9.56495800552889,2.24394015745053,8.39541157178904,0.109360605433987,0.16401636402055
4.85618035944694,2.22873428107649,9.60471580450009,1.07985909916241,1.30839555066118,9.25878119442191,6.78190774524403,2.14233292761484,9.55989886822132,2.23618659471384,8.4019234811746,0.110190145305002,0.165091692616433
4.85302444484046,2.23520007840771,9.60949336627416,1.07532766957333,1.30696884741286,9.25407952813232,6.78123762873048,2.13912281092907,9.55093387796039,2.2516002055142,8.38669176307068,0.123350506989129,0.162087593198844
4.85484851803457,2.23589095742505,9.61132689466968,1.06941027481647,1.31299789247753,9.25402690760067,6.77952543945084,2.13933947763367,9.55419103753341,2.24977410065398,8.37786000798363,0.127373560581778,0.164978469409363
4.85658102358169,2.22589778938707,9.61315816763404,1.06873556397825,1.30326800975643,9.26478581503542,6.78033633153241,2.14203254908161,9.5588927974864,2.24928475335906,8.39311873121007,0.114508755675355,0.162352851861302
4.8237301038767,2.28094545761914,9.61973281322084,1.0716227943311,1.31444184200507,9.19833653318477,6.75458569126042,2.13109702690874,9.49844479419476,2.31474872044136,8.29120955476281,0.216812420507948,0.161893369251639
4.85277088922699,2.23327610541616,9.61347217721662,1.06738245117415,1.30791886694962,9.2576550620147,6.77564438016022,2.14107421044157,9.5528276662954,2.26003715793238,8.37494998262667,0.13176081790992,0.164236952587635
4.83215310363144,2.29693843731383,9.6467460602463,0.956027408035922,1.38251080746,9.10231409919457,6.71905577662397,2.09994475518217,9.47361319715083,2.3989652834801,8.06602913718724,0.372306685868247,0.184507349112386
4.1457497090836,3.26787182680448,8.88191601392702,3.03784030824139,1.84801579008027,8.1226907773424,7.15503903453774,1.82990071056932,7.98389612108127,3.28682330281511,6.73003046695356,2.06527768631352,0.292855914316892
