"fastcoef_sq","pref_flow_den","slowcoef_sq","soil_moist_max","soil2gw_max","fastcoef_lin","gwflow_coef","jh_coef","slowcoef_lin","sat_threshold","carea_max","smidx_coef","smidx_exp"
4.84920155268347,2.22494146469352,9.60818093052326,1.09362306274556,1.28671245517412,9.26956036632073,6.78570638643503,2.14601106697347,9.5522782763315,2.25393580119705,8.42059312664175,0.105301294626291,0.150685343730754
4.85052446415797,2.22424373577494,9.60846726657887,1.08990212217567,1.28985963282214,9.26910414614049,6.78427870713438,2.14621673961037,9.55456636345781,2.252129727228,8.41645587540711,0.106670514277754,0.152873435695938
4.85113159897473,2.22477101501154,9.60971239984743,1.08721063598902,1.29066562498544,9.26896869407061,6.78432245074532,2.14525990824802,9.554373691582,2.2528251544047,8.41392444678611,0.10740351563372,0.153461726104228
4.85144232769471,2.22483608872492,9.6101596134504,1.08607397564055,1.29166653888597,9.26924631338348,6.78398144901185,2.14537657652723,9.55508128213087,2.25258175007167,8.4123578546319,0.108096320709994,0.15387220088162
4.85166276154079,2.22471984976273,9.61003296768964,1.08573429086302,1.29196197401548,9.26903487848493,6.78393630955174,2.14526296729427,9.55526723544378,2.25209748732971,8.41229235287725,0.107878227503759,0.15420699923339
4.85153959980149,2.22479970174822,9.61018830058897,1.08586625830908,1.2918576110952,9.26927660881949,6.78395398186039,2.1453759441904,9.55525169185845,2.2523771675477,8.41221052895928,0.108066176948685,0.153983898017213
4.85138333389603,2.22477877986909,9.61011039936661,1.08584693553217,1.29126348148986,9.26864720638689,6.78394988592178,2.14505846899536,9.55451328762252,2.25319272664939,8.41222902645831,0.108242132079501,0.153910803828436
4.85156318771871,2.22483313116154,9.61037375512551,1.08544341454435,1.29163869377902,9.26903500869317,6.7839701646277,2.1451088055997,9.5548788908154,2.25291357737279,8.41188070504875,0.108224312649277,0.154004845094278
4.85157928423976,2.22479283423264,9.61039007331833,1.08540753270634,1.29163048616958,9.26907331625723,6.78396169416977,2.14511922313142,9.55491710873202,2.2529020755871,8.41189429042978,0.108196311822089,0.154008866877494
4.85181655861411,2.22469311679822,9.60992029571742,1.08542273988274,1.29224320592679,9.26875185165367,6.78385337809063,2.14513679099017,9.55533635006498,2.25180693181888,8.41206279798499,0.10785720654253,0.154517152490738
4.85201202273133,2.22486570619691,9.60989222135046,1.08529361323179,1.29315694325941,9.26902152451845,6.78377869742311,2.14535115635429,9.55603049086148,2.25086182147838,8.41163449710726,0.107925214939392,0.154803713929622
4.85211934633717,2.22470637745765,9.60962736823619,1.08484469713588,1.2929274533768,9.26810246590238,6.78367333682769,2.14488058115602,9.55548882725239,2.25111383218967,8.41154467403351,0.107862795221915,0.155197819660696
4.85182010099557,2.22480816986341,9.61042741454705,1.08488602902231,1.29244077363161,9.26913719387086,6.78374588052889,2.14523099750158,9.55550541906094,2.2522778193718,8.41115430714978,0.108431818597013,0.154402089727568
4.85377659040939,2.2247011716694,9.61216746473183,1.07834727380515,1.29679369487301,9.26898384431279,6.78224440964853,2.14474284762991,9.55804662548416,2.2510209925154,8.40401967889147,0.110835495830711,0.157157746498262
4.85192231120216,2.22483327070962,9.6110155033041,1.08355492990055,1.29155968721347,9.26839556451193,6.78393463679208,2.14430442598369,9.55426487783126,2.25391586270448,8.41043747158312,0.108620887141174,0.15440373301576
4.85390533145864,2.22467607312764,9.61221161769003,1.07809160952441,1.29704662460253,9.26903759844356,6.78222447884052,2.144735450303,9.55826104544269,2.25074610525105,8.40384427113799,0.110784038898035,0.157299564940065
4.84818938356096,2.22431335524549,9.60856908814038,1.08822914057797,1.28429409367578,9.26177179247323,6.78279665355065,2.14328381612444,9.54672644985704,2.26360041735613,8.41200304261328,0.11263321904881,0.151935488868176
4.8543840103787,2.22454569987597,9.61310738658651,1.07552598944021,1.29686681594211,9.26829192400135,6.78210217163955,2.14373259483559,9.55752734655919,2.2521680646432,8.40192951901572,0.111329099036506,0.157811303797228
4.8547918703454,2.22064551761,9.61049859127665,1.08016835178943,1.29289031035791,9.27075189444336,6.78356668475766,2.14574239213339,9.55886540550416,2.24823606311008,8.41277384645776,0.103657352322378,0.15661324501426
4.85604574228517,2.22464499593789,9.61335172777098,1.07332171978194,1.30117672971321,9.2699183452213,6.78173309369221,2.14438988441545,9.56124063141351,2.24728624972561,8.39997949978796,0.110652165142904,0.159788263681309
4.85851554937544,2.22450294469676,9.61460020763911,1.06790574352031,1.30584906894755,9.27092260585417,6.78122919195405,2.1439955115914,9.56471670351775,2.24314756709381,8.3957835562464,0.110292649964402,0.162605297409775
4.85311254681965,2.22389181964514,9.60931167153327,1.08322760930459,1.29388353707313,9.26771699632626,6.78346192165515,2.14453211119864,9.55648833946468,2.24921891213361,8.41152819642823,0.106676914031527,0.156490434881699
4.85706196231294,2.22383523032352,9.61066470159248,1.07194357447979,1.30243123951378,9.2649055816622,6.7809503176771,2.14270344420885,9.56046047073956,2.24472255453753,8.39987815255429,0.109769802196698,0.162774867758478
4.85601226247321,2.22448764707586,9.61410744831794,1.07020864665148,1.30119202575193,9.26765288220075,6.78049720218152,2.14351066874226,9.55998046699895,2.25053215126529,8.39548119999502,0.113792077752605,0.160491207155184
4.85281230709255,2.22816058707811,9.61364391538486,1.07402965403405,1.29479173199821,9.26013710754213,6.78303474321145,2.13895450855171,9.54996273386474,2.2593236873226,8.39685681481381,0.11639003531215,0.15701213258373
4.83215310363144,2.29693843731383,9.6467460602463,0.956027408035922,1.38251080746,9.10231409919457,6.71905577662397,2.09994475518217,9.47361319715083,2.3989652834801,8.06602913718724,0.372306685868247,0.184507349112386
4.49971640589478,2.7463012697804,9.24702715515228,2.05818259838846,1.57231820633905,8.69581151889432,6.96864777306321,1.98732139832516,8.77089020450576,2.7690255008807,7.5670765247878,1.08808451655361,0.224957486174689
