"fastcoef_sq","pref_flow_den","slowcoef_sq","soil_moist_max","soil2gw_max","fastcoef_lin","gwflow_coef","jh_coef","slowcoef_lin","sat_threshold","carea_max","smidx_coef","smidx_exp"
4.84927845958245,2.22274635311511,9.60079305729277,1.097436635702,1.28579193939452,9.26018851238454,6.78466805519341,2.14422874332166,9.54965287667853,2.24945659448634,8.42678340455282,0.101915021201329,0.154468827323186
4.84949592668613,2.22272959564875,9.60109740604732,1.09660757899668,1.28556684759968,9.25993803321488,6.78482243820495,2.14373783104392,9.54925577838929,2.24985479761776,8.42651135226529,0.101737316707637,0.154618949030989
4.84947689482321,2.22275932557239,9.60124495587192,1.09657065127795,1.28555338259293,9.26016368600117,6.78483579357343,2.14380212987492,9.54931265654772,2.24997157875903,8.4264189425194,0.101806943522465,0.154517157991357
4.85000548692936,2.22293852050937,9.60167705826778,1.09637674308834,1.28854720802872,9.26262603526116,6.78441398929439,2.14537035347456,9.55265380556601,2.2468887465846,8.42509027538548,0.102162065917667,0.154892088089876
4.84958869106574,2.22278694364943,9.60137159183645,1.09619247530019,1.28587530293207,9.2602011534538,6.78474330090097,2.14380315019323,9.5495134012111,2.2498681160448,8.4259353767992,0.101997986589362,0.154668279384923
4.85023531580253,2.22274616089052,9.60161768990699,1.09554010146105,1.28736063470432,9.26138487254421,6.78478478066275,2.14419597543428,9.55114817353158,2.24783760953892,8.42568975602006,0.101341272426085,0.155187780133492
4.84961352426823,2.22280330559211,9.60173882984974,1.09548565550803,1.28558612650638,9.25996219154028,6.78472575469691,2.14347839847388,9.54906769213124,2.250721596311,8.42529406828654,0.102340735912285,0.154647124904463
4.84987814285238,2.22282032668014,9.60182906720806,1.09518586165023,1.28624583914668,9.26037457923846,6.78472649201421,2.14361748614558,9.54971787200949,2.24989531209284,8.42509780332327,0.102138808860022,0.15489070360502
4.84989734815372,2.22283591752638,9.60200381214763,1.09476246170065,1.286030659039,9.26012610457332,6.78472550662772,2.14336458328799,9.54935960028648,2.25043040048426,8.42475560504539,0.102311326651789,0.154914831568469
4.85002866042738,2.22272140904867,9.60193929992273,1.09463727218962,1.28675119072235,9.2604445015147,6.78442810954641,2.14374789547192,9.55013596225832,2.24973989835133,8.42431493856377,0.10252357025445,0.155168520025688
4.85017015205385,2.2229985946211,9.60270639801603,1.0938452096015,1.28725927289642,9.26121809397547,6.78444833127431,2.14384640651195,9.55056653539941,2.24994053610549,8.42320244104622,0.103015799487927,0.15505433984979
4.84796446556152,2.22260051161571,9.59957435963977,1.10092053781265,1.28261177652729,9.25911945217443,6.78525002991964,2.14411401652828,9.54726033037635,2.25136443727809,8.43051292018418,0.101070703566023,0.153012954773075
4.84838502144076,2.2226266171758,9.59974890251031,1.1005180986121,1.2834495728677,9.25982344855254,6.78539571140206,2.14425405165984,9.54815909512194,2.25010342264168,8.43050123993217,0.100515522041721,0.153301652510699
4.84830392355394,2.22263156277573,9.600053993658,1.10026867722427,1.28255642643355,9.25965074058997,6.78566080302698,2.14381004924211,9.54732466106032,2.25115143550644,8.43073483906106,0.100351885188065,0.153011736409118
4.8505189096192,2.22289090066936,9.60269838309294,1.09279186904798,1.28811318310136,9.26077432536132,6.78404795263788,2.14373713580242,9.55097251250145,2.24953244422042,8.42198737620058,0.103463359187816,0.155753607437955
4.85076926438529,2.2230114133208,9.60282658665546,1.09255765122169,1.28854834792342,9.26120565017635,6.78422080931617,2.14374818873788,9.55135682771954,2.24885315148403,8.42203708527663,0.103057016453975,0.155915293715602
4.84841535122441,2.22280936252955,9.6008084337923,1.09874216474816,1.2834647726426,9.25971440517759,6.78505898570405,2.14391448231692,9.54773621366529,2.2519429335887,8.42809412310143,0.102023175275188,0.153279404986707
4.84814406506639,2.22290081823882,9.60091402336128,1.09852636777923,1.28319716758986,9.25913414636861,6.78477543737952,2.14380512232845,9.54718145119208,2.25309785305147,8.42717741628782,0.103012391045,0.153156535085168
4.84908197011484,2.22259596387303,9.60023758371458,1.09827247851167,1.28466743496482,9.25942339154476,6.78502461352072,2.14380413080811,9.54865451049778,2.24976352499541,8.42837584188864,0.101064171889275,0.154289588500106
4.85099193411043,2.22300607189021,9.60319888349024,1.09150039765438,1.28845115715732,9.26082878678055,6.78426045802328,2.14321386460537,9.5509928128177,2.24936282955762,8.42136369530575,0.103162684610497,0.156116381636962
4.84907227888039,2.22280416781307,9.60107227695644,1.09722750207022,1.28487109863857,9.25978937255977,6.78481214800864,2.14380507739108,9.5486722034974,2.25083161572768,8.42670276087605,0.102145828938947,0.154137564056841
4.84922355665533,2.22253907244612,9.60162913234031,1.09678525165393,1.28411501827343,9.26045747231996,6.78518413638949,2.14360947385843,9.54850230171714,2.25131699424245,8.42730600398133,0.10141452573486,0.153817736180147
4.84682663687386,2.22367235123605,9.59930446273232,1.10361501600443,1.27960305825017,9.25822388052171,6.78672762256354,2.14313312293373,9.54400668529816,2.25378291925078,8.43345517760037,0.100220363105494,0.151289374965776
4.85405462195294,2.22462188714861,9.61227212605169,1.07776891254377,1.29728348796744,9.26908416491393,6.78221338700799,2.14470338677554,9.55847529435272,2.25046915170373,8.40366791174911,0.110695511189691,0.157451034573188
4.85226011331724,2.2304175224272,9.60525712047091,1.08496291633867,1.2990596673286,9.25491643753588,6.7824864328078,2.14050757316196,9.55143658824738,2.24963872851336,8.40429524645128,0.114472411856791,0.160238163238391
4.84958694319252,2.22522236862328,9.60287193028503,1.09327250110822,1.28843882259538,9.25882146966798,6.78415289343014,2.1428366150023,9.54853784099303,2.25202800715938,8.41925732174438,0.106373931518697,0.15550770920172
5.01199811399757,2.38926787653958,9.27768838655861,1.30108098529905,1.67140207630976,9.02776730158577,6.67799287569259,2.23755999100603,9.1724562992798,2.52057695023731,8.08398444522803,0.538557264150947,0.441157008531883
