"fastcoef_sq","pref_flow_den","slowcoef_sq","soil_moist_max","soil2gw_max","fastcoef_lin","gwflow_coef","jh_coef","slowcoef_lin","sat_threshold","carea_max","smidx_coef","smidx_exp"
4.81184443844027,2.21568048444533,9.53763004207455,1.20399941525964,1.22501275398071,9.19186463151767,6.7822406547875,2.14702241620651,9.49248138547258,2.27854032549348,8.51232974167144,0.100263331439783,0.135505933296012
4.81184443587968,2.21568048291091,9.53763003181693,1.20399942472049,1.22501275262466,9.19186461860588,6.78224065228249,2.14702241613587,9.49248138131175,2.27854032400561,8.51232974717545,0.100263333109679,0.135505935866064
4.81184443679851,2.2156804834776,9.53763003554728,1.20399942121618,1.22501275316461,9.19186462321801,6.78224065313348,2.14702241615839,9.49248138280886,2.27854032464144,8.51232974499019,0.100263332660896,0.135505934960546
4.81184443664818,2.21568048339298,9.53763003496451,1.20399942174683,1.22501275308971,9.19186462246866,6.78224065298163,2.14702241615304,9.49248138256421,2.27854032457937,8.51232974527448,0.100263332783692,0.135505935108364
4.81184443285445,2.21568048117898,9.53763001997664,1.20399943545857,1.2250127511757,9.19186460340301,6.78224064918518,2.14702241604176,9.49248137641118,2.27854032267826,8.51232975290738,0.100263335607985,0.135505938903484
4.81184443321511,2.21568048136513,9.5376300213328,1.20399943422351,1.22501275134043,9.19186460516331,6.78224064955163,2.14702241605385,9.49248137698859,2.27854032278897,8.51232975229027,0.100263335273084,0.135505938561056
4.81184442868445,2.21568047906198,9.53763000466294,1.20399944919444,1.22501274930275,9.19186458313776,6.7822406448092,2.14702241588808,9.4924813696897,2.2785403219721,8.51232975924086,0.100263339999351,0.135505942820328
4.81184443879225,2.21568048469131,9.53763004362241,1.20399941377349,1.22501275421132,9.19186463334909,6.7822406550877,2.14702241621267,9.4924813860493,2.27854032588667,8.51232974061234,0.100263331408762,0.135505932925326
4.81184442953487,2.21568047941985,9.53763000762258,1.20399944608379,1.22501274995942,9.19186458668669,6.78224064536976,2.1470224159097,9.49248137103035,2.27854032236037,8.51232975717369,0.100263339750446,0.135505942298721
4.81184444124523,2.21568048641517,9.53763005447064,1.20399940340691,1.22501275577579,9.19186464620915,6.78224065721452,2.14702241625709,9.49248139006812,2.27854032865333,8.5123297332685,0.100263331147812,0.135505930295069
4.81184442933484,2.2156804793146,9.5376300071437,1.20399944763169,1.225012748944,9.19186458702563,6.78224064599251,2.14702241594577,9.49248137068772,2.27854032167279,8.51232975977754,0.100263338104615,0.135505941803421
4.8118444408599,2.21568048675641,9.53763005490857,1.20399940253514,1.22501275602621,9.1918646454299,6.78224065647733,2.14702241618596,9.49248138952779,2.27854033078672,8.51232973050883,0.100263333655505,0.135505930265866
4.81184447368791,2.21568050687354,9.53763018947343,1.203999279945,1.22501277177265,9.19186481497272,6.78224068973467,2.14702241714015,9.49248144279025,2.27854035185916,8.51232966006197,0.100263311339059,0.135505895376213
4.81184442665416,2.21568047800829,9.53762999704796,1.20399945528116,1.22501274896516,9.19186457241339,6.78224064212704,2.14702241579006,9.49248136642086,2.27854032209424,8.51232976081627,0.100263343355112,0.135505945167144
4.81184448113553,2.21568051143961,9.53763021960926,1.20399925175932,1.22501277605619,9.19186485239755,6.78224069672515,2.1470224173294,9.49248145492356,2.2785403568056,8.51232964275614,0.100263307412298,0.135505888006567
4.81184457958562,2.21568057424905,9.53763063204801,1.20399887258203,1.22501282612387,9.19186536488834,6.78224079392654,2.14702241991456,9.49248161503487,2.27854043166501,8.51232941269944,0.100263252714082,0.135505782111101
4.81184452996522,2.21568054167502,9.53763041985788,1.20399906768247,1.22501280113723,9.19186510302865,6.78224074495021,2.14702241864966,9.49248153428572,2.27854038944712,8.51232953376722,0.100263277451329,0.135505837022519
4.81184415051871,2.21568030577589,9.53762885787897,1.20400050092498,1.22501260888208,9.19186314793467,6.78224036827604,2.14702240828543,9.49248091756577,2.27854013162113,8.51233038149701,0.100263511163,0.135506236760541
4.81184507780818,2.21568088407625,9.5376326840814,1.20399699376111,1.22501307524356,9.19186793688234,6.78224129154785,2.14702243364526,9.49248242472645,2.27854076801217,8.5123283076972,0.100262939260182,0.1355052547085
4.811844859519,2.21568074334912,9.53763177394449,1.20399783956849,1.22501295838289,9.19186681547051,6.78224108125045,2.14702243106093,9.49248207325967,2.27854060040135,8.51232883083594,0.100263050399203,0.135505482693444
4.81184390810774,2.21568076169208,9.53763147364731,1.20400026276036,1.2250104297767,9.19186702717117,6.78224174731838,2.14702245581089,9.49248049375374,2.2785420137418,8.51233175195657,0.100262070337241,0.135504028562221
4.81184392853526,2.2156802593653,9.53762842286031,1.20400135769922,1.2250121069303,9.19186283909677,6.78224049040743,2.14702241145841,9.49248054731111,2.27854009669236,8.51233136541383,0.100263139557747,0.13550606185826
4.81184509367335,2.21568115342371,9.5376341580602,1.2039966006062,1.22501223032467,9.19187012517694,6.78224202278432,2.14702245541996,9.49248244679581,2.27854146072706,8.51232882791093,0.100262126435649,0.135504227429438
4.81184549689737,2.21568120936557,9.53763460118335,1.2039949213539,1.22501353901457,9.19186994693565,6.78224147561689,2.14702242881493,9.49248311598761,2.27854150019633,8.51232641470284,0.100263372613308,0.135504911967242
4.81186319930952,2.21569020373889,9.5376921805961,1.20392703087088,1.22503626768155,9.191933589621,6.78224779707402,2.14702239243386,9.49251216562149,2.27854925435884,8.51226958486444,0.100269784882698,0.135499920589439
4.81188412041167,2.21569958778697,9.53775837523008,1.20385054767395,1.22506079890731,9.19200961750228,6.78225678177296,2.14702264140758,9.49254643852626,2.27855577578637,8.5122097808758,0.100272391973874,0.135493287150816
4.81385902720578,2.21778319680431,9.54093135240115,1.19708726178956,1.23053976099386,9.19617785439565,6.78120770414912,2.1464590491914,9.49614094801518,2.279941113406,8.50492943036406,0.103055789372407,0.137072771436303
