"fastcoef_sq","pref_flow_den","slowcoef_sq","soil_moist_max","soil2gw_max","fastcoef_lin","gwflow_coef","jh_coef","slowcoef_lin","sat_threshold","carea_max","smidx_coef","smidx_exp"
4.81985051179545,2.2202786888097,9.56610392733035,1.17096851875062,1.23533530037413,9.22257424808696,6.7850056960276,2.14703913729604,9.505738102651,2.28469103695967,8.48339840778451,0.105077896985597,0.132425665608753
4.82034020217631,2.22008940020888,9.56660776487182,1.16952124650153,1.23619286236069,9.22300585760173,6.78476266498162,2.14705936600536,9.50651349126249,2.28446341111434,8.48202733873185,0.105426483243955,0.132882315567829
4.8204037534904,2.22010076989835,9.56669999638467,1.16935235130273,1.23630345652357,9.22310663926084,6.78476470914089,2.14705559375999,9.50661233500734,2.28439759020955,8.48189065345566,0.10542665274192,0.132921995222536
4.82176779903302,2.21977593381733,9.56547563431515,1.16880841771536,1.23904863246668,9.22276519087323,6.78482484095993,2.14707816515862,9.50886810984492,2.27923812911777,8.48284782654188,0.103201833578566,0.134932135987561
4.82049408162155,2.22012182853886,9.56684168140014,1.1691205413868,1.23646315877088,9.22327904730763,6.78477578724768,2.14705866421218,9.50676501078523,2.28429657559658,8.48170590097696,0.105418898326511,0.1329674044502
4.82011918910867,2.22043111393176,9.56757417418324,1.16878585570247,1.23579252118556,9.22349184338407,6.784676506893,2.14695576359861,9.50607183467826,2.28580944661949,8.48088224183455,0.106213642085616,0.13241962101066
4.8258508845059,2.22101934066224,9.5738403043888,1.15636770494698,1.24588836909407,9.23203583779256,6.78530755255263,2.14706194744388,9.51560087968972,2.27693278882522,8.47225552548329,0.10404126859448,0.136279061235971
4.8202288956872,2.22045147691718,9.56776968072468,1.16844759157096,1.23598451504139,9.22368939544283,6.78466945308218,2.14695115786166,9.50624568590585,2.28574646635605,8.48058033467012,0.106255619232223,0.132478573147022
4.82598796565632,2.22105505952436,9.57410133416414,1.15594247879635,1.24612151213667,9.23230090325473,6.78531054964104,2.14705258009535,9.5158115542669,2.27686650542582,8.47188002449558,0.104089453907634,0.136342694980866
4.82126840585589,2.22002523905128,9.56801097227217,1.1666594307744,1.23778105473668,9.22434704713247,6.78453273293449,2.14704752743947,9.50796421718995,2.28406765566452,8.47940894747329,0.105941107526215,0.13351623517822
4.83167007041941,2.22167706936494,9.5809556505979,1.14260436787103,1.25614522316688,9.24091947957209,6.78562967214204,2.14708444691925,9.5251643232927,2.26895859240399,8.46197109970473,0.102731298870883,0.14014397104352
4.82173799397799,2.22119435524189,9.57156881485201,1.1638264223334,1.23843651404187,9.22834861050651,6.78519912648377,2.14709779526599,9.50903915398255,2.28476698098112,8.47690029103942,0.10617344758461,0.132477994500412
4.82277186504909,2.22051693888524,9.56980583575638,1.16369666573035,1.24051604918654,9.22699368024176,6.78497278472693,2.14707119362555,9.51055920806484,2.28103680217425,8.47769323250941,0.104798756108695,0.134403901738296
4.82218496305272,2.22071940543566,9.57104184535542,1.16224433820736,1.23930707172325,9.22659832971731,6.78436167549811,2.14667806533578,9.50905129229672,2.28467150353982,8.47510021955456,0.107046638703027,0.133788307817303
4.83258673028088,2.22186931850548,9.58251327638709,1.13991170008151,1.25774963248701,9.24253051817915,6.78561989386514,2.14703924364476,9.52660054625861,2.26831290825777,8.4596230334403,0.102975015281866,0.140650133909005
4.81846710281695,2.22004937576395,9.5650140178746,1.17343828566093,1.23280473807216,9.22085634106243,6.78473176909785,2.14706126116736,9.50349547477694,2.28746848879413,8.48483598587791,0.106009761419087,0.131343782588244
4.82313101007223,2.22139512143172,9.57430461474446,1.15913480196122,1.24067601341638,9.23085278831647,6.78509302166502,2.14693573980946,9.51100817921112,2.28487377110666,8.47251688599281,0.107171650120789,0.133139280893927
4.82304610552589,2.22150094902247,9.57481955511943,1.15879924537955,1.24038191931915,9.23124057486474,6.7851434283341,2.14690171522972,9.51080056727407,2.28568456585663,8.47206564320218,0.107500789212591,0.132827287608442
4.82614469129831,2.22253884949876,9.58239630314206,1.14781130284297,1.24553308088841,9.23898749057945,6.78520794757714,2.14685917624277,9.51588210228262,2.28557013307142,8.46196231378187,0.109387776560749,0.133563591539463
4.83340703000071,2.22207692904417,9.58404451126174,1.13739603003404,1.25916608711562,9.24409527003544,6.7856303382939,2.14699532186854,9.52787922192742,2.26787254994545,8.45739412831204,0.10325878574445,0.141044273838668
4.82849636232448,2.22193957172217,9.58060068046358,1.14590062630941,1.25034057790189,9.23789725588101,6.78497042149651,2.14670843578509,9.51943622498961,2.2780992616111,8.46194126572679,0.106852099639171,0.137156146559305
4.82746637584468,2.2226764373711,9.5839361018237,1.1446478632089,1.24794193241158,9.24082330458387,6.7852100362826,2.14685560907136,9.51804116394086,2.28378026886343,8.45947286237592,0.109231794368652,0.134521684746749
4.83469641033569,2.22151847922939,9.58366921313612,1.13368427294953,1.26052818782,9.24132192071065,6.78489428279028,2.14540481395731,9.5275613462256,2.26727624689547,8.45481088615838,0.103472774317048,0.143534639908354
4.82954587283402,2.22272750427229,9.5848371344284,1.14130251843002,1.25213022904331,9.24271018059164,6.78525758682457,2.1469989963948,9.52171080043635,2.27895568642361,8.45743094518251,0.107945499919791,0.13655884163773
4.82535050965943,2.22246110596863,9.58239816410569,1.1487488358726,1.2438439499742,9.23863947980039,6.78510844713206,2.14689908764942,9.5145499590652,2.28778327475256,8.46236428923441,0.110078077358187,0.13266067943845
4.83288695946935,2.22577139948224,9.58523984860557,1.13171569667002,1.2638183551471,9.23832722051258,6.78214394634407,2.14578483261533,9.52415494582037,2.27504508062376,8.44168819715553,0.114989318277156,0.144274036792365
4.8409017751004,2.24634927430432,9.57246948927303,1.10994600177538,1.31217430371037,9.24047104040058,6.7625748944569,2.13795678506819,9.54583537209629,2.29361982825128,8.40682064890873,0.143677962920348,0.165687874707109
