"fastcoef_sq","pref_flow_den","slowcoef_sq","soil_moist_max","soil2gw_max","fastcoef_lin","gwflow_coef","jh_coef","slowcoef_lin","sat_threshold","carea_max","smidx_coef","smidx_exp"
4.78795260315021,2.31612784340172,9.63453523412661,1.04888865653128,1.29130276557155,9.23194740108574,6.7214633534555,2.08857495071781,9.48765977643759,2.39104258513276,8.25826518155895,0.277293925415372,0.121747508725069
4.78650313035958,2.5580892565464,9.49696888353042,1.23876774478946,1.48879502602835,9.10375528210055,6.76023800259637,2.14676080430376,9.26935743594598,2.34200515928798,8.09334556189854,0.380189225958625,0.270150772833973
4.79682462797216,2.5347308495972,9.50183264882969,1.25026519276138,1.47019523501299,9.1220045505227,6.79590391588059,2.14049168492906,9.30811862842773,2.31333228842644,8.16674622082884,0.328747111389817,0.2354223409353
4.77002322901442,2.56719743420157,9.56363305863428,1.20456753445094,1.44583161728564,9.10292303038289,6.83813323792417,2.07533185019168,9.33422355847145,2.32312894272734,8.18872908811741,0.318967333146408,0.172773246456507
4.7868822476585,2.52371991895635,9.53335091192931,1.14992698194075,1.49746740617602,9.05147947758208,6.70282475712842,2.13109658712776,9.29016462587056,2.42421056032558,7.95464229225156,0.507973436493736,0.269895804157334
4.73362842950716,2.66773345905469,9.57689158951767,1.22271811034809,1.47793101915166,9.04357193931309,6.86213629015815,2.03503219081447,9.2827568829047,2.36799720286556,8.11078442031925,0.401971866283229,0.153258396762403
4.76328834259763,2.75503224914185,9.50788993648676,1.30461552702671,1.64885440246712,8.95841966312224,6.88270465633933,2.07799850154878,9.22766664308733,2.27157160783993,7.99556750072837,0.466884583759812,0.270575361120731
4.77727029779453,2.65837373213231,9.56725928185103,1.13713534199296,1.64164256457483,8.89634163444311,6.79225350142904,2.05906109103606,9.28058512124194,2.37624721290839,7.82012477173977,0.603075846832119,0.277005191153105
4.70066963998962,2.71926129514811,9.55025205177314,1.2325175717396,1.55757885342571,8.93257804412954,6.74155256535807,2.07986280589576,9.16619946632266,2.5605623385777,7.79833546596999,0.704633421286886,0.232653448468001
4.7317170487006,2.81699505220718,9.50048880142882,1.33090891372892,1.64781380508309,8.92961289025484,6.86062561557135,2.07002215159808,9.16384190953536,2.35242775136437,7.9217271867927,0.558503487208976,0.261542435996592
4.76167030697617,2.69320082660422,9.57062882358782,1.12074972278337,1.63476720257827,8.84838037559128,6.75521687667737,2.04669829540673,9.23059764586637,2.47506562701271,7.70364569335768,0.72705640923897,0.271364554533474
4.79168658299685,2.39477364264483,9.63499334036857,0.919478115160243,1.48070217612259,8.98112335964697,6.6372986657692,2.07925794785389,9.38443185603233,2.52887189515326,7.78583479655732,0.623311895374445,0.256416069078938
4.69699526793338,2.78940499350592,9.53314122466442,1.25996134276836,1.62792990964001,8.87271802663176,6.75407111507018,2.08070068400446,9.1251520628157,2.55621518342705,7.72291613049864,0.768340951847473,0.264039097704044
4.72152715950887,2.63669269129849,9.56281392358,1.03863147348787,1.63518667497686,8.80819853339688,6.53548577278742,2.11792403899316,9.13982332815604,2.76235800244546,7.38573073690192,1.03403509578175,0.347370996399395
4.70587689794254,2.73741862868167,9.56388800798658,1.15479913689669,1.58665762166089,8.85354562385614,6.72727711718809,2.04918258522867,9.14464547777172,2.60149644616818,7.6709038400241,0.776790596708662,0.249085548955407
4.627052959402,2.78967033673526,9.55778751810858,1.24787981600758,1.5353206781109,8.87929205908503,6.62678245360461,2.08763975374735,9.05872265886088,2.81877753542648,7.58773868512197,0.979545015435964,0.211414339386546
4.68063332314791,2.8526765468423,9.46314612551076,1.41170959891454,1.57640884493195,8.98495513951415,6.84155603841464,2.08617197702968,9.08848800144658,2.42572637887769,7.97351734710903,0.55025754460074,0.235656045081327
4.62814332478799,2.75435767261027,9.58708441634105,1.12936188408822,1.55516905102524,8.80567503221701,6.58392442509041,2.07201234742579,9.03721731002682,2.89834464925442,7.41366183039144,1.07854299427954,0.242465985443943
4.67998223319517,2.91881639453342,9.50775230412311,1.34565185858094,1.68994335158847,8.88840261431006,6.81561339478873,2.04790323667655,9.10126774417934,2.45366547279522,7.76921006264809,0.727530380970677,0.262836288921055
4.67646806792393,2.90888686912644,9.53352858984355,1.275015881662,1.71161656051868,8.84014673760908,6.7809509570394,2.03411000698971,9.104714259475,2.5072471515996,7.65601340629837,0.815696574599361,0.276661784792429
4.66450442946608,2.91043724581479,9.5446093121477,1.30292068469192,1.67369423738319,8.82077830597428,6.82589075235449,2.02491338656476,9.08935915965868,2.54270675728392,7.70245705365075,0.794914713686191,0.231086289233561
4.68441356974549,2.94138876938203,9.46589831135113,1.34492764843322,1.78346306718522,8.76633145452289,6.74598186623384,2.09734620003332,9.00780979724001,2.55599419860547,7.52504746993589,0.925048132898351,0.358489221758217
4.68752363443472,2.94161366610735,9.47500928591513,1.33171745932373,1.78110669996918,8.75550410346476,6.75493314285112,2.08875796376816,9.01135351512631,2.55696985823157,7.52323075626916,0.921801604541317,0.35200607151861
4.59945076436889,3.01681627186662,9.40646179924433,1.54803624373567,1.56014012560575,9.0012213982925,6.82259937174506,2.09274861956731,8.9289370744517,2.5519819101371,7.95349736976781,0.626990955712502,0.208193541288619
4.67995852059175,2.67199601412181,9.69911961413361,0.906659295499765,1.53004390901021,8.73120399919179,6.56239159931107,2.01173831101405,9.1215434186053,2.98701216456767,7.28984216959532,1.13487672487964,0.208849689807276
4.82681012460233,3.15723630874567,9.21535930752781,1.57768451511281,1.99017698990443,8.50507457944968,6.74406678126072,2.1192222776096,8.71113955442818,2.30233506424125,7.52399200641951,0.987929447124814,0.525305936203714
3.95248961322227,4.9682857546185,5.03320302438284,3.662910408359,4.66854116353099,6.31693805517026,4.23463596017939,1.30776008279263,9.25123954888977,6.32542242001867,7.74308490721226,4.04273180432489,1.92723529421472
