"fastcoef_sq","pref_flow_den","slowcoef_sq","soil_moist_max","soil2gw_max","fastcoef_lin","gwflow_coef","jh_coef","slowcoef_lin","sat_threshold","carea_max","smidx_coef","smidx_exp"
4.81184550897492,2.21568127361664,9.53763492615337,1.20399448853431,1.2250136219401,9.19187010631997,6.7822413897325,2.14702242223511,9.49248313621912,2.27854190931462,8.51232576716915,0.100263774902199,0.135504867588357
4.81184550899113,2.21568127360836,9.53763492613511,1.20399448854074,1.22501362196093,9.19187010632279,6.7822413897407,2.14702242223628,9.49248313624457,2.27854190924579,8.51232576720966,0.100263774854956,0.135504867607131
4.81184550897619,2.21568127361631,9.53763492615339,1.20399448853353,1.22501362194161,9.19187010632145,6.78224138973319,2.14702242223518,9.49248313622113,2.2785419093107,8.51232576717073,0.100263774899353,0.135504867589278
4.81184550898024,2.21568127361424,9.53763492614882,1.20399448853514,1.22501362194681,9.19187010632215,6.78224138973524,2.14702242223548,9.49248313622749,2.27854190929349,8.51232576718087,0.100263774887542,0.135504867593971
4.81184550897723,2.21568127361581,9.53763492615234,1.20399448853384,1.22501362194292,9.19187010632173,6.78224138973372,2.14702242223525,9.49248313622276,2.27854190930641,8.5123257671732,0.100263774896396,0.135504867590431
4.81184550898578,2.21568127361422,9.53763492615561,1.20399448852709,1.2250136219519,9.19187010633559,6.78224138973933,2.14702242223577,9.49248313623632,2.27854190928212,8.51232576718321,0.100263774876912,0.135504867594827
4.81184550898915,2.21568127361701,9.53763492617215,1.20399448850935,1.22501362195548,9.19187010635266,6.78224138974079,2.14702242223573,9.49248313624186,2.27854190928926,8.51232576716667,0.100263774881128,0.13550486759166
4.81184550898397,2.21568127361326,9.53763492614885,1.20399448853298,1.22501362195118,9.19187010632653,6.78224138973731,2.1470224222357,9.49248313623338,2.27854190928187,8.51232576718573,0.10026377487903,0.135504867596649
4.81184550832196,2.21568127325486,9.53763492372315,1.20399449087774,1.22501362149379,9.19187010328154,6.78224138916973,2.14702242221987,9.49248313515613,2.27854190905049,8.51232576859459,0.100263775262856,0.135504868121562
4.81184550900922,2.21568127362248,9.53763492621556,1.20399448842661,1.22501362200139,9.19187010638139,6.78224138972886,2.1470224222352,9.49248313627448,2.27854190929707,8.51232576707,0.100263774919254,0.13550486760699
4.81184550840012,2.21568127320095,9.53763492342319,1.20399449084315,1.22501362184553,9.19187010286175,6.78224138901372,2.1470224222151,9.49248313529008,2.27854190869467,8.51232576841425,0.100263775381015,0.135504868432516
4.81184550855673,2.21568127339016,9.53763492463395,1.20399448975484,1.22501362182644,9.19187010416325,6.7822413891909,2.14702242221841,9.4924831355359,2.27854190938985,8.51232576749207,0.100263775581259,0.135504868040885
4.8118455093226,2.21568127380433,9.5376349274287,1.20399448730637,1.22501362217625,9.19187010792523,6.78224139003387,2.14702242224417,9.49248313678531,2.27854190943341,8.51232576643875,0.100263774692872,0.135504867309522
4.8118455090025,2.2156812736282,9.53763492624094,1.20399448845053,1.22501362195813,9.19187010643716,6.78224138975727,2.14702242223607,9.49248313626367,2.27854190930921,8.51232576713034,0.100263774874327,0.135504867570386
4.81184550904642,2.2156812736583,9.53763492642282,1.20399448826853,1.22501362199544,9.19187010664934,6.78224138978944,2.14702242223646,9.4924831363363,2.27854190935091,8.51232576699362,0.100263774876802,0.135504867532402
4.81184550660994,2.21568127220438,9.53763491678816,1.20399449727809,1.22501362057738,9.19187009459044,6.78224138749833,2.14702242217552,9.49248313237089,2.27854190797769,8.5123257723837,0.100263776315565,0.135504869862184
4.81184550761111,2.21568127280092,9.53763492073262,1.20399449355208,1.2250136211911,9.191870099497,6.78224138841229,2.14702242219891,9.49248313400064,2.27854190855739,8.51232577009983,0.100263775781846,0.135504868929757
4.81184552095694,2.21568128358226,9.53763498496623,1.2039944252568,1.22501363490119,9.19187016678044,6.78224139476878,2.14702242207272,9.49248315592424,2.27854193483767,8.51232570782762,0.100263790302632,0.135504856454843
4.81184551251885,2.21568127578566,9.53763494042038,1.20399447506121,1.2250136240855,9.19187012393652,6.78224139296558,2.14702242231687,9.49248314198831,2.27854191168839,8.51232575872842,0.100263773209151,0.13550486417764
4.81184549020455,2.21568126419797,9.53763485909348,1.20399454399792,1.22501361628543,9.19187001212904,6.78224136666119,2.14702242141215,9.49248310579255,2.27854191219608,8.5123257835012,0.100263803651813,0.135504886792416
4.81184554688649,2.21568129692661,9.53763508120203,1.20399434411608,1.22501364268759,9.19187029871683,6.78224142579309,2.14702242321413,9.49248319777849,2.27854193586316,8.51232567892485,0.100263754574328,0.135504829088942
4.81184559939568,2.21568133347102,9.53763531159527,1.20399411919242,1.22501367950772,9.19187056779141,6.78224146794282,2.14702242391491,9.49248328354216,2.27854199714429,8.51232551357634,0.100263755753858,0.135504775823923
4.8118455748326,2.21568131007889,9.53763516775704,1.20399423282164,1.22501368472612,9.19187038798662,6.78224142982621,2.14702242285967,9.49248324367473,2.27854195114769,8.51232557595083,0.100263776381939,0.135504826759874
4.81184502072555,2.21568094314999,9.53763269040409,1.20399604324777,1.22501378318816,9.19186692023849,6.78224053720642,2.14702238984347,9.49248234859176,2.27854175301161,8.51232598095782,0.10026481752654,0.135505722756127
4.81184482510471,2.21568102492746,9.53763310792825,1.20399668699486,1.22501281462701,9.19186794349143,6.78224109139019,2.14702244324563,9.49248206280986,2.27854203761238,8.51232731926502,0.100263920449831,0.135504950271947
4.81183743015621,2.21567481332055,9.53759621583787,1.20403287784968,1.2250073860984,9.19182678407929,6.7822354942606,2.14702240514818,9.49246985187786,2.2785285970383,8.51235692771323,0.100260042424821,0.135513775657335
4.82717077906587,2.22483429529207,9.54835601991001,1.17368654892122,1.24965401610166,9.19897460509048,6.78180413720104,2.14951178279082,9.48956815766029,2.28312034188564,8.46992678820995,0.121248858817759,0.150889446958557
