"fastcoef_sq","pref_flow_den","slowcoef_sq","soil_moist_max","soil2gw_max","fastcoef_lin","gwflow_coef","jh_coef","slowcoef_lin","sat_threshold","carea_max","smidx_coef","smidx_exp"
4.85820407610587,2.22435741337637,9.61599964078399,1.06239477670963,1.30542404708758,9.26639952587018,6.77890795452147,2.14224740534815,9.56180291254547,2.24997463268276,8.38738145951571,0.116511602466188,0.163681774942927
4.85820022698911,2.22435735452317,9.61599968428402,1.06239258837993,1.3054209295704,9.26639028103673,6.77890232920433,2.14224676238958,9.56179554205022,2.24999021254774,8.38736833411047,0.116526610289651,0.163681428366721
4.85846142855231,2.22441732332551,9.61604347524796,1.06188934306909,1.30606375278569,9.26639125806617,6.77883381170674,2.14218306715138,9.5622137395638,2.24935801261157,8.38688773629589,0.116530166689843,0.164002499203348
4.85855630434265,2.22434221124909,9.61613292404483,1.06190394711461,1.30605302874202,9.2669510127174,6.77892018637386,2.14234716710198,9.56239757622235,2.24918124853388,8.38720564070863,0.116139845517357,0.164063689598415
4.85849482545218,2.22428148107648,9.61620118203214,1.06175331729384,1.30602064074589,9.26709620727075,6.77870421739096,2.14251133987265,9.56234676811285,2.24962128721489,8.38681251682133,0.116469231800686,0.164161283079724
4.86276680375002,2.22448017171543,9.61692052425699,1.0548102070104,1.31637655367748,9.26918840703587,6.77774137231844,2.14286742965392,9.5706084386394,2.23830434172125,8.38085578997864,0.115330624267307,0.169131001310827
4.8592155636064,2.2225819299997,9.61602692962837,1.06104713956621,1.30648408294588,9.26701747164113,6.77867047916766,2.14238819487436,9.56478690762803,2.2466818913637,8.38838359020735,0.114786852947068,0.164128182270194
4.85583252615148,2.22382762604535,9.61563709448408,1.06562375402707,1.29885227885385,9.26432533447897,6.7794889470704,2.14132232459227,9.55682358903573,2.25670815778498,8.39096280243723,0.116917157651887,0.160583914890666
4.8591623627366,2.22443658848048,9.61617976488542,1.06066114773088,1.30789476586442,9.26671366488585,6.77867458885618,2.14230536709947,9.5636544133706,2.24745336901311,8.38571618390501,0.116416560554223,0.164879118822477
4.85928428869057,2.22440318230247,9.61620254825907,1.06065205100075,1.30803225453474,9.26705211864071,6.77865984641198,2.14237440668093,9.56391349613438,2.24711840785077,8.38591171466266,0.116186501192749,0.164946126497721
4.8594399126248,2.22194582499608,9.61698300274129,1.05990336807897,1.30526346547312,9.26887999926308,6.77853513139982,2.14283240738899,9.56437434942582,2.2486440931295,8.38826553610236,0.114362279783442,0.16415461546225
4.8632789289808,2.22452585526959,9.61730622406035,1.05331449050317,1.31770114852802,9.26919543309756,6.77766836421304,2.14283992909407,9.57143438062864,2.23744946272432,8.379238552631,0.11557183193519,0.169831469621883
4.85672345879367,2.22450448164595,9.61563444016718,1.06435180778262,1.30213041252542,9.26453336911134,6.77909261594515,2.14164699136348,9.55864266650057,2.25400243519955,8.38854355459282,0.117587594670426,0.16205435385118
4.85710075024697,2.22447443656433,9.61573457627145,1.06393225761146,1.30271664402584,9.26519247457603,6.77918249028713,2.14176905541736,9.55926758096412,2.25306661031191,8.38860463133323,0.116992743341701,0.162422444928126
4.86036480080322,2.22130736280914,9.61779241617279,1.05779692690604,1.30630902891443,9.27074942098899,6.77793286091554,2.14332211322656,9.56569857694653,2.24800050917713,8.38682296432805,0.114089897922316,0.165060670480357
4.86452366808874,2.22484097023387,9.61739373739514,1.05204536160851,1.32148445748936,9.2708093959288,6.77743490483712,2.14362262001956,9.57457082440192,2.2332075670692,8.37779987089175,0.115043115002753,0.171496388912077
4.85773471586437,2.22436813696302,9.61592016939835,1.06281313899796,1.30472135004022,9.26594405594134,6.77867027186553,2.14230564802615,9.56105904965386,2.25133664606799,8.38713453047018,0.117305814837271,0.163375776462842
4.85799419152473,2.22431727053943,9.61596252402982,1.06290694656609,1.30484392005156,9.26648904227383,6.77904241016613,2.14230515969779,9.56147065760463,2.25041794621814,8.38798000657442,0.116354716604847,0.16337428418817
4.86066735264323,2.22478221798755,9.61650459995989,1.05731535751562,1.31202035301546,9.26626222026518,6.77817732167945,2.14200163536438,9.56622062420697,2.24389887170777,8.38202344827731,0.116985404942541,0.166937851284983
4.86159409251358,2.22438981542267,9.61675588217958,1.05692225608505,1.31364461057468,9.26883319180611,6.77821607295173,2.14293953495124,9.56863114866456,2.24103024828002,8.38278994188541,0.115357300287496,0.16770951397324
4.86048381360206,2.22198648505961,9.61736825638302,1.05622087290529,1.30913753310708,9.26822545646507,6.77678929585827,2.14317371565286,9.56651206231598,2.24734945570825,8.38254735175076,0.11714353975693,0.166372489340653
4.86145615193156,2.21769129314241,9.61874860091719,1.05622789459971,1.30432614456714,9.27400763909189,6.77811204213874,2.14410768036399,9.56860759593909,2.24665704588511,8.39082236379494,0.110037557038735,0.164698283367915
4.85321061542983,2.23670183269621,9.61105883651271,1.07173914431248,1.30970851198396,9.25214923199077,6.78022528577827,2.13842566661742,9.55079216964585,2.2536098916248,8.3794078289162,0.128204777909078,0.162990958271034
4.86077703728643,2.23066567496804,9.61550953273247,1.05828908443149,1.31933918242977,9.26567902311265,6.77762099836366,2.14243280323959,9.56583890488546,2.24121321551589,8.37535841864161,0.121444465207298,0.170236204147598
4.85624092311366,2.23735637451756,9.61481547761824,1.0580604910968,1.3218670267799,9.25437098005702,6.7704834703787,2.14247931661851,9.55389132925739,2.259681769073,8.35258739825226,0.144732522969954,0.172386193677624
4.85216472435641,2.25347728870079,9.61173721691265,1.06609919061658,1.33329450779216,9.24596347789182,6.77004530366451,2.14300683798916,9.54358567227437,2.2654109906019,8.33495590926151,0.162004678864879,0.176754054863287
3.63172266049744,4.86700761827793,8.68863340815522,3.86281336126907,1.92495297266582,7.75189979261736,7.04737051493868,2.1324261060804,7.04802151063111,3.86230375354189,6.59884405296431,2.45716835644038,0.391839546405991
