"fastcoef_sq","pref_flow_den","slowcoef_sq","soil_moist_max","soil2gw_max","fastcoef_lin","gwflow_coef","jh_coef","slowcoef_lin","sat_threshold","carea_max","smidx_coef","smidx_exp"
4.60614367068129,3.21644177148357,9.44284927662224,1.43237872737587,1.85983526177104,8.61539152810556,6.78347705505566,2.05562397086086,8.79362354084948,2.71653786850729,7.32437694403288,1.1354867499883,0.34557485497376
4.60426837121906,3.22005934280252,9.4418670320081,1.43679760878044,1.85943046862454,8.61539020739706,6.78527953314243,2.05332274696238,8.79024010458583,2.71760074693997,7.32534208320972,1.13554443023979,0.343750822142396
4.6051542299373,3.21586118933917,9.44237142195452,1.43467948828108,1.8597823051551,8.6172314804729,6.78472334692674,2.05568500120212,8.79180184103826,2.71830600395637,7.32572955561279,1.13389339095647,0.343929374094373
4.60631214829381,3.21545497775415,9.44427298451933,1.42897088601319,1.86014318138082,8.61339115820753,6.78241414531973,2.05460902351224,8.79395833207622,2.71875540992442,7.31974615107773,1.13881600704641,0.345873618776089
4.60588672710581,3.21542730254237,9.44304725533057,1.43090225425687,1.86132864390249,8.60988851460165,6.77940900024813,2.06029183971849,8.793201558125,2.72127431003402,7.31498721444833,1.14443225212925,0.349354646196275
4.60538435425907,3.20207955355133,9.43329553403062,1.446546688014,1.87311443334216,8.62146146170565,6.75395815009075,2.07911545365119,8.79846212617476,2.72247275503518,7.29459841835208,1.1747793147309,0.366264113117714
4.60903265280098,3.21327444863429,9.43927781552751,1.43795907541577,1.86030477082038,8.61751024837611,6.78684504126862,2.06116181611146,8.79588174547341,2.70947299199774,7.33241799158516,1.12937513564473,0.349285195317212
4.60764132375816,3.22365679461157,9.43134809537927,1.45968380635722,1.85424033272536,8.64769489136704,6.80182396751491,2.05237970154234,8.7955708531382,2.68346037681027,7.38894868625533,1.08185008154764,0.333674881604489
4.60658343917493,3.21739688464983,9.44232637698383,1.43397399663079,1.85877693222641,8.62073097587351,6.78727818237261,2.05115554502971,8.79400621297086,2.71172967426406,7.33396102912126,1.12651743188506,0.341911824043993
4.59441850391276,3.23788971247843,9.43355311307148,1.46470144779028,1.86435375021239,8.61523523859887,6.78504790964246,2.06059313485547,8.78457638739402,2.71804329727757,7.32253490223914,1.14420963206059,0.345285003099189
4.59933198954276,3.22921030744688,9.43460150641719,1.45631042673519,1.86037670053339,8.61238218781002,6.78499963299293,2.06211822820475,8.78129102215763,2.7203270538863,7.32701620231047,1.14023092849982,0.346468633274685
4.59991831973322,3.22527090727995,9.44052492543778,1.44251727132091,1.8612032677613,8.60449250615375,6.78100813967956,2.05795949981153,8.78271592503657,2.72921260543702,7.30831615178871,1.1534867258181,0.347629533368521
4.60836875266596,3.22573973020568,9.43525555908019,1.43848627574906,1.86631994874335,8.60343399162685,6.78553768082949,2.05918677738705,8.78026765158456,2.72118457893548,7.31361256878002,1.14036501846053,0.350994247247103
4.61129775998554,3.22548093817881,9.42965461069761,1.44055392129073,1.86624761718557,8.61393785332965,6.79612994042627,2.0506288212195,8.77902188723398,2.70933763335745,7.33799220433483,1.11450660499772,0.34331421578471
4.59815106450284,3.23239248229971,9.43623524132822,1.45612917130462,1.85822873401307,8.61666206663064,6.79084878734706,2.0507398971265,8.77921124774054,2.718731448044,7.3327640826937,1.1335463774918,0.33956976302657
4.53538283509161,3.25403538617964,9.53003932244664,1.45908946328444,1.79570708740454,8.72311241519421,6.78463418804055,1.96484299722796,8.8950900704473,2.66733542484175,7.41032330984965,1.11012176792266,0.260983449481684
4.4426294846124,3.31204018571722,9.52659208327001,1.52706961470718,1.77865904092089,8.78246212641551,6.80378855560813,1.93039929708597,8.95109565321354,2.6076891923087,7.54762566111806,1.03407975242581,0.196973109880342
4.51590936691805,3.34594289554435,9.442389479805,1.58162565610433,1.90498298606786,8.68216504630306,6.75048421362534,1.98401567869376,8.85579334258691,2.66317085746182,7.3244509216639,1.18565234769431,0.293906981456758
4.7982472408099,3.56607883204769,9.5472386381762,1.57753798341418,1.71211552107542,8.81435474023004,7.01824700501653,1.73035052976376,8.60579495323995,2.44172723080082,7.66301835701498,0.641512282499809,0.238335604866359
4.50192242145564,3.4075047369303,9.13662074865316,1.66216914789064,2.04630815574117,8.57686849180874,6.60091579191843,2.20473221996458,8.61317485020238,2.55859598895802,7.49099522028107,0.986476750467493,0.540488697418893
4.64501995011678,3.81825639459745,8.99046111276633,1.95293163226292,2.13216379603074,8.1501046755685,7.14000429032891,2.1936108411045,8.21106551457889,2.71929871707017,7.34287520181168,0.902949688956098,0.414849589170088
4.88893962750387,3.75716159092123,8.87599215809066,1.90605118934752,2.60328057557641,8.19833949008654,6.57191920549719,2.23796095624564,8.34376931053949,2.60188428463853,6.69248030659844,1.40046049687257,0.773109975419919
4.64473797574103,2.74769978803677,9.11181808775986,1.88183199790406,2.33831651824056,8.89052719660691,5.84256364968037,2.6933002850786,9.02331654607586,2.835951237707,6.51035944982879,2.29906096492522,0.977311442670381
4.88814608738783,3.64973056334767,8.89627332591203,1.73622062381874,2.50188022874582,8.18620132200026,6.67274733811459,2.51827620812764,8.37388463447751,2.69793289811766,6.50206963593821,1.49472992076579,0.901144371704513
4.72721494847895,4.1186410125398,6.87115259514137,3.2488667198451,3.30675027992952,7.21955535647462,6.33278537964703,3.86599009686858,6.77805391652629,2.64600969896049,4.83364489400017,3.05916316650081,2.58300157635999
5.17340760154042,3.89778998585435,8.40660493928652,2.26607450483534,2.79992154942628,7.49404623168803,6.42635044442163,2.2634867332169,7.60227933532103,1.94733581756378,6.78583826781483,1.88002273675522,1.21178847146296
7.51087569083523,4.6807847123863,4.22166186279222,4.72448756971039,7.33530988191998,5.6943820524068,5.20460687888185,3.7362433810882,3.70996247859851,6.08557274380765,3.72175570875331,6.50668351230603,4.70295122978764
