"fastcoef_sq","pref_flow_den","slowcoef_sq","soil_moist_max","soil2gw_max","fastcoef_lin","gwflow_coef","jh_coef","slowcoef_lin","sat_threshold","carea_max","smidx_coef","smidx_exp"
4.81974695580236,2.21961307160158,9.56504835352497,1.17141346016016,1.23515055081893,9.22128406924709,6.7845247471136,2.14710746997355,9.50553199031175,2.28494083615545,8.48358510871548,0.105456593431212,0.132826308918084
4.81970648401485,2.2196582273741,9.56519548319092,1.17131435799139,1.23506748189775,9.22136224484421,6.78451518667322,2.14709451072762,9.50545396816684,2.28517866028193,8.4834213232035,0.105582608635615,0.132741786136099
4.81979349536936,2.21964627988173,9.56519020538717,1.1711746990966,1.23525463886453,9.22136696256299,6.7844937749706,2.14709239983722,9.50559534581966,2.28496843044375,8.48332015351116,0.105549559442636,0.132858600343382
4.81983286916832,2.21966296518773,9.56531061391179,1.17102214355266,1.23530989727883,9.22149485414829,6.78450153407514,2.14709239454253,9.5056596760851,2.28498722741322,8.48318480338832,0.105573313306555,0.132853878290423
4.81985643330402,2.21966646470231,9.56534123005058,1.17096305839408,1.23535312976823,9.22153036961258,6.78450155536684,2.14709237228646,9.50569848447305,2.28495759717245,8.48313686373652,0.105572289684411,0.13286997386161
4.81985397877474,2.21966735826796,9.5653419504135,1.17096497757706,1.23534886028144,9.22152898496408,6.78450110314668,2.14709201654638,9.50569420400651,2.28496385721835,8.48313649233069,0.105575020219382,0.132867500875427
4.81985534528009,2.21966935210512,9.56535061563188,1.17095487867629,1.23535065664397,9.2215359789821,6.78450109604739,2.14709139050382,9.50569578888609,2.28496864019013,8.48312593038461,0.105578714617496,0.132866295830314
4.8198995304975,2.21967351561834,9.56539676720375,1.17086097963742,1.23542908718044,9.2215999836219,6.78450571683873,2.14709237167055,9.5057694972507,2.28489782284364,8.48306133119459,0.105561043859695,0.132896982705152
4.81989983915528,2.21968797876899,9.56546808742282,1.17079484823518,1.23542120270638,9.22165795265256,6.78450704480967,2.14708998399907,9.50576742308069,2.28497255087428,8.48298124181738,0.105603586647766,0.132871189457018
4.81970150446487,2.21979377571958,9.56582104511718,1.17068465799043,1.2350322763288,9.22181895580036,6.78447036350779,2.14707273977418,9.50543857586231,2.2857949872327,8.48263503109794,0.105996700583621,0.132550525409328
4.81996014578009,2.21972431571344,9.56564351680628,1.17050918821425,1.23554571503431,9.22177836563043,6.78447677043248,2.14707573918712,9.50585436797779,2.28499560263694,8.48267790530534,0.105699168244584,0.132905953120489
4.81996159397702,2.21968388601555,9.56548018175225,1.17070791749195,1.23553900252484,9.22170017237704,6.78450990357792,2.14709187487063,9.50587096912201,2.28481866513626,8.48294319423307,0.1055512718742,0.132935850383537
4.81991815688367,2.21968604779286,9.56548845408263,1.17075645385928,1.23544980172712,9.22169010515776,6.78450921155722,2.14709246151003,9.50579976848163,2.28494592346096,8.4829583117348,0.105593911390305,0.132881389299338
4.81995059249755,2.21969768399203,9.56555513588487,1.17065131798321,1.23550723837484,9.22175616500751,6.784509237907,2.14709009744704,9.50585056398503,2.28492860781251,8.48286381305785,0.105606568948626,0.132896104767642
4.82018280706446,2.21981461249849,9.56630308764161,1.16966402298375,1.23586293482395,9.22248103650121,6.78452058825803,2.14707593181649,9.50621684596507,2.28509528505266,8.48192423699605,0.105834423968078,0.132886574728541
4.8201710967993,2.21976971298847,9.56602809738485,1.16989976796157,1.23590041849853,9.22221323429441,6.78449291114256,2.14707764993782,9.50620257505817,2.28484157980555,8.48217094452405,0.105724956859132,0.132995184422908
4.82013066289691,2.21976464057821,9.56597978046908,1.16999782412073,1.23582543274179,9.2221562004137,6.78449337620475,2.14707756532257,9.50613580547718,2.28489654997167,8.4822495284236,0.105728472954661,0.132965750641494
4.82004042112657,2.22001151502868,9.56690456482092,1.16954090194363,1.23541610543869,9.22309006507291,6.78471753883787,2.14705659753009,9.50594992971896,2.285935922177,8.48175865461473,0.106002822147414,0.132398480564422
4.82086636878369,2.21992490197056,9.5672169808945,1.16797965163183,1.23707484562058,9.2235801608797,6.78456236181184,2.14707267582489,9.50733754573958,2.28421525978661,8.48062595908515,0.105724528192577,0.133318211660827
4.82100188098142,2.22005365688146,9.5680574200658,1.16699998448239,1.23721748541318,9.22431181094456,6.78455380212101,2.14704586819825,9.50753056580478,2.284747354216,8.47961169850262,0.106099771913254,0.133174636567962
4.82036897140858,2.22011408821727,9.56863706759398,1.16700762121504,1.23574189915551,9.22423835403398,6.78442755961269,2.14689025319407,9.50627328590259,2.28727492571665,8.47911509589554,0.107079598389025,0.132322510700626
4.82128095906059,2.22011704091787,9.56854539103782,1.16612958319364,1.23769284974162,9.22476344131922,6.78454138538775,2.1470042806095,9.50792606395954,2.28461832926412,8.47883392481981,0.106214822976921,0.13333831746089
4.82137799657497,2.22039116484012,9.56961797741192,1.16524007372889,1.23776964643211,9.22588108553407,6.78469733282825,2.14702391156169,9.5081356420196,2.28528225020263,8.47788536277187,0.106560076328891,0.132969951985855
4.82691381586157,2.22180330972135,9.57957237636989,1.14880944321702,1.24741172545066,9.23632629167395,6.78485809317383,2.14678224464225,9.51689462614851,2.28145429216278,8.463633703653,0.107902680016366,0.135722878640194
4.82735128004283,2.2217044185704,9.57963340276398,1.14830876595556,1.24816866729914,9.23679089838951,6.7849079435241,2.1468569377805,9.51771083851954,2.28023499531938,8.46363089785008,0.107332788220556,0.136123393827255
4.83931681302731,2.22431523185854,9.60275467564912,1.10978263787639,1.26772658467087,9.25939606410815,6.78462987501426,2.14555994073523,9.53543883129442,2.27568438170782,8.42993192204086,0.11187957902164,0.141834154679986
4.87545102283495,2.26290585335203,9.50284411087463,1.1842798879147,1.35714262808961,9.18316282798082,6.75796626630634,2.16886309918417,9.4335146911428,2.33518113720768,8.36861014803541,0.21298992339735,0.21537054706322
