"fastcoef_sq","pref_flow_den","slowcoef_sq","soil_moist_max","soil2gw_max","fastcoef_lin","gwflow_coef","jh_coef","slowcoef_lin","sat_threshold","carea_max","smidx_coef","smidx_exp"
4.57870845275963,2.66369886141417,9.51748590186327,1.23372886609703,1.44202633068418,8.85515274322186,6.50091203758528,2.12545618638245,9.05892982809777,2.93565746829589,7.5295277990604,1.07549282068445,0.232060272094191
4.76978165956591,2.68857645916257,9.59837715716106,1.12082534452008,1.63206207864412,8.86621401190751,6.78370858467327,2.03012231169609,9.26631461529706,2.43988234484673,7.76719851950793,0.673793983653646,0.2441128176203
4.72639926427421,2.80005637353187,9.51915405323193,1.28378359117829,1.62793918635937,8.90379127171406,6.82080235115921,2.05936455632168,9.15600799438197,2.4264319462381,7.84779233372237,0.632106467682885,0.250911864444279
4.64704818050429,2.70213562063976,9.59757835540054,1.12937085308016,1.52310592662977,8.84617669533638,6.59175479704962,2.08173053588458,9.09940338423963,2.85942492808775,7.51175458939918,1.01170143220028,0.226483357613341
4.77394110647501,2.68554135765722,9.6158162513292,1.05923144180977,1.66804758764223,8.81088708633286,6.74905977587475,2.02433258540351,9.26696050196396,2.48825798155914,7.64377202697457,0.771270398940212,0.265471879239971
4.71180118061286,2.84876799654342,9.5204893854764,1.27093184319625,1.67028604034479,8.83424185392939,6.79815336292398,2.05480270857904,9.10651287615098,2.49620100967895,7.71584360769817,0.74826570451615,0.271294427385306
4.76841119427523,2.60861557428674,9.6490035498344,0.972255131831969,1.60409691872076,8.81380666093409,6.68412767332477,2.00808601807239,9.29536123588137,2.56958647103151,7.58769498140367,0.828269279899598,0.24362263945377
4.62720568465088,2.74498060444375,9.60212073658063,1.10629999891415,1.5381119970167,8.79425374444197,6.55581735404161,2.06229373990822,9.05481361029022,2.94138694402286,7.38537038827993,1.12345317837259,0.220707242690615
4.60520326676668,2.74790118988135,9.67919832139237,1.05289201302043,1.58081204943083,8.79548811021193,6.56648645107061,1.99014991754557,9.17661012051561,2.88040237215955,7.37700077838306,1.15834792191233,0.183775494595958
4.59987594288239,3.01141475615822,9.58074409341368,1.34037059369649,1.68409453584786,8.85772146281854,6.74046672180936,1.97262525487577,9.08082689707099,2.63134011729917,7.58128122398874,0.992739844026027,0.194741945970554
4.59682008698787,2.95405811949672,9.41851742359168,1.52068507112349,1.50122194474924,9.01156536782296,6.80474604129667,2.0923066149551,8.94762634139195,2.57950445675371,7.95656460440102,0.628568150505642,0.197409488481778
4.56423468362003,3.06318407220707,9.55583706171152,1.31698432356139,1.71290825917574,8.67600422790552,6.73588948442138,1.9965368854099,8.93110683965555,2.827405988744,7.36238968635536,1.16417463570135,0.224095895202613
4.60945095293031,3.11679829575008,9.43199645217882,1.35509979015447,1.93652121409727,8.54993429245907,6.58196825583565,2.11951676524864,8.79067523149588,2.8680099794312,6.98713314465096,1.44125685425573,0.461646591960582
4.5955556891992,2.99002642816363,9.60224193829079,1.17992614953679,1.7401719834276,8.71858133763804,6.65386270722335,1.97415889578459,9.03323143544185,2.76923960005533,7.29921897845004,1.184362353031,0.263380996761238
4.56962442401332,3.06789275063296,9.57885423157158,1.27640129499658,1.71143228187395,8.65505004929274,6.74212446525062,1.97407300313403,8.93876859730165,2.84234980965375,7.3490151864482,1.16774787861545,0.204517802782412
4.59664926969718,3.08145409524822,9.50783983378866,1.38615335021466,1.72995515093206,8.81860675825915,6.74822225730128,2.01779909544159,8.97524435421775,2.63621619788376,7.54297059563498,0.988129485359208,0.254887315418843
4.57562118721851,3.10320561025534,9.53126415575139,1.36311451671926,1.72172259429609,8.69617278692416,6.7763673391376,2.0001819064168,8.91184108673418,2.76696532811471,7.44237973461293,1.08331417403747,0.223822035658105
4.56657883704038,3.08779597836406,9.52085166135862,1.38645289219438,1.68157591450841,8.73755822135529,6.77453269462527,2.00408780261967,8.91571208251201,2.76076944023435,7.50516017177992,1.03927928575769,0.205324624566583
4.57524783161656,3.08621508777713,9.53685739042216,1.37104954605433,1.7030662463555,8.7109344021613,6.79315701416894,1.99713090906764,8.92855064565489,2.75213060721393,7.48640165702304,1.04820264872438,0.209597745237784
4.60957667034882,3.12830520306349,9.4339140291097,1.3666706295918,1.92406484660265,8.55803773428321,6.61045360427917,2.11045698635455,8.79178261261034,2.84726776368394,7.03441200683154,1.39795869745982,0.445049653870823
4.60936844746696,3.12525045822861,9.43368764980063,1.36174656126982,1.93262624168013,8.55242124664632,6.59725997266846,2.11390843143559,8.7917067078214,2.85679344050456,7.00918501568233,1.42125256898405,0.453011491765483
4.58632075570348,3.08459906732428,9.55027673218682,1.24320646271454,1.77818588642575,8.60923834013697,6.65042135066594,2.00261062451862,8.90759969871061,2.86708586027392,7.18120566443584,1.29298751454084,0.282044645483255
4.62075042291896,3.06894618113663,9.46619685021387,1.25731832674949,1.95688233295905,8.4750652618635,6.52469398565989,2.11130498145454,8.80326797214149,2.94852268837027,6.82492988677075,1.56569544159439,0.484482804411839
4.45539794723216,3.1683455915301,9.61499154709998,1.39055006939567,1.68188406859583,8.85502298239692,6.72416898823119,1.90956793940033,9.05223939858531,2.6860682828683,7.5168232948978,1.10038676877254,0.14587954122559
4.56588140315303,2.88671344412256,9.74788703665234,0.919344304144222,1.71562554529141,8.44703989627972,6.55107115921795,1.90924779691458,9.03868955677911,3.15347463728913,6.86026150221927,1.58882582174362,0.20187310975757
4.80628572740678,3.13416171259065,8.37832590215681,2.15741994067823,2.4790327622753,8.7818848221208,6.84205788483122,2.09487346022286,8.99561710961236,3.09772056639227,7.31181873470069,1.63319474517517,0.717480120826388
6.48212444190325,3.57744920746738,6.38486344597354,2.16243562408973,3.49008741866709,5.44451737046437,6.89113146913158,2.86796979723115,5.18339847745441,2.86114603807949,6.36662127347619,3.20830144760837,3.41730038318182
