"fastcoef_sq","pref_flow_den","slowcoef_sq","soil_moist_max","soil2gw_max","fastcoef_lin","gwflow_coef","jh_coef","slowcoef_lin","sat_threshold","carea_max","smidx_coef","smidx_exp"
4.59987594288239,3.01141475615822,9.58074409341368,1.34037059369649,1.68409453584786,8.85772146281854,6.74046672180936,1.97262525487577,9.08082689707099,2.63134011729917,7.58128122398874,0.992739844026027,0.194741945970554
4.57870845275963,2.66369886141417,9.51748590186327,1.23372886609703,1.44202633068418,8.85515274322186,6.50091203758528,2.12545618638245,9.05892982809777,2.93565746829589,7.5295277990604,1.07549282068445,0.232060272094191
4.61143224306246,3.11961654819154,9.44196104825325,1.34449164243527,1.92798198402916,8.54264046451251,6.60055279258645,2.10756316934734,8.79489392964085,2.86319430645747,7.00316448038272,1.42101537560999,0.44813284562382
4.82122303228476,2.44853109389337,9.63856826071857,1.04156684392052,1.47787121016,9.05794247414976,6.79239502902178,2.02515501767069,9.48145268698381,2.27648544647298,8.07896890396509,0.383140669561327,0.180125357704945
4.54717989292229,3.02148430276412,9.53580770196463,1.31828839773514,1.76752024998858,8.66139431012087,6.57961529374247,2.06046315916435,8.93392581367778,2.93433878804037,7.13658859044351,1.41761019871265,0.298530105353949
4.60906575440779,2.95374554952771,9.62609344804744,1.20594164448391,1.69480571129718,8.88425129202163,6.66869644923393,1.9582679126989,9.15890969909705,2.64202060166019,7.50796988178776,1.03466667113174,0.206461930527277
4.62547626828116,2.66540477870798,9.60027802259785,1.15860336237657,1.52019020136224,8.84301192746351,6.53220919970955,2.11423559451328,9.10619256062298,2.92614906028638,7.45399748261665,1.11847483109871,0.231652423351764
4.60978342165274,3.11545354588696,9.43010816425857,1.35637614038869,1.94259831274452,8.54840823677567,6.57450593201135,2.12366615261388,8.79023183443317,2.87156451557045,6.97487662161387,1.45418237034539,0.467338742871735
4.75825450862388,2.68087994797743,9.48803133718102,1.3040293345794,1.67627798977667,8.92073336320142,6.77325183886092,2.14289264451571,9.2801625524428,2.34888796955389,7.91291346477303,0.564283982423343,0.25944884342146
4.56423468362003,3.06318407220707,9.55583706171152,1.31698432356139,1.71290825917574,8.67600422790552,6.73588948442138,1.9965368854099,8.93110683965555,2.827405988744,7.36238968635536,1.16417463570135,0.224095895202613
4.59897678302433,3.02219526834077,9.57614432912958,1.24721671135979,1.7433791952623,8.73914197270444,6.68910045560485,1.98657805478077,9.01410429831068,2.73324201454177,7.36561516956368,1.13324557379879,0.258000412628149
4.63446217618845,2.62210582174584,9.52219394565491,1.06245509258308,1.48308605791787,8.76915459309522,6.47935128035062,2.07181635116743,9.02555183351076,2.93340261452585,7.33763296878638,1.10009817245346,0.260895068920138
4.60945095293031,3.11679829575008,9.43199645217882,1.35509979015447,1.93652121409727,8.54993429245907,6.58196825583565,2.11951676524864,8.79067523149588,2.8680099794312,6.98713314465096,1.44125685425573,0.461646591960582
4.76328834259763,2.75503224914185,9.50788993648676,1.30461552702671,1.64885440246712,8.95841966312224,6.88270465633933,2.07799850154878,9.22766664308733,2.27157160783993,7.99556750072837,0.466884583759812,0.270575361120731
4.56946205405015,3.07417290494496,9.56688867257278,1.31566900081,1.70538072829834,8.68360563516917,6.76729368666994,1.98069915299441,8.93950408669939,2.8042405634375,7.4121009450881,1.1166676951705,0.202068891343362
4.58275874584069,2.84624781820228,9.70095609530565,1.08859635867609,1.61512384694434,8.88239052892032,6.60699848164231,1.91391289413044,9.22291268699734,2.73161041812744,7.45375685842111,1.10024340408108,0.162411476258884
4.63805093738162,2.68349034115438,9.59261416705951,1.16041961645248,1.46630330438431,8.90673642513683,6.6004004743768,2.08172711024274,9.10473228955799,2.84955306931547,7.6011034312116,0.942382258813959,0.194731535815271
4.60884567660128,3.12343988595654,9.43060960052258,1.36841067903563,1.92614138987069,8.56074014931411,6.60036961188138,2.11564167624069,8.79146459670852,2.85162352154515,7.02540864389646,1.40830123645977,0.450609337936743
4.74793496670171,2.72419323109213,9.5472668627387,1.21467007527481,1.60653050039462,8.90860495711604,6.80309989681307,2.05397882830085,9.21265174934924,2.42144282285876,7.84819616231722,0.617125310100261,0.246149330806309
4.56574159826356,3.07414989232033,9.56356515814048,1.32290318075532,1.69686620001343,8.69520359110876,6.76651427959094,1.98152899714821,8.93827375422281,2.80326186623845,7.42654721437906,1.10765466374695,0.198023153634408
4.54530011471109,2.98983483216854,9.61691212914595,1.2864209821606,1.6259403676461,8.87110724602382,6.73034316754977,1.93573220316918,9.06760313641236,2.67210071939252,7.60714486663554,0.98135150394552,0.167730772567129
4.64704818050429,2.70213562063976,9.59757835540054,1.12937085308016,1.52310592662977,8.84617669533638,6.59175479704962,2.08173053588458,9.09940338423963,2.85942492808775,7.51175458939918,1.01170143220028,0.226483357613341
4.61138379610491,3.1185358661918,9.43536575489521,1.35350716059333,1.93164323936305,8.54948666699609,6.59346979371221,2.11439231601618,8.79338941189841,2.86102075411997,7.00204025929153,1.42535992760781,0.454557457410611
4.7825635646817,2.67045560394045,9.60912942569674,1.06469894462993,1.67513765195287,8.80658526336673,6.74527153112426,2.03904533582978,9.26917076241588,2.48103914820016,7.63607492340391,0.777234428004085,0.281555082809806
4.57090054637334,3.07105718644198,9.5738705888825,1.29673089946889,1.70860578346539,8.66974619605094,6.75824211656468,1.97694462095055,8.94094832625064,2.8203623671977,7.38540894797337,1.1380481756133,0.201580435002435
4.5955556891992,2.99002642816363,9.60224193829079,1.17992614953679,1.7401719834276,8.71858133763804,6.65386270722335,1.97415889578459,9.03323143544185,2.76923960005533,7.29921897845004,1.184362353031,0.263380996761238
4.63547688199021,2.68654215717396,9.59441100892788,1.15143496322898,1.4682529885573,8.89994214507941,6.59427419739386,2.07877233672079,9.10070319877933,2.86108732482161,7.58357700753269,0.956358168133697,0.195375560971389
4.61370153926042,3.10856095803561,9.44125432360419,1.33294609100252,1.9311629391484,8.54089179451527,6.57867914213519,2.10619058538915,8.80067145271525,2.87518835325262,6.97767509246025,1.44612054368535,0.455758080036466
4.76167030697617,2.69320082660422,9.57062882358782,1.12074972278337,1.63476720257827,8.84838037559128,6.75521687667737,2.04669829540673,9.23059764586637,2.47506562701271,7.70364569335768,0.72705640923897,0.271364554533474
4.56572051633453,3.06584224248772,9.58132868780864,1.30122584235713,1.69853407229925,8.68313694882632,6.76907684836965,1.97182827158075,8.95105167623004,2.8138419067279,7.40934660657313,1.12294484361257,0.19159721734639
4.61884621667196,2.9992851349252,9.58937448686554,1.16463149056883,1.78293498154086,8.63902820135836,6.64353156580678,1.99083695917671,8.99794903595835,2.80782520105594,7.19041469913423,1.25477101033272,0.298333776232803
4.63070219326913,2.82377773787,9.55839251284207,1.21530715851001,1.60700541681289,8.78701639014127,6.62543757380103,2.08340286646015,9.02263748254408,2.84085875901417,7.45026476026892,1.06979731993513,0.257502834287356
4.60870222285421,3.13506458883688,9.42667446702495,1.39235561525368,1.91677111960436,8.57887364407896,6.62383311719126,2.11346615114315,8.79337904976357,2.82565152685429,7.07863254164392,1.36561315396949,0.437623425491442
4.76978165956591,2.68857645916257,9.59837715716106,1.12082534452008,1.63206207864412,8.86621401190751,6.78370858467327,2.03012231169609,9.26631461529706,2.43988234484673,7.76719851950793,0.673793983653646,0.2441128176203
4.55997416119732,3.07197786938625,9.60325165030758,1.28410110847944,1.7090642621195,8.67334672922318,6.75668175686814,1.95641576363259,8.976920752316,2.81559100638798,7.37909751106387,1.15710886810027,0.18411234086814
4.58964779325024,3.06274148911103,9.55916724320034,1.2454162362973,1.77437871857024,8.72187381209592,6.67919725773947,1.99022151243065,8.98176187586268,2.74292269535927,7.31645931186836,1.16450856543891,0.282748208464127
4.627052959402,2.78967033673526,9.55778751810858,1.24787981600758,1.5353206781109,8.87929205908503,6.62678245360461,2.08763975374735,9.05872265886088,2.81877753542648,7.58773868512197,0.979545015435964,0.211414339386546
4.60553879689334,3.12774528962221,9.4239066862155,1.38523976983973,1.91807173190332,8.57424324592353,6.60925907612835,2.11669389851787,8.78795295139269,2.84041678937101,7.05452743914341,1.38321168203689,0.446403082395703
4.73107543282506,2.7430521575184,9.55186966908485,1.19610620428519,1.61856454641711,8.88081408465969,6.78286246062333,2.04579063233408,9.19112040520096,2.4644042822711,7.77946016730789,0.676391576140982,0.253539848947157
4.56962442401332,3.06789275063296,9.57885423157158,1.27640129499658,1.71143228187395,8.65505004929274,6.74212446525062,1.97407300313403,8.93876859730165,2.84234980965375,7.3490151864482,1.16774787861545,0.204517802782412
4.59341968281647,3.00639087431248,9.61693321886816,1.16417751240524,1.75909467645259,8.69056398243492,6.64923190738599,1.96383083875126,9.03277899525587,2.7886545189915,7.24902224509875,1.23163628778234,0.263403845303167
4.63463116790552,2.70466625591775,9.60615696381294,1.09004146810849,1.52671677403529,8.80418692688009,6.5587757488019,2.06893340151875,9.0678300873932,2.92877828926313,7.39938650374729,1.09611082470287,0.23148914803538
4.61102966704622,3.12505198637673,9.42794866890382,1.39253777244095,1.91139259640875,8.58233085275345,6.61886817690992,2.11376840691392,8.80068572844979,2.8261804892306,7.0812696526066,1.36653217177567,0.436576555400163
4.72451248389469,2.809986555513,9.50393221885117,1.32800670232196,1.62020667549919,8.92802072977584,6.84975707510054,2.06509303496661,9.15168389325499,2.38640678018038,7.91251328443894,0.576506264295364,0.248761152530081
4.56965373334219,3.06077070665686,9.58692875960946,1.2674643768064,1.70909811317807,8.65800409653675,6.73612230689354,1.97135013868134,8.94921116537308,2.84849383457495,7.34483435715441,1.17685807215006,0.199396809002236
4.6092815064156,3.10087633156926,9.5060660500222,1.39465557032395,1.76058923274428,8.8117852168216,6.77627302780118,2.01846159984129,8.97550346512727,2.59724877455203,7.55583091559226,0.965508839596364,0.269145171023089
4.62754059181578,2.747186376844,9.58509543478475,1.1405861158475,1.5421226396185,8.81312264757945,6.58171124204197,2.07539603414314,9.04840215321458,2.89994970334755,7.43729236638542,1.07221187771324,0.236066376201102
4.60944063761772,3.13049877279407,9.43039978314693,1.37637718336361,1.92187217992975,8.56542726729374,6.61662354588757,2.11181312571222,8.79139141581477,2.83755935007825,7.0512400800439,1.38377413819582,0.444062464887768
4.79125225299142,2.56171521512278,9.62662862721529,0.969655156959203,1.63443072668253,8.83426360576398,6.70180234651874,2.04012368052334,9.33350359939655,2.48092281797686,7.64468204275117,0.739267109904425,0.283435021185479
4.5786401981345,3.10055959048929,9.47841726424379,1.42854903493656,1.7150293018443,8.68866141948428,6.79485032204362,2.03629664887744,8.86520122912018,2.7505720339962,7.47944556952529,1.03961748440436,0.252036900427556
4.5966761237927,3.082600539925,9.50761467175947,1.38668819013517,1.73103230070982,8.81838556549788,6.74852213323813,2.01780797180432,8.97486884527135,2.63575933775051,7.54285262456782,0.988176178181542,0.255097216721379
4.62814332478799,2.75435767261027,9.58708441634105,1.12936188408822,1.55516905102524,8.80567503221701,6.58392442509041,2.07201234742579,9.03721731002682,2.89834464925442,7.41366183039144,1.07854299427954,0.242465985443943
4.60577571459808,3.13600982434624,9.40435705785066,1.45399070772181,1.8912045262825,8.62859710075728,6.63800384016835,2.1240161103914,8.79825777383067,2.7868992760418,7.16669978077944,1.30894448741654,0.432938580256399
4.72639926427421,2.80005637353187,9.51915405323193,1.28378359117829,1.62793918635937,8.90379127171406,6.82080235115921,2.05936455632168,9.15600799438197,2.4264319462381,7.84779233372237,0.632106467682885,0.250911864444279
4.58306021813065,3.11436398920233,9.52382714773062,1.33256696615383,1.75550708498355,8.64968042140573,6.73608579771479,2.00884076730108,8.88747345664293,2.80729239609175,7.3381826922351,1.16331252354678,0.253491529463633
4.59664926969718,3.08145409524822,9.50783983378866,1.38615335021466,1.72995515093206,8.81860675825915,6.74822225730128,2.01779909544159,8.97524435421775,2.63621619788376,7.54297059563498,0.988129485359208,0.254887315418843
4.64296073534733,2.73421045615364,9.60932550997342,1.11818479436735,1.55307165851797,8.77467214430895,6.58838495191198,2.06742148474124,9.0750515402939,2.9039550763816,7.41223660468132,1.0956329783277,0.232470166540664
4.60777907803582,3.12516665893533,9.42790556381144,1.37530530570462,1.92325148267011,8.56737096417917,6.60323852972639,2.1167245164775,8.79104481706654,2.84650649544864,7.03779313310192,1.39919260512378,0.448730333236731
4.70977178144055,2.79767410042026,9.54468251530511,1.25372001770386,1.6280465679604,8.89283710327847,6.80318597916245,2.03853138689899,9.17995723733227,2.44472361904,7.81062484966733,0.669244615390955,0.240002303190563
4.56181376176182,3.04558316017974,9.59521525581482,1.24359368001614,1.69993242922668,8.65236434708865,6.73396570636709,1.96458049268167,8.95056783978331,2.86463266085826,7.33031852780705,1.18250051606794,0.199735611258098
4.60629004409515,3.08856315992785,9.53249258802364,1.32384385066974,1.77830171406063,8.74799290679094,6.72640481019381,2.00805377224458,8.973074834194,2.6806905445778,7.41452859320779,1.0871983622933,0.276589343321581
4.61588643609917,2.78813223574859,9.56303982760409,1.18459294756596,1.54894252179222,8.82517558180993,6.60605192731118,2.07891653718852,9.02726641902782,2.87191706251354,7.48377332225812,1.03585958130007,0.241464631003112
4.60957667034882,3.12830520306349,9.4339140291097,1.3666706295918,1.92406484660265,8.55803773428321,6.61045360427917,2.11045698635455,8.79178261261034,2.84726776368394,7.03441200683154,1.39795869745982,0.445049653870823
4.75569825351094,2.64543356274524,9.60839016402085,1.04385708909884,1.60641451095899,8.89182733576547,6.72742970064778,2.01547972120759,9.30619582414377,2.46465111960989,7.72340502818403,0.697313234872818,0.239114234203536
4.57562118721851,3.10320561025534,9.53126415575139,1.36311451671926,1.72172259429609,8.69617278692416,6.7763673391376,2.0001819064168,8.91184108673418,2.76696532811471,7.44237973461293,1.08331417403747,0.223822035658105
4.59284686662908,2.9781043272649,9.62862643777332,1.14129002916086,1.7420435690481,8.71791303304041,6.63351847628248,1.95809709979225,9.06434935885534,2.78226199409069,7.26530423883391,1.21734895400713,0.2545150525702
4.62720568465088,2.74498060444375,9.60212073658063,1.10629999891415,1.5381119970167,8.79425374444197,6.55581735404161,2.06229373990822,9.05481361029022,2.94138694402286,7.38537038827993,1.12345317837259,0.220707242690615
4.60961451884583,3.12824387462987,9.43392015310574,1.36662066688528,1.92405864606125,8.55804631836672,6.61046017193493,2.11047340774206,8.79181571221769,2.84723515028507,7.03444512987397,1.39791767443051,0.445068276068856
4.73010909799024,2.78639301743948,9.53380909061766,1.24253316889815,1.63850357943607,8.87131466899126,6.80070123028639,2.05439895748434,9.15951039647891,2.45872101961772,7.78203293579304,0.682460444586993,0.258819056220066
4.56754275082268,3.08913102100558,9.53744508442692,1.36503046821859,1.69756884714614,8.71428030661466,6.77993514354115,1.99548710167203,8.92127385808652,2.77103450626119,7.47019865793613,1.06672873427603,0.207799650655322
4.57086268770532,3.01599567877879,9.61944945484235,1.13385225054839,1.76101025151611,8.55223590650577,6.62166866983703,1.95952575395648,8.9380550200097,2.93957511115245,7.07462787024565,1.38538943225069,0.274261236551854
4.64414819956406,2.83254895126194,9.59265619935096,1.23349705576309,1.51637747590079,8.84117498920959,6.70844434214274,2.02575417412514,9.02472094456306,2.81041027349776,7.56479796648312,0.930688512882676,0.170478887632049
4.60991531922117,3.13717851278412,9.43732961990379,1.37123096944841,1.91365635200911,8.56200663123739,6.63374293003839,2.10119894493271,8.79279599339543,2.83241464055231,7.06969373978099,1.36380321950111,0.430947587615644
4.77504069089615,2.59510837649112,9.62638009005228,1.00032754416338,1.60551324092937,8.85292947053077,6.71281769978281,2.02425614866935,9.31224837646762,2.49658338689487,7.67761905435873,0.73176314851108,0.25395261516676
4.56657883704038,3.08779597836406,9.52085166135862,1.38645289219438,1.68157591450841,8.73755822135529,6.77453269462527,2.00408780261967,8.91571208251201,2.76076944023435,7.50516017177992,1.03927928575769,0.205324624566583
4.58632075570348,3.08459906732428,9.55027673218682,1.24320646271454,1.77818588642575,8.60923834013697,6.65042135066594,2.00261062451862,8.90759969871061,2.86708586027392,7.18120566443584,1.29298751454084,0.282044645483255
4.61693135070152,2.61509329955786,9.60769249385454,0.956829247732134,1.47440004603761,8.67326223194804,6.44390586800219,2.0709140780521,9.1289322219714,3.05768481717752,7.31279971728964,1.21495381764365,0.259387803406984
4.61175892627182,3.12819508307286,9.4421286353435,1.35881939162074,1.91335899747125,8.55258854380728,6.6271616293629,2.09951742598754,8.79504038716528,2.84236810862321,7.05089401180995,1.37671862532282,0.433436781916489
4.71294383147534,2.86746885110667,9.48750221772805,1.35877289840281,1.6526575728368,8.89796977853226,6.83688185339521,2.06753531038064,9.10470826567184,2.43002392080482,7.83962293311116,0.654563687221069,0.259640227270306
4.571952606857,3.08660288365152,9.55035645156877,1.34144560255567,1.7083015982212,8.69439522999907,6.76952741499997,1.99006637467415,8.92888845035369,2.78789077457191,7.43253250383233,1.09980187605987,0.207616944532806
4.57507219264064,3.05683903027395,9.58137896707714,1.15468947370804,1.79505378840844,8.53070923421808,6.61954224311397,1.98472147918492,8.89062266574665,2.94117726534572,7.04115196085033,1.39419645666593,0.307278628848381
4.64846545328745,2.71980500822149,9.61988607948641,1.00498274676668,1.52446084085465,8.74867158459003,6.57184957803685,2.02036666890857,9.06162431245611,2.93142128449642,7.34624017931982,1.08669660965751,0.227595736790083
4.60936844746696,3.12525045822861,9.43368764980063,1.36174656126982,1.93262624168013,8.55242124664632,6.59725997266846,2.11390843143559,8.7917067078214,2.85679344050456,7.00918501568233,1.42125256898405,0.453011491765483
4.77394110647501,2.68554135765722,9.6158162513292,1.05923144180977,1.66804758764223,8.81088708633286,6.74905977587475,2.02433258540351,9.26696050196396,2.48825798155914,7.64377202697457,0.771270398940212,0.265471879239971
4.56950596718042,3.08956470043808,9.56268690869995,1.33109378790514,1.71626169486894,8.68128499423688,6.78051990173732,1.9817908645932,8.9328799393688,2.79075116145339,7.41941689938416,1.1094946948821,0.206373747188096
4.59321914019944,3.13478535073408,9.49534016729361,1.37343616424482,1.77730291439877,8.7041874404755,6.72407278638637,2.01685955084952,8.88758155790583,2.74176505577571,7.35910637162025,1.13739004535548,0.278479932272431
4.5979783036982,2.95032084454275,9.41840231453476,1.51880367080237,1.50396328739677,9.01149061590607,6.80040742048995,2.09434545251059,8.94930935980583,2.57988114991546,7.95146719348968,0.633630505441668,0.200736729041923
4.61155816932026,3.12701371533619,9.43449176757628,1.36175733539591,1.93113063828237,8.55345914383243,6.5993569541162,2.1119222321883,8.78973647156668,2.85506097147358,7.0118325700305,1.41700011241016,0.45256902555991
4.71428881434022,2.84439107874406,9.49770471530606,1.33834109583944,1.63350507035488,8.91767370337768,6.83974219841233,2.06466618053602,9.12610500168842,2.41242678375028,7.88069482254611,0.61384328519894,0.249533982335984
4.57524783161656,3.08621508777713,9.53685739042216,1.37104954605433,1.7030662463555,8.7109344021613,6.79315701416894,1.99713090906764,8.92855064565489,2.75213060721393,7.48640165702304,1.04820264872438,0.209597745237784
4.60247507093016,3.22458078491357,9.43838555503632,1.44443275380728,1.86151701913712,8.61176258703952,6.78400302016304,2.05860597263077,8.78637657885986,2.71983852436807,7.32145335744093,1.14062293541297,0.346696326898183
4.59682008698787,2.95405811949672,9.41851742359168,1.52068507112349,1.50122194474924,9.01156536782296,6.80474604129667,2.0923066149551,8.94762634139195,2.57950445675371,7.95656460440102,0.628568150505642,0.197409488481778
4.61449104295539,3.1360485445785,9.45941191144151,1.33351259599753,1.90434477624628,8.54070325392254,6.6436726449705,2.08001370661609,8.79993302944822,2.84655407469491,7.05742658853327,1.36413440575811,0.413918756112366
4.70424558159004,2.83729885823374,9.5077249216446,1.34951235331162,1.61951446738887,8.91880911867807,6.83751599152943,2.05651834461659,9.13804631495066,2.41992424785325,7.88082426822334,0.625160375471395,0.23660111705845
4.56936716673824,3.08390591971591,9.56204866526796,1.32154445165258,1.71223855111604,8.67746768563499,6.7718450407811,1.98226503394647,8.93111818590971,2.80354496502389,7.40787025632303,1.11772270493622,0.20564093682158
4.45539794723216,3.1683455915301,9.61499154709998,1.39055006939567,1.68188406859583,8.85502298239692,6.72416898823119,1.90956793940033,9.05223939858531,2.6860682828683,7.5168232948978,1.10038676877254,0.14587954122559
4.63648231854855,2.98044796524365,9.51740944860851,1.26953479942648,1.69387122934153,8.73072137738912,6.7176445648183,2.05307564217206,8.94063154515881,2.755790965587,7.44511573545898,1.0220546167425,0.283948473390922
4.62859873127269,3.11124610714212,9.45277713613985,1.28655689487883,1.91003365918412,8.53111894218501,6.60277577161021,2.03527997620693,8.83091377831733,2.84571127246704,7.0211946691074,1.38922319741458,0.429613046000689
4.70222563646208,2.84221895534832,9.49595814328075,1.33315058101315,1.62144738230112,8.90524124501496,6.82103735330504,2.06411347339175,9.10881137856929,2.4510378618886,7.84601460423925,0.647331289626488,0.248861848285662
4.55275053767261,3.00954949227176,9.65232833015943,1.13501224747816,1.70573932266936,8.59527350205924,6.70768279307674,1.93427885415628,8.97607673349421,2.93822888255887,7.20862188582478,1.27885445475402,0.196967332866292
4.57983573766471,3.15473253279142,9.46626372300232,1.58399385346563,1.69504559157531,8.85499784227839,6.86878497174945,2.02731644163918,8.92115859939663,2.55035270045884,7.76540467026708,0.841398156390886,0.20770673370321
4.61121581923531,2.8027051069818,9.51136357533272,1.33565639137435,1.50373786935896,8.93015655828072,6.6676267188441,2.10254228027306,9.03068497307153,2.75374420016247,7.70887948055601,0.870421570510381,0.212337761682872
4.62075042291896,3.06894618113663,9.46619685021387,1.25731832674949,1.95688233295905,8.4750652618635,6.52469398565989,2.11130498145454,8.80326797214149,2.94852268837027,6.82492988677075,1.56569544159439,0.484482804411839
4.71180118061286,2.84876799654342,9.5204893854764,1.27093184319625,1.67028604034479,8.83424185392939,6.79815336292398,2.05480270857904,9.10651287615098,2.49620100967895,7.71584360769817,0.74826570451615,0.271294427385306
4.57054668568708,3.07778619051052,9.57582707156184,1.29186709785675,1.72104315947617,8.65990545662018,6.75565804143274,1.97665209683723,8.93712843608439,2.82547027610723,7.36239561603467,1.15711906947075,0.20885746679626
4.57225133262013,3.08279335697394,9.607209104179,1.16053736523532,1.8239582087197,8.53398387204808,6.64908388515567,1.96401362924907,8.92177562729308,2.89451642546001,7.05669514094789,1.38698953652072,0.302360302587728
4.59945076436889,3.01681627186662,9.40646179924433,1.54803624373567,1.56014012560575,9.0012213982925,6.82259937174506,2.09274861956731,8.9289370744517,2.5519819101371,7.95349736976781,0.626990955712502,0.208193541288619
4.60239482658125,3.05512290310283,9.44588350028643,1.24001289598217,1.93985753690109,8.46389613084724,6.4910795423947,2.12016714645026,8.77182905523542,2.99106871267783,6.78379909934352,1.59277585807913,0.498447243576535
4.78270632912578,2.65063400901654,9.63722349741288,1.016041464747,1.53439369405807,8.86201878693139,6.87106098993453,1.95555819357855,9.28523573750148,2.41245760873692,7.9064122260525,0.486694058575702,0.165207836191549
4.56889211465287,3.1501362114738,9.50978708284405,1.44780012498924,1.72016550990096,8.71125226672704,6.82354925123419,2.00318896181411,8.88504017863244,2.72716632507291,7.51452668484276,1.03116035772941,0.213209420895183
4.58078462623732,3.17927448384166,9.39839038431381,1.55272118644132,1.73148341278542,8.76337836578888,6.82243023326632,2.07354591777111,8.80528368614077,2.64030465083782,7.58917190317128,0.934707764189705,0.292671080554788
4.67995852059175,2.67199601412181,9.69911961413361,0.906659295499765,1.53004390901021,8.73120399919179,6.56239159931107,2.01173831101405,9.1215434186053,2.98701216456767,7.28984216959532,1.13487672487964,0.208849689807276
4.61136862089675,3.19504948014694,9.44450304161401,1.4293705601344,1.85137576500063,8.60573405634501,6.78331758917906,2.05551259198756,8.79620576012258,2.71806263868367,7.31642454176026,1.1311035787694,0.351983140102983
4.76841119427523,2.60861557428674,9.6490035498344,0.972255131831969,1.60409691872076,8.81380666093409,6.68412767332477,2.00808601807239,9.29536123588137,2.56958647103151,7.58769498140367,0.828269279899598,0.24362263945377
4.49463261497838,3.16409542581819,9.51860778882257,1.4604526182245,1.68781182522115,8.64524344275518,6.77105294018972,1.99182311738206,8.8450894909125,2.88329740136999,7.38102044514587,1.19734899805922,0.187266561729434
4.59943213090642,3.22536362026952,9.44453656877863,1.44285877515841,1.8577611209553,8.61880515286157,6.78416811505431,2.05219708445919,8.79410678470545,2.71578797181025,7.32682612408174,1.13762449501008,0.341507936384724
4.60844800484021,3.33957341658782,9.2331225237707,2.10616542043141,1.66210999261372,9.13072770414053,7.11596684331808,2.1345888488055,8.82476384319224,2.1776482167663,8.40434314377634,0.320580501179388,0.187600114771507
4.60224667171143,3.1651885509738,9.42271144330185,1.42879001095924,1.87808536099463,8.61539663141929,6.69007978046364,2.09530525142176,8.79050544512675,2.773078686735,7.21175943764235,1.24741364689167,0.396243520893392
4.73396546128113,2.63900801883526,9.63256834550953,1.00654398064355,1.59846786312371,8.81118043218839,6.65377489392141,2.01616452762875,9.25865686742326,2.62424997546261,7.5569153587683,0.876970507129806,0.235088083362456
4.52979633761613,2.99647482266751,9.69123737078261,1.05210560228848,1.71027023475657,8.46948583376145,6.56677363413083,1.91999983801027,8.95154729174316,3.16930057557741,6.91889041356824,1.57628473865917,0.180120419733878
4.59067936209426,3.30883843731295,9.33301033663752,1.70273470635549,1.80668812662495,8.75164356518125,6.91315399056564,2.10315181421386,8.72110504661896,2.55594641566448,7.67337188096642,0.863616567180259,0.317533988475363
4.77877986011564,3.24801402674638,9.23543542314694,1.50309476656563,2.06465111373685,8.52384047664789,6.61160979994344,2.14359321675076,8.71819175919789,2.69729254026383,7.13099600139007,1.15269426508721,0.497212133647419
4.63438387983512,3.15079194246472,9.55576130718319,1.26635870546439,1.79499136762544,8.69705276245429,6.74819666775552,1.95787793592882,8.94253213870388,2.74103728010657,7.27352049997296,1.10499962956218,0.205892438926015
4.70014575480356,2.87895785527251,9.49308766637089,1.35720230043113,1.64677320769905,8.90080611738743,6.83854657480338,2.06204580164739,9.1000171759834,2.4332838948888,7.84788687285702,0.65012239065814,0.252509510872452
4.56588140315303,2.88671344412256,9.74788703665234,0.919344304144222,1.71562554529141,8.44703989627972,6.55107115921795,1.90924779691458,9.03868955677911,3.15347463728913,6.86026150221927,1.58882582174362,0.20187310975757
4.60456981316076,3.25936670985604,9.36168570345749,1.75507312339229,1.740809197961,8.87297377800925,6.94745395462134,2.09185496627285,8.83182479363908,2.44999312676662,7.88654192237733,0.718857982431008,0.24509789921825
4.57352049280512,3.41420187889641,8.90006523577291,2.22870843042993,1.85325732216578,8.83923472240959,7.05685646959893,2.38289948312888,8.53128622847469,2.18915885412552,8.06458675617648,0.697765834618339,0.400782515695315
4.89033190660702,3.55944036834949,8.92282867856887,1.8507535031989,2.33149957734174,8.05172949577712,6.60542890618211,2.16044605367043,8.19461246576903,2.33309852064258,7.05241651211064,1.50897431048982,0.780036511286696
4.80628572740678,3.13416171259065,8.37832590215681,2.15741994067823,2.4790327622753,8.7818848221208,6.84205788483122,2.09487346022286,8.99561710961236,3.09772056639227,7.31181873470069,1.63319474517517,0.717480120826388
4.58640187661585,3.17870810936456,9.4895297818408,1.43592192045335,1.77236677378415,8.55504539741659,6.7594158174848,1.97117873134928,8.88962127118771,2.82380894709403,7.42603210370808,1.17945721088208,0.331471274246176
7.51087569083523,4.6807847123863,4.22166186279222,4.72448756971039,7.33530988191998,5.6943820524068,5.20460687888185,3.7362433810882,3.70996247859851,6.08557274380765,3.72175570875331,6.50668351230603,4.70295122978764
3.63172266049744,4.86700761827793,8.68863340815522,3.86281336126907,1.92495297266582,7.75189979261736,7.04737051493868,2.1324261060804,7.04802151063111,3.86230375354189,6.59884405296431,2.45716835644038,0.391839546405991
3.95248961322227,4.9682857546185,5.03320302438284,3.662910408359,4.66854116353099,6.31693805517026,4.23463596017939,1.30776008279263,9.25123954888977,6.32542242001867,7.74308490721226,4.04273180432489,1.92723529421472
6.48212444190325,3.57744920746738,6.38486344597354,2.16243562408973,3.49008741866709,5.44451737046437,6.89113146913158,2.86796979723115,5.18339847745441,2.86114603807949,6.36662127347619,3.20830144760837,3.41730038318182
3.44727079842368,4.2620187759355,8.16657171704834,4.98370940157555,2.35928841221895,7.03001801258036,7.52650137998976,1.53096544913591,6.43731023827677,4.3263568477069,5.10985339296647,3.97112689259265,0.418100447706236
