"fastcoef_sq","pref_flow_den","slowcoef_sq","soil_moist_max","soil2gw_max","fastcoef_lin","gwflow_coef","jh_coef","slowcoef_lin","sat_threshold","carea_max","smidx_coef","smidx_exp"
4.8318182163507,2.22367168578602,9.59100108228364,1.13285000202202,1.25532352452603,9.24876533251999,6.78565230937196,2.14670336611829,9.52485824801554,2.27987281214757,8.44989376838467,0.109297833017239,0.136756588330021
4.83241564159513,2.2240399562647,9.59200125595292,1.13064938458312,1.25689197408708,9.24900503344998,6.78549671809713,2.14647727658639,9.52561988584553,2.27997931368331,8.44702033361467,0.110540974056755,0.137294892113483
4.83295943300202,2.223703815452,9.5922676173733,1.12976711305467,1.25737986607512,9.24970537244425,6.78558766175756,2.14647080239998,9.5264321242263,2.27908747915776,8.44705492425434,0.109804980012546,0.137647429336768
4.8324642949048,2.22381260927,9.59232225159743,1.129749874223,1.25663384725018,9.24879510975208,6.78518395977816,2.14629545202128,9.52537163083095,2.28073729811571,8.44625697693891,0.110925681197512,0.137437650252358
4.83368063356345,2.22353947593083,9.59219563951996,1.12874474878555,1.25942768051314,9.25034208253769,6.78500409912575,2.14697336258971,9.52832118027256,2.27646795374777,8.44616528860143,0.109474859999642,0.138806470859309
4.83356280491927,2.22379927759291,9.59285913706107,1.12783584532347,1.25908938236424,9.2499703689219,6.78500125690697,2.14655600693398,9.52756863063916,2.27818370206115,8.4447424941757,0.110556907535966,0.138568801523983
4.83729887540441,2.2236671390263,9.59567323195893,1.11885463115408,1.26627688129126,9.25252854947987,6.78403096481283,2.14624115728171,9.53320706338036,2.27263321261177,8.43727833119717,0.110671246793163,0.142560530817836
4.83443630916594,2.22316621849556,9.59234274404379,1.12725471121499,1.26082466117716,9.250665405032,6.78473770104895,2.14703915171367,9.52962137000148,2.27526377933651,8.44502508329719,0.109430048548792,0.139663681019513
4.83452105870777,2.22385050792656,9.5936631874141,1.12537174489687,1.26084905000068,9.25044557479941,6.78481788314173,2.14630694120714,9.52878103636562,2.27704133427904,8.44264708349824,0.110699138954232,0.139577513271784
4.83453999010444,2.22382542748114,9.59344217255809,1.12566462213185,1.26106853762297,9.25049426993105,6.78479364749189,2.14645576613313,9.52903642833135,2.2765384803421,8.44290709249089,0.11053840430846,0.139660983225216
4.83461432269453,2.22405026053816,9.59492893435285,1.1242250784396,1.25950245266726,9.25099470104535,6.78556190562856,2.14547337646846,9.5276257076485,2.27888030445152,8.44263911252705,0.110261298426907,0.138926120730305
4.8348243906257,2.2238481071226,9.59379770965108,1.12484931035385,1.26147494025849,9.25072247849261,6.78479157704353,2.14633922858271,9.52932284034587,2.27636458726155,8.44228242834522,0.110556274763037,0.139891451230002
4.83485399985372,2.22350868004198,9.59329158316511,1.1249009778944,1.26156483575682,9.25021891158377,6.78439390378584,2.14642603526304,9.52942789454082,2.27593689856269,8.44243298286767,0.110471782027376,0.140312103010371
4.83548207268104,2.22280060685135,9.59381655674537,1.12480269602237,1.26111235581839,9.25231463766785,6.78554949853168,2.14650484402651,9.53046532962364,2.27545666834139,8.44433484387279,0.108544626075219,0.139645433611364
4.83515968510833,2.22386443348657,9.59423831913352,1.12386185667851,1.26204462055564,9.25105498165988,6.78473096497517,2.1462704596664,9.5297674726276,2.27613236290178,8.4414253838245,0.110673020558755,0.14017083104575
4.83904866611542,2.22372751638992,9.59676373134483,1.11490933171887,1.26967176794645,9.25347166483094,6.78370976378606,2.14597033367636,9.53568636131486,2.26983534789117,8.43406357763137,0.110557894176636,0.144491183942945
4.8385082931934,2.22371472983831,9.5976736432342,1.11438557635636,1.26758471560767,9.25312139678345,6.78389796754382,2.14533670019117,9.53383965148727,2.27316139771541,8.43363755928649,0.111348576563796,0.143503043402665
4.83524365401218,2.2238592102392,9.59415864131197,1.12372625505477,1.2622089402945,9.25089081208004,6.78470432567767,2.14620089922494,9.52981062580227,2.27592680583003,8.44133875538757,0.110633761241581,0.14033579624343
4.83529233968774,2.22387981365487,9.59439231765924,1.12338752772215,1.26220064965962,9.2509939750153,6.78471240053088,2.14613120063507,9.52978758681272,2.27615768370454,8.4410339652608,0.110745765038063,0.140315340033264
4.83562941530474,2.22389533357918,9.59450571756277,1.12298437711952,1.26309309373494,9.25152118939731,6.78467067133017,2.1463393005968,9.53065634213154,2.27510189352577,8.44069873520183,0.110556670797754,0.140646762360267
4.83574975582866,2.22396649697233,9.59501282414215,1.12210879045611,1.26303308084714,9.25154563912441,6.78467082586398,2.14606735499671,9.53043448558127,2.27576559123156,8.43989879885088,0.110877382352031,0.140673687728379
4.83719567730787,2.2240916186622,9.59699801165137,1.11732808078955,1.26491855768994,9.25218211200851,6.78454194389972,2.14514647392616,9.53142809766623,2.27563345855935,8.43600034897976,0.111430518861377,0.141935064573063
4.84661407155697,2.2236031795052,9.60263222824665,1.09692087137606,1.28310964212695,9.25841823241552,6.78263226761439,2.14459718136297,9.54604555593396,2.25938364260593,8.42011615414305,0.10992856679945,0.15205921608626
4.83942039096241,2.22386732688331,9.59980469706969,1.11000189705451,1.26823625949885,9.25330807643785,6.78377353095057,2.14423431789833,9.53371652975974,2.27485754639892,8.42978544461549,0.112520549406877,0.144118109489629
4.85799569823271,2.23574394525534,9.61260373784075,1.0640816100758,1.32008885377892,9.25811115062563,6.77888812951863,2.14040396906246,9.56092576255618,2.24195057296405,8.3741746152152,0.125675011628628,0.168406274808566
4.84592340714326,2.23126411015478,9.6043757698808,1.09246287458942,1.29230140992007,9.2540801929382,6.77928219666054,2.14453052793463,9.54257178898973,2.26539912428786,8.39997798652655,0.124900739568715,0.156122407975977
4.23694955190426,3.54556568667349,9.14667985656567,2.48106864784876,1.59809019525233,8.50326621954047,6.91541349997659,2.1372302430986,8.29150079966671,3.06946059966942,7.50981054541408,1.28583681034698,0.26902434552415
