"fastcoef_sq","pref_flow_den","slowcoef_sq","soil_moist_max","soil2gw_max","fastcoef_lin","gwflow_coef","jh_coef","slowcoef_lin","sat_threshold","carea_max","smidx_coef","smidx_exp"
4.81184550705387,2.2156812714669,9.53763491593288,1.20399449571964,1.22501362181363,9.19187009229215,6.78224138630107,2.14702242215836,9.49248313268281,2.27854190769792,8.51232577008556,0.100263777737166,0.13550487138896
4.81184550729426,2.21568127055838,9.53763491172984,1.20399449831454,1.22501362324307,9.1918700879674,6.78224138559516,2.1470224221681,9.49248313302161,2.27854190348717,8.51232577275402,0.100263776461222,0.135504873666892
4.8118455070945,2.21568127066685,9.53763491199869,1.20399449874373,1.22501362257981,9.1918700885004,6.78224138589847,2.14702242217186,9.49248313270849,2.27854190391382,8.51232577343762,0.100263776110386,0.135504873140448
4.81184550722459,2.21568127120973,9.53763491485225,1.2039944962777,1.22501362234944,9.1918700912609,6.78224138614602,2.1470224221641,9.49248313294249,2.27854190631172,8.51232577080467,0.100263777244952,0.135504872078544
4.81184550788645,2.2156812708021,9.53763491349622,1.2039944962632,1.22501362392412,9.19187009003607,6.78224138586339,2.14702242217377,9.49248313398006,2.27854190354063,8.51232577123203,0.1002637764264,0.135504873510657
4.81184550722412,2.2156812711143,9.53763491438345,1.2039944965944,1.22501362246676,9.19187009075827,6.78224138606062,2.14702242216438,9.49248313293705,2.27854190591816,8.51232577109389,0.100263777143862,0.13550487230662
4.81184550728211,2.21568127094485,9.53763491360604,1.20399449704895,1.22501362276305,9.19187008995663,6.78224138592445,2.14702242216595,9.49248313302178,2.27854190511061,8.51232577156295,0.100263776909639,0.135504872747448
4.81184550723486,2.21568127112205,9.53763491442558,1.20399449654341,1.22501362248372,9.19187009079971,6.78224138606203,2.14702242216408,9.49248313295517,2.27854190593268,8.51232577104262,0.10026377715894,0.135504872302883
4.81184550779447,2.21568127104001,9.53763491450627,1.20399449577913,1.22501362347161,9.19187009115188,6.78224138610049,2.14702242217232,9.49248313385183,2.2785419045503,8.51232577079839,0.100263776614513,0.135504872881815
4.81184550777051,2.21568127128709,9.5376349156939,1.20399449497235,1.2250136231577,9.1918700923786,6.78224138628878,2.14702242217003,9.49248313382637,2.27854190564373,8.5123257699906,0.100263776961468,0.135504872294908
4.81184539779505,2.21568119974571,9.53763447658238,1.20399494745673,1.22501352080713,9.19186958581267,6.782241314341,2.14702242145207,9.49248295237981,2.2785418073214,8.51232611917905,0.100263760902348,0.135504955785925
4.81184550839831,2.21568127123272,9.53763491597834,1.20399449396108,1.22501362423306,9.19187009296075,6.78224138634985,2.1470224221794,9.49248313483528,2.2785419042783,8.51232576954514,0.100263776433983,0.135504872860787
4.81184550752618,2.21568127084409,9.53763491331992,1.20399449691444,1.2250136232893,9.19187008974899,6.78224138586936,2.1470224221693,9.49248313341045,2.27854190425235,8.51232577161309,0.100263776635083,0.135504873165816
4.81184550866291,2.21568127094061,9.53763491474791,1.20399449440824,1.22501362506314,9.19187009172295,6.7822413861015,2.14702242218214,9.49248313525026,2.27854190259303,8.51232577009902,0.100263775989654,0.135504873779042
4.8118443804621,2.21568043618919,9.53762996467898,1.20399944704383,1.2250126762701,9.19186444427395,6.78224056845701,2.14702242396916,9.4924812829632,2.27854051781867,8.51232965487098,0.100263497493501,0.135505943002653
4.81184547690993,2.21568124846388,9.5376347808839,1.20399463035339,1.22501359673328,9.19186993893734,6.78224136422562,2.14702242228843,9.49248308322462,2.27854186808378,8.51232587667029,0.100263768893094,0.135504901082963
4.81184478554384,2.21568061614457,9.53763100450056,1.20399815619271,1.22501325970224,9.19186566892236,6.78224071862947,2.14702241677638,9.49248195406915,2.27854038608881,8.51232864648895,0.100263490011824,0.135505932549516
4.81184550223568,2.21568121741324,9.53763464337808,1.20399469022985,1.22501366695531,9.19186979753408,6.78224134369137,2.14702241550033,9.49248311156711,2.27854169345466,8.51232596057222,0.100263707318259,0.135504996003266
4.81184523958853,2.21568112403026,9.53763401184248,1.20399548541649,1.22501333091575,9.19186904228143,6.7822412376434,2.14702242721473,9.49248270030513,2.27854180653491,8.51232651895388,0.100263774698962,0.135504993976876
4.81184580091147,2.21568132274561,9.53763535459946,1.20399378390948,1.22501409473437,9.19187065902062,6.78224144570602,2.14702242226544,9.49248361407266,2.27854154487589,8.51232527973633,0.100263669121496,0.135505008329862
4.81184373846438,2.21567997871767,9.53762715105604,1.2040022031504,1.22501221028816,9.19186116609849,6.78224005955343,2.14702242243479,9.49248023384428,2.27853976263499,8.51233170001681,0.100263462602172,0.135506583379265
4.81184539283236,2.21568119679808,9.53763446247921,1.20399496383668,1.22501351702672,9.19186957119916,6.78224131072006,2.14702242348455,9.49248294753354,2.27854180710286,8.51232612917272,0.100263763536324,0.135504957078995
4.81184468791274,2.21568067090821,9.53763119989043,1.20399811928703,1.22501305581304,9.19186579728697,6.78224072947946,2.14702241787283,9.49248179715562,2.27854081849016,8.5123284947731,0.100263677667371,0.13550574194893
4.81185875719692,2.21568949743758,9.53767804502973,1.20394109167408,1.22503336705036,9.19191467160976,6.78224438178697,2.14702193339531,9.49250356924126,2.27855012006357,8.51227608434234,0.100273787769983,0.135503142112106
4.81187691087655,2.21570641762745,9.53778559057957,1.20384501877543,1.2250378871408,9.19203860202099,6.78226425207072,2.14702248837102,9.49253477592123,2.27859391516332,8.5122042739542,0.100278519158372,0.135470205171134
4.81165313058291,2.21560727544172,9.53707240307791,1.20474996525985,1.22471823295387,9.19129795460827,6.78222932247075,2.14702201233288,9.49216705515543,2.27845060477702,8.51303042931964,0.100107524091532,0.135501824599239
4.81161350093874,2.21681761245805,9.53781680120579,1.2045506308058,1.22629787800438,9.19175790746733,6.78266235856036,2.14670955743854,9.49169176254213,2.27925223246469,8.50958110517507,0.102213362697908,0.135801853990871
