"fastcoef_sq","pref_flow_den","slowcoef_sq","soil_moist_max","soil2gw_max","fastcoef_lin","gwflow_coef","jh_coef","slowcoef_lin","sat_threshold","carea_max","smidx_coef","smidx_exp"
0.372404937082997,9.84480588247287,7.55966545364052,9.61960998507857,2.15526796197362,3.60946261793394,6.81104836826352,2.05651737625512,1.38963809068486,9.23219019761918,0.717834461998012,9.55619780327999,0.268912837503153
6.8775153679603,6.59762015592384,2.87234632011871,1.1191357965808,5.31934980883653,0.228297063397291,8.37010862706661,8.85394430534078,4.2645336163821,3.52139488486906,0.401514416537902,3.62160721150059,0.388148363061344
5.36059158392316,4.05084105915032,1.53792297910125,2.36034325756121,2.96877008693934,1.54324602705128,6.69042085850626,6.93199045820735,3.8114932427502,2.86702069794568,0.88471843003665,5.53288985554862,3.97871420060501
4.96835709130485,6.10961251776235,4.3764758006558,2.85461195749161,4.11117789634208,1.5444429747786,5.09417461387756,7.45008526031046,6.03129126683804,5.29529315501273,0.392587072257621,2.51607968775785,2.3703419652018
7.7586330407793,7.67524195635439,5.04868483817484,2.84183831640272,2.71370124791627,2.77052650539085,8.43802272608323,6.74779211376457,4.23471768396042,4.24322437696673,0.250757208268951,5.39807456609794,1.24787113562496
4.05986524456493,4.10084555253542,2.55086224732478,3.81140953985311,3.52385918439755,5.02527013996951,5.23664215445403,7.46580920116001,4.82964309730765,1.90802862854072,0.462929295561209,2.68161094005423,3.325867528224
4.08322671324393,6.13905222756739,1.86378423868837,2.47363819917498,6.80646155092092,2.50826454408665,6.44540660907437,9.08461764488452,6.25331167818365,6.67512573845141,0.930336476614029,2.11947782836621,2.2890040653898
7.91909003326007,4.82745004418951,2.29909118963969,0.609567898290399,2.94092120555935,1.19535583427212,6.19311407841304,4.97210690020246,6.82240427816381,5.0046935426521,0.580278428764889,4.39049338616465,4.10006213207858
7.6514875628543,7.95281420570016,1.67115506584508,2.7985152187249,4.96881395259851,2.43884160983162,4.94030725091627,7.74639005912341,6.31688554794326,3.44513787890147,1.30098720036113,1.90363086535932,3.996604276952
6.20877686144085,7.71132153447625,5.91269356026686,4.10404410320537,1.80497657836228,2.94419512775109,6.85096452465516,6.45031402984892,7.48754117965319,0.631194505253415,0.99573197647697,8.0938993010362,1.98169021980207
1.08287573304114,5.17121507624363,1.79871295484676,0.51958909338578,1.63734803882906,1.78910920327677,2.36032515303229,3.38085816150561,4.11841754537726,3.70086232754404,9.52452930720732,7.71432654241082,4.39289324726787
2.09170874965982,0.412269167227766,6.78293094501449,3.21036584034513,8.21292321565131,4.56733497027898,5.33441744303386,3.88533088892689,5.87761359393149,8.65364311274173,4.53790962930688,4.624805218243,5.80566066975646
6.2186176844689,5.46696494664013,6.07175422583636,3.69688180472361,7.59959622616439,0.535790721700856,4.72246075762583,8.31433253092219,6.65433357711011,6.2016643876926,2.33767536600173,2.39370480514102,3.75256864926224
5.43815886737548,8.27464091464532,4.11479727546925,1.60975085193536,5.49118097464624,0.316576437370737,4.83352054064509,8.55712974454753,5.1874293869535,6.46801664335102,2.02301361258334,2.6105050718214,5.10992007669008
2.36326088462015,8.62275579510291,4.82742431135866,1.90923910205976,1.50271772904236,2.09258065323824,4.17975968763355,5.80158613342323,9.43644844645429,3.5972608550428,2.54850379481177,2.59260459602165,4.29366198923522
5.16417668373762,5.6554839864892,3.31177242966318,2.82737642979652,4.91013197625182,0.236580016234499,5.21008184179547,7.81248495448433,5.9586160292236,4.49994502348611,1.78436794314575,2.99159279583269,3.67575494522517
4.64177058967832,6.79646309545906,5.43571942742572,2.43262666573031,3.82924587160766,2.21242406125965,6.24866381822248,6.96516778368528,2.89805901122676,5.99291911417937,2.71230243843169,3.17167125253999,2.36284666269522
5.40828743322866,2.08396422653728,2.90833620623999,5.76684625547672,3.6041943610115,6.29022258794636,7.31108095210407,9.52811354926475,9.08247998172054,2.97931889035403,3.21730022284526,5.5436483736132,8.01493872004031
0.397713712105269,6.34166943500081,8.09893951288462,4.56687073750282,0.975332739489975,7.413720993461,3.15342183984468,7.09017562502549,7.05102322976231,7.01707465411035,3.69750526839242,3.50591049265544,1.45485564166115
3.7543114710501,3.91925293287365,8.34381191838145,9.26262026381767,2.47921507898459,9.50065851910675,4.40322808696877,1.80878945560678,8.53432932830889,1.93636076606739,9.25631652128002,0.53682661446906,2.38821337637584
8.05976142032997,7.85776423185939,3.48935581783658,3.26122260699643,4.11374666397346,3.47957626669618,7.79966864215689,7.00134550325999,7.05668413901729,6.34053366488102,3.66724921890295,3.9365768034354,1.28139617198707
6.51823361223321,8.64128597768912,3.97856947676402,0.993009676139342,4.21065363038257,7.15293063427827,6.33514676603055,2.98591517702602,8.04209987607313,8.7106981220314,9.76344492464487,7.81520950339051,8.30673045720198
3.13690103591383,4.79826890401822,0.851127094601133,3.59816647136745,5.54531431078208,1.33333850603265,5.07811088497396,8.06521064294405,8.40550698353725,5.13593762082919,4.16044930616547,5.84513899089512,2.96631126679002
5.97456513887962,6.07648867691163,2.20033051661655,8.08536028405999,6.48917834232095,1.3769232657919,0.985415237779083,4.01733729376938,0.557818029547625,9.57547065885202,6.8217929293084,6.2770559919256,9.2699671219231
5.28700862451996,5.75479155217776,0.249294132608223,8.64414546265932,8.45903751553974,8.04357008352739,7.12465686873645,2.37948812312055,7.68865237785076,7.68214839748648,3.82188185062304,8.48340000186776,3.96650545780894
4.54898636430161,4.04843037935156,0.981968704984623,6.66505112645724,7.7474877288163,5.85211679795214,4.69231286631672,1.37737263076253,7.62271976172587,9.80024075257268,7.77914667287211,5.62734478834224,6.81157495737588
4.2851950600846,1.05496943662849,5.97949109827189,7.66942125971299,3.88815328687532,7.12020225016997,9.76192859251362,0.104286425992101,6.4830553539766,2.46671346073152,4.86848468110975,4.11300043959672,1.00744264605297
