Water_Year,NSE_LSTM_PT_SACSMA_STATES_ENSEMBLE_10,KGE_LSTM_PT_SACSMA_STATES_ENSEMBLE_10,RR_LSTM_PT_SACSMA_STATES_ENSEMBLE_10,FHV_LSTM_PT_SACSMA_STATES_ENSEMBLE_10,FLV_LSTM_PT_SACSMA_STATES_ENSEMBLE_10,FMS_LSTM_PT_SACSMA_STATES_ENSEMBLE_10,FDCB_LSTM_PT_SACSMA_STATES_ENSEMBLE_10,FDCB_LT100_LSTM_PT_SACSMA_STATES_ENSEMBLE_10,FDCB_GT100_LSTM_PT_SACSMA_STATES_ENSEMBLE_10,MDFB_LSTM_PT_SACSMA_STATES_ENSEMBLE_10,NSE_PRMSuncal,KGE_PRMSuncal,RR_PRMSuncal,FHV_PRMSuncal,FLV_PRMSuncal,FMS_PRMSuncal,FDCB_PRMSuncal,FDCB_LT100_PRMSuncal,FDCB_GT100_PRMSuncal,MDFB_PRMSuncal,NSE_PRMScalib,KGE_PRMScalib,RR_PRMScalib,FHV_PRMScalib,FLV_PRMScalib,FMS_PRMScalib,FDCB_PRMScalib,FDCB_LT100_PRMScalib,FDCB_GT100_PRMScalib,MDFB_PRMScalib,NSE_SACSMAuncal,KGE_SACSMAuncal,RR_SACSMAuncal,FHV_SACSMAuncal,FLV_SACSMAuncal,FMS_SACSMAuncal,FDCB_SACSMAuncal,FDCB_LT100_SACSMAuncal,FDCB_GT100_SACSMAuncal,MDFB_SACSMAuncal,NSE_SACSMAcalib,KGE_SACSMAcalib,RR_SACSMAcalib,FHV_SACSMAcalib,FLV_SACSMAcalib,FMS_SACSMAcalib,FDCB_SACSMAcalib,FDCB_LT100_SACSMAcalib,FDCB_GT100_SACSMAcalib,MDFB_SACSMAcalib,NSE_IHACRESuncal,KGE_IHACRESuncal,RR_IHACRESuncal,FHV_IHACRESuncal,FLV_IHACRESuncal,FMS_IHACRESuncal,FDCB_IHACRESuncal,FDCB_LT100_IHACRESuncal,FDCB_GT100_IHACRESuncal,MDFB_IHACRESuncal,NSE_IHACREScalib,KGE_IHACREScalib,RR_IHACREScalib,FHV_IHACREScalib,FLV_IHACREScalib,FMS_IHACREScalib,FDCB_IHACREScalib,FDCB_LT100_IHACREScalib,FDCB_GT100_IHACREScalib,MDFB_IHACREScalib
1997,0.997617211106427,0.982221001841059,0.00566332076088215,-1.21384943338308,-187.644170594568,0.294013130717137,0.332468447261861,0.353943626553542,0.0412650160666745,0.461702983842977,-2.79265277690216,-1.32719392154842,1.75421476297229,99.4262360267439,24.6265332691386,-12.4665893077395,4.91811826548756,5.16457424620096,1.57617516701384,7.34259045821392,-0.243966175033773,-0.320767735472483,1.13246889007546,31.7989713082364,-153.675503138322,128.581827133607,1.15509362829531,1.1834213863881,0.7709692285571,3.2070449486316,0.0164032224246047,-0.176086814765153,1.09974287390807,-22.9351466999696,-169.210817997635,103.910564610014,1.29411277555522,1.33787554101521,0.700689675917735,3.362292764817,-0.358510779216222,-0.718630242820677,1.53889452889088,31.6941663231749,2.8321943718987,-3.41899152516932,3.89803206458086,4.09387554843242,1.24239442355374,4.46658579904418,-1.44291122363104,-1.51186295910166,2.25218607044091,58.1798415271793,-306.606165646571,67.9097048491529,2.53369429492408,2.59111189202271,1.7551116782666,6.50688782950956,-0.619833783883286,-0.626735778982628,1.31093729966411,59.8308845998911,67.8110079190367,-27.8524458386122,7.66941618611353,8.13595664019205,1.34312762880874,8.79025735062493
1998,0.995218501567514,0.965628124855495,0.0260767811505549,-1.18734161301637,-140.131145226144,5.08685008694811,0.347467052432145,0.385455406513864,0.03881167551818,0.479601920494987,-3.03925647585593,-1.47979893207473,1.90005457153325,87.18124211277,6.31235295809604,-4.2364921279873,4.01196894175377,4.27113353569168,1.90625661600825,8.67873133502635,-0.54515885828365,-0.638918786495252,1.41665696950346,24.6489681668487,-59.6496515338427,41.8141118286126,1.23626483764943,1.1671566893709,1.79776854241248,5.91417934252404,-0.657420036371784,-0.606700671533724,1.4508051644438,-8.37948020289304,-160.392242236085,-2.43079209762423,1.5060906749513,1.4712659210798,1.78904180015722,5.34428952857721,-0.865503918080718,-0.980456787337037,1.7490244669116,45.3075460767807,-5.4175342224867,8.5452945022199,2.42311693168232,2.44686768319566,2.23014207563644,3.17245653732569,-2.34785042584566,-2.07586882487035,2.82958575771413,59.8133729445222,-139.22935760188,-9.81982696004082,3.43940946426459,3.5239565949499,2.75246402744641,16.4152069957635,-1.56111653383836,-1.2947155787633,1.9401511552758,79.4640651249979,54.9888368118644,40.713567582327,5.0993651522335,5.4201655904162,2.49286159199907,5.91003161988813
1999,0.984289862327016,0.891952707511707,0.094090890140208,-6.98235345233362,-321.291380278548,10.2973155525649,0.364902846739005,0.379806619855725,0.0934972941924123,0.424378364333588,-4.10556749870153,-1.31783227921749,1.50312000981324,128.199154240222,37.3094377483957,-31.7693023274378,3.15231678357806,3.23589426323518,1.63032689087467,3.85501516162414,-0.138510306490022,0.220336646011757,0.572848906229624,-2.51949674676288,-171.019831338609,19.6826221412545,0.667595893862411,0.675761410830573,0.518897532231674,1.71361374510346,0.530007330920605,0.631965123506068,0.244370824049334,-46.9727344868183,-295.15809159002,-22.0406708430987,0.684040331433304,0.708713617450609,0.234726807118183,1.81428999970004,0.163016870688003,0.147119403409022,0.716035559970628,-7.28138368311801,19.1737948092403,-20.5020195881567,1.28306018394995,1.31560274609459,0.690442999631751,1.57422516487144,-4.08694442884706,-2.11859589982706,2.62126483655309,111.205190378757,-312.41586567312,-10.2587127767768,2.33221133884826,2.35122740471013,1.98591877104782,5.16931486953145,-0.824811967831702,-0.412552478163429,1.06686620720754,34.2233514076775,68.2485428427809,8.61756243218229,3.36853327165128,3.49516699676066,1.06246648808048,3.82414895013711
2000,0.995773848182996,0.982158289417181,0.0150561504368706,1.43275442908151,-147.516060796275,-0.216603207378817,0.417514914346663,0.44167120595523,0.0397983546490596,0.609222771635977,-9.59872862930136,-2.74995659105126,2.39736420498167,179.417845163157,-2.48404931456584,-37.1325539397377,6.88520774075191,7.1976254201698,2.00013129894492,11.3981657726606,-1.07111075449136,-0.704821188049945,1.33640039987935,37.0501048953138,-112.589614349311,75.3201266492521,1.08961240285429,1.09244154243775,1.04537494754936,4.55833533295867,0.365638221349183,0.0780511265299492,0.880604347838168,-35.200492914709,-200.228884008655,35.7014068359124,1.52677443929356,1.58935287740736,0.548275225150422,4.57879170028302,-0.372805854329505,-0.770263424071895,1.57869515636237,25.0171401673701,-34.9602610217464,-20.9242236394759,3.13780763192411,3.25303782516752,1.3360264284816,5.96477355406854,-4.02404010282892,-2.72100089832905,3.25029632725622,114.45844809112,-185.629158683555,3.96194312635838,5.2042786824384,5.38376513083038,2.39776330758185,13.1839028071608,-1.37204188019111,-1.08890936853235,1.66084959056795,72.50782212731,62.5611191140339,-71.8069683882283,7.03757764776256,7.37495051222244,1.76229285802618,10.2266904207889
2001,0.969312903247457,0.952022914760408,0.0155631939743802,-9.70920712130127,38.137173037511,-13.6761831390837,0.41301928337383,0.42154990303244,0.0755858835443365,1.02735223596469,-5.78345701767596,-2.19655771092194,2.18297368731154,183.946499551806,79.8970376230989,-41.6620440426033,21.9275031111835,22.4333302845004,1.9192282555345,30.4867404312783,0.250291144437513,0.157488494585051,0.707001061887348,6.64478699890842,25.4137657410664,9.31841557415414,1.05514082979119,1.07644901412615,0.212283760541318,6.65178459188894,0.460290545163574,0.212210761642825,0.749187360322246,-32.3376588719602,9.37598317502602,-9.33949180783515,1.80315008383944,1.84522185243172,0.138977903966821,7.09348820582802,0.610021795332828,0.408782403861602,0.530380706394859,-0.817628356083125,76.2884697006018,-37.1089672763682,6.43475032873864,6.59115584939262,0.248043067314545,10.0427741413069,-8.41765095838462,-4.64521232570624,5.12925160192014,143.878827129423,-18.2259770715988,-30.333814616464,9.83123570479464,10.0272726691711,2.07688466945888,28.7655118777642,-0.917708573802491,-0.66686958103262,1.19393026195501,81.9369042073035,91.9056887965606,-65.9218679759699,27.5628881387872,28.2292946612567,1.2028079166606,31.0389494795268
2002,0.954759566832669,0.901261034179014,0.0647594797996514,-12.7586321452148,51.2433567043009,37.3972840888538,0.452455855737948,0.458178309636256,0.110062364155841,1.96003543208142,-6.98245647129416,-2.70305745891581,2.91223640252479,132.846605458234,72.3677677137719,17.7341716120609,79.1377914751294,80.4221957663371,2.28760138453829,95.6673018946233,-0.804523442070647,-0.54453180426546,1.35888381756191,0.873897504501113,30.432212690514,40.8388487646262,1.12298396971824,1.13494112516267,0.407547502293407,7.47860252095855,-0.0304655340317876,-0.107822360979284,1.02777096460109,-36.4195418363231,20.4019634243319,33.3764371071513,1.09028451296944,1.10481881185575,0.220648962938479,6.68569966854366,-0.0310796930116282,-0.0248786144457289,0.886283861343637,-6.51689826587529,66.7244425054554,31.4336728366033,17.7608066974297,18.0512153476137,0.384689128087446,22.5071375790688,-12.0428815783959,-5.1892378178975,5.583442236271,126.665209568099,6.77410515383908,15.3544706173887,4.69015459184397,4.73784898404796,1.8364401249716,8.41459002216882,-0.451067989395687,-0.0667817704109275,0.769360591466545,7.15871869011348,92.5974375448923,39.7697681508871,95.3928641387973,96.9748910139451,0.734922775789006,110.357754087373
2003,0.983660070201486,0.949790329668844,0.0364112001823028,-4.70005617325615,30.3907786827503,92.5637828730403,0.373080391084134,0.389801973464309,0.0507254418663066,4.45220417165841,-3.54804445219658,-1.21237548691512,1.45582848211732,91.4439624545361,68.8371412428437,59.270249865044,48.1923215194486,50.6209162161428,1.37441264428654,75.7660016996175,0.0443716651835927,0.236402811951754,0.639361207577226,-24.8490526307015,13.3871671992288,269.504423211428,0.684208366063521,0.701677617522074,0.347440018501414,7.98179355372287,0.415864860718604,0.512281542584512,0.343962854910742,-45.4302241382086,-1.7117184990538,152.62927941719,0.848903617587729,0.879018241092601,0.26836059779937,11.9710239286416,0.452802601214993,0.570407625253173,0.337048700065434,-12.3534048722106,53.2209549850362,89.7849523256238,9.56291396975519,10.0394658271847,0.376053162642691,22.3358967575144,-4.344419757426,-2.68724528547516,3.2672663521276,100.562264709582,-12.9892384540126,167.782125906143,3.74812433354711,3.84040081799572,1.96923877223241,20.1825134953951,-0.219098069590524,0.0772491602066965,0.672428448810359,-1.42608083122477,81.7069038249374,137.687757248894,48.5709708941075,51.0539545856248,0.704563063190412,87.4009345941375
2004,0.992921014405471,0.957701952222742,0.0421130651164467,-1.92114418389343,16.1086399759296,-21.113426821217,0.366066569566924,0.373009565108222,0.0553675190938398,11.1563191694228,-5.29010612087924,-2.61180049785622,2.90060201600956,182.209332691541,64.8119824938463,-32.6915810217135,219.558334315624,224.404906329237,2.67423670644503,326.45384372181,0.0371197283556349,-0.273112183942393,1.15901335934163,23.7278144383964,37.4868348532626,37.2515504101798,1.70348892333077,1.72806769588688,0.603588851444773,89.6180204079853,0.417121628204067,-0.0518354181154093,1.00668777731688,-36.9839851159152,14.7368930902548,24.9740744945902,1.91072338090036,1.94723942508338,0.276630403710368,113.83054172993,0.193769648152559,-0.496505583525148,1.41107805570203,25.3590688858272,58.4490380934273,-30.7795181600304,65.9275492495528,67.3854672347351,0.685719412642493,90.1483847914416,-4.35578375647542,-3.73234692121968,4.40434295121852,122.583841270731,-0.260803351658006,10.1100096770641,5.14272366261394,5.21170652020986,2.05574078519657,20.9061843851091,-0.0391015504294618,-0.405313301384505,1.18675747174734,56.9726215868629,87.2496171025055,-63.5984572472028,221.626140603829,226.555104827566,1.05499159160791,276.33881350669
2005,0.988748345351425,0.977201968347409,0.00853921932448548,-2.72998056885105,0.759006830288868,11.7574140938218,0.34176620004449,0.366685162959922,0.0418486820980414,78.2067900292394,-3.17710481469331,-1.2319344083356,1.52628986902159,60.9301870369913,66.5659981184711,-23.4530469628231,245.038355280324,265.29047141308,1.28967182537761,1830.14388736435,0.174109402697221,0.0989595114845299,0.799043002252376,-12.5942329301985,15.9774158690079,34.0838241937921,1.12878121626756,1.17792925609181,0.537249451239913,1336.44395327577,0.553750571673458,0.48223090120684,0.418267502132525,-51.7671025869351,-7.77542163783061,-5.38414361901562,1.5575172030562,1.6631984094593,0.28556839741882,1956.82386598405,0.243519594198983,-0.0206430835274416,0.92297769950712,-9.35307602265155,54.9460011424307,-4.76627806674714,120.518566716613,130.462313297507,0.838473939418786,1137.25736698546,-3.98348704884075,-2.49557421718065,3.13464978250194,71.6483429378912,-27.8196943858136,-9.26181447688031,6.71769884504792,7.10140894524995,2.09947371047346,4272.70993555041,-0.415886547487511,-0.320254967907756,1.00834365237504,25.783703688747,79.2156101864099,57.5538867819725,125.484636596217,135.814748096996,1.15436603326646,163.148311808747
2006,0.985165408821572,0.959542185411015,0.0231410049784302,-3.02275853676754,-45.7655481178894,2.47608088978995,0.466154697647227,0.501552713294966,0.0560259646251479,0.789369418382869,-5.44816995062135,-1.87585258549165,2.10056320093759,103.030465468343,54.9770267743436,25.4045819598415,11.1347829203822,11.9069199129663,2.18864397182121,15.8554548592702,-1.07617504220322,-0.490918122688285,1.20627852838799,9.44774831120279,-5.32373927738534,73.0228657767056,0.937365889884738,0.910424612937338,1.24951309865461,2.97973808481845,-0.632122736780574,-0.287235702125289,1.10073845301894,-12.3815460233981,-28.4482643539754,43.1756997902737,1.02587130369394,1.02075707662971,1.08512579657603,3.10069040959027,-1.41206685786987,-0.882606724158835,1.56627555834006,43.7727532929315,31.0491732010664,18.7862394771378,5.72946466015958,6.08700778457996,1.5868960461855,10.3781633495449,-5.04578108676245,-2.40272768412031,2.88725481906184,81.8377113987039,-4.90749985150716,79.5081767511187,2.21631122962753,2.19914336518391,2.41522165904317,4.92547453165321,-1.82555268279393,-0.837811159357232,1.36001649901091,66.3084047956788,79.6351593544743,65.5600628737703,10.6833893246299,11.4627442180875,1.65362228319041,16.4823981029774
2007,0.978780073922094,0.949443383748398,0.018918593818701,-11.8452570987966,0.960874571492048,66.4351954827389,0.207793085836546,0.208990472890717,0.0997289041976134,40.9991341519892,-2.61631262916729,-1.94793321492741,2.42619462731891,124.142776256128,73.0992567101701,18.6948356278591,235.247785219859,237.836430552295,1.62254396755748,255.903703791114,0.526180723313128,0.330790864491187,0.631101347177491,-23.6333854094982,15.8310713864198,147.892142086514,1.0736066667143,1.08389212020914,0.145344488804422,39.3076961201605,0.464728995514403,-0.0690922443418898,1.02379149486884,-31.4473435464927,-8.23906460947606,138.392556164311,1.99689515341261,2.0154708595842,0.32043767142648,45.4033061494982,0.753906419118474,0.189709147207724,0.795096214309469,10.7630474899948,65.5791937161521,61.7116737950708,84.1033666028822,85.0324083137125,0.257352200445309,87.2612056942679,-5.84992206459592,-4.53284693688311,5.14155451731485,147.330409602381,-19.325356299396,93.5647247432328,6.17259411527266,6.22147835364351,1.76079160230384,12.5405376086508,0.106225759830878,-0.145770298880549,0.835028177069462,71.4265576309236,87.0663893159861,-61.8057930939813,255.882773914632,258.708477981408,0.862981888107316,262.102800922516
2008,0.993588912335573,0.960793123888003,0.0252439333304872,-4.25889132709246,27.6488130317282,-14.1351745268452,0.321351148058295,0.333445392144149,0.0567895586802297,3.8611411389088,-2.88553699090186,-1.61860681134314,2.03136409078472,103.135014122353,63.23940100156,-22.2536310687103,246.867854000085,258.08046563907,1.59197439726806,430.677201055046,0.383625010218658,0.122227124565176,0.804850132172259,-8.41374896970912,31.7723117394804,79.9998753505366,1.12771663586462,1.16299967784155,0.35590009261936,99.2494225536796,0.502341374451838,0.377550173977348,0.526201280660418,-51.5059764360452,21.1868922225449,49.4298048514564,1.1642356975967,1.204924024478,0.274178547068199,67.0645197225023,0.476233223388118,0.099751192084388,0.850120808173509,-17.5408226515478,38.950612597166,-12.2830084734322,33.710542311203,35.2298925519541,0.474755794772559,156.281570768499,-2.85110133651137,-2.42047880560942,3.05966164695356,92.4692060574594,2.13032905334287,28.880289091053,3.61551604209545,3.69652904493301,1.84335660502377,66.4902198286056,0.0380226865288753,-0.165318220748499,0.976338912458812,11.4946905821747,79.1297153027559,-69.6125446774127,168.990890676511,176.676206013808,0.874617673120112,385.335367308876
2009,0.993814994268097,0.924149428265596,0.0750394381891295,-2.11400797828721,11.0526983000943,-9.13860455319251,0.569833092071588,0.581616246595351,0.0440098214486542,8.52342558352963,-5.12456920549557,-2.62463656442679,3.07618650296357,128.777388761006,68.2156817035872,-25.532679384174,131.833871131636,134.740361962842,2.13171778907725,380.394595156096,-0.242445691681334,-0.447139716093982,1.35300942342731,-2.12006488840782,5.92061092749587,85.9620564856161,1.93730347968207,1.97099350216409,0.433886226421723,256.603898598947,0.319760741642091,-0.131861011691262,1.06648048446585,-36.7885108941449,-17.3235884047037,25.9186871660282,2.69068370427811,2.74388174910448,0.316720953901385,210.724842224821,0.181104093704982,-0.41770972843066,1.36024279586314,15.4645167512431,47.2869705857389,-15.0813722451138,23.8408415520857,24.3602612053412,0.66173952555691,58.2651821793626,-4.31698805378577,-4.3680922280168,5.11590771056101,108.355194808315,-21.1440313921101,26.8914338595279,8.27346019980167,8.41632932427521,1.89792552016987,56.6818160790651,-1.33002124709396,-1.26870541016063,1.97284909346778,85.1402723619074,82.7905651971645,-56.1704014960618,107.077212521182,109.443511036486,1.48114127573065,169.452919053491
2010,0.973140202713512,0.97017261242129,0.0238837354231007,-3.96635768559777,-67.7959012043487,-1.11220886497915,0.264072252753161,0.269625574854877,0.0853562505706541,2.05737576630139,-3.4835663511421,-1.67100649131399,2.02526226699871,142.101699984357,60.8892995151628,-31.8164181551513,9.79719154702326,10.0497965353805,1.66790373989097,37.2239821001859,0.0533018026305382,-0.00314935216752632,0.916268946516768,-6.32919196206956,-35.8286580299782,52.9509616448371,0.885722414966928,0.902847949162808,0.334591587208613,24.0996329734112,0.329451350685044,0.2831621280887,0.632227168587198,-43.094137413413,-69.9319826518624,-24.9837504973735,1.3144690966239,1.34842092392104,0.22183756360667,29.1200777178691,0.321036671654727,0.0520557207801304,0.862704418241296,5.97261057614346,49.2482594305538,-18.8010940821659,4.11443044852366,4.22752634848932,0.474798758719705,19.0148728658466,-7.86496502631819,-4.14061548565972,4.65940127571542,148.316661471937,-114.439372561162,-18.35327190118,6.23249783529619,6.36169777329292,2.07460892158343,69.267139091667,-0.986839467616287,-0.820719455316988,1.47534506425904,66.7391626904744,76.4328442632596,24.1008072549232,6.60252397962076,6.77241189657325,1.13522192496791,10.2212405937802
2011,0.994906466819957,0.954162812341845,0.0325235716831651,-4.10860381416955,-133.594489328751,-12.8717576545009,0.249978124374287,0.261913522685566,0.0544649329895336,0.602225612211743,-3.04303576113555,-1.43684528295648,1.89862433809803,62.9914694013119,36.9002962337498,-33.2546098047633,7.72859777490144,8.09130592798996,1.78709279097522,13.1706698570708,0.0259129304054175,-0.0691517155915233,0.976619841450725,-15.4292001591774,-133.720811427257,20.6916516705192,1.22695707505169,1.267124366149,0.568978592314775,8.34632733964095,0.200139610086869,0.158294457936394,0.749956797734545,-45.1422596325621,-171.592348975458,-11.8777839122968,1.64810828531039,1.7308457468839,0.292789867153761,8.39748253849389,-0.516793736115787,-0.451532271040815,1.23540476223312,22.4599656427532,-16.8577262889452,-22.753455865973,4.01977239204659,4.20961199241889,0.910018938328877,4.95255095838826,-2.42955579089726,-2.31895278048072,3.10938756937039,45.3606592025719,-226.367944798072,-18.8267942873281,5.95397644909536,6.21933694507544,1.60711880065988,24.50659358393,-0.422395646312262,-0.243442127042714,0.966280559456573,26.1782425453323,68.705148481964,15.192062821007,5.23424119733638,5.49724469193105,0.92599347635695,6.2666572311637
2012,0.934857808420096,0.831618790396741,0.105094711995294,-15.7576718838729,-63.788257636983,-4.43584441994504,0.479421652147357,0.48175299637997,0.0551170018116352,0.78510729020502,-2.15106544770554,-1.45518223241822,2.18989031873503,38.0408034368553,36.3562731920409,7.69805290812555,7.15110111772604,7.18550262193078,0.890027352463365,12.1251620653836,-0.58911204805067,-0.0394454643647084,0.823918850040112,-33.8018286823576,-93.3095089598717,70.6275835883262,0.902564232188482,0.906949605728011,0.104426247994294,4.77613646053771,-0.0425684404002875,-0.473934223793539,1.41629486468989,-33.9840602998916,-127.07411157345,68.7369800756538,2.20951443384993,2.21920803285345,0.445279415207778,5.18983420146162,0.452070478774479,0.303021341981463,0.638994128117569,-35.1416674632403,33.1747241675298,-2.95520658543735,2.62413589462333,2.63645986056739,0.381174092804316,4.50447233250607,-32.2118890275657,-9.44446277015258,9.32046636268182,267.405421145908,-186.869863506957,65.5903678675657,9.06622445125636,9.10202121032413,2.55121430092194,20.0279526256821,-3.02810912208512,-1.48163473559108,1.94177832387365,88.3797793410625,81.8351277601149,-74.1956342213318,8.04488550696381,8.08349019299399,1.01883264947127,9.69944949571575
2013,0.996060256560366,0.905607052971899,0.0943452873170512,-1.73787847349467,3.74150896737155,2.77257241165814,0.496569607684223,0.504177853715179,0.0413428868320207,8.65686807910691,-8.66535796422387,-4.55994146394429,4.82090426715714,276.016634498793,58.0506015327598,11.0268823092815,305.715613865038,310.76259190971,3.73809419219957,523.004711913209,-0.0295523385028953,-1.24870701830445,2.17629878911683,55.9299449551451,-2.24696710084418,145.614207113448,2.55174350595387,2.57914122905108,0.912446407304383,169.733453972862,0.0781470822666535,-0.793435851654347,1.7451216152719,-10.3794093915111,-22.8598840738405,45.9246618732143,2.92294614048667,2.96379547198437,0.478794472540716,199.565914553306,0.0242068791181429,-0.842132336768571,1.77274498314669,53.3088297337246,50.1167633365216,28.581738711222,68.1580648856954,69.2799226347362,1.03357623475151,102.687032324225,-5.51418950376999,-5.69680256020138,6.40957253398643,174.670322902927,-42.0696844552943,53.7027494408267,8.83231245152206,8.93232799687622,2.84804898783118,74.3798095846391,-0.186628293812891,-0.859232904256178,1.72539192398681,92.5893826620006,85.3750118410906,-50.6814543434146,288.095683560972,292.888290929157,1.3380093646056,344.239678280363
2014,0.16255025126566,-0.0393768922063429,0.459347054945574,-87.2094788217778,-Inf,-77.6931441409854,8.58457469612033,8.58457469612033,NaN,125.603669045888,-30.9554093636226,-10.2652740227617,9.99271207741372,499.196705073995,-Inf,-82.2172563575185,553.189647941318,553.189647941318,NaN,882.172418898436,-7.23019373096572,-4.86595102471693,5.43849004490785,131.673785886043,-Inf,-76.8847292877596,80.5262012094369,80.5262012094369,NaN,482.288971755547,-4.69697213520619,-5.74383304761371,6.54832850773793,132.224925357084,-Inf,-75.8419678700586,154.833593425799,154.833593425799,NaN,554.909180496362,-1.71139151116994,-2.1210861122986,2.90820322778296,136.682463481351,-Inf,-82.2342548270993,123.145582363871,123.145582363871,NaN,160.956029001481,-158.763920703738,-30.5915876104714,29.4790963500984,978.228562281417,-Inf,-63.6093939916422,228.839463859598,228.839463859598,NaN,640.609761932223,-0.629370606363463,-0.091425520081253,0.694058212738097,-30.7052141446845,-Inf,-94.0227308447048,217.014022337999,217.014022337999,NaN,311.328071289375
2015,0.560625052056713,0.127228794832598,0.707041477272559,51.8330460861617,-66.4064551491472,21.8032102092753,10.7059796768112,10.8435652168822,0.799820791699888,52.6711478838184,-20.2107564079396,-5.72841412459609,5.31376801077386,254.245686846686,27.1754422452383,6.65840069564555,431.672582240172,437.581041259296,6.26353286329007,1482.87859222896,-1.56330811944547,-1.60335161176765,2.3943724635612,51.2356280019001,-123.229799150045,161.452574379585,48.6882765372815,49.3401417266486,1.75398290284866,1213.1931925252,-0.461204126044882,-1.32462247190708,2.24756806824707,19.2444066100717,-179.182576526302,87.9494545113543,75.1657811732518,76.1990449537002,0.770788980965125,1055.50720282187,-0.870914831259461,-1.24397991595407,2.05822608523669,74.9223645031031,-8.31555354331444,91.0627213252418,108.867261539686,110.358018093889,1.53278963708453,260.606355264914,-13.9324145471609,-7.8068688009657,8.14210451291876,317.83382924792,-183.687956331984,77.2420552262335,117.741927088148,119.319214985904,4.17719844969369,3032.95322612837,-2.05862732280296,-1.21057361879205,1.77219029889806,115.906503600338,18.9567396740205,-39.4272846109537,191.744835961896,194.377615117766,2.18473673925078,211.102591461038
2016,0.760017991764799,0.586622068880484,0.249164095340604,-41.7296906271855,16.5713413743649,8.44870490260648,0.247605098402194,0.245990158038376,0.275543566696245,48.3757859163258,-2.96074231685302,-1.4779134078241,1.90186957989959,67.7019796479494,51.8908140571604,5.40876728145019,206.911305263985,218.77683229195,1.6376876801856,764.386562277474,0.029851245220974,-0.202771530885262,1.08317682492682,-2.70300372563842,28.3120616227561,90.7895991807696,1.5690554536641,1.62663038527519,0.573009136792235,691.629717411094,0.546023551123656,0.392392690625873,0.502505517514436,-46.8163335218639,5.99216059821132,73.5335276586967,1.07271417525931,1.11734209593715,0.300651147532771,606.960057816294,0.374491900951873,-0.182694811311077,1.10584040999245,15.4492595419814,18.0870382569919,-1.54152819286204,30.4763604945371,32.1962920583896,0.721544439889492,55.2866411385534,-2.90699123842873,-2.56606602369797,3.28741149089755,61.6002321509185,-0.676614439493878,31.204186191679,4.29980867940475,4.43183562346901,2.01574254709298,1414.99857885338,0.283089469744385,-0.130785540797616,0.994585595771642,26.6333262478575,64.4292358991982,85.2369579387902,72.832243359633,76.9892621579897,0.915818148061407,85.6684078433705
2017,0.59233670126838,0.252783591785903,0.494830167015107,-59.4275756216047,-58.6095268582863,22.6745240002854,0.557324052662041,0.57137404201772,0.424852724451361,1.00586611701006,-0.578947597917638,-0.416450440739242,1.05948905665679,46.0785282400537,43.6477943000459,-34.593240785908,9.99129221720064,10.9365742116746,1.07863341216057,23.3340405705935,0.614366449524462,0.375832671698151,0.586366731471854,-13.4861562758337,-32.7379478834964,29.7932089951986,0.737091671194404,0.72949488877931,0.808718476822431,12.9151044635853,0.352551542676958,0.366351037284745,0.519094211189369,-53.0288618289904,-62.3380891486856,1.54149738386523,0.98264616510461,0.978268352895743,1.02392268021679,18.2319552895519,0.487612109577998,0.181250021094802,0.781768887888248,-19.7976154760303,30.3276342797767,-18.1064022921993,6.20338931176589,6.70872580703852,1.438788070624,13.4702422606011,-0.0295291820257866,-0.728591190616844,1.65828983388874,1.60929464518161,-98.4150398912558,-14.4078740506526,2.73631231142078,2.83860087497678,1.77187728360704,41.3695300768896,0.346085923608519,-0.0293585793782005,0.926164945251322,7.22833467997823,59.5950802227918,23.6848712998201,8.4209675117216,9.1574108520859,1.47735887400109,11.8692535157175
2018,0.401931154982721,0.225485585934853,0.410358724255114,-69.3911340167097,13.4065162971579,23.8992530443706,0.679989885174584,0.682104134151109,0.42487050867391,0.88626607197042,-0.68293734506396,-0.822351401912487,1.67430070827361,-5.42141228948003,58.4453046402578,2.74541822089882,9.14646402199271,9.20809597715601,1.70954143228756,12.1385705213355,0.027520624406406,0.293349706973105,0.487203499826659,-58.9825557983861,-28.0271199031268,49.1337925213447,0.739665225804022,0.741776976690389,0.48484728551577,3.73301511391955,0.190610407668169,0.100393775937226,0.70732543997819,-59.8927335659153,-51.9462072609258,37.1166034013322,1.3677273833742,1.37598680931462,0.37108998656297,4.28072533575795,0.380476126206734,0.462423784867517,0.252237303609966,-57.1267643330512,52.7112293456699,-16.3156729742447,2.41616135317937,2.43389217979844,0.276641607811691,3.75037117399202,-9.92199607939907,-5.11868288365132,5.6210552495331,96.6432083097348,-75.9661786716424,62.1282048196611,4.6856618946458,4.70409586849456,2.46129571689545,11.6272189214721,0.198587001641189,0.0590239219788331,0.869477261111522,-9.66805899276562,76.6569102631094,-67.4623039479328,11.6120905963556,11.7011123201381,0.870135926601274,14.3275903762981
2019,0.808647007816734,0.719083329760639,0.151566415631847,-37.356867522175,-50.3679059930219,14.3193439191564,0.428164412544065,0.449237259529328,0.174537647042866,1.66597904076983,-4.0986042775336,-1.58055728890865,1.93907270597746,45.9078682527767,18.0557034899247,-25.0611781098216,9.8716302031032,10.5606291234861,1.57903605420847,18.0906045277355,-0.388825439373485,-0.25181492153344,1.08002587937572,-11.92692714399,-43.4352973552594,71.9984133130871,1.02599035600742,1.03149131796566,0.959782349581499,9.73064713129276,0.275625224914578,0.15445149866207,0.786591376420168,-42.8863276792844,-77.1009714066438,-10.3522425706666,1.26954681019963,1.32605780627006,0.589396607494914,9.3289303477305,-0.244189332736338,-0.544088574811534,1.36567041314218,22.9206848170881,-9.87948858091443,-30.2809034760662,4.42850407546692,4.68780063526723,1.30768476644179,6.05117731615007,-2.68279223643562,-2.18674908036897,2.92461058488733,54.4634362748634,-86.5273702668755,0.891000650420418,3.87807262455833,4.04363491898625,1.88541215233655,18.5303636608856,-0.660575714524114,-0.641185146013657,1.36201036996713,39.0687572497542,57.9225844703287,31.3341502526814,8.17243575439123,8.73525880507813,1.39845832290965,12.0715501962362
2020,0.657065897802458,0.701723650572975,0.0146130559551965,-28.7199242745176,34.9502900478284,76.2498718336866,0.438577900220427,0.439902518082582,0.197497449308206,3.31436377296756,-3.98273046653503,-3.51231545436611,4.24437194555078,102.579039197533,78.794814879263,74.2721345098852,145.63265633326,146.426510341847,1.15122677047211,162.209253045861,-0.730064628348703,-1.02224076254973,1.91624747851602,-4.31945312677751,38.5180198205106,170.660394801824,1.81276780485618,1.82152503845818,0.218951289292309,4.36720437927422,-0.272930397966706,-1.13819358251252,2.07894115816758,-26.2502623099276,20.8715127853326,152.521880966663,2.41152692880243,2.42250544977863,0.413436111133407,4.17092834214364,0.0200685526815555,-0.725258737617312,1.68106367266119,-5.44983972029678,73.0312196396554,62.6598833984579,55.3654249168486,55.6676332105598,0.363515461415978,61.1271793224376,-15.7248049070468,-8.17544914572631,8.61129857174559,229.131618163921,4.03934159437478,168.501982022274,6.78780374874074,6.81351110576885,2.10906476962481,12.9110095248452,-0.99904533926263,-0.671917474691754,1.37774057442627,29.5817786352933,89.0964131206382,-52.3416897301308,143.714511607413,144.499109476379,0.917699455601218,145.59088012341
